 ,0,1,2,3,4,5,6,7,8,9,10,11,12,13,14,15,16
 ,s32,s32,s32,s32,s32,s32,s32,s32,s32,s32,s32,s32,s32,s32,s32,s32,s32
1,101,1,0,2528,3008,1,1,1,0,0,4600,4600,5501,5501,5501,0,0
2,101,2,0,0,0,4,101,101,0,0,2560,2048,5501,5501,5501,0,0
3,101,3,0,0,0,1,201,201,0,0,1536,1024,5501,5501,5501,0,0
4,101,3,1,0,0,4,301,301,0,0,2560,2048,5501,5501,5501,0,0
5,101,3,2,0,0,4,301,-1,0,0,0,0,5501,5501,5501,0,0
6,101,3,3,0,0,4,201,-1,0,0,0,0,5501,5501,5501,0,0
7,101,101,0,2528,3008,1,1001,1001,0,0,4600,4600,1001,1005,5501,2560,2977
8,101,101,11,2528,3008,1,1001,1001,0,0,4600,4600,1001,1015,5501,3109,3034
9,101,101,21,2528,3008,1,1001,1001,0,0,4600,4600,1001,1016,5501,3437,3779
10,101,101,41,2528,3008,1,1001,1001,0,0,4600,4600,1001,1017,5501,2841,3565
11,101,102,0,2528,3008,1,1001,1001,0,0,4600,4600,1002,1006,5501,1536,1887
12,101,102,22,2528,3008,1,1001,1001,0,0,4600,4600,1002,1006,5501,0,0
13,101,102,21,2528,3008,1,1001,1001,0,0,4600,4600,1002,1019,5501,1892,1721
14,101,102,31,2528,3008,1,1001,1001,0,0,4600,4600,1002,1007,5501,639,1629
15,101,102,11,2528,3008,1,1001,1001,0,0,4600,4600,1002,1021,5501,510,2245
16,101,103,0,2528,3008,1,1001,1001,0,0,4600,4600,1003,1008,5501,3656,2082
17,101,103,41,2528,3008,1,1001,1001,0,0,4600,4600,1003,1008,5501,0,0
18,101,103,31,2528,3008,1,1001,1001,0,0,4600,4600,1003,1023,5501,4131,2564
19,101,103,21,2528,3008,1,1001,1001,0,0,4600,4600,1003,1024,5501,4050,2339
20,101,103,11,2528,3008,1,1001,1001,0,0,4600,4600,1003,1025,5501,3938,1408
21,101,104,0,2528,3008,1,1001,1001,0,0,4600,4600,1004,1009,5501,2244,732
22,101,104,20,2528,3008,1,1001,1001,0,0,4600,4600,1004,1027,5501,2403,1527
23,101,104,30,2528,3008,1,1001,1001,0,0,4600,4600,1004,1028,5501,2208,1182
24,101,104,40,2528,3008,1,1001,1001,0,0,4600,4600,1004,1029,5501,1659,795
25,101,102,60,2528,3008,1,1001,1001,0,0,4600,4600,1002,1030,5501,0,0
26,101,103,70,2528,3008,1,1001,1001,0,0,4600,4600,1003,1031,5501,0,0
27,101,105,10,0,0,1,1031,-1,0,0,2560,2560,5501,5501,5501,0,0
28,101,105,20,-2400,-32,1,1031,-1,0,0,1536,1024,1011,5501,5501,768,512
29,101,105,30,-1248,-928,1,1036,-1,0,0,1536,1024,1012,5501,5501,768,512
30,101,111,0,2400,2176,2,1051,-1,0,0,2560,2048,1101,5501,5501,1280,1024
31,101,111,11,2400,2176,2,1051,-1,0,0,2560,2048,1101,1107,5501,0,0
32,101,111,12,2400,2176,2,1051,-1,0,0,2560,2048,1101,1108,5501,0,0
33,101,111,13,2400,2176,2,1051,-1,0,0,2560,2048,1101,1110,5501,0,0
34,101,111,14,2400,2176,2,1051,-1,0,0,2560,2048,1101,1104,5501,0,0
35,101,111,15,2400,2176,2,1051,-1,0,0,2560,2048,1101,1102,5501,0,0
36,101,111,16,2400,2176,2,1051,-1,0,0,2560,2048,1101,1103,5501,0,0
37,101,111,17,2400,2176,2,1051,-1,0,0,2560,2048,1101,1105,5501,0,0
38,101,111,18,2400,2176,2,1051,-1,0,0,2560,2048,1101,1109,5501,0,0
39,101,111,19,2400,2176,2,1051,-1,0,0,2560,2048,1101,1106,5501,0,0
40,101,113,0,-640,1408,2,1056,1301,0,0,2560,2048,1113,5501,5501,1409,1075
41,101,113,11,-640,1408,2,1056,1301,0,0,2560,2048,1113,1120,5501,0,0
42,101,113,12,-640,1408,2,1056,1301,0,0,2560,2048,1113,1116,5501,0,0
43,101,113,13,-640,1408,2,1056,1301,0,0,2560,2048,1113,1115,5501,0,0
44,101,113,14,-640,1408,2,1056,1301,0,0,2560,2048,1113,1114,5501,0,0
45,101,113,15,-640,1408,2,1056,1301,0,0,2560,2048,1113,1119,5501,0,0
46,101,113,16,-640,1408,2,1056,1301,0,0,2560,2048,1113,1117,5501,0,0
47,101,115,0,192,1696,2,401,-1,0,0,2560,2048,5501,5501,5501,0,0
48,101,116,0,640,3712,2,401,-1,0,0,2560,2048,5501,5501,5501,0,0
49,101,116,1,384,3840,2,401,-1,0,0,2560,2048,5501,5501,5501,0,0
50,101,121,0,1216,320,2,1041,1701,0,0,2560,2048,1051,1081,5501,1632,1316
51,101,131,0,1216,320,2,1041,1701,0,0,2560,2048,1051,1081,5501,0,0
52,101,131,12,1216,320,2,1041,1701,0,0,2560,2048,1051,1081,1083,0,0
53,101,131,13,1216,320,2,1041,1701,0,0,2560,2048,1051,1081,1054,0,0
54,101,131,14,1216,320,2,1046,1751,0,0,2560,2048,1051,1080,1055,0,0
55,101,131,15,1216,320,2,1046,1751,0,0,2560,2048,1051,1080,1057,0,0
56,101,131,16,1216,320,2,1046,1751,0,0,2560,2048,1051,1080,1058,0,0
57,101,131,17,1216,320,2,1046,1751,0,0,2560,2048,1051,1080,1059,0,0
58,101,131,18,1216,320,2,1046,1751,0,0,2560,2048,1051,1080,1060,0,0
59,101,131,20,1216,320,2,1041,1701,0,0,2560,2048,1051,1081,1061,0,0
60,101,121,20,1216,320,2,1041,1701,0,0,2560,2048,1051,1081,1061,0,0
61,101,131,21,1216,320,2,1041,1701,0,0,2560,2048,1051,1081,1063,0,0
62,101,131,22,1216,320,2,1046,1751,0,0,2560,2048,1051,1080,1065,0,0
63,101,131,23,1216,320,2,1046,1751,0,0,2560,2048,1051,1080,1066,0,0
64,101,131,24,1216,320,2,1041,1701,0,0,2560,2048,1051,1081,1067,0,0
65,101,131,25,1216,320,2,1041,1701,0,0,2560,2048,1051,1081,1068,0,0
66,101,131,27,1216,320,2,1041,1701,0,0,2560,2048,1051,1081,1069,0,0
67,101,131,28,1216,320,2,1046,1751,0,0,2560,2048,1051,1080,1070,0,0
68,101,131,29,1216,320,2,1041,1701,0,0,2560,2048,1051,1081,1082,0,0
69,101,131,30,1216,320,2,1046,1751,0,0,2560,2048,1051,1080,1084,0,0
70,101,131,31,1216,320,2,1046,1751,0,0,2560,2048,1051,1080,1086,0,0
71,101,131,32,1216,320,2,1046,1751,0,0,2560,2048,1051,1080,1085,0,0
72,101,131,33,1216,320,2,1041,1701,0,0,2560,2048,1051,1081,1052,0,0
73,101,121,50,1216,320,2,1046,1751,0,0,2560,2048,1051,1080,5501,1632,1316
74,101,131,50,1216,320,2,1046,1751,0,0,2560,2048,1051,1080,5501,0,0
75,101,121,27,1216,320,2,1041,1701,0,0,2560,2048,1051,1081,1069,0,0
76,101,121,29,1216,320,2,1041,1701,0,0,2560,2048,1051,1081,1082,0,0
77,101,121,30,1216,320,2,1046,1751,0,0,2560,2048,1051,1080,1084,0,0
78,202,5001,0,32,-32,4,1061,-1,0,0,1536,1024,1051,1092,5501,768,512
79,104,401,0,2687,3072,1,1101,-1,0,0,5632,5632,5501,5501,5501,0,0
80,104,401,20,2687,3072,1,1101,-1,0,0,5632,5632,5501,5501,5501,0,0
81,104,401,30,2687,3072,1,1101,-1,0,0,5632,5632,5501,5501,5501,0,0
82,104,401,40,2687,3072,1,1101,-1,0,0,5632,5632,5501,5501,5501,0,0
83,104,402,0,2687,3072,1,1101,-1,0,0,5632,5632,5501,5501,5501,0,0
84,104,402,20,2687,3072,1,1101,-1,0,0,5632,5632,5501,5501,5501,0,0
85,104,402,30,2687,3072,1,1101,-1,0,0,5632,5632,5501,5501,5501,0,0
86,104,402,40,2687,3072,1,1101,-1,0,0,5632,5632,5501,5501,5501,0,0
87,104,403,0,2687,3072,1,1101,-1,0,0,5632,5632,5501,5501,5501,0,0
88,104,403,20,2687,3072,1,1101,-1,0,0,5632,5632,5501,5501,5501,0,0
89,104,403,30,2687,3072,1,1101,-1,0,0,5632,5632,5501,5501,5501,0,0
90,104,403,40,2687,3072,1,1101,-1,0,0,5632,5632,5501,5501,5501,0,0
91,104,404,0,2687,3072,1,1101,-1,0,0,5632,5632,5501,5501,5501,0,0
92,104,404,20,2687,3072,1,1101,-1,0,0,5632,5632,5501,5501,5501,0,0
93,104,404,30,2687,3072,1,1101,-1,0,0,5632,5632,5501,5501,5501,0,0
94,104,404,40,2687,3072,1,1101,-1,0,0,5632,5632,5501,5501,5501,0,0
95,104,405,0,2687,3072,1,1101,-1,0,0,5632,5632,5501,5501,5501,0,0
96,104,405,20,2687,3072,1,1101,-1,0,0,5632,5632,5501,5501,5501,0,0
97,104,405,30,2687,3072,1,1101,-1,0,0,5632,5632,5501,5501,5501,0,0
98,104,405,40,2687,3072,1,1101,-1,0,0,5632,5632,5501,5501,5501,0,0
99,104,405,50,-1696,-1696,1,1111,-1,0,0,1536,1024,5501,5501,5501,0,0
100,104,402,60,2687,3072,1,1101,-1,0,0,5632,5632,5501,5501,5501,0,0
101,104,403,70,2687,3072,1,1101,-1,0,0,5632,5632,5501,5501,5501,0,0
102,104,412,0,544,1888,2,1126,-1,0,0,2560,2048,5501,5501,5501,0,0
103,104,412,11,544,1888,2,1126,-1,0,0,2560,2048,5501,5501,5501,0,0
104,104,412,12,544,1888,2,1126,-1,0,0,2560,2048,5501,5501,5501,0,0
105,104,412,13,544,1888,2,1126,-1,0,0,2560,2048,5501,5501,5501,0,0
106,104,412,14,544,1888,2,1126,-1,0,0,2560,2048,5501,5501,5501,0,0
107,104,412,15,544,1888,2,1126,-1,0,0,2560,2048,5501,5501,5501,0,0
108,104,412,16,544,1888,2,1126,-1,0,0,2560,2048,5501,5501,5501,0,0
109,104,412,17,544,1888,2,1126,-1,0,0,2560,2048,5501,5501,5501,0,0
110,104,412,18,544,1888,2,1126,-1,0,0,2560,2048,5501,5501,5501,0,0
111,104,412,19,544,1888,2,1126,-1,0,0,2560,2048,5501,5501,5501,0,0
112,104,414,0,1056,544,2,1131,-1,0,0,2560,2048,5501,5501,5501,0,0
113,104,414,20,1056,544,2,1136,-1,0,0,2560,2048,5501,5501,5501,0,0
114,104,414,11,1056,544,2,1131,-1,0,0,2560,2048,5501,5501,5501,0,0
115,104,414,12,1056,544,2,1131,-1,0,0,2560,2048,5501,5501,5501,0,0
116,104,414,13,1056,544,2,1131,-1,0,0,2560,2048,5501,5501,5501,0,0
117,104,414,14,1056,544,2,1136,-1,0,0,2560,2048,5501,5501,5501,0,0
118,104,414,15,1056,544,2,1136,-1,0,0,2560,2048,5501,5501,5501,0,0
119,104,414,16,1056,544,2,1136,-1,0,0,2560,2048,5501,5501,5501,0,0
120,104,414,17,1056,544,2,1136,-1,0,0,2560,2048,5501,5501,5501,0,0
121,104,421,0,736,352,2,1116,-1,0,0,2560,2048,5501,5501,5501,0,0
122,104,431,0,736,352,2,1116,-1,0,0,2560,2048,5501,5501,5501,0,0
123,104,421,50,736,352,2,1121,-1,0,0,2560,2048,5501,5501,5501,0,0
124,104,431,50,736,352,2,1121,-1,0,0,2560,2048,5501,5501,5501,0,0
125,104,421,11,736,352,2,1116,-1,0,0,2560,2048,5501,5501,5501,0,0
126,104,421,12,736,352,2,1116,-1,0,0,2560,2048,5501,5501,5501,0,0
127,104,421,13,736,352,2,1116,-1,0,0,2560,2048,5501,5501,5501,0,0
128,104,431,14,736,352,2,1116,-1,0,0,2560,2048,5501,5501,5501,0,0
129,104,431,15,736,352,2,1116,-1,0,0,2560,2048,5501,5501,5501,0,0
130,104,431,16,736,352,2,1116,-1,0,0,2560,2048,5501,5501,5501,0,0
131,104,421,17,736,352,2,1121,-1,0,0,2560,2048,5501,5501,5501,0,0
132,104,431,18,736,352,2,1116,-1,0,0,2560,2048,5501,5501,5501,0,0
133,104,421,19,736,352,2,1121,-1,0,0,2560,2048,5501,5501,5501,0,0
134,104,431,20,736,352,2,1116,-1,0,0,2560,2048,5501,5501,5501,0,0
135,104,431,21,736,352,2,1116,-1,0,0,2560,2048,5501,5501,5501,0,0
136,104,431,22,736,352,2,1121,-1,0,0,2560,2048,5501,5501,5501,0,0
137,104,431,23,736,352,2,1121,-1,0,0,2560,2048,5501,5501,5501,0,0
138,104,421,23,736,352,2,1121,-1,0,0,2560,2048,5501,5501,5501,0,0
139,104,421,24,736,352,2,1116,-1,0,0,2560,2048,5501,5501,5501,0,0
140,104,431,25,736,352,2,1116,-1,0,0,2560,2048,5501,5501,5501,0,0
141,104,421,26,736,352,2,1116,-1,0,0,2560,2048,5501,5501,5501,0,0
142,104,431,27,736,352,2,1116,-1,0,0,2560,2048,5501,5501,5501,0,0
143,104,421,28,736,352,2,1116,-1,0,0,2560,2048,5501,5501,5501,0,0
144,104,421,29,736,352,2,1116,-1,0,0,2560,2048,5501,5501,5501,0,0
145,104,431,30,736,352,2,1116,-1,0,0,2560,2048,5501,5501,5501,0,0
146,104,421,30,736,352,2,1116,-1,0,0,2560,2048,5501,5501,5501,0,0
147,104,421,31,736,352,2,1116,-1,0,0,2560,2048,5501,5501,5501,0,0
148,104,431,32,736,352,2,1116,-1,0,0,2560,2048,5501,5501,5501,0,0
149,104,421,33,736,352,2,1116,-1,0,0,2560,2048,5501,5501,5501,0,0
150,104,421,34,736,352,2,1116,-1,0,0,2560,2048,5501,5501,5501,0,0
151,104,421,35,736,352,2,1116,-1,0,0,2560,2048,5501,5501,5501,0,0
152,104,421,36,736,352,2,1116,-1,0,0,2560,2048,5501,5501,5501,0,0
153,104,421,37,736,352,2,1116,-1,0,0,2560,2048,5501,5501,5501,0,0
154,104,421,38,736,352,2,1116,-1,0,0,2560,2048,5501,5501,5501,0,0
155,104,421,39,736,352,2,1116,-1,0,0,2560,2048,5501,5501,5501,0,0
156,104,421,40,736,352,2,1121,-1,0,0,2560,2048,5501,5501,5501,0,0
157,104,401,100,736,352,2,1116,-1,0,0,2560,2048,5501,5501,5501,0,0
158,205,5011,0,32,-88,4,1141,-1,0,0,1536,1024,5501,5501,5501,0,0
159,103,301,0,3104,3808,1,1201,-1,0,0,6144,6144,5501,5501,5501,0,0
160,103,301,20,3104,3808,1,1201,-1,0,0,6144,6144,5501,5501,5501,0,0
161,103,301,30,3104,3808,1,1201,-1,0,0,6144,6144,5501,5501,5501,0,0
162,103,301,40,3104,3808,1,1201,-1,0,0,6144,6144,5501,5501,5501,0,0
163,103,302,0,3104,3808,1,1201,-1,0,0,6144,6144,5501,5501,5501,0,0
164,103,302,20,3104,3808,1,1201,-1,0,0,6144,6144,5501,5501,5501,0,0
165,103,302,30,3104,3808,1,1201,-1,0,0,6144,6144,5501,5501,5501,0,0
166,103,302,40,3104,3808,1,1201,-1,0,0,6144,6144,5501,5501,5501,0,0
167,103,303,0,3104,3808,1,1201,-1,0,0,6144,6144,5501,5501,5501,0,0
168,103,303,20,3104,3808,1,1201,-1,0,0,6144,6144,5501,5501,5501,0,0
169,103,303,30,3104,3808,1,1201,-1,0,0,6144,6144,5501,5501,5501,0,0
170,103,303,40,3104,3808,1,1201,-1,0,0,6144,6144,5501,5501,5501,0,0
171,103,304,0,3104,3808,1,1201,-1,0,0,6144,6144,5501,5501,5501,0,0
172,103,304,20,3104,3808,1,1201,-1,0,0,6144,6144,5501,5501,5501,0,0
173,103,304,30,3104,3808,1,1201,-1,0,0,6144,6144,5501,5501,5501,0,0
174,103,304,40,3104,3808,1,1201,-1,0,0,6144,6144,5501,5501,5501,0,0
175,103,305,0,3104,3808,1,1201,-1,0,0,6144,6144,5501,5501,5501,0,0
176,103,305,20,3104,3808,1,1201,-1,0,0,6144,6144,5501,5501,5501,0,0
177,103,305,30,3104,3808,1,1201,-1,0,0,6144,6144,5501,5501,5501,0,0
178,103,305,40,3104,3808,1,1201,-1,0,0,6144,6144,5501,5501,5501,0,0
179,103,303,60,3104,3808,1,1201,-1,0,0,6144,6144,5501,5501,5501,0,0
180,103,305,70,3104,3808,1,1201,-1,0,0,6144,6144,5501,5501,5501,0,0
181,103,311,0,1472,2688,2,1221,-1,0,0,2560,2048,5501,5501,5501,0,0
182,103,311,11,1472,2688,2,1221,-1,0,0,2560,2048,5501,5501,5501,0,0
183,103,311,12,1472,2688,2,1221,-1,0,0,2560,2048,5501,5501,5501,0,0
184,103,311,13,1472,2688,2,1221,-1,0,0,2560,2048,5501,5501,5501,0,0
185,103,311,14,1472,2688,2,1221,-1,0,0,2560,2048,5501,5501,5501,0,0
186,103,311,15,1472,2688,2,1221,-1,0,0,2560,2048,5501,5501,5501,0,0
187,103,311,16,1472,2688,2,1221,-1,0,0,2560,2048,5501,5501,5501,0,0
188,103,311,17,1472,2688,2,1221,-1,0,0,2560,2048,5501,5501,5501,0,0
189,103,311,18,1472,2688,2,1221,-1,0,0,2560,2048,5501,5501,5501,0,0
190,103,311,19,1472,2688,2,1221,-1,0,0,2560,2048,5501,5501,5501,0,0
191,103,311,20,1472,2688,2,1221,-1,0,0,2560,2048,5501,5501,5501,0,0
192,103,312,0,384,608,2,1226,-1,0,0,2560,2048,5501,5501,5501,0,0
193,103,312,20,384,608,2,1231,-1,0,0,2560,2048,5501,5501,5501,0,0
194,103,312,11,384,608,2,1226,-1,0,0,2560,2048,5501,5501,5501,0,0
195,103,312,12,384,608,2,1226,-1,0,0,2560,2048,5501,5501,5501,0,0
196,103,312,13,384,608,2,1231,-1,0,0,2560,2048,5501,5501,5501,0,0
197,103,312,14,384,608,2,1231,-1,0,0,2560,2048,5501,5501,5501,0,0
198,103,312,15,384,608,2,1231,-1,0,0,2560,2048,5501,5501,5501,0,0
199,103,312,16,384,608,2,1231,-1,0,0,2560,2048,5501,5501,5501,0,0
200,103,312,17,384,608,2,1231,-1,0,0,2560,2048,5501,5501,5501,0,0
201,103,321,0,608,1824,2,1211,-1,0,0,2560,2048,5501,5501,5501,0,0
202,103,321,11,608,1824,2,1211,-1,0,0,2560,2048,5501,5501,5501,0,0
203,103,321,12,608,1824,2,1211,-1,0,0,2560,2048,5501,5501,5501,0,0
204,103,321,13,608,1824,2,1211,-1,0,0,2560,2048,5501,5501,5501,0,0
205,103,321,14,608,1824,2,1211,-1,0,0,2560,2048,5501,5501,5501,0,0
206,103,321,15,608,1824,2,1211,-1,0,0,2560,2048,5501,5501,5501,0,0
207,103,321,16,608,1824,2,1211,-1,0,0,2560,2048,5501,5501,5501,0,0
208,103,321,17,608,1824,2,1211,-1,0,0,2560,2048,5501,5501,5501,0,0
209,103,321,18,608,1824,2,1211,-1,0,0,2560,2048,5501,5501,5501,0,0
210,103,321,19,608,1824,2,1211,-1,0,0,2560,2048,5501,5501,5501,0,0
211,103,321,20,608,1824,2,1211,-1,0,0,2560,2048,5501,5501,5501,0,0
212,103,321,21,608,1824,2,1211,-1,0,0,2560,2048,5501,5501,5501,0,0
213,103,321,22,608,1824,2,1211,-1,0,0,2560,2048,5501,5501,5501,0,0
214,103,321,23,608,1824,2,1211,-1,0,0,2560,2048,5501,5501,5501,0,0
215,103,321,24,608,1824,2,1211,-1,0,0,2560,2048,5501,5501,5501,0,0
216,103,321,25,608,1824,2,1211,-1,0,0,2560,2048,5501,5501,5501,0,0
217,103,321,26,608,1824,2,1211,-1,0,0,2560,2048,5501,5501,5501,0,0
218,103,321,27,608,1824,2,1211,-1,0,0,2560,2048,5501,5501,5501,0,0
219,103,321,28,608,1824,2,1211,-1,0,0,2560,2048,5501,5501,5501,0,0
220,103,321,29,608,1824,2,1211,-1,0,0,2560,2048,5501,5501,5501,0,0
221,103,321,30,608,1824,2,1211,-1,0,0,2560,2048,5501,5501,5501,0,0
222,103,321,31,608,1824,2,1211,-1,0,0,2560,2048,5501,5501,5501,0,0
223,103,321,32,608,1824,2,1211,-1,0,0,2560,2048,5501,5501,5501,0,0
224,103,321,33,608,1824,2,1211,-1,0,0,2560,2048,5501,5501,5501,0,0
225,103,321,34,608,1824,2,1211,-1,0,0,2560,2048,5501,5501,5501,0,0
226,103,321,35,608,1824,2,1211,-1,0,0,2560,2048,5501,5501,5501,0,0
227,103,321,36,608,1824,2,1211,-1,0,0,2560,2048,5501,5501,5501,0,0
228,103,321,37,608,1824,2,1211,-1,0,0,2560,2048,5501,5501,5501,0,0
229,103,321,38,608,1824,2,1211,-1,0,0,2560,2048,5501,5501,5501,0,0
230,103,321,39,608,1824,2,1211,-1,0,0,2560,2048,5501,5501,5501,0,0
231,103,321,40,608,1824,2,1211,-1,0,0,2560,2048,5501,5501,5501,0,0
232,103,331,0,608,1824,2,1211,-1,0,0,2560,2048,5501,5501,5501,0,0
233,103,331,11,608,1824,2,1211,-1,0,0,2560,2048,5501,5501,5501,0,0
234,103,331,12,608,1824,2,1211,-1,0,0,2560,2048,5501,5501,5501,0,0
235,103,331,13,608,1824,2,1211,-1,0,0,2560,2048,5501,5501,5501,0,0
236,103,331,14,608,1824,2,1211,-1,0,0,2560,2048,5501,5501,5501,0,0
237,103,331,15,608,1824,2,1211,-1,0,0,2560,2048,5501,5501,5501,0,0
238,103,331,16,608,1824,2,1211,-1,0,0,2560,2048,5501,5501,5501,0,0
239,103,331,17,608,1824,2,1211,-1,0,0,2560,2048,5501,5501,5501,0,0
240,103,331,18,608,1824,2,1211,-1,0,0,2560,2048,5501,5501,5501,0,0
241,103,331,19,608,1824,2,1211,-1,0,0,2560,2048,5501,5501,5501,0,0
242,103,331,20,608,1824,2,1211,-1,0,0,2560,2048,5501,5501,5501,0,0
243,103,331,21,608,1824,2,1211,-1,0,0,2560,2048,5501,5501,5501,0,0
244,103,331,22,608,1824,2,1211,-1,0,0,2560,2048,5501,5501,5501,0,0
245,103,331,23,608,1824,2,1211,-1,0,0,2560,2048,5501,5501,5501,0,0
246,103,331,24,608,1824,2,1211,-1,0,0,2560,2048,5501,5501,5501,0,0
247,103,331,25,608,1824,2,1211,-1,0,0,2560,2048,5501,5501,5501,0,0
248,103,331,26,608,1824,2,1211,-1,0,0,2560,2048,5501,5501,5501,0,0
249,103,331,27,608,1824,2,1211,-1,0,0,2560,2048,5501,5501,5501,0,0
250,103,331,28,608,1824,2,1211,-1,0,0,2560,2048,5501,5501,5501,0,0
251,103,331,29,608,1824,2,1211,-1,0,0,2560,2048,5501,5501,5501,0,0
252,103,331,30,608,1824,2,1211,-1,0,0,2560,2048,5501,5501,5501,0,0
253,103,331,31,608,1824,2,1211,-1,0,0,2560,2048,5501,5501,5501,0,0
254,103,331,32,608,1824,2,1211,-1,0,0,2560,2048,5501,5501,5501,0,0
255,103,331,33,608,1824,2,1211,-1,0,0,2560,2048,5501,5501,5501,0,0
256,103,331,34,608,1824,2,1211,-1,0,0,2560,2048,5501,5501,5501,0,0
257,103,331,35,608,1824,2,1211,-1,0,0,2560,2048,5501,5501,5501,0,0
258,103,331,36,608,1824,2,1211,-1,0,0,2560,2048,5501,5501,5501,0,0
259,103,331,37,608,1824,2,1211,-1,0,0,2560,2048,5501,5501,5501,0,0
260,103,331,38,608,1824,2,1211,-1,0,0,2560,2048,5501,5501,5501,0,0
261,103,331,39,608,1824,2,1211,-1,0,0,2560,2048,5501,5501,5501,0,0
262,103,331,40,608,1824,2,1211,-1,0,0,2560,2048,5501,5501,5501,0,0
263,204,5021,0,32,-32,4,1216,-1,0,0,1536,1024,5501,5501,5501,0,0
264,102,201,0,3712,2144,1,1301,-1,0,0,6656,5120,5501,5501,5501,0,0
265,102,201,20,3712,2144,1,1301,-1,0,0,6656,5120,5501,5501,5501,0,0
266,102,201,30,3712,2144,1,1301,-1,0,0,6656,5120,5501,5501,5501,0,0
267,102,201,40,3712,2144,1,1301,-1,0,0,6656,5120,5501,5501,5501,0,0
268,102,202,0,3712,2144,1,1301,-1,0,0,6656,5120,5501,5501,5501,0,0
269,102,202,20,3712,2144,1,1301,-1,0,0,6656,5120,5501,5501,5501,0,0
270,102,202,30,3712,2144,1,1301,-1,0,0,6656,5120,5501,5501,5501,0,0
271,102,202,40,3712,2144,1,1301,-1,0,0,6656,5120,5501,5501,5501,0,0
272,102,203,0,3712,2144,1,1301,-1,0,0,6656,5120,5501,5501,5501,0,0
273,102,203,20,3712,2144,1,1301,-1,0,0,6656,5120,5501,5501,5501,0,0
274,102,203,30,3712,2144,1,1301,-1,0,0,6656,5120,5501,5501,5501,0,0
275,102,203,40,3712,2144,1,1301,-1,0,0,6656,5120,5501,5501,5501,0,0
276,102,204,0,3712,2144,1,1301,-1,0,0,6656,5120,5501,5501,5501,0,0
277,102,204,20,3712,2144,1,1301,-1,0,0,6656,5120,5501,5501,5501,0,0
278,102,204,30,3712,2144,1,1301,-1,0,0,6656,5120,5501,5501,5501,0,0
279,102,204,40,3712,2144,1,1301,-1,0,0,6656,5120,5501,5501,5501,0,0
280,102,205,0,3712,2144,1,1301,-1,0,0,6656,5120,5501,5501,5501,0,0
281,102,205,20,3712,2144,1,1301,-1,0,0,6656,5120,5501,5501,5501,0,0
282,102,205,30,3712,2144,1,1301,-1,0,0,6656,5120,5501,5501,5501,0,0
283,102,205,40,3712,2144,1,1301,-1,0,0,6656,5120,5501,5501,5501,0,0
284,102,202,50,-704,768,1,1311,-1,0,0,1536,1024,5501,5501,5501,0,0
285,102,203,60,3712,2144,1,1301,-1,0,0,6656,5120,5501,5501,5501,0,0
286,102,205,70,3712,2144,1,1301,-1,0,0,6656,5120,5501,5501,5501,0,0
287,105,501,0,1280,1344,1,1401,-1,0,0,2560,2560,5501,5501,5501,0,0
288,105,501,20,1280,1344,1,1401,-1,0,0,2560,2560,5501,5501,5501,0,0
289,105,501,30,1280,1344,1,1401,-1,0,0,2560,2560,5501,5501,5501,0,0
290,105,501,40,1280,1344,1,1401,-1,0,0,2560,2560,5501,5501,5501,0,0
291,103,313,100,3104,3808,1,1201,-1,0,0,6144,6144,5501,5501,5501,0,0
292,103,314,100,3104,3808,1,1201,-1,0,0,6144,6144,5501,5501,5501,0,0
293,103,315,100,3104,3808,1,1201,-1,0,0,6144,6144,5501,5501,5501,0,0
294,103,316,100,3104,3808,1,1201,-1,0,0,6144,6144,5501,5501,5501,0,0
295,104,413,100,2687,3072,1,1101,-1,0,0,5632,5632,5501,5501,5501,0,0
296,102,214,100,3712,2144,1,1301,-1,0,0,6656,5120,5501,5501,5501,0,0
297,101,101,-1,640,384,1,401,-1,0,0,1280,720,5501,5501,5501,0,0
500,101,101,-1,3104,3808,1,401,-1,0,0,1280,720,5501,5501,5501,0,0
1000,101,101,-1,3104,3808,1,401,-1,0,0,1280,720,5501,5501,5501,0,0
1500,101,101,-1,3104,3808,1,401,-1,0,0,1280,720,5501,5501,5501,0,0
2000,101,101,-1,3104,3808,1,401,-1,0,0,1280,720,5501,5501,5501,0,0
2500,101,101,-1,3104,3808,1,401,-1,0,0,1280,720,5501,5501,5501,0,0
3000,101,101,-1,3104,3808,1,401,-1,0,0,1280,720,5501,5501,5501,0,0
3500,101,101,-1,3104,3808,1,401,-1,0,0,1280,720,5501,5501,5501,0,0
4000,101,101,-1,3104,3808,1,401,-1,0,0,1280,720,5501,5501,5501,0,0
4500,101,101,-1,3104,3808,1,401,-1,0,0,1280,720,5501,5501,5501,0,0
5000,101,101,-1,1472,2688,1,401,-1,0,0,1280,720,5501,5501,5501,0,0
