 ,0,1,2,3,4,5
 ,s32,s32,s32,s32,s32,s32
1,10013,-1,0,0,8704,6144
2,10014,1,2176,1792,2048,1536
3,10015,2,3456,960,2048,1536
4,10016,3,4992,1920,1536,1792
5,10017,4,3904,3008,1792,2304
101,24304,-1,0,0,2560,2048
102,10019,1,0,0,0,0
201,24303,-1,0,0,1536,1024
202,10021,1,0,0,0,0
301,24302,-1,0,0,2560,2048
302,10023,2,0,0,0,0
401,29493,-1,0,0,1280,768
501,10026,-1,0,0,0,0
502,10027,4,0,0,0,0
801,39318,-1,0,0,1536,1024
802,39319,-1,0,0,1536,1024
901,35414,-1,0,0,1536,1024
902,35415,-1,0,0,1536,1024
1001,30048,-1,0,0,4608,4608
1002,35482,1,0,0,4608,4608
1003,35483,1,0,0,4608,4608
1004,35484,1,0,0,4608,4608
1005,35485,1,0,0,4608,4608
1006,35486,1,0,0,4608,4608
1007,35487,1,0,0,4608,4608
1008,35488,1,0,0,4608,4608
1009,35489,1,0,0,4608,4608
1010,35490,1,0,0,4608,4608
1011,35491,1,0,0,4608,4608
1012,35492,1,0,0,4608,4608
1013,35493,1,0,0,4608,4608
1014,35494,1,0,0,4608,4608
1015,35495,1,0,0,4608,4608
1016,35496,1,0,0,4608,4608
1017,35497,1,0,0,4608,4608
1021,42955,-1,0,0,1536,1024
1023,42954,-1,0,0,1536,1024
1031,30049,-1,0,0,1536,1024
1036,35111,-1,0,0,1536,1024
1041,30050,-1,0,0,2560,2048
1046,35112,-1,0,0,2560,2048
1051,30042,-1,0,0,2560,2048
1056,30043,-1,0,0,2560,2048
1061,30051,-1,0,0,1536,1024
1062,30051,-1,0,0,1536,1024
1063,30051,-1,0,0,1536,1024
1071,39321,-1,0,0,1536,1024
1076,40902,-1,0,0,1536,1024
1081,40904,-1,0,0,1536,1024
1086,30045,-1,0,0,2560,2048
1091,40897,-1,0,0,2560,2048
1093,40898,-1,0,0,2560,2048
1095,40899,-1,0,0,2560,2048
1097,40900,-1,0,0,2560,2048
1099,40901,-1,0,0,2560,2048
1101,30058,-1,0,0,5632,5632
1111,31132,-1,0,0,1536,1024
1116,30059,-1,0,0,2560,2048
1121,35113,-1,0,0,2560,2048
1126,30053,-1,0,0,2560,2048
1131,30055,-1,0,0,2560,2048
1136,30056,-1,0,0,2560,2048
1141,30060,-1,0,0,1536,1024
1142,30060,-1,0,0,1536,1024
1143,30060,-1,0,0,1536,1024
1146,40887,-1,0,0,1536,1024
1151,39322,-1,0,0,1536,1024
1161,42946,-1,0,0,2560,2048
1163,42947,-1,0,0,2560,2048
1165,42948,-1,0,0,2560,2048
1167,42949,-1,0,0,2560,2048
1171,42950,-1,0,0,1536,1024
1173,42951,-1,0,0,1536,1024
1201,30030,-1,0,0,6144,6144
1211,30031,-1,0,0,2560,2048
1216,30032,-1,0,0,1536,1024
1217,30032,-1,0,0,1536,1024
1218,30032,-1,0,0,1536,1024
1221,30026,-1,0,0,2560,2048
1226,30027,-1,0,0,2560,2048
1231,31106,-1,0,0,2560,2048
1241,30028,-1,0,0,2560,2048
1251,39320,-1,0,0,1536,1024
1261,41499,-1,0,0,1536,1024
1301,30040,-1,0,0,6656,5120
1306,35416,-1,0,0,1536,1024
1311,31131,-1,0,0,1536,1024
1321,39304,-1,0,0,2560,2048
1331,39305,-1,0,0,2560,2048
1341,30037,-1,0,0,2560,2048
1343,42943,-1,0,0,2560,2048
1345,42944,-1,0,0,2560,2048
1351,42952,-1,0,0,1536,1024
1353,42953,-1,0,0,1536,1024
1401,30035,-1,0,0,2560,2560
1403,44522,-1,0,0,1536,1024
5001,31200,-1,0,0,2560,2048
5051,30062,-1,0,0,1280,768
