 ,0,1,2,3
 ,,u8,s32,u16
1,,2,1,1501
2,,2,1,1501
11,,2,1,1501
51,,2,1,1501
61,,2,1,1501
71,,2,1,1501
101,,1,100,1001
102,,1,200,1002
103,,1,300,1003
104,,1,400,1004
105,,1,500,115
111,,2,600,1101
112,,2,1,1501
113,,2,700,1113
114,,2,5000,1501
115,,2,1,1501
116,,2,4900,1501
121,,2,800,1051
131,,2,900,1051
171,,4,1,1051
181,,1,1,1501
183,,2,1,1501
191,,4,1,1501
196,,4,1,1501
201,,1,3000,4004
202,,1,3100,4005
203,,1,3200,4006
204,,1,3300,4007
205,,1,3400,4008
206,,1,5600,4073
211,,2,2900,4102
212,,2,1,1501
213,,2,1,1501
214,,2,5500,4104
215,,2,1,1501
216,,2,1,1501
221,,2,1,1501
231,,2,1,1501
281,,1,1,1501
282,,1,1,1501
283,,2,1,1501
291,,4,1,1501
301,,1,2000,2007
302,,1,2100,2008
303,,1,2200,2009
304,,1,2300,2010
305,,1,2400,2011
311,,2,2500,2101
312,,2,2600,2113
313,,2,3600,2123
314,,2,3800,1501
315,,2,4000,1501
316,,2,4200,1501
321,,2,2700,2001
331,,2,2800,2001
381,,1,1,1501
383,,2,1,1501
391,,4,1,1501
401,,1,1000,3001
402,,1,1200,3002
403,,1,1300,3003
404,,1,1400,3004
405,,1,1500,3005
411,,2,1,1501
412,,2,1600,3101
413,,2,4400,3002
414,,2,1700,3112
415,,2,5400,3123
416,,2,1,1501
421,,2,1800,3051
422,,2,1,1501
431,,2,1900,3051
481,,1,1,1501
483,,2,1,1501
491,,4,1,1501
496,,4,1,1501
501,,1,3500,106
511,,2,3545,5014
581,,1,1,1501
591,,4,1,1501
1001,,4,5300,1501
1081,,4,1,1501
1101,,4,1,1501
1102,,4,1,1501
1181,,4,1,1501
1201,,4,1,1501
1202,,4,1,1501
1203,,4,1,1501
1211,,4,1,1501
1212,,4,1,1501
1213,,4,1,1501
1214,,4,1,1501
1281,,4,1,1501
1282,,4,1,1501
1301,,4,1,1501
1311,,4,1,1501
1312,,4,1,1501
1313,,4,1,1501
1314,,4,5100,1041
1315,,4,5200,1011
1381,,4,1,1501
5001,,4,10,1092
5002,,4,1,1070
5003,,4,1,1089
5004,,4,40,1512
5005,,4,70,1517
5006,,4,84,1518
5007,,4,10,3533
5008,,4,10,2534
5011,,4,20,3096
5012,,4,1,3071
5013,,4,1,3093
5014,,4,50,3514
5015,,4,85,3532
5016,,4,20,1519
5017,,4,20,2534
5021,,4,30,2096
5022,,4,1,2075
5023,,4,1,2093
5024,,4,60,2526
5025,,4,30,1519
5026,,4,30,3533
5101,,1,1,1501
5102,,4,1,1501
5111,,1,1,1501
5112,,4,1,1501
5121,,1,1,1501
5122,,4,1,1501
5131,,1,1,1501
5132,,4,1,1501
5141,,1,1,1501
5142,,4,1,1501
5143,,4,1,1501
5144,,1,1,1501
5145,,1,1,1501
5201,,4,1,1501
5301,,4,81,1070
5302,,4,82,3071
5303,,4,83,2075
8001,,1,1,51
8002,,1,1,52
8003,,1,1,53
8004,,1,1,54
8005,,1,1,55
8006,,1,1,56
8007,,1,1,57
8008,,1,1,58
8009,,1,1,59
8010,,1,1,60
8011,,1,1,61
8012,,1,1,62
8013,,1,1,63
8014,,1,1,64
8015,,1,1,65
8016,,1,1,66
8017,,1,1,67
8027,,1,1,1501
8028,,1,1,1501
8029,,1,1,1501
8030,,1,1,1501
8031,,1,1,1501
8032,,1,1,1501
8033,,1,1,1501
8065,,1,1,1501
8066,,1,1,1501
8067,,1,1,1501
8068,,1,1,1501
8069,,1,1,1501
8081,,1,1,1501
8082,,1,1,1501
8083,,1,1,1501
8084,,1,1,1501
8085,,1,1,1501
