 ,0,1,2,3,4
 ,str,str,str,str,str
1,[play]さん、少し遠出をしてもらいたい仕事がありますにゃあ。冒険者の方に向いているお仕事だと思うのですが、どうでしょうにゃあ？,[@STRING($EB(1))]? This is assessor P'tahjha of Maelvaan's Gate. The custom-house requests your assistance in the...procurement of an item located in a city far to the north of Limsa Lominsa.,"[play], ich habe einen Auftrag, für den du auf Reisen gehen musst. Na, was sagst du? Ich wette, das ist genau das, wonach einem Abenteurer/einer Abenteurerin der Sinn steht!","Bonjour, [@SPLIT([@STRING($EB(1))], ,1)]. Nous avons une mission parrrfaite pour [@IF($E9(4),l'aventurière,l'aventurier)] que vous êtes. Vous aimez les voyages[@1D]?",[chs]
2,興味がありましたら、「メルヴァン鑑定社」までいらしてくださいにゃあ。,"If you are interested, please drop by the guild.",Alle Einzelheiten erfährst du am Mealvaan-Tor.,"Si vous êtes [@IF($E9(4),intéressée,intéressé)], venez à la douane de Mealvaan, miaou[@1D]!",[chs]
3,この前、[play]さんと一緒にお仕事をしていただいたナディロさんに話を聞いてください。あちらでお待ちですにゃあ。,"I am pleased to see that you have come, [@STRING($EB(1))]. Speak with assessor Nadilo for further details on the task. He awaits by the [xxxxx].","[play], du erinnerst dich doch noch an Nadilo, für den du schon einmal gearbeitet hast. Er steht da drüben und wird dir alles Weitere erklären.","Vous pouvez vous adresser à Nadilo, qui s'est occupé de vous la dernière fois. Il vous attend là-bas.",[chs]
4,依頼を受ける？,"I am pleased to see that you have come, [@STRING($EB(1))]. Speak with assessor Nadilo for further details on the task. He awaits by the [xxxxx].","[play], du erinnerst dich doch noch an Nadilo, für den du schon einmal gearbeitet hast. Er steht da drüben und wird dir alles Weitere erklären.","Vous pouvez vous adresser à Nadilo, qui s'est occupé de vous la dernière fois. Il vous attend là-bas.",[chs]
5,はい,"I am pleased to see that you have come, [@STRING($EB(1))]. Speak with assessor Nadilo for further details on the task. He awaits by the [xxxxx].","[play], du erinnerst dich doch noch an Nadilo, für den du schon einmal gearbeitet hast. Er steht da drüben und wird dir alles Weitere erklären.","Vous pouvez vous adresser à Nadilo, qui s'est occupé de vous la dernière fois. Il vous attend là-bas.",[chs]
6,いいえ,"I am pleased to see that you have come, [@STRING($EB(1))]. Speak with assessor Nadilo for further details on the task. He awaits by the [xxxxx].","[play], du erinnerst dich doch noch an Nadilo, für den du schon einmal gearbeitet hast. Er steht da drüben und wird dir alles Weitere erklären.","Vous pouvez vous adresser à Nadilo, qui s'est occupé de vous la dernière fois. Il vous attend là-bas.",[chs]
7,冷やかしはお断りだにゃあ。温かい目もお断りだにゃあ。とにかく働けにゃあ。,"[What we need here is neither a hot temper or a cold shoulder. Come back when you've warmed to us, but none sooner.]","Drückeberger können wir hier nicht gebrauchen. Genausowenig wie blindwütige Draufgänger. Aber was rede ich hier, mach du dich lieber an die Arbeit!","Vous êtes plus du genrrre [@IF($E9(4),spectatrice qu'actrice,spectateur qu'acteur)], c'est ça[@1D]? Il faut mettre la main à la pâte, parfois, vous savez[@1D]?",[chs]
8,大物が釣り上げられたのにゃあ。へとへとくたくたなナディロさんを助けてあげてくださいにゃあ。,[Our faithful assessor looks as if he has caught us a big one. See if you cannot help him reel it in.],Mit dir haben wir wirklich einen guten Fang gemacht. Nadilo ist fix und fertig mit den Nerven. Er kann jede Hilfe gebrauchen!,"Cette fois-ci, nous sommes tombés sur un grrros morceau... Nadilo est com[@16]plè[@16]te[@16]ment épuisé et accueillera votre aide avec joie, je n'en doute pas une seconde[@1D]!",[chs]
9,[play]か。来てくれるとはありがたい。,"Ah, it is you. I had thought by now you would have abandoned the guild...but I guess there is still time for that. For now, I shall take advantage of your continued interest in our endeavors by assigning you a special task.","[play]! Ich freue mich, dass du mir helfen willst.","[@SPLIT([@STRING($EB(1))], ,1)][@1D]! C'est bien que tu sois [@IF($E9(4),venue,venu)].",[chs]
10,前に検査した商船から手に入れた禁制品があっただろう。あの禁制品の送り先は、リムサ・ロミンサで地位ある人だったから大騒ぎだ。もちろん、彼本人は否定していて、陰謀だなんだと騒いでいた。,"Do you recall the cargo ship that used the [mon] decoy in their attempt to smuggle forbidden goods into the city? Well, it turns out that the item in question was the property of an upstanding member of society, and he was not at all pleased to hear what had transpired that day. Of course, publically he has denied all involvement in the affair and insists that it is all nothing more than a conspiracy to besmirch his good name.","Wir haben doch damals auf dem Frachter verbotene Güter sichergestellt. Die waren an jemanden von hohem Rang in Limsa Lominsa adressiert, was viel Aufsehen erregt hat. Der Betroffene hat natürlich alles abgestritten, aber es scheint mir mehr da[@16]hinter[@16]zu[@16]stecken.","Tu te rappelles des mar[@16]chan[@16]di[@16]ses que nous avons confisquées la dernière fois[@1D]? Eh bien parmi les des[@16]ti[@16]na[@16]tai[@16]res se trouvaient plusieurs personnes haut-placées de Limsa Lominsa. Bien sûr, ces personnes nient, et crient même au complot.",[chs]
11,そもそもアレが禁制品に指定されるべきかどうか？　……などと議論まで始まって……いや、君には関係ないな。,"But that is not all. Not long after this, a movement began, decrying the regulations regarding said item.","Jetzt wird sogar diskutiert, ob man die Einfuhr solcher Güter nicht untersagen sollte. Na gut, das braucht dich nicht weiter zu kümmern ...",Certains sont allés jusqu'à débattre de la nécessité ou non d'interdire ces mar[@16]chan[@16]di[@16]ses... mais je m'égare.,[chs]
12,とにかく、あのときに没収された禁制品についての調査結果を、早急に出せということになったわけだ。しかし、あの禁制品は、あのままユディセルが持っていってしまったんだな。,"Needless to say, it was not long before the Admiral caught wind of the rumblings regarding this case and ordered us deliver her the confiscated item and provide a full report on our handling of the situation. And therein lies the problem, for the cargo has already been claimed by our own Iudicael and most likely added to his ""collection.""","Nun soll ich die Schmuggelware, die wir damals beschlagnahmt haben, inspizieren. Nur dummerweise hat Ambitius die an sich genommen.","Au final, nous devons maintenant procéder à des analyses sur ces fameuses mar[@16]chan[@16]di[@16]ses et rendre les résultats au plus vite. Seulement... elles se trouvent toujours chez Iudicael.",[chs]
13,……そうだな、一応、君からもユディセルに尋ねてみてくれないか。禁制品の調査をしてほしい、もちろん、調査が終わったら禁制品もろとも、こちらに渡してほしいとな。,"[play], the other assessors and I have already attempted reasoning with Iudicael, but to no avail. I have heard that you adventurers are skill in the arts of persuasion, and if possible, would like you to speak with Iudicael about him returning his prize.","Kannst du nicht mal bei ihm danach fragen? Ich will, dass du die Sachen untersuchst und anschließend zu mir bringst.",C'est pour ça que nous avons besoin de toi. Tu voudrais bien rendre visite à Iudicael et le convaincre de procéder à ces analyses avant de nous restituer les mar[@16]chan[@16]di[@16]ses[@1D]?,[chs]
14,……,......,...,...,[chs]
15,……,......,...,...,[chs]
16,いっつも海を見ている少年がいるだろう。彼は、ユディセルっていうんだ。あの年で、1級鑑定士の免許を持っているんだぞ。,"Have you seen the young man down at the docks, simply staring off into the horizon? His name is Iudicael, and while he may not look it, he is one of the highest ranking assessors at the custom-house.","Du kennst doch diesen Burschen, der den ganzen Tag aufs Meer hinausstarrt. Er heißt Iudicael und hat mit seinen jungen Jahren schon die In[@16]spektoren[@16]lizenz erster Klasse erworben!","T'as vu ce p'tit gars qui passe son temps à regarder la mer[@1D]? Lui, C'est Iudicael. C'est encore qu'un gosse, et pourtant il a son diplôme d'inspecteur de première classe. Et ouais.",[chs]
17,ユディセルの部屋って、ものすごいグチャグチャなの！　物を捨てるってことには罪悪感を抱いちゃうけど、彼の部屋を見ると、物を捨てるって美徳に見えちゃうくらいよ。,"I have seen little Iudicael's room but once; however, I shall never forget how unkempt it was...like a beach littered with detritus after an angry winter storm.","Im Zimmer von Iudicael herrscht ein einziges Tohuwabohu! Er bringt es einfach nicht übers Herz, Dinge fort[@16]zu[@16]schmeißen. Wenn man sich sein Zimmer ansieht, könnte man glatt meinen, es sei eine große Tugend, alte Sachen wegzuwerfen.","C'est un bazar pas possible dans la chambre/maison de Iudicael[@1D]! Moi même je me sens coupable de jeter les choses, mais quand je vois dans quoi il vit, je me dit que faire un peu de tri serait vraiment pour son bien.",[chs]
18,ユディセルは、主に海に関係したものを集めている。海岸で拾ってきたものや、商船や漁船が持ち込んだもの、冒険者が見つけてきたものも大事にしているようだ。あれは海への執着だな。,"Have you heard of the boy Iudicael's collection? It is said he only gathers things that have journeyed on the waves―things that have washed up on costal shores, things that have been carried across the enless seas on ships, things that adventurers have brought from their wanderings in lands beyond the horizon.","Iudicael sammelt vor allem Sachen, die mit dem Meer zu tun haben. Er findet sie am Strand oder bekommt sie von Kaufleuten oder Fischern. Auch sämtliche Mitbringsel von Abenteurern hebt er sorgfältig auf. Er ist vollkommen vernarrt in das Meer.","Iudicael col[@16]lec[@16]tion[@16]ne tout ce qui a rapport avec la mer. Tout ce qui s'échoue, que les bateaux rapportent ou que les aventuriers ramènent est un véritable trésor pour lui. Ça c'est de la passion[@1D]!",[chs]
19,あの子、毎日、あそこにいるわね。海へ帰りたい人魚って感じ。すごく暗い感じだから、深海人魚ってとこかしら。,That boy simply stands there and stares at the sea. Perhaps he is a merman who shed his tail to walk the land...but now longs to return to the murky depths he once called home. How tragic!,"Der Junge kommt jeden Tag hierher. Als ob er zurück nach Hause ins Meer wollte. Er macht so einen finsteren Eindruck, dass man meinen möchte, er sei der Tiefsee entstiegen ...",Ce garçon est tous les jours assis au même endroit. Son regard est si mé[@16]lan[@16]co[@16]li[@16]que[@1D]! On dirait qu'il attend quelque chose...,[chs]
20,駄目だったか。彼はいろいろなものを集める癖を持っているというのは、前にも言ったかな。気に入らないものは、すぐに手放してくれるのだが、気に入ってしまうと誰が説得しても駄目なのだ。,"From the look on your face I can garner you had little luck. Once the boy has added an item to his colelction, there is naught any of us can do to pry it away from him.","Er wollte es nicht rausrücken? Ich habe dir doch mal von seinem Tick erzählt, Furz und Feuerstein aufzuheben. Was ihm nicht gefällt, wirft er gleich wieder weg. Aber was einmal sein Interesse geweckt hat, gibt er für nichts wieder her.","Alors, ça n'a pas marché[@1D]? Tu sais qu'il col[@16]lec[@16]tion[@16]ne toutes ces choses, n'est-ce pas[@1D]? Quand il s'attache à une de ses trouvailles, impossible de lui faire changer d'avis.",[chs]
21,禁制品を長く持っていること自体が危険なのだから、力ずくで取り戻そうかとも思うのだがな。所長に頼まれている手前、ユディセルは大事に扱ってやりたい。,"Unfortunately, this particuar item in which the boy has taken an interest can pose quite a danger to those who possess it. If anyone else, we would already have informed the Knights of the Barracuda and had them retrieve the evidence by force. However, the first assessor has specifically requested that this matter be solved without any harm, physical or psychological, befalling Iudicael.","Weil es aber auch gefährlich werden kann, wenn man Schmuggelgut über längere Zeit behält, werde ich notfalls zu Gewalt greifen, um es zurück[@16]zu[@16]bekommen. Andererseits will ich es mir mit Ambitius nicht verscherzen ...","Mais le fait même de conserver des mar[@16]chan[@16]di[@16]ses interdites pendant une longue durée peut s'avérer dangereux pour lui, c'est pourquoi je songe à lui reprendre de force. Le directeur nous a bien fait comprendre qu'il est très important pour la douane de Mealvaan...",[chs]
22,本題に入ろう。君には荒野の都市ウルダハへ向かってもらいたい。そこで、あの禁制品と同じものを購入してきてもらいたい。,Which is why I must ask a new task of you. I would you travel to the desert settlement of Ul'dah and procure an item similar to the one Iudicael keeps in his collection?,"Was dich betrifft: Ich will, dass du dich in die Wüstenstadt Ul'dah begibst und dort genau das kaufst, was die Halunken damals nach Limsa Lominsa einschmuggeln wollten.","Bon, je vais aller droit au but. J'aimerai que tu te rendes à Ul'dah, la Cité du désert. Là-bas, tu devrais pouvoir te procurer des mar[@16]chan[@16]di[@16]ses identiques à celles que Iudicael conserve chez lui.",[chs]
23,もちろん、禁制品の持ち込みには便宜を図る。どうだ、やってくれるな？,"Your mission will be relayed to all assessors, ensuring smooth entry back into the city upon your return. Will you accept this assignment?","Natürlich werde ich alle Vorbereitungen treffen, damit du damit wieder hier in die Stadt reinkommst. Wie sieht's aus? Übernimmst du den Auftrag?","Evidemment, tout sera arrangé pour que tu puisses à nouveau rentrer dans Limsa Lominsa sans problème.",[chs]
24,頼みを聞く？,"Your mission will be relayed to all assessors, ensuring smooth entry back into the city upon your return. Will you accept this assignment?","Natürlich werde ich alle Vorbereitungen treffen, damit du damit wieder hier in die Stadt reinkommst. Wie sieht's aus? Übernimmst du den Auftrag?","Evidemment, tout sera arrangé pour que tu puisses à nouveau rentrer dans Limsa Lominsa sans problème.",[chs]
25,はい,"Your mission will be relayed to all assessors, ensuring smooth entry back into the city upon your return. Will you accept this assignment?","Natürlich werde ich alle Vorbereitungen treffen, damit du damit wieder hier in die Stadt reinkommst. Wie sieht's aus? Übernimmst du den Auftrag?","Evidemment, tout sera arrangé pour que tu puisses à nouveau rentrer dans Limsa Lominsa sans problème.",[chs]
26,いいえ,"Your mission will be relayed to all assessors, ensuring smooth entry back into the city upon your return. Will you accept this assignment?","Natürlich werde ich alle Vorbereitungen treffen, damit du damit wieder hier in die Stadt reinkommst. Wie sieht's aus? Übernimmst du den Auftrag?","Evidemment, tout sera arrangé pour que tu puisses à nouveau rentrer dans Limsa Lominsa sans problème.",[chs]
27,では、この依頼書を持って、さっそくウルダハへ向かってくれ。ウルダハの「エシュテム宝飾店」の受付を訪ねれば、話が通るだろう。,Excellent. Take this missive to the Amajina & Son's Mineral Concern in Ul'dah.,"Gut, dann nimm diesen Auftragsschein hier und geh damit nach Ul'dah. Im Juwelier[@16]ge[@16]schäft Eshtaime wird man auf dich warten.","Très bien. Rends-toi à Ul'dah avec ce bon de commande, sans plus attendre. Ensuite, cherche[@1D]???, on devrait pouvoir te renseigner.",[chs]
28,困ったな。他の冒険者を候補にしてみるか……。,Why am I not surprised...?,Mist! Muss ich mich wohl oder übel nach einem anderen Abenteurer umsehen ...,"Hum, c'est embêtant. Je vais devoir demander à un autre aventurier.",[chs]
29,ウルダハへようこそ。ここ「エシュテム宝飾店」では、お客様がお持ちの力を引きだす宝飾品を扱っております。,"Welcome to Amajina & Son's Mineral Concern, running and operating all the major mining facilities in the greater Ul'dah region.",Herzlich willkommen in Ul'dah! Das Juwelier[@16]ge[@16]schäft Eshtaime lässt jeden Edelstein durch die Kraft seines Besitzers in neuem Glanz erstrahlen.,"Je vous souhaite la bienvenue à Ul'dah. Vous êtes à[@1D]???, la société d'ex[@16]ploi[@16]ta[@16]tion des mines de la région.",[chs]
30,お客様の力……財力にあわせて相応しい宝飾品を、お選びいたしましょう。,[en],Wir kombinieren deine körperlichen Fähigkeiten mit deinen finanziellen Möglichkeiten und werden so das passende Juwel für dich anfertigen!,"Permettez moi de vous aider à trouver le bijou parfait en fonction de votre pouvoir... hum, pouvoir d'achat.",[chs]
31,あら？　リムサ・ロミンサの「メルヴァン鑑定社」から社用でいらしたのですか？　では、依頼書などをお持ちでしょうか？,"You say you were sent by the custom-house at Maelvaan's Gate? Hmph... Then, I can assume you are carrying instructions on your person.",Wie bitte? Du kommst im Auftrag vom Mealvaan-Tor in Limsa Lominsa? Was für ein Auftrag? Hast du etwas Schriftliches dabei?,"Pardon[@1D]? Vous venez de la part de la douane de Mealvaan, à Limsa Lominsa[@1D]? Montrez-moi votre bon de commande s'il vous plaît.",[chs]
32,理解いたしました。少々、お待ちください。,Understood. Wait here.,In Ordnung. Einen Moment bitte.,"Bien [@IF($E9(4),ma[@16]de[@16]moi[@16]sel[@16]le,monsieur)], un instant je vous prie.",[chs]
33,こちら、高価なものでございますから、お取り扱いにはお気を付けてくださいませ。また、担当者様にも、どうぞよろしくと。,"Here is your package, but my superior would like to make it perfectly clear that he still strongly disapproves of the thallasocracy's regulations regarding the item's import into Limsa Lominsa.",Das hier ist ein sehr hochwertiges Erzeugnis. Geh bitte sehr vorsichtig damit um. Und bestell dem Auftraggeber einen schönen Gruß!,"Ce sont des articles d'une grande valeur, aussi vous demanderai-je, ainsi qu'à votre supérieur, la plus grande prudence en les manipulant.",[chs]
34,これは私の独り言ですが、リムサ・ロミンサではその貴石を危険と見なしているご様子。海賊あがりには理解及ばぬ力だと、自認していらっしゃるようで……。,"While potentially harmful, as long as it is handled by trained individuals, it is no more dangerous than the firesand sold freely in your markets.","Es geht mich zwar nichts an, aber ich habe gehört, dass Edelsteine wie dieser in Limsa Lominsa als Gefahrengut eingestuft werden. Trotzdem wirst du mir sicher beipflichten, wenn ich behaupte, dass Piraten nicht gerade als die besten Experten für edle Quali[@16]täts[@16]anfer[@16]tigungen gelten ...","???Et puis, ça reste entre nous mais à Limsa Lominsa, ces petites pierres sont considérées comme dangereuses.[@1D]???Enfin vous imaginez bien, ça doit être un peu difficile a comprendre pour un ex-pirate...",[chs]
35,無事に帰ってきたか。「エシュテム宝飾店社」の奴は、嫌みのひとつでも言っていただろう？,Back at last. Were you given any trouble?,"Wie ich sehe, bist du heil zurückgekehrt. Lass mich raten, der Knilch von Eshtaime hat doch sicher wieder irgendwelche Un[@16]verschämt[@16]heiten losgelassen, oder?","???Ah, te revoilà[@1D]! Comment, un message de[@1D]???[@1D]?",[chs]
36,……わかっている。この石は、呪術がかけやすいだけなのだ。呪術に長けた奴をたくさん雇っていれば、これが禁制品になることもない。だが、リムサ・ロミンサではそうもいかないのは、君にもわかるだろう。,"Hm... On one hand, I can sympathize with the [overseer]. The ore in question possesses remarkable qualities, for it can literally be infused with magic of the dark arts―thaumaturgy, and as long as one even remotely proficient in these arts is handling it, it is harmless. However, in the hands of someone without such knowledge, the power contained within the ore can prove deadly. And Limsa Lominsa, unlike Ul'dah, is home to but a few privy to such knowledge.","In der Beziehung kenne ich mich aus. Dieser Stein lässt sich leicht mit einem Zauber belegen. Das ist alles. Wenn man nur genug magie[@16]be[@16]wanderte Leute einstellt, hat man auch kein Problem mit Schmuggelware. In Limsa Lominsa funktioniert das aber nicht. Das verstehst du doch, oder?","Je vois... C'est juste qu'il est facile de jeter un sort sur/d'enchanter cette pierre. Si seulement nous avions plus de spé[@16]cial[@16]istes, jamais cela ne serait classé en matière dangereuse. Mais toi-même, tu sais que ce n'est pas si facile à Limsa Lominsa...",[chs]
37,とにかくだ。次の仕事をしてくれ。ユディセルの部屋に入り、あのとき没収した禁制品とこの品をすり替えるのだ。ユディセルの鑑識眼ならば、すぐに違うものだと看破されるだろうが……私たちが鑑定する時間稼ぎになる。,"I hope you can realize why we do what we must. But enough of that. You must now take this ore to Iudicael's apartments and leave it in place of the one we confiscated from the ship. Yes, it will not be long before an individual as perceptive as Iudicael will have discovered that his original treasure has been replaced, but hopefully this will give us enough time to complete the tasks presented us by the Admiral.","Wie auch immer. Ich habe einen neuen Auftrag für dich. Geh in Iudicaels Zimmer und tausche die be[@16]schlag[@16]nahmten Sachen gegen diese hier aus. Iudicaels geschultes Auge wird den Unterschied zwar sofort feststellen, aber immerhin gewinnen wir etwas Zeit für eine Untersuchung.","Quoi qu'il en soit, passons à la suite de notre opération. Tu vas maintenant t'introduire chez Iudicael et échanger ton minerai contre le sien. Un expert comme lui saura bien vite découvrir la supercherie, mais ça nous laissera le temps de procéder aux analyses.",[chs]
38,ああ、ユディセルなら部屋にはいないから安心しろ。いつもどおり、海をじっと見つめている。,Now go. We shall make sure the boy does not return to his room while your are conducting the switch.,"Mach dir wegen Iudicael mal keine Sorgen. Der ist eh nie zu Hause, sondern starrt den ganzen Tag von seinem Stammplatz aus auf das Meer.","Ah, oui, il n'est pas chez lui, tu peux y aller sans crainte. Comme toujours, il est en train de regarder la mer.",[chs]
39,よし、早速、鑑定士たちに見てもらう。私には荷が重い仕事だからな。,Excellent. I shall have a team of assessors begin on the Admiral's report immediately. To finally be able to put this all behind us is quite the burden off my shoulders.,Sehr schön! Das sollen sich gleich mal unsere Experten ansehen. Für mich ist das eine Nummer zu groß.,Bien[@1D]! Au tour des experts de procéder à l'analyse maintenant. C'est un travail qui dépasse mes compétences.,[chs]
40,もしも後ろめたいなら、ユディセルに話しかけてくるといい。話しかけられるのも嫌そうな様子を見せるだろうが、誰とも一言も交わさないで日が暮れていくのが、当たり前の生活なんだ。それは彼のためにならない。,"Ah, I see. If you are happening to have second thoughts about this ruse we have played, then perhaps it would be wise to walk down to the docks and speak with Iudicael in person. I do not believe that he will say anything, but a few words from you cannot hurt. Many a day passes when the sun will set without a single soul speaking a word to him.","Wenn dir bei der Sache etwas unwohl sein sollte, kannst du mit Iudicael ja mal ein paar Worte wechseln. Es versteht sich aber von selbst, dass du über diese Angelegenheit kein Wort verlierst. Zu niemandem. Damit wäre auch Iudicael nicht geholfen.","Si tu as mauvaise conscience, tu devrais aller lui parler un peu avec Iudicael. Il se montrera cer[@16]tai[@16]ne[@16]ment réticent, mais ça le changera de ses journées qui se suivent sans avoir parlé à personne. C'est pour son bien...",[chs]
41,だが、くれぐれもユディセルには、すり替えたことを教えるなよ。,"Just remember, you are not to reveal the truth behind what we did... For his sake.","Wenn du mit Iudicael sprechen solltest, sag ihm auf keinen Fall etwas von dem Austausch, hast du verstanden!","Mais je t'en prie, ne lui dis pas que nous avons secrètement subtilisé une des pièces de sa collection[@1D]!",[chs]
42,冒険者さん！？　冒険の途中なんだよね！？　おもしろい話をしてよ！,"You're an adventurer, right!? Tell me of one of your adventures! Tell me!",Bist du ein Abenteurer/eine Abenteurerin und zufällig gerade auf einer spannenden Mission? Dann erzähl mir was von deinen Abenteuern!,"Vous êtes [@IF($E9(4),une aventurière,un aventurier)], c'est bien ça. Si vous êtes d'accord, que diriez-vous de me faire le récit de vos péripéties[@1D]?",[chs]
43,ユディセル！,Iudicael...,Iudicael!,Iudicael[@1D]!,[chs]
44,……その、君の両親が……その……,I have some... Your parents... Their ship...,Deine Eltern ... Also ...,"Euh comment dire, tes parents... ils...",[chs]
45,ど、どうしたの！？　父さんが、母さんが！？,What's wrong? My parents' ship is supposed to return any day now. That's why I've been waiting at the docks. They told me they'd bring me back a wonderful present from across the sea!,"Was ist mit meinen Eltern? Los, sag schon!","Qu'est-ce qui s'est passé[@1D]? Mon père, ma mère, que leur est-il arrivé[@1D]?",[chs]
46,船が……その、戻らなくてな……,Their ship... It won't be coming back...,"Das Schiff ... ist, äh, nicht ... zurückgekehrt ...",Leur bateau... il n'est toujours pas revenu et...,[chs]
47,！,!!!,!,!,[chs]
48,こういうとき、なんて言えばいいんだ？　子供相手に、なんて言えばいいのか、教えてくれないか？,What should I tell him? What [@1A(1)]can[@1A(0)] I tell him? He's nothing more than a child!,"Was sagt man in so einer Situation? Kannst du mir sagen, wie man das einem Kind erklären soll?","Que dire, dans ces cas-là[@1D]? C'est un enfant... Dis-moi, toi, comment lui apprendre[@1D]!",[chs]
49,ユディセル！？,Iu-Iudicael!,Iudicael!,Iudicael[@1D]?!,[chs]
50,帰ってこないだけだ。帰れないだけだよ。,They'll find another ship. I'll just have to wait.,"Nein, nein. Sie bleiben nur für etwas länger weg.",Ils sont sûrement bloqués quelque part. Ils vont revenir.,[chs]
51,僕にはわかるよ。いつかきっと、海の向こうから便りが届くんだ……,I have to be ready. They'll probably try to send me a message. I have to wait here and make sure I don't miss their message...,Irgendwann kommt garantiert eine Nachricht von der anderen Seite des Meeres. Ich weiß es!,"Moi, je le sais. Un jour, la mer m'apportera de leurs nouvelles...",[chs]
52,……便りが……,...their message...,Irgendwann ...,De leur nouvelles...,[chs]
