 ,0,1,2,3,4
 ,str,str,str,str,str
1,[play]さん、港でひともんちゃく起こっているようですので、お手伝いをお願いしたいと思いますにゃあ。急いで「メルヴァン鑑定社」までいらしてくださいにゃあ。,"Greetings,play I am calling to inform you of a...situation that has arised at the docks and requires your assitance. If you would make haste to Maelvaan's Gate, I shall provide you the details.","[@STRING($EB(1))], im Hafen scheinen sich tumultarrrtige Szenen abzuspielen. Ich möchte, dass du vor Ort nach dem Rrrechten siehst. Komm deshalb bitte schnell zum Mealvaan-Torrr!","[@STRING($EB(1))], on dirrrait qu'il y a un problème sur le port, nous avons besoin de votre aide, miaou[@1D]! Venez vite à la douane de Mealvaan[@1D]!",[chs]
2,ああ、[play]さん、お待ちしておりましたにゃあ。どうぞ港へ急いでくださいにゃあ。冒険者さんのお力を借りるような騒動が、何も起きなければいいのですが……。,"Ah, at last. A party of Assessors has already left for the docks. You are to meet them there and provide them with aid if they...ah, happen to require it.","Ah, [@STRING($EB(1))], auf dich habe ich gewarrrtet! Lauf schnell zum Hafen! Als [@IF($E9(4),Abenteurerin,Abenteurer)] kannst du diesen Aufrrruhr hoffentlich in den Griff kriegen.","Ah, [@STRING($EB(1))], vous voilà. Veuillez vous prrrésenter sur le port le plus vite possible[@1D]! J'aimerais tant que jamais nous n'ayons à demander de l'aide à vous autres aventuriers...",[chs]
3,依頼を受ける？,[en],Willst du den Auftrag annehmen und für Ordnung sorgen?,Acceptez-vous[@1D]?,[chs]
4,はい,[en],Nichts leichter als das!,Oui.,[chs]
5,いいえ,[en],Dafür gibt es doch die Leute vom Ordnungsamt.,Non.,[chs]
6,ここでも、ひともんちゃく起こすつもりですかにゃあ！,You would put our Assessors' lives in danger to protect yourself? That is quite...unfortunate.,Willst du jetzt etwa auch einen Aufrrruhr anzetteln?,Vous croyez vrrraiment que c'est le moment pour faire un caprice[@1D]?,[chs]
7,なにかあったら、武力行使をお願いいたしますにゃあ！,"If the situation appears dire, you have the First's permission to use any means of...force you find necessary.","Wenn es gefährrrlich werden sollte, zögere nicht, zur Waffe zu greifen!","Si ça tourrrne au vinaigre, n'hésitez pas à employer la manière forrrte, miaou[@1D]!",[chs]
8,すぐそこで、商船がサハギンどもに襲われたという話じゃあ。恐ろしくてチビっちゃいそうじゃあ。,I seen it wit' me own two eyes! Them fishbacks attacked a ship not a stone's throw from the shore!,Da drüben das Schiff ist angeblich von den Sahagin angegriffen worden. Bei solchen Schauermärchen läuft es mir immer gleich eiskalt den Rücken runter[@1D]...,Il paraît qu'un navire marchand vient de se faire attaquer par des Sahagins... Ça me donne la chair de poule...,[chs]
9,遠い外国から来た商船が襲われたとなると、リムサ・ロミンサの交易にも影響が出そうですね。,"Word gets out the Sahagin gone and boarded a trade ship, galleys'll start voidin' Limsa like th' plague...and takin' their business with 'em...","Wenn bekannt wird, dass in Limsa Lominsa fremdländische Schiffe überfallen werden, werden unsere Handels[@16]be[@16]ziehungen darunter leiden.",Le bateau visé venait d'un pays très lointain. J'ai bien peur qu'une telle attaque porte préjudice aux relations marchandes de Limsa Lominsa.,[chs]
10,「海蛇の舌」の奴等め！　我々の目と鼻の先で、好き勝手をして逃げられるとは……屈辱だ！,"Damn Serpent Reavers! Attackin' a ship so close, then runnin' like cowards afore we come t'fight!","Das waren diese plündernden Schlangen! Vor unserer Haustür können sie tun und lassen, was sie wollen, und kommen auch noch ungeschoren davon. Ah, was für eine Demütigung!","Ces satanés pillards du serpent[@1D]! Ils commettent leurs méfaits sans gêne, juste sous notre nez[@1D]! Quel affront[@1D]!",[chs]
11,だから、わかんない人だな、あんた！　あれはリムサ・ロミンサにとっても重要な品じゃないか！,"Like I keep tryin' t'tell ye, that cargo was important to the city.","Du hast überhaupt keine Ahnung! Weißt du, wie wertvoll das für Limsa Lominsa ist?",Mais tu es bien entêté ma parole[@1D]! Puisque je te dis que ces mar[@16]chan[@16]di[@16]ses sont d'une importance vitale pour la Cité[@1D]!,[chs]
12,調査してみなければ、わからん。現に、今のままでは魚の餌にすぎん。,"And like I keep telling you, we'll be the judge of that. But for now, it looks as if it is nothing more than fish bait.",Das kann ich mir beim besten Willen nicht vorstellen. Für mich ist und bleibt es nichts anderes als Fischfutter.,"Nous ne pouvons nous prononcer tant que nous n'avons pas effectué nos analyses. Pour l'instant, ça ne vaut pas plus que de que de la nourriture pour poisson.",[chs]
13,いやあ、僕は新人でして。ここに呼ばれてきただけなんですよ。あ、あなたも新人なんですね。良かった。,"Might you be a new recruit as well? Wonderful. I just joined the guild myself,xxxxxxordered me down here, so I came without question.","Ah, ich habe erst vor kurzem hier angefangen und weiß nicht, was ich sagen soll. Wie ich sehe, bist du auch neu hier. Da bin ich etwas erleichtert.","Moi[@1D]? Je suis juste un nouveau, et on m'a demandé de venir ici. Ah, toi aussi tu es [@IF($E9(4),nouvelle,nouveau)][@1D]? Ouf, je ne serais pas seul[@1D]!",[chs]
14,新人ふたり、よく来てくれた。,"Finally here, eh? Listen carefully.","Schön, dass ihr beide gekommen seid!",Merci à vous deux d'être venus si vite.,[chs]
15,リムサ・ロミンサの沖に、サハギンの一味である「海蛇の舌」が出没したのだ。あの船長が率いていた外国商船が一隻、沈められてな。,"A few bells past, the Serpent Reavers--a deadly group of pirates serving the Sahagin--showed up just off the coast of Limsa Lominsa, where they proceeded in attacking a small fleet of trade vessels commanded by the captain here, sinking one ship and the cargo it carried.","Vor den Toren Limsa Lominsas sind auf hoher See die plündernden Schlangen aufgetaucht. Diese Bande, die mit den Sahagin gemeinsame Sache macht, hat das Schiff dieses Kapitäns versenkt.","Au large de Limsa Lominsa, les pillards du serpent, alliés des Sahagins, ont attaqué la flotte de bateaux de commerce que cet homme menait. Un des navires à été coulé dans l'assaut.",[chs]
16,流行り病の蒼藻病に効くという薬を積んでいたというのだが、眉つばものかもしれない。積み荷の一部は、前もってこちらに送られていたから、現在は調査中だ。,This cargo was supposedly a type of medicine rumored to cure the [Black Rot]--a nasty plague which has been afflicting the residents of the city. I say supposedly because this is not the first time a merchant from a far-away land has come to our port peddling miracle medicines which turn out to be nary more than watered wine.,"Sie hatten angeblich ein Heilmittel gegen die Grünfäule an Bord, aber vielleicht sind das auch alles nur Gerüchte. Ein Teil der Fracht wurde vorher zu uns geschickt und wird zurzeit noch inspiziert.","Il dit qu'il trans[@16]por[@16]tait des médicaments contre la maladie sévissant en ce moment dans Limsa Lominsa, mais je me méfie. Nous sommes déjà en train de procéder aux premières analyses.",[chs]
17,……こういったものは厄介なんだ。調査に時間がかかる。成分が判明しても、効くか効かないかもわからないからな。,"As per Lominsan law, the captain sent a small sample in advance for us to inspect before allowing the ship to dock. However, these tests take time, and it was while we were all waiting for the results that the Sahagin attacked.","Das ist nicht ganz einfach und dauert seine Zeit. Aber selbst wenn klar ist, woraus es besteht, weiß man nicht, ob es auch wirklich hilft.","C'est ennuyeux... L'analyse prend du temps, et même si nous parvenons à identifier les éléments, nous ne sommes pas sûrs que le médicament ait un effet contre la maladie.",[chs]
18,とにかく成分が危険なものじゃなければ、持ち込めるはずだ。それがリムサ・ロミンサの法ってもんだろう。,"Yer laws say as long as there ain't nothin' dangerous in me cargo, I can bring in whatevers I want.","Auf jeden Fall lassen müssen sie alles, was sich als ungefährlich erweist, in die Stadt hinein lassen. So will es das Gesetz von Limsa Lominsa.","En tout cas, si vous ne trouvez rien de dangereux, il n'y a aucune raison pour que je ne puisse pas introduire ces mar[@16]chan[@16]di[@16]ses dans Limsa Lominsa. C'est la loi non[@1D]?",[chs]
19,港の法は、メルヴァン鑑定所が決める。それがリムサ・ロミンサの法だ。,"Our laws say what we wish them to say, captain. Do not forget that.",Die Gesetze für den Hafen macht das Mealvaan-Tor. So will es das Gesetz von Limsa Lominsa.,"Sur le port, c'est la douane de Mealvaan qui décide. Voilà la loi de Limsa Lominsa.",[chs]
20,こいつらを借りるぞ、ナディロ。,"[Yellow], I require the assistance of these two.","Die hier werde ich mir mal ausborgen, Nadilo.","Nadilo, je t'emprunte ces deux-là[@1D]!",[chs]
21,来い、鑑定所だ。,"To the customshouse, both of you.","Los kommt, es gibt was zu begutachten!",Rejoignez-moi à la douane.,[chs]
22,蒼藻病に効く新しい薬だってよ。「海蛇の舌」が襲ったってことは、本当に効く薬なんじゃないか？,"A potation t'cure the [Black Rot]? If the Reavers wanted it, then it must be legit'mate!","Wenn es ein neues Heilmittel gegen die Grünfäule ist und die Sahagin deswegen angegriffen haben, bedeutet das vielleicht, dass es tatsächlich hilft!","Il paraît que c'est un nouveau médicament contre cette maladie... Si les pillards du serpent ont attaqué, il y a bien une raison, non[@1D]? Et s'il y avait vraiment un effet[@1D]?",[chs]
23,なんだって、そんな大事な薬が沈められたのよ？　なんですぐに船を引き揚げないの？,"If there's even a minnow's chance this medicine could save those as caught the rot, then why ain't no one up fishnin' it out the drink?",Und so eine kostbare Medizin schwimmt jetzt auf dem Meeresgrund? Warum bergt ihr das Schiff denn nicht?,"Comment ça, les médicaments ont coulé[@1D]? Mais qu'est-ce que vous attendez pour renflouer le bateau[@1D]?",[chs]
24,あんたも鑑定士の仲間なんだろ？　さっさと鑑定を終わらせて、新しい薬をみんなにいきわたらせてくれよ。あの病で苦しむ姿を見たことがあればわかるだろう？,"You one o' them Scholarlies, ain't ye? Well, ye tell yer bosses t'get off their arses and finish their tests. There're a mite many souls be needin' that cure!","Du bist doch ein guter Freund der Inspektoren, oder? Kannst du ihnen nicht sagen, dass sie schnell fertig werden sollen, damit das Mittel an alle verteilt werden kann? Du hast doch gesehen, wie sehr die Leute unter der Krankheit leiden.","Toi aussi tu es de la douane de Mealvaan, n'est-ce pas[@1D]? Dépêchez-vous de finir vos analyses et d'autoriser la dis[@16]tri[@16]bu[@16]tion de ce médicament[@1D]! Si vous aviez vu les malades à l'agonie, vous com[@16]pren[@16]driez...",[chs]
25,堅苦しいことばっかり言いやがって。こんなに港を厳しくしたら、本当に必要なものが手に入らなくなるじゃないさ。あの新しい提督も、言われるままのメルヴァン鑑定所も、何もわかっちゃいないよ！,"Hah! What ever happened t'the good ol' Limsa? Since that new Admiral took 'er post, ain't been nothin' but one new rule after the next! Maelvaan's Gate runs free while us normal folk can't get the goods we needs!","Dieses ganze Gerede! Wenn sie die Kontrollen immer weiter verschärfen, werden lebens[@16]not[@16]wendige Sachen bald nicht mehr in die Stadt gelangen. Aber weder der Admiral noch die Mealvaan-Leute wollen das begreifen!","Avec des règles aussi sévères, on va finir par ne plus pouvoir se prrrocurer même les choses dont on a besoin... Cette nouvelle Amirale et ses toutous bien obéissants de la douane de Mealvaan nous gâchent vrrraiment la vie[@1D]!",[chs]
26,実はな、おまえたちに調べてもらいたいことがある。あの薬に関することだ。,"I've an assignment for you, initiate.","Ich möchte, dass ihr etwas untersucht, was mit dem Heilmittel zu tun hat.",J'ai une mission pour vous. Ça concerne ce médicament.,[chs]
27,蒼藻病の特効薬だという薬は、さまざまな国から持ち込まれている。しかしほとんどが、たいした効果もなく高価なだけの粗悪品だ。,"A sevennight does not pass without some vessel of foreign origin docking in our ports,Black Rot Though most carry a hefty asking price, they are oft little more than bottles of cheap rum with fancy labels. And while the rum will ease the pain of the ailment, it definitely does not cure it.","Uns erreichen Heilmittel aus aller Herren Länder, die gegen die Grünfäule wirken sollen. Die meisten Mittel zeigen aber nur wenig oder gar keine Wirkung und sind nichts als Geld[@16]schnei[@16]derei.","Des soi-disants remèdes miracle contre la peste verte, il en arrive sans cesse depuis les quatre coins du monde. Seulement, jusqu'ici, tout ce qu'on a pu voir, c'est de la camelote vendue à prix d'or mais sans aucun effet.",[chs]
28,今回の薬は、遠く、西の国から持ち込まれたという話だが、成分の中からは珍しくもないものが発見された。詳しく言ってもわからんだろうから省くが、ここリムサ・ロミンサがある○○大陸でも採れるものだ。,"The ""cure"" in question this time is claimed to have originated in a nation far to the west, and after a few tests run by our chemists, this claim seems to be valid...for the most part. However, we also discovered the potion contains an ingredient native to La Noscea.","Diesmal soll die Medizin aus einem Land fern im Westen kommen. Bei der Analyse sind unsere Experten auf einen Bestandteil gestoßen, der zwar nicht selten ist, unseren gesamten ○○Kontinent samt Limsa Lominsa aber gehörig erschüttern könnte.","Cette fois-ci, le médicament en question arriverait d'un lointain pays de l'ouest, mais lors de nos analyses, nous avons découvert un élément très commun et trouvable sans problème dans les environs de Limsa Lominsa.",[chs]
29,それ以外の成分についての鑑定を手伝うのが、おまえの仕事だ。,"Initiate. You are to obtain the list of foreign ingredients and compile data on their origin, use, and effects.",Zur Analyse der übrigen Bestandteile brauche ich deine Hilfe.,"Concernant tous les autres éléments, c'est ton rôle d'aider les experts dans leurs analyses.",[chs]
30,それ以外の調査をするのが、おまえの仕事だ。,"You, on the other hand, are to investigate the La Noscean ingredient.",Du kannst mir bei weiteren Untersuchungen helfen.,"[@STRING($EB(1))], tu vas t'occuper de cet élément suspect.",[chs]
31,○○（フィールド名）にある○○（ワークビレッジ名）に向かってくれ。そこで材料の取引があったかもしれない。この薬と資料を、オレジーという年寄りに見せて尋ねてみてくれ。,Takes this sample of the medicine and this report. I suggest you begin in [Aleport]. There you will find an old alchemist by the name of [Oreji] who deals in local herbs. She may know something regarding a transaction of the ingredient in question.,Geh zum ○○（ワークビレッジ名） in ○○（フィールド名）! Möglicherweise wurde dort mit einzelnen Wirkstoffen gehandelt. Lass die Medizin und diese Unterlagen von einer älteren Dame namens Orjeh prüfen!,???Dans[@1D]??? se trouve[@1D]???. Il est fort possible que notre élément y ait fait l'objet d'une transaction. Rends-toi sur place et montre ce médicament ainsi que ce document à une Elézenne plutôt âgée appelée Aureisie.,[chs]
32,参りましたねぇ。はっきりと、偽の薬とは言い切れないのでございますよ。どうしても判定できない成分も入ってはいるのですからねぇ。,"The sample has certainly raised more questions that it has provided answers. Every step we take in the direction of gleaning the tincture's true potency, seems only to lead us further from the answer we seek.","Das tut mir wirklich leid. Ich kann nicht ausschließen, dass bei dieser Medizin um ein Imitat handelt. Es sind zu viele Bestandteile enthalten, die wir nicht bestimmen können.","C'est embêtant... Impossible d'affirmer ca[@16]té[@16]go[@16]ri[@16]que[@16]ment que ce médicament est un faux. Il y a un élément que nous ne parvenons pas à identifier, quoi que nous fassions.",[chs]
33,少し前までは、鑑定士ってカッコイイ職業のひとつだったのに、今では憎まれ役だよ。規制が厳しすぎて仕事は多いし、ちょっとでも間違いをしたら槍玉にあげられるし、気苦労だけがたまるよ。,"When I was young, I dreamed of becoming an Assessor--solving mysteries, capturing criminals, protecting the city from danger... However, now that I've finally become one, I find myself behind a desk transcribing legal documents, dealing with angry sea-captains, and all-in-all hated by the public. I'm beginning to wonder if Limsa Lominsa truly needs all these rules and regulations...","Bis vor einiger Zeit war unser Beruf noch sehr angesehen und beliebt. Inzwischen reißt sich niemand mehr um diese Arbeit. Man muss mit so vielen Ein[@16]schrän[@16]kungen leben, es gibt immer viel zu tun, und wenn man nur den kleinsten Fehler macht, hat das schlimme Konsequenzen. Da häuft sich viel Stress an.","Il n'y a encore pas si longtemps, expert à la douane était un métier attractif. Mais avec la nouvelle législation si sévère, nous croulons sous le travail, et à la moindre erreur, nous sommes montrés du doigt...",[chs]
34,この成分の薬草は、確か、リムサ・ロミンサの外へ持ち出してはならないものではなかったでしょうか。皆さん、気づいているのでしょうか……？,"I believe an oversight was made by Assessor [xxxxx] when he asked you to take the medicine sample with you to [Aleport]. Thallasocratic charter, chapter 7, article 4 clearly states that unidentified substances currently under investigation by the customshouse are forbidden from leaving the citygates until an edict signed by the Admiral is granted t-- Is anyone listening...?",Ist die Ausfuhr von Heilkräutern mit diesen Bestandteilen aus Limsa Lominsa nicht untersagt? Kommt euch das nicht merkwürdig vor?,???Il me semble que cette plante médicinale est interdite à l'exportation depuis Limsa Lominsa. Je me trompe[@1D]?,[chs]
35,少しだけ我慢をし。その咳が止まる薬があるからね。,"Relax, my dear. I'll find you something for that cough.","Sei tapfer! Es gibt ein Mittel, dass den Husten heilt.",Encore un petit effort. J'ai un remède contre cette toux.,[chs]
36,ゴホッゴホッ！　近づかないで……ゴホッゴボッ！,<cough> <cough> Stay away...<cough>,"‹Hust, röchel›Komm bloß nicht näher. ‹Hust!›",Keuf keuf keuf[@1D]! Ne vous approchez pas... keuf keuf[@1D]!,[chs]
37,……蒼藻病なの……うつるかも……ゴホッゴホッ！,...Lest the [rot] grip you as well <cough> <cough>,... Du steckst dich sonst noch mit der Grünfäule an. ‹Keuch.›,C'est[@1D]???... C'est très contagieux... keuf keuf,[chs]
38,ちょうどよかったよ。あんた、冒険者だろ？,"Ah, I need a leech, and Halone sends me a vagrant. <sigh> Yet 'tis not my position to question Fate's whispers.","Du kommst wie gerufen! Du bist doch ein Abenteurer/eine Abenteurerin, oder?","Oh, [@IF($E9(4),une aventurière,un aventurier)][@1D]? Tu tombes à pic[@1D]!",[chs]
39,コボルドどもに薬が奪われちまったんだ。追いかけて取り戻してやってくれよ。あんた、冒険者だろ？,"You! A pack of kobolds have made off with a sack of herbs I collected this morning, and by the grace of the goddess you have been sent here to retrieve them for me.","Kobolde haben mir meine Medizin gestohlen. Für dich sollte es ein Leichtes sein, sie mir wieder[@16]zube[@16]sorgen. Du bist doch ein Abenteurer/eine Abenteurerin, oder nicht?","Ces fichus Kobolds nous ont volé un médicament, et tu vas te charger de le récupérer.",[chs]
40,○○（モンスター名）をけしかけてやったからね。コボルドどもは、あっちの方にある○○（ダンジョン名）に逃げていったよ。わからんのか、あんた、冒険者だろ！？,"I dispatched a familiar to catch them,xxxx and my pet has yet to return. Now away you go! Chop chop!","Ich habe ○○（モンスター名） aufgehetzt. Daraufhin haben sich die Kobolde in den ○○（ダンジョン名） geflüchtet. Verstehst du, was ich meine? Du bist doch [@IF($E9(4),eine Abenteurerin,ein Abenteurer)], oder etwa nicht?","J'ai lancé[@1D]??? à leur poursuite, et ils se sont réfugiés dans[@1D]???. Comment ça tu ne connais pas, tu es vraiment [@IF($E9(4),une aventurière,un aventurier)][@1D]?",[chs]
41,お　おまえ　よく　やった,Many thanks to good warrior.,"He he, gut gemacht!",Toi-toi bien fait merci beau-beaucoup,[chs]
42,ぬすま　れた　とりもどす　お　おれたち　あたり　まえ,"Many thanks, but give you herbs, we cannot. Only take back what is ours.",Gestohlene Sachen wir zurückgeben tun selbst[@16]verständ[@16]lich.,Nou-nous récupérer chose volée rien fai-faire mal,[chs]
43,……これ　ひつよう？　び　びょうき　ひと　ひつよう　してる？,Herbs save sick woman?,Du das brauchen hier? Für kranke Leute brauchen tun?,Toi-toi besoin[@1D]? Personnes malades be-besoin[@1D]?,[chs]
44,び　びょうき　よくない　でも　これ　お　おれたち　もどしたい。,"Sorry we are for sick woman, but herbs must we must return.","Krankheit nicht gut, aber wir das zurückgeben tun!",Ma-maladie pas bien mais nous vou-vouloir rendre ça,[chs]
45,もどしたい　け　けど……　もどれない　か　かも……,We must return...but return we cannot...,"Wir zurück wollen, aber nicht können tun.",Peut-être pas pou-pouvoir rendre... De-derrière t-toi...,[chs]
46,お　おまえ　あれ　やっつける　たのむ,Good warrior save kobold friends.,Du können Monster bezwingen?,Toi-toi régler compte monstre s'il te plaît,[chs]
47,そ　そしたら　あげる　お　おまえに　あげる,"Good warrior save friends, friends save sick woman.",Dann wir dir wollen geben es.,Nou-nous donner toi[@1D]??? après promis,[chs]
48,や　やった　ああ,"Good warrior,he/shekeeps!",Du starker Kämpfer/starke Kämpferin sein!,Wou wouhou,[chs]
49,や　やった　な　ああ,Promise [he/she] keeps!,Du immer siegen tun!,Wouhou hou hou,[chs]
50,こ　これ　もってけ　び　びょうき　ひと　あげて,"Kobold friend, promise we keep.","Hier, du nehmen und kranke Leute geben!",Toi-toi emporter donner personnes malades,[chs]
51,こ　こんど　ぬすむ　よくない　つたえて,"We keep! But good warrior promise, no more taking of herbs. No more!",Wir nicht mehr stehlen tun!,Toi-toi aussi transmettre village voler pas bien,[chs]
52,遅かったね。そうか、薬は取り戻したかい。,"By the Tweleve, I thought you were gone for good.The young woman is no longer here. I feared for her health, so I sent her back to Limsa Lominsa.",Das hat aber lange gedauert. So? Du hast die Medizin zurückgebracht?,"Tu en as mis du temps. Alors, ce médicament[@1D]?",[chs]
53,……あの娘さんなら、リムサ・ロミンサに戻したよ。しかし、ありゃもたないだろうね。ここには、蒼藻病の薬があるって噂が流れているから、無理してここまでやってきたんだろうが。,"Ever since rumors of a cure to the [Black Rot] being found in [Aleport],xxxxx Eastroad","Diese Kleine hätte es sicher nach Limsa Lominsa zurückgebracht. Aber das wäre doch zu schade, wenn man bis hierher kommt, weil man das Gerücht von einem Heilmittel gegen die Grünfäule gehört hat, und dann einsehen muss, dass man umsonst den weiten Weg auf sich genommen hat.","J'ai laissé rentrer la jeune fille à Limsa Lominsa, mais je suis plutôt pessimiste... Elle a déjà laissé beaucoup de forces en venant ici pour trouver un remède...",[chs]
54,確かにあるが、間違えちゃいけない。ここにあるのは材料さ、薬を作ってるわけじゃないんだ。薬の材料を集めて、商人に売ってるのさ。もともと酒の材料になるような植物を売ったりしていた、その歴史があってのことさ。,"Are the rumors true? Well, yes and no. Some of the ingredients found in the cure can be purchased here. However, those ingredients are sold to traders who in turn, sell them to the alchemists who prepare the medicine.","Nun ja, wir haben hier einiges an Wirkstoffen. Aber wir selbst stellen daraus keine Medizin her. Wir verkaufen sie nur an Zwischen[@16]händler. Angefangen hat bei uns alles mit Pflanzen, aus denen sich köstliche Weine herstellen lassen.","???La rumeur qui dit que nous avons un remède est inexacte. Ici, nous avons les ingrédients, mais nous ne fabriquons pas de médicaments. A l'origine, nous faisons le commerce de plantes utilisées dans la confection de thé/alcool.",[chs]
55,なんだって？　あんた、メルヴァン鑑定社の人間なのかい？　そりゃ、早くお言いよ。,"Hm? You work for the customshouse in Limsa Lominsa? Well, why didn't you say so? What would you have me look at?",Was sagst du? Du arbeitest für das Mealvaan-Tor? Sag das doch gleich!,Quoi[@1D]? Tu travailles pour la douane de Mealvaan[@1D]? Mais il fallait le dire plus tôt[@1D]!,[chs]
56,見たことない薬だが、確かに、うちの薬草が使われているようだね。においでわかるよ。,"Never seen an unction the likes of this one, but I can tell you whoever made it used my herbs. I can smell them.","So ein Heilmittel habe ich zum ersten Mal gesehen. Es scheint aber unsere Wirkstoffe zu enthalten. Das merkst du, wenn du dran riechst!","Hum, je n'ai jamais vu ce médicament, mais il contient des extraits d'une plante qui vient de chez nous. Je la reconnais à l'odeur.",[chs]
57,資料を読めば、取引の時期も、何を買っていったかわかる。他の材料のいくつかも、わかるかもしれない。,I will compare your documents with my sales ledgers and see if I cannot pin point the trader who purchased the herbs. I'll also do some tests on the medicine myself to see if I cannot determine some of the other ingredients.,"Ich werde in den Unterlagen nachsehen. Dann kann ich dir sagen, wann und was genau alles gekauft wurde. Möglicherweise kann ich auch noch mehr in Erfahrung bringen.","En fouillant dans mes papiers je devrais retrouver la date de la transaction, et peut-être même d'autres plantes utilisées dans sa confection.",[chs]
58,後で連絡しておくから、あんたは帰りな。,I'll contact you when I'm ready. Now off with you!,Geh zurück in die Stadt. Ich werde mich später bei dir melden.,"Je te re[@16]con[@16]tac[@16]te[@16]rai plus tard, tu peux rentrer pour le moment.",[chs]
59,……ゴホッァッァ、ガハッァガハッァ！！,<cough> <cough>,"‹Hust, schluck!›","Keuf, keuf[@1D]! Uuuh...",[chs]
60,あの薬を……ゴホッァ、ください。ここで調べているという、新しい薬を……ガハッァガハッァ！,Medicine... I need <cough> <cough> that medicine... I know <cough> you have some...<cough>!,Gib mir[@1D]... ‹Krächz›[@1D]... diese Medizin[@1D]... ‹Hust›[@1D]... nach der du hier gesucht hast!,"Ce médicament... keuf, keuf... que vous analysez... s'il vous plaît... keuf, keuf...",[chs]
61,あなた、大丈夫ですかにゃあ！？,Are you...alright?,Das klingt aber gar nicht gut.,Qu'est-ce que vous avez[@1D]?,[chs]
62,病気なんでしょう！？　休んでいないとだめですにゃあ！　さぁ、こちらへ……,"Is it the [rot]? You should not be here, miss. Let me take you somewheer where you can lie down...","Du bist krank. Komm mit, du musst dich ausruhen!","C'est cette maladie[@1D]!? Vous devez vous reposer, miaou[@1D]! Venez, par ici...",[chs]
63,薬を……ガハッァガハッァ！,Please...the medici--<cough> <cough>!,Die Medizin[@1D]... ‹Hust.›,"Le médicament... s'il te plaît... keuf, keuf[@1D]!",[chs]
64,薬をあげる？,[en],Dem Kranken die Medizin geben?,Lui donnez-vous le médicament[@1D]?,[chs]
65,はい,[en],"Ja, schnell. Jetzt zählt jeder Augenblick!",Oui.,[chs]
66,いいえ,[en],Der simuliert doch.,Non.,[chs]
67,ありがとう……,Twelve bless you...,Danke[@1D]...,Merci...,[chs]
68,そんな……,I must...!,‹Hust!›,Pourquoi...,[chs]
69,しっかりにゃあ！,Oh dear!,"He, komm wieder zu dir!","Reprrrenez-vous, miaou[@1D]!",[chs]
70,おい、誰か！　奥へ運ぶぞ！,Hurry! We must carry her to a bed!,Kann jemand mit anfassen? Wir bringen ihn rein.,Quelqu'un[@1D]! A l'aide[@1D]! Il faut la transporter derrière[@1D]!,[chs]
71,不運だったな。蒼藻病の患者に目をつけられるとは。とかく、これは報酬だ。,How very unfortunate it is for you to have had been a part of this. I apologize.,"Heute ist nicht gerade mein Glückstag. Ich habe einem Kranken, der die Grünfäule hat, ins Angesicht blicken müssen[@1D]... Ach hier, deine Belohnung.","Eh bien, tu as vraiment pu voir cette maladie de près... Ça va aller[@1D]? En tout cas, voilà ta récompense.",[chs]
72,あの患者なら息を引き取った。蒼藻病は突然、死が訪れる病だ。おまえのせいではない。,"The woman who came in search of the medicine--she's with the gods now. No,Black Rottakes who it wants, and cares naught for the efforts of those who attempt to deny it's cold embrace.",Dieser Kranke macht seine letzten Atemzüge. Die Grünfäule endet immer tödlich. Aber du darfst dir deswegen keine Vorwürfe machen. Dich trifft keine Schuld!,"Cette jeune fille[@1D]? Elle vient de rendre son dernier souffle... Cette maladie est foudroyante, tu sais. Ce n'est pas de ta faute.",[chs]
73,あの新しい薬は効力がなかったと、噂になるだろうな。本当に効力がないかどうか、無論、答えは出せない。これからじっくりと調査するしかない。,Several people saw her take the cure earlier. It is only a matter of time before rumors of its ineffectiveness spread through the town and eventually become reality. Whether the medicine truly is ineffective or not--that we will discover only after our tests are complete.,"Man munkelt, dass diese neue Medizin überhaupt nicht wirkt. Ob an dem Gerücht was dran ist, kann ich dir nicht sagen. Das muss erst noch untersucht werden.",La rumeur que ce nouveau remède est inefficace va cer[@16]tai[@16]ne[@16]ment se répandre... Mais il est trop tôt pour en être vraiment sûr. Nous devons nous concentrer sur nos analyses.,[chs]
74,オレジーさんからの連絡があれば、調査が大幅に進むはずです。,And success relies on the arrival of [lady Oreji]'s correspondence.,"Wenn Orjeh sich meldet, können wir davon ausgehen, dass die Untersuchung vorankommt.","Si Aureisie nous apporte son aide, nous avancerons beaucoup plus vite.",[chs]
75,ベルネドゥさん。僕は鑑定士になるために、リムサ・ロミンサの法はすべて暗記しています。この場合、オレジーさんは、この薬草をリムサ・ロミンサ外の商人に売ったということですよね。それは法に触れるのではないでしょうか。,"Assessor [Xxxxx]. I have some familiarity with thalassocratic law,lady Orejimay be in violation of--","Bernaide, um ein Mealvaan-Inspektor zu werden, lerne ich alle Gesetze von Limsa Lominsa auswendig. In diesem Fall müssen wir uns fragen, ob Aureisie rechtens gehandelt hat, wenn sie diese Mittel an fremdländische Händler verkauft hat.","Madame Bernaide. Pour entrer à la douane de Mealvaan, j'ai appris toutes les lois de Limsa Lominsa par cœur et... Le fait qu'Aureisie vende ses herbes médicinales hors de la Cité, ça ne serait pas ré[@16]pré[@16]hen[@16]si[@16]ble[@1D]?",[chs]
76,バカ！　それを言ったら、海の外から本当に効力を持った薬が入ってこなくなるぞ！,"Fool! This medicine could be the ""one."" Would you let the law step in the way of curing thousands?","So ein Unsinn! Wenn es in Übersee ein wirksames Heilmittel gäbe, dann würde uns das niemals erreichen.","Idiot[@1D]! En interdisant ça, nous n'aurions plus aucun médicament efficace qui arriverait par voie maritime[@1D]!",[chs]
77,……。,...,Hm.,...,[chs]
78,港を通っていないものは、港の法では裁けない。メルヴァン鑑定所は、リムサ・ロミンサの法に従うだけだ。,"Thalassocratic charter states we are to inspect all that passes through our ports. That which does not remains out of our jurisdiction. We are merely complying with the law, gentlemen.","Für Sachen, die nicht den Hafen passieren, gelten auch nicht die Gesetze des Hafens. Das Mealvaan-Tor muss sich in so einem Fall nur nach dem allgemein geltenden Recht von Limsa Lominsa richten.",Nous n'avons rien à voir avec ce qui ne passe pas par le port. La douane de Mealvaan doit se plier aux lois limséennes.,[chs]
