 ,0,1,2,3,4
 ,str,str,str,str,str
1,フロンデール薬学院の方に御用がありましたら、[@CR]こちらで受付いたします。,"Greetings, and welcome to Frondale's Phrontistery. How may I direct you?","Wenn du in Frondales Physiatrische Akademie eintreten willst, musst du dich vorher hier anmelden.",Je peux vous renseigner si vous souhaitez parler à l'un des docteurs de l'Académie médicale de Frondale.,如果有事找福隆戴尔药学院的人的话，[@CR]在这边受理。
2,冒険者の方のみ特例にて、当学院への不定期演習にご参加いただけます。[@CR]当学院卒業者限定のご紹介者も、必要ございません。,"If it is enrollment you seek, allow me to set your mind at ease. I can see you are an adventurer. As such, you may matriculate at any time of year. You needn't even produce a reference.",Für Abenteurer bieten wir besondere Ein[@16]füh[@16]rungs[@16]kur[@16]se an. Eine Vermittlung über einen Absolventen unserer Akademie ist nicht notwendig.,"Si l'alchimie vous intéresse, nous offrons également aux aventuriers l'accès à certains séminaires, à des conditions avan[@16]ta[@16]geu[@16]ses. Ils n'ont pas besoin d'une re[@16]com[@16]man[@16]da[@16]tion d'un diplômé de cette université.",只有冒险者可以有特例参加学院的不定期演习。[@CR]也不需要有学院毕业者限定的介绍人。
3,冒険者の方々が地方にて得た、珍しい知識や技術を[@CR]当学院へと還元してくださることを、わたくしどもは期待しております。,The wealth of knowledge that you and your brethren acquire on your travels is of incomparable value to us. So...do you wish to play a part in the advancement of the alchemical field?,"Wir erhoffen uns, dass die Forschung von den seltenen Kenntnissen und Fertigkeiten, die sich jeder Abenteurer auf seinen Reisen angeeignet hat, profitieren wird.","Nous espérons qu'en échange, ils partageront le savoir et les techniques étrangères qu'ils ont cer[@16]tai[@16]ne[@16]ment acquis au cours de leurs voyages.",我们很期待诸位冒险者能将在各地得到的珍贵知识与技术还原给学院。
4,そうですか。では、先に、よく問題視されることをご説明しておきます。[@CR]ここフロンデール薬学院に勤めている看護師の男女は、同数です。,"Very well, let us start at the beginning─with the questions most frequently asked. Here at Frondale's Phrontistery, we employ equal numbers of male and female alchemists.","Nun gut. Um von vornherein Miss[@16]ver[@16]ständ[@16]nisse auszuschließen, möchte ich dich darüber informieren, dass an Frondales Physiatrischer Akademie Krankenpfleger beiderlei Geschlechts in jeweils gleicher Anzahl beschäftigt sind.",Je préfère vous expliquer à l'avance quelque chose qui pose souvent problème.,是吗。那么，首先向你说明一下常见的问题。[@CR]在这个福隆戴尔药学院工作的护士中，男女是同数的。
5,その事実を知って[@CR]落胆する冒険者が何故だか多く、不思議でたまりません。,"Many adventurers are discouraged when they learn of this, for what reason I know not.","Es ist mir bis heute ein Rätsel, wieso diese Information immer wieder viele Abenteurer dazu veranlasst, von einem Studium an unserer Einrichtung abzusehen.","Nous avons autant d'infirmiers que d'infirmières dans cet éta[@16]blis[@16]se[@16]ment. Ceci semble décevoir bon nombre d'aventuriers, que Thal me damne si je sais pourquoi.",不知为何有很多知道这个事实而灰心的冒险者，实在是不可思议。
6,ちなみに、病人は老若男女、全体的に平均的分布となっております。[@CR]つまりあなたが新薬を開発した暁には、さまざまな年代の臨床試験が[@CR]できます。,"The same balance governs our patients─old and young, male and female. For in the development of new medicines, a broad yet balanced set of test subjects is required.","Genauso gleichmäßig ist übrigens die Verteilung der Patienten. Bei uns werden in ungefähr gleicher Anzahl alte und junge, männliche und weibliche Patienten behandelt.[@CR]Das heißt also, wenn du zum Beispiel ein neues Medikament entwickelt hast, dass du hier sehr breitgefächerte klinische Studien betreiben kannst.","Pourtant, l'Académie offre des avantages considérables aux alchimistes. Par exemple, nous avons des malades de tout sexe et tout âge, c'est idéal pour tester cliniquement nos nouveaux médicaments.",顺便，病人中男女老幼全体都是平均分布的。[@CR]即是说当你开发新药之时，能进行各个年代的临床试验。
7,この利点を説明しても、冒険者を引き留められないのが……[@CR]不思議でたまりません。,"Why it is that the advantages of this system never seem clear to you adventurers is, again, beyond me.","Völlig rätselhaft wird mir jedoch ewig bleiben, warum ich die Abenteurer, die nach dieser Information einen Rückzieher machen, nicht mehr umstimmen kann.",Ceci n'a cependant pas l'air de retenir l'intérêt de beaucoup d'aventuriers. C'est vraiment incom[@16]pré[@16]hen[@16]si[@16]ble.,就算说明这益处，也没法挽留冒险者……[@CR]实在是不可思议。
8,……どうも、すぐにでも仕事に取りかかっていただけるようですよ。[@CR]どうします？,"In any event, there is work for you at once, should you choose to accept it.",Also ... ich hätte da einen Auftrag für dich. Möchtest du ihn annehmen?,"[@SPLIT([@STRING($EB(1))], ,1)], nous avons déjà du travail pour vous. Qu'en dites-vous[@1D]?",……你好，应该很快就能给你工作去做。[@CR]怎么样？
9,冒険者は気楽ですね。[@CR]人の命の大切さがわかれば、この機会を逃したりはしません。,"Gods, your kind are a fickle lot. To spurn such an opportunity to contribute amply demonstrates your lack of appreciation for life.","Ja, ja. Als Abenteurer braucht man sich eben um nichts zu sorgen. Wenn du wüsstest, wie wichtig das Leben ist, würdest du dir diese Möglichkeit, Leben zu retten, nicht entgehen lassen.","Décidément, les aventuriers sont im[@16]pré[@16]vi[@16]si[@16]bles. Vous vous engagez dans un hôpital mais vous refusez d'aider à sauver une vie[@1D]?",冒险者很悠闲吧。[@CR]如果明白人命的重要，就不会放过这次机会。
10,フロンデール薬学院の入院患者の中で、最も重要な患者……[@CR]ダミエリオー様の意識が途切れました。,"Among the patients here at the Phrontistery, there is one whose situation is far more dire than the others─young Damielliot, son of our own guildmaster, Master Faustigeant.","Damielliot, der wichtigste und bedeutendste aller Patienten in unserer Akademie, hat das Bewusstsein verloren.","Très bien, laissez-moi vous parler du patient le plus important de l'Académie. Il s'agit du jeune Damielliot.",福隆戴尔药学院的住院患者中最为重要的患者……[@CR]达米利奥失去意识了。
11,ダミエリオー様は、奇病を患っておいでです。[@CR]一度、眠りにつくと、なかなか目をお覚ましにならないという病です。,"His affliction is...a strange one. We are not entirely certain of its nature. For years now he has simply been taken with long fits of slumber, sometimes not returning to us for days on end.","Damielliot leidet an einer mysteriösen Krankheit. Wenn er einmal eingeschlafen ist, vergeht eine sehr lange Zeit, bis er die Augen wieder aufmacht.",Il souffre d'une étrange maladie d'origine inconnue. Il s'endort subitement et ne rouvre pas les yeux pendant des semaines.,达米利奥身患怪病。[@CR]那是一旦睡着，就不容易再次醒来的怪病。
12,とにかく長い昏睡状態は、肉体によくありません。[@CR]ダミエリオー様のため、薬を作る作業を手伝ってください。,"It is known that an excess of sleep can wreak havoc with the humours. We fear Damielliot's condition may be worsening by the day. Please, aid us in our efforts.","Für seinen Körper ist so ein Koma natürlich äußerst gefährlich. Ich möchte, dass du uns hilfst, eine Medizin für Damielliot herzustellen.",Damielliot vient tout juste de retomber dans le coma. Nous devons prévenir l'affaiblissement de son corps jusqu'à ce qu'il se réveille.,总之长时间的昏睡对身体很不好。[@CR]为了达米利奥请帮忙制作有效的药物吧。
13,レシピはこちらになります。,We have developed a formula for a medicine which should theoretically alleviate his symptoms. Here it is.,Hier ist die Prozedur der Herstellung erklärt.,"Pour ce faire, nous lui administrons un remède ré[@16]gu[@16]liè[@16]re[@16]ment, dont voici la recette.",药方是这个。
14,材料が特殊ですので、[@CR]「キャンプ・ブラックブラッシュ」にいる商人[@CR]「ノモモ」から受け取ってください。,"The required reagents are somewhat rare, but potent. To acquire them, you will need to speak to a merchant by the name of Nomomo. She can be found at Camp Black Brush.",Es ist eine ganz besondere Arzneimischung. Du erhältst sie von einem Kaufmann namens Nomomo in Camp Kohlenstaub.,"Les ingrédients nécessaires à sa concoction sont assez particuliers. Vous pouvez obtenir l'un d'entre eux auprès de la marchande Nomomo, au camp de Roncenoire.",因为材料特殊，[@CR]所以请去“黑尘营地”的商人“诺茉茉”那里去拿吧。
15,ああ、フロンデール薬学院の人かい。[@CR]また、あそこの子がぶっ倒れたのかい。,"From the Phrontistery, ain't you? Aye, you stink of the place. What is it this time, then? That younglin' take ill again?","Ah, wieder jemand von Frondales Physiatrischer Akademie! Liegt der Kleine etwa schon wieder danieder?","Vous venez de la part de l'Académie[@1D]? C'est pour le petiot qui dort sans arrêt, c'est ça[@1D]?",啊啊，你是福隆戴尔药学院的人吗？[@CR]那边的孩子又倒下了吗？
16,あんなものを体内に入れるなんて、ぞっとするよ、あたしゃ。[@CR]でも、自分の子の命を助けるなら、なんでもするってのが親だね。[@CR]ほら、これを持っていきな。,"You won't see me puttin' none of them bloody concoctions in my body. But I s'pose seein' yer son sick an' dyin'll drive a father to do damn near anythin'... <sigh> Here, take this. All you need now's [@SWITCH([@SHEET(itemData,10009011,41)],[@COLOR(#fff3f3f3)],[@COLOR(#ffc0ffa0)],[@COLOR(#ff60c8ff)],[@COLOR(#ffb38cff)],[@COLOR(#ffffa666)],[@COLOR(#ffe5dd7e)])][@EDGECOLOR(#ff262626)][@SHEETEN(xtx/itemName,1,10009011,1,1)][@EDGECOLOR($EC)][@COLOR($EC)].","Mir selbst käme das Flattern, wenn ich das meinem Körper einflößen müsste. Aber wenn es das Leben des Kindes rettet, würde ein Vater sicher alles für sein Kind tun.[@CR]Hier, bring das dem Jungen!","Ça me fait froid dans le dos quand je pense qu'ils lui font boire une horreur pareille. Enfin, les parents font tout pour sauver leurs enfants, j'imagine. Pour [@SWITCH([@SHEET(itemData,10009011,41)],[@COLOR(#fff3f3f3)],[@COLOR(#ffc0ffa0)],[@COLOR(#ff60c8ff)],[@COLOR(#ffb38cff)],[@COLOR(#ffffa666)],[@COLOR(#ffe5dd7e)])][@EDGECOLOR(#ff262626)][@SHEETFR(xtx/itemName,2,10009011,1,1)][@EDGECOLOR($EC)][@COLOR($EC)], vous devriez pouvoir l'acheter auprès de quelqu'un dans les environs. Avec votre argent, s'entend.",一想到那种东西放进身体里就毛骨悚然啊。[@CR]不过，为了自己孩子的性命，父母应该什么都愿意做吧。[@CR]给，拿上这个回去吧。
17,よくぞ戻られました。その品は、[@CR]眠り続けていても栄養を採ることができるようにと、[@CR]ここの院長フォスティジャン様が開発されたものです。,"You're returned! And you have the medicine? Excellent! That treatment was devised by Master Faustigeant himself. It will serve to nourish the body, even in an unconscious state.",Damit kann der Körper auch bei tiefem und lang anhaltendem Schlaf Nahrung aufnehmen. Dieses Mittel hat der Chefarzt Dr. Faustigeant entwickelt.,Cette potion est une invention du directeur Faustigeant lui-même. Elle apporte tous les nutriments nécessaires à la survie.,你终于回来了。[@CR]那药品是这里的院长福斯蒂让开发的，[@CR]为了让病人在昏睡中也能获得营养。
18,意識がなくとも、人は気配を感じています。[@CR]新人の気配が、ダミエリオー様の目を覚まさせるかもしれません。,"Despite his condition, he still shows signs that he is dimly aware of his surroundings. Perhaps your mere presence will evoke a response.","Auch wenn er bewusstlos ist, wird er deine Anwesenheit spüren. Vielleicht vermag deine Gegenwart sogar, ihn aus dem Koma erwachen zu lassen.","Il peut ressentir la présence des gens même s'il est inconscient. Qui sait, [@IF($E9(4),une nouvelle venue,un nouveau venu)] comme vous lui fera peut-être ouvrir les yeux.",就算没有意识，人也能感觉到气息。[@CR]新人的气息说不定能让达米利奥醒过来。
19,病棟へは、専用通路で向かってください。[@CR]奥の扉の近くに立っている、看護師ス・リヒャが案内してくれますよ。,Take the corridor which leads to the children's ward. Healer S'lyhhia by the door there will guide you.,"Geh über den Gang in den Patiententrakt. Lass dich von Schwester S'lyhhia begleiten, die dort hinten nahe der Tür steht.","Prenez le couloir réservé au personnel pour accéder à l'hôpital. L'infirmière S'lyhhia, qui se tient près de la porte du fond, vous y mènera.",请通过专用道路到住院楼去。[@CR]在深处的门附近站着的护士丝·莉夏会为你带路的。
20,ダミエリオー様のお部屋までご案内しましょう。[@CR]さあ、私に、あなたが作られた薬をお渡しください。,"I will see you to Damielliot's room. Please, may I have the medicine?","Ich bringe dich in Damielliots Zimmer. Gib mir die Medizin, die du hergestellt hast.",Je vais vous accompagner à la chambre de Damielliot. Vous pourrez lui administrrrer la potion que vous avez concoctée.,我带你去达米利奥的房间吧。[@CR]请把你制作的药物给我。
21,ダミエリオー様、[@CR]錬金術師ギルドに、新しい方がお入りになりましたよ？,"Damielliot, you have a visitor. This [@IF($E9(4),lady,gentleman)] is a new member of the Phrontistery.",Damielliot! Die Alchemisten haben einen Neuzugang!,"[@IF($E3($E9(11),12),[@IF($E3($E9(11),4),Bonsoir,Bonjour)],[@IF($E3($E9(11),17),Bonjour,Bonsoir)])], Damielliot. Je te prrrésente notre [@IF($E9(4),nouvelle,nouvel)] alchimiste.",达米利奥，[@CR]又有新人加入炼金术师行会了哦。
22,冒険者の方ですから、おもしろい冒険譚がたくさん聞けますよ？[@CR]さぁ、目を覚ましてくださいな？,Would you like to say hello? Damielliot? Can you hear me?,"Es ist [@IF($E9(4),eine Abenteurerin,ein Abenteurer)]. [@IF($E9(4),Sie,Er)] kann dir sicher viele spannende Abenteuer erzählen. Du musst nur aufwachen, Damielliot.","C'est [@IF($E9(4),une aventurière,un aventurier)], [@IF($E9(4),elle,il)] a cer[@16]tai[@16]ne[@16]ment des histoires pas[@16]sion[@16]nan[@16]tes à te raconter.",因为是冒险者，所以能听到很多有趣的冒险谭哦。[@CR]嗯，请醒醒吧？
23,"[@IF($E4($E8(1),1),……ああ……、会ったこと、あるよ……,……ああ……)]","[@IF($E4($E8(1),1),You... I know your face...,Ugggh...)]","[@IF($E4($E8(1),1),Ah ... Wir sind uns ... schon mal ... begegnet.,Ah ...)]","[@IF($E4($E8(1),1),Je... je l'ai déjà... [@IF($E9(4),rencontrée,rencontré)]...,Ouh...)]","[@IF($E4($E8(1),1),……啊啊……、曾经、见过啊……,……啊啊……)]"
24,ダミエリオー様！,Damielliot?,Damielliot!,Damielliot[@1D]!,达米利奥！
25,"[@IF($E4($E8(1),1),……少し前と……、[@CR]そうだな……あれは……10年前……,……不思議な……力を、感じる……)]","[@IF($E4($E8(1),1),Yes... It was...ten years ago...,What is this...? Such a strange...power... I feel...)]","[@IF($E4($E8(1),1),Vor kurzem erst ... ja ... vor zehn Jahren!,Ich spüre ... eine seltsame Kraft ...)]","[@IF($E4($E8(1),1),Il y a... dix ans...,[@IF($E9(4),Elle,Il)] a... un étrange pouvoir...)]","[@IF($E4($E8(1),1),……不久之前……、[@CR]是啊……那是……10年前……,……感到……不可思议的、力量……)]"
26,ダミエリオー様？,Damielliot...?,Damielliot? ... Oh nein.,Damielliot[@1D]?,达米利奥？
27,……また、お眠りになってしまいました。,Sleep has taken him again.,Er ist schon wieder eingeschlafen!,... Il s'est rendormi.,……又睡着了。
28,行きましょう。[@CR]薬は使いましたし、あなたのご挨拶も済みましたから。,"Come, let us go. The medicine will run its course. We have done all we can for now.",Lass uns jetzt gehen. Du hast dich vorstellen können und er hat die Medizin erhalten.[@CR]Mehr können wir im Moment für ihn nicht tun.,"J'ai l'impression qu'il ne se réveillera pas de sitôt. Enfin, le médicament a été donné et vous avez pu vous prrrésenter. Sortons.",走吧。[@CR]药也用了，你招呼也打过了。
29,受付の方に、ご報告くださいね。[@CR]ダミエリオー様は、一度は目を開いてくれたと。,"Report to Nogeloix that Damielliot woke, albeit briefly.","Sag der Diensthabenden in der Aufnahme, dass Damielliot heute die Augen für einen Moment geöffnet hat.",Allez raconter à l'accueil ce qui vient de se passer.,去接待那里报告一下哦。[@CR]说达米利奥曾睁开眼一次。
30,そうですか、よくやってくださいました。,"I see. You have done exceedingly well, [@SPLIT([@STRING($EB(1))], ,1)].","Das höre ich gern. Du hast deine Sache gut gemacht, [@SPLIT([@STRING($EB(1))], ,1)].",C'est une excellente nouvelle.,是吗？你做的很好。
31,どうも。[@CR]リムサ・ロミンサのメルヴァン税関公社から来ました、ソレットと言います。,"Greetings, alchemists. I am Assessor Saulette, and I come to you this day from Mealvaan's Gate in Limsa Lominsa.",Guten Tag! Ich bin Saulette vom Mealvaan-Tor in Limsa Lominsa.,"[@IF($E3($E9(11),12),[@IF($E3($E9(11),4),Bonsoir,Bonjour)],[@IF($E3($E9(11),17),Bonjour,Bonsoir)])], je suis Saulette, de la douane de Mealvaan de Limsa Lominsa.",你好。[@CR]我是从利姆萨·罗敏萨的梅尔凡海关来的索蕾特。
32,まさか、また、ここフロンデール薬学院オーナーからのご依頼でしょうか？,What is it that brings you this time? Business with the Phrontistery's owner again?,"Soll das heißen, die Besitzerin der Akademie hat schon wieder eine Untersuchung bei euch in Auftrag gegeben?","Ah, c'est vous... Vous êtes revenue sur ordre du pro[@16]prié[@16]taire de l'Académie[@1D]?",难道又是福隆戴尔药学院拥有者的委托吗？
33,ええ、そうです。[@CR]ダミエリオーさんの治療に力を貸すように、頼まれて……,Just so. I have been tasked with lending my talents to the discovery of a cure for the unknown ailment which afflicts Damielliot.,"So ist es. Wir wurden gebeten, den Hei[@16]lungs[@16]pro[@16]zess von Damielliot zu unterstützen.","Oui, tout à fait. Il m'a demandé de vous aider à guérir le jeune Damielliot.",嗯，是的。[@CR]我被委托为了达米利奥的治疗而助一臂之力……
34,申し訳ございません。[@CR]フォスティジャン院長様から、きつく言いつかっております。[@CR]ダミエリオー様には、指一本触れさせはしないと。,"It grieves me that you should have been made to travel all this way, but Master Faustigeant's orders were quite clear─none is to lay a finger upon Master Damielliot without his consent.","Es tut mir leid, aber ich habe strikte Anweisung von Chefarzt Dr. Faustigeant, dass niemand auch nur einen Finger nach Damielliot ausstrecken darf.","Je suis vraiment désolé, mais le directeur Faustigeant nous a donné des ordres très stricts à votre sujet. Il refuse absolument que vous approchiez son fils.",非常抱歉。[@CR]福斯蒂让院长说了很严厉的话。[@CR]说达米利奥的一根手指也不许碰。
35,オーナーの意向でも、駄目なのね？,"The opinion of a chief alchemist is one thing. The opinion of your owner─of a [@1A(1)]Syndicate member[@1A(0)], no less─is quite another.",Auch wenn die Kli[@16]nik[@16]be[@16]sit[@16]ze[@16]rin es angeordnet hat?,Même si cela va à l'encontre des désirs du pro[@16]prié[@16]taire[@1D]?,老板的意向也不行吗？
36,大変、申し訳ございません。,"Be that as it may, I cannot allow it. I [@1A(1)]will[@1A(0)] not allow it.","Ich bin untröstlich, aber es geht nicht.",Oui.,真的非常抱歉。
37,そうなると思っていたわ。[@CR]他の用事を山ほど抱えてきているから、気にしなくて大丈夫よ。,Suit yourself. It makes no matter to me. I have other affairs to attend to.,"Das hatte ich mir fast gedacht. Da ich noch andere Sachen zu erledigen habe, bin ich über einen Auftrag weniger gar nicht undankbar.","Je m'y attendais un peu. Ne vous en faites pas, je ne manque pas de travail.",我想到会这样了。[@CR]还有如山的事堆积着，别在意就好。
38,それより、当然、このことはオーナーに伝えるから。[@CR]自分のことを心配した方がよくてよ。,"Though, of course, I am obligated to pass word of this on to your patron. I daresay that should grieve you a great deal more than the futility of my voyage.","Natürlich werde ich die Kli[@16]nik[@16]be[@16]sit[@16]ze[@16]rin darüber informieren. Vielleicht wäre es besser, wenn du dich schon mal nach einem neuen Arbeitsplatz umsähest ...","Mais je vais être obligée d'expliquer au pro[@16]prié[@16]taire la raison de mon départ. Cela n'a rien de personnel, croyez-le bien, mais à votre place, je me ferais du souci.",比起那些，我当然会把这件事传达给老板的。[@CR]还是担心下自己会比较好哦。
39,……ここでは、フォスティジャン院長様が絶対です。[@CR]それだけは忘れないようにしてください。,"We have rules here, as any institution must. We are forbidden to go against the word of the chief alchemist. Master Faustigeant's word is law.",Das Wort des Chefarztes hat absolute Priorität. Daran führt nun mal kein Weg vorbei.,Les ordres du directeur Faustigeant sont sacrés ici. Ne l'oubliez surtout pas.,……在这里福斯蒂让院长就是绝对的。[@CR]请不要忘记这点。
40,では、これをどうぞ。今回の報酬でございます。,"But that is not important. You have served us well, [@SPLIT([@STRING($EB(1))], ,1)]. Here, take your reward.","Hach, immer diese Besserwisser![@CR]Aber hier, deine Belohnung.","Bon, voilà votre récompense, que vous avez cer[@16]tai[@16]ne[@16]ment bien méritée.",那么，拿着这个。这是这次的报酬。
41,依頼を受ける？,Take on your first task as an alchemist?,Nimmst du den Auftrag an?,Acceptez-vous[@1D]?,要接受委托吗？
42,はい,"Yes, what would you ask of me?","Gern, wenn ich damit anderen Leuten helfen kann.","Oui, ma curiosité est piquée.",好的
43,いいえ,"No, I'm wasted on books and study.",Lieber nicht. Das könnte ganz leicht ins Auge gehen.,"Non, ça ne m'intéresse pas.",不用
44,案内してもらう？,Allow Healer S'lyhhia to guide you?,Gehst du mit Schwester S'lyhhia mit?,Aller à la chambre de Damielliot[@1D]?,要带路吗？
45,はい,"Yes, let us make haste.",Nichts lieber als das! Wo geht's lang?,"Oui, je suis [@IF($E9(4),pressée,pressé)] de voir le résultat.",好的
46,いいえ,"No, not just yet.","Bevor ich mich selbst noch anstecke, lasse ich es lieber.","Non, je ne suis pas [@IF($E9(4),prête,prêt)].",不用
47,いろいろな治療を試すことができる[@CR]最後の機会なのかもしれませんよ。,"The suffering of the sick and injured goes on, whether you choose to turn a blind eye to it or no. Let that thought lie with you abed at nights.","Wahrscheinlich wirst du nie wieder die Gelegenheit bekommen, so viele Be[@16]hand[@16]lungs[@16]me[@16]tho[@16]den auszuprobieren.","Et puis vous savez, c'était peut-être l'occasion de tester toutes sortes de traitements.",说不定这是能够试验各种治疗的最后机会。
48,このような病は、いまだかつてなく。[@CR]フロンデール薬学院が一丸となって、治療法を探しております。,All here at the Phrontistery are making this case their absolute priority. We [@1A(1)]must[@1A(0)] discover an efficacious treatment before it is too late.,Niemand in der Akademie hatte je mit so einer Krankheit zu tun. Deshalb sind wir nun auf der Suche nach einem Heilverfahren.,Tout le personnel médical de l'Académie essaie de trouver un remède depuis son hospitalisation.,这样的病真是前所未有。[@CR]福隆戴尔药学院全体都在寻找治疗方法。
49,"[@IF($E4($E8(1),1),あなたは過去に、ダミエリオー様にお会いしていたのですね。,冒険者の来訪で、ダミエリオー様が目覚めることが多いのです。)][@CR]その方が刺激があるのでしょうか。","[@IF($E4($E8(1),1),I was unaware that you had made Damielliot's acquaintance in the past. It seems the memory of that experience has stimulated his dormant senses,I know not what strange power you adventurers have, but whenever you visit, Damielliot seems to be roused from his slumber, if only momentarily)].","Erstaunlich finde ich hingegen, dass du Damielliot früher schon einmal begegnet bist!","Il est bon de savoir qu'une rencontre avec [@IF($E4($E8(1),1),une con[@16]nais[@16]san[@16]ce,des aventuriers)] peut le réveiller, même pour une courte durée.","[@IF($E4($E8(1),1),你过去曾见过达米利奥吧。,冒险者来访时达米利奥经常醒来。)][@CR]所以对他有所刺激吧。"
50,オーナー様と院長様の間に何があろうと、[@CR]わたくしたちの意志はブレてはなりません。,I have no knowledge of the dealings between Master Faustigeant and the Phrontistery owner─nor do I care to.,"Was bildet die sich eigentlich ein?[@CR]Es mag Differenzen zwischen der Kli[@16]nik[@16]be[@16]sit[@16]ze[@16]rin und dem Chefarzt geben, aber das wird nichts an meiner Entscheidung ändern.","Quelles que soient les relations entre lui et le pro[@16]prié[@16]taire, il est de notre devoir de le soutenir.",不管老板和院长之间会有什么，[@CR]都不会因为我们的意志而转移。
51,錬金術師ギルドに入る？,Will you join the Alchemists' Guild?,Willst du dich der Alchemie verschreiben?,Voulez-vous rejoindre la guilde des alchimistes[@1D]?,要加入炼金术师行会吗？
52,はい,"Yes, I'd like nothing more.","Ja, ich mag es, wenn es pufft und stinkt.","Oui, à moi le secret de la pierre philosophale[@1D]!",好的
53,いいえ,"No, my talents are wasted on books.","Nein, diese Quacksalber sind doch mit dem Teufel im Bunde.","Non, les hôpitaux me font peur.",不了
54,入院中のダミエリオー様の意識が途切れてしまいました。[@CR]長い昏睡状態は、肉体によくありません。,"Should Damielliot remain unconscious, his body will soon atrophy─making recovery even more difficult, if not impossible.",Unser Patient Damielliot hat das Bewusstsein verloren. Für seinen Körper ist das Koma natürlich äußerst gefährlich.,Le jeune Damielliot vient de retomber dans le coma. Nous devons prévenir l'affaiblissement de son corps jusqu'à ce qu'il se réveille.,住院中的达米利奥失去了意识。[@CR]长时间的昏睡对身体很不好。
55,お渡ししたレシピに従って、[@CR]ダミエリオー様のための薬を作る作業を手伝ってください。,The formula I gave you is the result of our best attempt to devise a treatment. All our hopes rest on its effectiveness.,"Halte dich an das Rezept, das ich dir gegeben habe, und beginn mit der Herstellung einer Medizin für Damielliot.",Aidez-nous à préparer le médicament que nous lui administrons ré[@16]gu[@16]liè[@16]re[@16]ment en allant chercher les ingrédients inscrits sur la recette.,请按照给你的药方，[@CR]为了达米利奥请帮忙制作有效的药物吧。
56,材料のひとつは、ウルダハ近く「キャンプ・ブラックブラッシュ」にいる[@CR]商人「ノモモ」から受け取ってください。,"You will be able to procure one of the rarer reagents from the merchant Nomomo. She is known to frequent Camp Black Brush, near Ul'dah.",Eine Zutat kannst du bei einem Kaufmann namens Nomomo in Camp Kohlenstaub kaufen.,"Vous pouvez obtenir l'un d'entre eux auprès de la marchande Nomomo, au camp de Roncenoire.",其中一个材料要到乌尔达哈附近的“黑尘营地”，[@CR]去找商人“诺茉茉”拿。
57,滅多に病院から出ることができないなんて。[@CR]なんて、おかわいそうなんでしょう。,We are doing all we can to help Damielliot. We have already exhausted every conventional treatment known to us.,"Bei dem Gedanken, dass ich nur ganz selten die Akademie verlassen dürfte, kommen mir die Tränen. Der arme Junge ist wirklich nur zu bemitleiden.",C'est une vie bien morne que celle du jeune Damielliot. Il ne sort presque jamais de l'hôpital.,几乎无法从医院离开。[@CR]真是太可怜了啊。
58,ダミエリオー様を助けるために、私たちは頭を絞り続けています。,"We have barely left the Phrontistery of late, but it will be a small price to pay to see him well again.","Aber ich werde mir weiterhin einen Kopf machen, wie man Damielliot am besten helfen kann.",C'est pour ça que nous devons tout mettre en œuvre pour le guérir.,为了救助达米利奥，我们已经绞尽了脑汁。
59,君は、[@STRING($EB(1))]というのか。[@CR]このオブリ・タンブリ、わかることがあれば助けてやろう。,"They say the wise man keeps only three friends close─a doctor, a moneylender, and a gravedigger.","Du musst [@SPLIT([@STRING($EB(1))], ,1)] sein. Wenn es irgendetwas gibt, das ich für den Jungen tun kann, dann sag es mir.",N'hésite pas à me demander si tu as besoin d'aide.,"你是[@SPLIT([@STRING($EB(1))], ,1)]吗？[@CR]我奥布利·坦布利，有什么你想知道的就告诉你啊。"
60,ほら、一般的に、友人には[@CR]医者と墓守と金貸しがいればいいというだろう？,"There are plenty of the first to be befriended around here. As for the second and third, you'd best look elsewhere.","Aus eigener Erfahrung kann ich dir sagen: Solange man einen guten Arzt kennt, solange man jemanden hat, der einmal das eigene Grab hüten wird, und solange man gute Beziehungen zu jemandem hat, der einem Geld leihen kann, wird sich schon alles richten.","Tu sais ce qu'on dit, hein, ce qu'il faut dans la vie, ce sont des amis médecins, usuriers et politiciens.",你看，一般来说，朋友里面有医生、守墓人和借钱的会比较好吧？
61,冒険者は足手まといになることも多いんですけれども、[@CR]なんといっても、雇うのがお安いですものね。,You adventurers tend to be more of a hindrance than a help...but you're nothing if not cheap!,"Die meisten Abenteurer, die ich kenne, haben zwei linke Hände und sind für kein Labor zu gebrauchen. Ihr Vorteil liegt lediglich darin, dass sie für Gil alles machen.","Si les aventuriers sont acceptés ici, ce n'est pas tellement parce qu'ils sont doués, loin de là, mais parce qu'ils sont bon marché.",虽然冒险者经常会碍手碍脚，[@CR]但不管怎样，雇佣非常便宜嘛。
62,高いお薬を作るためには、人件費をできるだけ抑えないと。[@CR]それが人助けってものですわ。,"The reagents we need for our medicines are costly enough on their own. We must save what coin we can, where we can.","Wenn ich eine teure Medizin herstellen muss, will ich nach Möglichkeit bei den Personalkosten sparen. Da kommt mir ein Abenteurer freilich gerade recht.","Comme nos médicaments coûtent cher à fabriquer, il faut bien réduire les dépenses du personnel d'une façon ou d'une autre.",为了制作贵重的药物，要尽力抑制人工的费用。[@CR]这也是以助人为本啊。
63,死の向こう側への旅立ちは、救いのひとつだけどさ。[@CR]別れは誰でも悲しいもんだろ。,"Bloody alchemists and healers'd bottle and sell life if they could. When I'm lyin' on my deathbed, you'll not see me quaffin' their pisses to keep alive. Give me a clean end.","Wer zu seiner letzten Reise aufbricht, wird zwar von seinen Qualen erlöst. Aber trotzdem könnte so ein Abschied schmerzvoller nicht sein.","C'est triste, mais je pense que parfois, il faut accepter de laisser partir un être cher pour l'autre monde.",朝死亡的对面的旅行也是救赎的一种。[@CR]分别谁都会难过的。
64,自分の子の命を助けるなら、なんでもするってのが親ってもんさ。,But I s'pose seein' yer son sick an' dyin'll drive a father to do damn near anythin'.,"Wenn es um das Leben des eigenen Kindes geht, wird niemand zögern, Unmögliches leisten zu wollen.","Mais bon, il est normal que des parents fassent tout pour sauver leurs enfants.",为了自己孩子的性命，父母应该什么都愿意做吧。
65,ダミエリオー様の病室へ直接、[@CR]そちらを持っていってください。,"Please, take it to Damielliot's sickroom at once. There isn't a moment to lose.",Geh direkt in Damielliots Zimmer und bring es ihm!,Allez l'apporter vous-même à Damielliot.,请直接拿到达米利奥的病房去吧。
66,ダミエリオー様の病室は、小児病棟となります。,Damielliot's room lies in the children's ward.,Damielliots Zimmer liegt auf der Kinderstation.,La chambre de Damielliot se trouve dans le pavillon pédiatrique.,达米利奥病房在小儿住院楼。
67,病棟へは、専用通路で向かってください。[@CR]奥の扉の近くに立っている、看護師ス・リヒャが案内してくれますよ。,The corridor that leads there is just through those doors. Healer S'lyhhia will guide you.,"Geh über den Gang in den Patiententrakt. Lass dich von Schwester S'lyhhia begleiten, die dort hinten nahe der Tür steht.","Prenez le couloir réservé au personnel pour accéder à l'hôpital. L'infirmière S'lyhhia, qui se tient près de la porte du fond, vous y mènera.",请通过专用道路到住院楼去。[@CR]在深处的门附近站着的护士丝·莉夏会为你带路的。
68,エオルゼア中を探して、[@CR]さまざまな材料から薬を作り出してきました。,Our search for curative reagents to use in new medicines encompasses the whole of Eorzea─including those parts one might not think to look.,"Ich bereise regelmäßig die ausgedehnten Weiten Eorzeas und sammle verschiedene Kräuter, um daraus Heilmittel herzustellen.",J'ai moi-même beaucoup voyagé à la recherche d'ingrédients.,我曾在艾欧泽亚中探索，[@CR]用各式各样的材料去制作药物。
69,都市「アラミゴ」の方から来ている[@CR]商人が持ち込む材料が効くようですが……,"Many from the lands of Ala Mhigo, for example, show great promise...which makes the Garleans' decision to occupy the region all the more regrettable.",Neulich hat mir da auch ein Kaufmann aus Ala Mhigo ein äußerst viel[@16]ver[@16]sprechendes Gewächs mitgebracht ...,"Les plus efficaces sont ceux qui proviennent d'Ala Mhigo. Il y a une marchande qui en apporte ré[@16]gu[@16]liè[@16]re[@16]ment, je crois.",虽然从都市“阿拉米格”那边来的商人带来的材料看起来管用……
70,ダミエリオー様の病は、かなり特殊といえよう。[@CR]あらゆる手を尽くしても、およそ快方に向かわぬ。,"In all my years, I've never seen a sickness like that which grips Damielliot. Nothing we do seems to ease his affliction.","Damielliot leidet an keiner gewöhnlichen Krankheit. Die Ärzte haben alles versucht, doch bisher hat noch keine Heilpraktik bei ihm Wirkung gezeigt.",Le mal de Damielliot est très étrange. Tous les traitements connus n'ont pas eu le moindre effet.,达米利奥的病应该能说非常特殊。[@CR]把能想到的所有方法都试了，但就是不见好转。
71,だが、冒険者の存在は刺激にはなっているようだ。[@CR]ダミエリオー様のために、冒険者に門戸が開かれているわけじゃな。,I'd swear the mere presence of you adventurers does him more good than any potion or tonic. He has always warmed to your kind.,"Ich kann nicht bestreiten, dass [@IF($E9(4),eine Abenteurerin,ein Abenteurer)] einen gewissen Reiz auf [@IF($E9(4),ihre,seine)] Umgebung ausübt.[@CR]Deshalb steht die Tür zu Damielliots Zimmer auch allen Abenteurern offen.","Mais va savoir pourquoi, la présence d'aventuriers semble le stimuler. C'est d'ailleurs pour ça que l'Académie leur a ouvert ses portes.",但是，有冒险者在的话应该能形成刺激点。[@CR]所以为了达米利奥而对冒险者敞开了大门。
72,この頃、気候がおかしいでしょう。[@CR]年端もいかない患者さんたちには、かなり負担じゃないかしら。,The climate is ill at ease of late. Have you not noticed? I fear it may be taxing for the young ones.,"Ich schätze, besonders unsere jüngsten Patienten haben unter dem Wetter zu leiden, das dieser Tage sehr launisch ist.",La canicule n'arrange vraiment pas la condition de nos jeunes patients.,这些日子气候很反常啊。[@CR]对于不够年龄的患者们来说不是会是很重的负担吗？
73,もちろん、看護婦さんたちも同じですわ。[@CR]ス・リヒャさんに迷惑をかけないようにお願いしますわよ。,"Gods know, it takes its toll on us. Healer S'lyhhia seems to be at her wits' end. Do be kind to her.","Aber was soll ich sagen? Den Kran[@16]ken[@16]schwes[@16]tern geht es auch nicht viel besser. Bitte mach S'lyhhia keine unnötigen Scherereien, ja?","C'est éprouvant pour les adultes aussi, et surtout les infirmières qui travaillent dur. Faites en sorte de ne pas importuner S'lyhhia.",当然护士们也是一样。[@CR]恳请你不要给丝·莉夏小姐添麻烦。
74,あなたのおかげで、眠りが浅くなり、[@CR]目覚めが早く、訪れてくれればいいのですが。,"It was almost as if your presence stirred him. If the gods are good, it is a sign he is regaining his strength.","Es wäre ja schön, wenn er nun nicht mehr so lange und tief in den Schlaf fiele.","J'espère vraiment que grâce à vous, son sommeil sera plus léger et qu'il se réveillera bientôt.",多亏了你，他睡眠变浅了，[@CR]要是能早点醒来就好了。
75,"……え？[@CR][@IF($E4($E8(1),1),ダミエリオー様と会ったことがある？,ダミエリオー様から不思議なことを言われた？)]","Word spreads quickly in the Phrontistery. [@IF($E4($E8(1),1),They are saying Damielliot recognized you. Have you met him before?,They are saying Damielliot claimed to feel a strange power when he stirred from his sleep.)]","So? [@IF($E4($E8(1),1),Damielliot und du, ihr beide seid euch früher schon mal begegnet?,Damielliot hat merkwürdiges Zeug geredet?)]","[@IF($E4($E8(1),1),Vous aviez déjà rencontré Damielliot auparavant[@1D]?,Damielliot vous a parlé d'un étrange pouvoir[@1D]?)]","……哎？[@CR][@IF($E4($E8(1),1),曾见过达米利奥？,达米利奥说了什么不可思议的事？)]"
76,"[@IF($E4($E8(1),1),ダミエリオー様も覚えていたというのならば、,ずっと入院しているに彼とって、外の世界はすべて不思議なこと。)][@CR]なるほど、そういう刺激もあるのかもしれませんね。","[@IF($E4($E8(1),1),If the two of you share some past that Damielliot remembers, that,I suppose everything must seem a strange power to one so heavily medicated. That)] [@1A(1)]could[@1A(0)] explain why he was roused from his slumber.","Nun, [@IF($E4($E8(1),1),wenn sich Damielliot daran erinnert hat,wenn du ihm von der Welt außerhalb seines Krankenzimmers erzählt hast)], hast du sein Gedächtnis aber ganz gehörig stimuliert. Nicht schlecht, [@IF($E9(4),Abenteurerin,Abenteurer)]!","[@IF($E4($E8(1),1),Il réagit donc à de vieilles con[@16]nais[@16]san[@16]ces,Il a passé toute sa vie à l'hôpital donc tout est étrange pour lui)]. Ce genre de réaction est en tout cas très instructif pour nous.","[@IF($E4($E8(1),1),要是达米利奥也记得的话，,对于一直住院的他来说，外面的世界全都很不可思议。)][@CR]原来如此，说不定也会有这种刺激啊。"
77,次もこう、うまくいくかはわからんな。,"I would like to be optimistic, but a lifetime spent studying the healing arts has made me a realist. Do not expect such dramatic results next time.","Das mag heute geklappt haben. Es ist aber höchst fraglich, ob er auch beim nächsten Mal wieder so spontan reagieren wird.",Rien ne garantit que ça se passera aussi bien la prochaine fois.,下次不知道会不会也像这次一样顺利啊。
78,人の身体は「慣れる」もの。[@CR]あの薬も、冒険者という刺激も、いつか慣れてしまうかもしれん。,"The body is a thing of resilience, and to live is to build tolerances. The efficacy of new medicines and the stimulation of new faces will only diminish with time.","Schon bald wird leider der Gewöhnungseffekt eintreten. Das gilt für ein Heilmittel wie auch für [@IF($E9(4),eine Abenteurerin,einen Abenteurer)].","Le corps humain s'habitue à tout, aux médicaments comme aux aventuriers.",人的身体是会“习惯”的。[@CR]那种药也好，冒险者带来的刺激也好，说不定总会习惯。
79,まずは、結果良好。[@CR]あなたを雇うだけの価値があった、ということですわね。,It seems the Phrontistery was right to take you on.,"Da hast du etwas sehr Gutes getan, [@IF($E9(4),Abenteurerin,Abenteurer)]. Dich zu engagieren, scheint die richtige Entscheidung gewesen zu sein.",Il semblerait que votre embauche n'ait pas été com[@16]plè[@16]te[@16]ment inutile.,首先结果不错。[@CR]雇佣你还是有价值的。
80,次は、ダミエリオー様に外の世界の話をお願いしますわ。[@CR]冒険者なら、楽勝でございましょ？,"I pray that when Damielliot next wakes, there is time enough for you to tell him tales of the outside world. It would do him well to hear them.","Ich möchte, dass du Damielliot als Nächstes etwas von der Welt da draußen erzählst. Machst du das?[@CR]Für [@IF($E9(4),eine Abenteurerin,einen Abenteurer)] sollte das doch eine Kleinigkeit sein, oder?","La prochaine fois, contez donc vos aventures à Damielliot. Ça ne devrait pas être une tâche trop difficile, n'est-ce pas[@1D]?",接下来希望你能对达米利奥讲讲外面的世界。[@CR]冒险者的话应该很轻松吧？
81,そんなものが材料として必要なんだよねぇ。いやだいやだ、おぞけが走るよ。,"That's what you want, ain't it? Ugh, bloody wretched thing. Just the thought's enough to get me heavin'.","Du wirst es für die Herstellung der Medizin brauchen.[@CR]Allein der Gedanke ... Igitt, ist das widerlich.",Ça me fait froid dans le dos quand je pense aux ingrédients de la potion qui soulagera cet enfant.,材料里面需要那东西是吧。讨厌讨厌，吓的我起鸡皮疙瘩。
95,"残りの材料は「[@SWITCH([@SHEET(itemData,3020401,41)],[@COLOR(#fff3f3f3)],[@COLOR(#ffc0ffa0)],[@COLOR(#ff60c8ff)],[@COLOR(#ffb38cff)],[@COLOR(#ffffa666)],[@COLOR(#ffe5dd7e)])][@EDGECOLOR(#ff262626)][@SHEET(xtx/itemName,3020401,4)][@EDGECOLOR($EC)][@COLOR($EC)]」だよ。[@CR]その辺で誰かが売ってるだろうさ、そこは自腹でひとつ頼むよ。","All you need now's [@SWITCH([@SHEET(itemData,10009011,41)],[@COLOR(#fff3f3f3)],[@COLOR(#ffc0ffa0)],[@COLOR(#ff60c8ff)],[@COLOR(#ffb38cff)],[@COLOR(#ffffa666)],[@COLOR(#ffe5dd7e)])][@EDGECOLOR(#ff262626)][@SHEETEN(xtx/itemName,1,10009011,1,1)][@EDGECOLOR($EC)][@COLOR($EC)]. You're on your own with that one. Shouldn't be too hard to find a merchant about with some stock, though.","Alles, was dir jetzt noch fehlt, ist [@SWITCH([@SHEET(itemData,10009011,41)],[@COLOR(#fff3f3f3)],[@COLOR(#ffc0ffa0)],[@COLOR(#ff60c8ff)],[@COLOR(#ffb38cff)],[@COLOR(#ffffa666)],[@COLOR(#ffe5dd7e)])][@EDGECOLOR(#ff262626)][@SHEETDE(xtx/itemName,1,10009011,1,1,1)][@EDGECOLOR($EC)][@COLOR($EC)]. Schau dich mal ein wenig hier um. Irgendwer wird damit schon handeln. Wenn du nicht versichert bist, wirst du die Kosten aber selber übernehmen müssen.","Pour [@SWITCH([@SHEET(itemData,10009011,41)],[@COLOR(#fff3f3f3)],[@COLOR(#ffc0ffa0)],[@COLOR(#ff60c8ff)],[@COLOR(#ffb38cff)],[@COLOR(#ffffa666)],[@COLOR(#ffe5dd7e)])][@EDGECOLOR(#ff262626)][@SHEETFR(xtx/itemName,2,10009011,1,1)][@EDGECOLOR($EC)][@COLOR($EC)], vous devriez pouvoir l'acheter auprès de quelqu'un dans les environs. Avec votre argent, s'entend.","剩下的材料是“[@SWITCH([@SHEET(itemData,10009011,41)],[@COLOR(#fff3f3f3)],[@COLOR(#ffc0ffa0)],[@COLOR(#ff60c8ff)],[@COLOR(#ffb38cff)],[@COLOR(#ffffa666)],[@COLOR(#ffe5dd7e)])][@EDGECOLOR(#ff262626)][@SHEET(xtx/itemName,10009011,131)][@EDGECOLOR($EC)][@COLOR($EC)]”。[@CR]那边有人在卖吧，拜托你自掏腰包买个吧。"
97,……期待を裏切られました。,As it seems my time on you...,Recht hast du. Aber irgendwann bekommen wir auch deine Seele! Merke dir meine Worte! Ahahahaha!,Une réponse pour le moins... décevante.,……辜负了我的期待。
