 ,0,1,2,3,4
 ,str,str,str,str,str
1,おまえ、[play]だよナ？　俺だよ、俺？,,,,[chs]
2,元気でやってるか、冒険者の仲間ン中に、いい女がいれば紹介してくれよナ。,test,test,test,[chs]
3,サイモンドさん！　勝手にこのリンクシェルを使わないでください！,test,test,test,[chs]
4,固いこと、言うのはよせよ。とにかく、[play]、フォンボード錬金大学病院まで来るンだぞ。,test,test,test,[chs]
5,忠告しておきます、サイモンドさんから仕事を受けても無駄ですよ。報酬は出ないと思っていてください。,test,test,test,[chs]
6,理由は、見ればわかるでしょう？　あなたも錬金術師の端くれならば、気づかないといけませんよ？,test,test,test,[chs]
7,やはり、ヒマ人だったようだナ、[play]。おまえのおかげで、俺ン仕事が立て込んでてナ。,test,test,test,[chs]
8,ちょっとした仕事を任せようと思うンだ。錬金術師として食っていくなら、必要な仕事だ、やってみるだろ？,test,test,test,[chs]
9,これだけ親切に教えてやってンのに、そりゃありえない仕打ちだナ。怒鳴る気にもならンぜ。,test,test,test,[chs]
10,それでいいンだ。なにしろ、俺はおまえに店を任せてやろうってンだからな。,test,test,test,[chs]
11,偉そうに言うな、あたいの店だわさ。,test,test,test,[chs]
12,うるさいぞ、ウミミ。こいつだって、店のひとつ任せると知れば、間違いは起こさんだろうという気遣いがわからンのかよ？,test,test,test,[chs]
13,任せるって言っても、夜だけだわさ。急患に必要なもんしか出ないはずだわさ。,test,test,test,[chs]
14,じゃあ、夜になったら来るだわさ。面倒なら、ここで時間をつぶしてもいいだわさ。,test,test,test,[chs]
15,ウルダハの錬金術師なら、どんなものを頼まれても簡単に作れないとナ。ヤブやらモグリやら、すぐに噂が流れンぞ。（道順説明）にある店だ、わかってンだろ？,test,test,test,[chs]
16,ここで、夜まで待つだわさ？,test,test,test,[chs]
17,あんたには、夜間の店を任せるつもりだわさ。夜間はほとんど暇なんだけど、急患がくると手間がかかる。気合い入れるだわさ。,test,test,test,[chs]
18,ちょっとした仮眠を取らせてやるだわさ。ほい。,test,test,test,[chs]
19,……目が覚めたね？　じゃあ、これからの仕事の説明を、簡単に済まさせてもらうだわさ。,test,test,test,[chs]
20,夜のうちに、ここに薬を買いに来るのは、ほとんど急患だわさ。子供が熱を出しただの、鍋で火傷しただの、ベッドから落ちて骨を折っただの、いろいろあるだわさ。,test,test,test,[chs]
21,薬で治せるもんなら、あんたらに任せたよ。もちろん、自分で薬を処方するんだわさ。どうしても駄目なら、リンクシェルで連絡とるだわさ。,test,test,test,[chs]
22,じゃあ、あたいは行くだわさ。サイモンド待たせると、勝手に始めるだわさ。,test,test,test,[chs]
23,あの、すみません。「ショップ名」（薬局）からまわされてきたんですけど、頭痛のお薬、ありませんか？,test,test,test,[chs]
24,頭が痛くて眠れないんです。明日は大事な日なので、このままだと大変なことになるんです。,test,test,test,[chs]
25,頭痛を治す薬でも作るか？,test,test,test,[chs]
26,なら、君は「（アイテム名）」を作ってくれないか？　そいつを使えば、強力な頭痛薬ができるんだ。,test,test,test,[chs]
27,頭痛を治さないと、眠れないじゃないか。,test,test,test,[chs]
28,おお、できたか。私の方の準備もできている。では……,test,test,test,[chs]
29,これを、お客さんに渡してくれ。,test,test,test,[chs]
30,ありがとうございます。これ、代金です。これでやっと眠れるわ……,test,test,test,[chs]
31,頭痛などに負けずに、深ーく眠るお薬を作ろうよ！,test,test,test,[chs]
32,それじゃ、「（アイテム名）」を作ってもってきてちょうだい！　それがないと大変なことになっちゃうから！,test,test,test,[chs]
33,眠らないと、頭痛が治らないじゃない！,test,test,test,[chs]
34,ありがとね！　あたしの作ったお薬とまぜまぜして……,test,test,test,[chs]
35,これを売ってきて。飲み過ぎると死んじゃうから、気をつけてね！,test,test,test,[chs]
36,ありがとうございます。これ、代金です。これでやっと眠れるわ……,test,test,test,[chs]
37,緊急手術の準備だ！,test,test,test,[chs]
38,急ぎで、作ってほしいものがある！　3種類の薬だ、頼むぞ！,test,test,test,[chs]
39,……この薬と、これと、こいつ……。ええと、後は……,test,test,test,[chs]
40,そうですね、一番上に書いてある薬なら、私はすぐにでも作れそうです。,test,test,test,[chs]
41,君にも手伝ってもらいましょう。「（アイテム名）」を作ってください。,test,test,test,[chs]
42,少し難しい薬なので、急ぐとミスをしてしまうかもしれません。慎重に、慎重に……,test,test,test,[chs]
43,どうにか完成です。これです、どうぞ。,test,test,test,[chs]
44,これは厄介だね！　真ん中に書いてある薬なら、あたしでもできるかな！？,test,test,test,[chs]
45,もちろん、お手伝いしてくれるよね？　「（アイテム名）」を作ってほしいんだよね！,test,test,test,[chs]
46,あちゃー！　あたしの方は、ちょっと失敗しちゃったかも！？　まぁ、まだわからない、わからない！,test,test,test,[chs]
47,それとない見た目だし、成功って言っちゃっていいでしょ！　はい、どーぞ！,test,test,test,[chs]
48,……よし、これだけあれば、俺の手術デビューも大成功するだろう！　ありがとう、助かったよ！,test,test,test,[chs]
49,え？　「毒を塗ったナイフ」（アイテム名、仮）を何に使うのかって？,test,test,test,[chs]
50,そりゃ、決まってるじゃないか！　手術が失敗したときに……,test,test,test,[chs]
51,なーんて、冗談だよ。実は、サンショウウオ（モンスター名？あるのか？）に飲み込まれてしまった患者が、サンショウウオごと運ばれてくるんだ。サンショウウオと戦わなきゃならなくなったら事だからね、その準備さ。,test,test,test,[chs]
52,なーんて、冗談だよ。実は、サンショウウオ（モンスター名？あるのか？）に飲み込まれてしまった患者が、サンショウウオごと運ばれてくるんだ。サンショウウオの毒に対抗して、予防接種して（OR血清を作って）おこうかと思ってね。,test,test,test,[chs]
53,おっと、誰かが呼んでいるようだ。しかし、手が離せんな。,test,test,test,[chs]
54,あたしもムリムリ！　ちょうど今、明日必要になるお薬を調合中だもの！,test,test,test,[chs]
55,[play]、病室に行ってみてくれ。他の看護師たちが、既に様子を見に行っているかもしれないが、一応だ。頼む。,test,test,test,[chs]
56,……ん？　ああ、[play]さん？,test,test,test,[chs]
57,ごめん、ちょっと苦しくって……,test,test,test,[chs]
58,ダミエリオー様！　大丈夫ですか！？　すぐに院長先生をお呼び……,test,test,test,[chs]
59,やめて！,test,test,test,[chs]
60,……具合が悪くなったのは、院長先生が新しい治療法を試したからでしょうか？,test,test,test,[chs]
61,お父さんは、僕の病気を治すために、昼も夜も研究を続けているんだ。だから、僕は耐えられるよ。,test,test,test,[chs]
62,ダミエリオー様……,test,test,test,[chs]
63,呼んだのは、ちょっとした薬を作ってほしかったからなんだ。「（アイテム名）」をお願いできるかな？,test,test,test,[chs]
64,お願いします、[play]さん。私、ダミエリオー様についていますから。,test,test,test,[chs]
65,ありがとう、この薬を作れるなんて、[play]さんは立派な錬金術師さんなんだね。,test,test,test,[chs]
66,私がついていますから、[play]さんはどうぞ、お戻りになってください。それにしても……,test,test,test,[chs]
67,フォンボード大学研究室の明かりがついていたのは、院長先生がまだお仕事をしているからなのでしょうか。,test,test,test,[chs]
68,……あんなの、どうしようもないですよ……うぐっ……いたたた……,test,test,test,[chs]
69,いたい！　いたいってば！　もーっ！　もぉおーっ！,test,test,test,[chs]
70,あのヤブ医者、「サンショウウオ」（仮、モンスター名）の方は死んでるって言ったんだわさ！　完全に死んでなかっただわさ！,test,test,test,[chs]
71,しかしこれで、完全に死んだはずだナ。俺たちも死ぬところだったンだがナ。,test,test,test,[chs]
72,とにかく、[play]、ありがとうだわさ。早期の治療は、とっても大事だわさ。,test,test,test,[chs]
73,ちょうど手に入ったサンショウウオ（仮、モンスター名）で、ちょっとした実験をしてたンだが、事故が起きちまったンだ。,test,test,test,[chs]
74,この実験ことは、誰にも言っちゃ駄目だわさ。これは報酬と……,test,test,test,[chs]
75,口止め料だからナ？,test,test,test,[chs]
