 ,0,1,2,3,4
 ,str,str,str,str,str
1,[@STRING($EB(1))]、神勇隊司令砦まで来てくれ。キールティと一緒に、行ってもらいたいところがある。待っているぞ。,"[@SPLIT([@STRING($EB(1))], ,1)], an important task has arisen that I would like you and Keelty to see to. Come to the Quiver's Hold as soon as possible.","[@STRING($EB(1))], komm bitte zur Kleinen Waldschanze. Wir möchten, dass du Keelty erneut auf einer Mission begleitest. Ich erwarte dich hier.","[@SPLIT([@STRING($EB(1))], ,1)], pourriez-vous venir au Carquois[@1D]? Nous aimerions vous confier une mission avec Keelty.","[@SPLIT([@STRING($EB(1))], ,1)]，到神勇队司令部来。有个地方希望你和姬迪一起去一下。我等你。"
2,[@STRING($EB(1))]か。[@CR]キールティと見回りをし、鎮守の森「黒衣森」の変化を知ったそうだな。,I trust your last ranging taught you something of the harmful changes being wrought on the Twelveswood by the outside world.,"Keelty hat von großen Veränderungen berichtet, die ihr während eurer Patrouille aufgefallen sind.","Je suppose que lors de votre première mission en compagnie de Keelty, vous avez dû vous rendre compte à quel point la Sylve des Douze est en train de subir de profondes mutations...","你就是[@SPLIT([@STRING($EB(1))], ,1)]吗？[@CR]听说你和姬迪一起巡逻镇守之森“黑衣森林”，并且知道那里发生了什么变化。"
3,「鬼哭隊」は、連携を強める働きかけを他都市に向けて行うことにした。[@CR]ただ、森の精霊たちは、その動きを全面的に許してはいない。[@CR]害毒は、イクサル族や帝国だけではないからだ。,"The Wood Wailers have begun to solidify Gridania's bonds with the other nations. But the conjurers inform us that not all we do sits well with the elementals. Where we see alliances, they see evils.",Aus diesem Grund will das Klageregiment nun verstärkt mit den anderen Städten zu[@16]sammen[@16]arbeiten. Leider sind die Gebieter damit nicht vollkommen zufrieden. Die Schäden gehen nicht nur von den Ixal und den Garlearn aus ...,"Les vigiles sombres ont décidé d'œuvrer au renforcement des liens entre Gridania et les autres cités-Etats. Seulement, ça ne plaît pas aux esprits qui craignent que la forêt subisse une mauvaise influence venue de l'extérieur.",“鬼哭队”决定与其他城市也加强合作。[@CR]但是，森林元灵完全不容许这一举动。[@CR]因为危害不仅是鸟人族或者帝国。
4,森の精霊たちへの忠誠を証明するために[@CR]我らは、より一層の働きをせねばならぬのだ。[@CR]害毒を退け、精霊たちに平穏をもたらさなくてはならない。,We must do more to prove our loyalty and sincerity to the elementals. We must put their minds at ease by restoring tranquility to the wood.,"Wir müssen mehr tun, um den Gebietern des Waldes unsere Loyalität zu beweisen. Wir müssen Schaden vom Wald abwenden und ihnen Ruhe und Stille schenken.","Nous devons donc nous efforcer de leur prouver notre loyauté, encore davantage[@1D]! Tout ce que nous avons à faire est de repousser les menaces qui pèsent sur la forêt afin de permettre aux esprits de trouver la sérénité.",为了证明对森林元灵的忠诚[@CR]我们必须要更加努力。[@CR]击退危害，为元灵们带来平稳的生活。
5,今回、お前には遠く西にあるイシュガルドへ向かってもらう。[@CR]イシュガルドの騎兵団に直接、手渡さなければならない文書がある。,"You are to travel west, [@SPLIT([@STRING($EB(1))], ,1)], to the nation of Ishgard. You will be carrying important papers which must be delivered to the Knights of Ishgard, and none other.","[@STRING($EB(1))], du sollst dieses Mal ins ferne Ishgard im Westen reisen und wichtige Schriftstücke persönlich an die Ritter dort überbringen.","C'est pour cette raison que vous allez vous rendre à Ishgard, loin vers l'ouest. Là-bas, vous remettrez cette missive aux gardes de la Cité.",这次，你去一趟位于遥远的西方的伊修加德。[@CR]有一份文书，必须要由你亲自递交到伊修加德的骑兵团手里。
6,イシュガルドの騎士と聞いて、恐れをなしたのか。[@CR]さもあらんな、彼らは鉄の心を持つ者たちだ。,"You surprise me, [@SPLIT([@STRING($EB(1))], ,1)]. I had not thought you the kind to be cowed by reputation, as formidable as the Knights may be.","Hast du etwa Angst? Die ist nicht unbegründet, denn die Ritter von Ishgard haben Herzen aus Stahl.","C'est la réputation des gardes d'Ishgard qui vous effraie[@1D]? Je dois dire que je vous comprends, ils sont connus pour avoir un cœur de pierre.",听到伊修加德的骑兵，就感到害怕了吗。[@CR]情有可原啊，毕竟他们是拥有一颗钢铁之心的人啊。
7,これはお前に渡しておこう。[@CR]キールティと話し、ハムレット「アウルネスト」へ向かえ。,"I knew I could count on you. Take this, then, and make for Owl's Nest together with Keelty.","Reise zusammen mit Keelty zum Weiler „Eulennest“ und übergib das Schriftstück, das ist alles.","Je savais que je pouvais compter sur vous[@1D]! Tenez, voici la lettre en question. Vous devez l'apporter au Nid du hibou avec Keelty.",这个交给你吧。[@CR]和姬迪对话，前往辅城“枭巢”吧。
8,"ごめんなさい、[@SPLIT([@STRING($EB(1))], ,1)]さん。[@CR]わたしは怪我をかばって歩くから、動きが遅くなると思うの。[@CR]ハムレット「アウルネスト」で落ち合いましょう。","Nonolato has briefed me, but with my wounds I'll only slow you down. Go ahead without me and I'll meet you at Owl's Nest.","Entschuldige, [@SPLIT([@STRING($EB(1))], ,1)]. Ich habe immer noch Schmerzen wegen meiner Verletzung. Ich kann zwar laufen, aber nur sehr langsam. Lass uns direkt im Weiler zu[@16]sammen[@16]treffen.","[@SPLIT([@STRING($EB(1))], ,1)], je suis vraiment désolée, mais je crains de te ralentir à cause de ma blessure. Il vaut mieux qu'on se retrouve directement au Nid du hibou.","对不起，[@SPLIT([@STRING($EB(1))], ,1)]。[@CR]我因为受了伤，所以行动会慢一些。[@CR]不如我们直接在辅城“枭巢”集合吧。"
9,街道沿いに進めば、無理な戦いをしないで済むわ。[@CR]心細かったら、冒険者の仲間を誘ってちょうだいね。,Stick to the roads and you should be able to avoid any trouble.,"Du brauchst einfach nur der großen Landstraße zu folgen. Wenn du nicht von ihr abkommst, sollten sich sinnlose Kämpfe eigentlich vermeiden lassen.",Tu devrais être hors de danger tant que tu ne quittes pas la route.,沿着街道前进，可以避免一些战斗。[@CR]如果你心里没底的话，可以邀请冒险者同伴一起前进。
10,ドラゴン族との戦いに勝利すること、[@CR]それがイシュガルド全都市民の願い。,Victory in our endless battle with the dragons is the dearest wish of all true Ishgardians.,Im Kampf gegen die Drachen den Sieg zu erringen - das ist der innigste Wunsch aller Bürger Ishgards.,Nous devons vaincre les dragons. Tous les espoirs des habitants d'Ishgard reposent sur nos épaules.,在与龙族的战斗中取胜，[@CR]这是伊修加德全体市民的愿望。
11,我らドラゴンスレイヤー部隊に所属したいと願うならば、[@CR]高潔なる魂を持つ者だと証明してみせよ。,"It is an honor and a privilege to join the ranks of the Dragonsbane. To earn that privilege, you must first prove your worth.","Ihr wollt sicher ebenfalls den Drachentötern beitreten. Dieser Wunsch steht Euch ins Gesicht geschrieben und er zeugt von Eurem Edelsinn und von Recht[@16]schaffen[@16]heit. Allerdings müsst ihr zuerst einmal beweisen, ob ihr würdig seid, in unsere Ränge aufgenommen zu werden.","Si ton souhait est de rejoindre les fléaux des dragons, tu vas devoir prouver que tu possèdes une âme noble.",要想归属于我们屠龙部队，[@CR]就要证明你拥有一个高尚纯洁的灵魂。
12,何だと、グリダニア「神勇隊」から書面だと？,You bring word from the Gods' Quiver?,Ihr bringt Nachricht von der Gilde der Waldläufer?,Tu apportes une missive de la part des flèches divines[@1D]?,什么，你说是格里达尼亚“神勇队”发来的书面信件？
13,……そうか、異端者が。,I see... The heretics...,Die Häretiker ... Ich verstehe ...,"Des hérétiques, je vois...",……是吗，异端者……
14,伝令！[@CR]ユヘルメリック公へ連絡せよ。黒衣森へ出動要請だ。,Ser! Send word to Lord Yuhelmeric. We march for the Black Shroud!,"Neuer Befehl! Verständigt Herzog Yuhelmeric. Ich bitte um Erlaubnis, zum Finsterwald auszurücken!",Toi[@1D]! Va prévenir sieur Yuhelmeric. Nous partons pour la forêt de Sombrelinceul[@1D]!,传令！[@CR]联系尤埃尔默里克大臣，请他发令前往黑衣森林。
15,グリダニア都市民に、迷惑をかけたことをここに謝罪する。[@CR]後にユヘルメリック公より、御礼の言葉が送られることだろう。,It grieves me that the people of Gridania have suffered for our negligence. You may be assured that Lord Yuhelmeric will issue a formal apology on behalf of us all.,"Akzeptiert bitte meine Entschuldigung, falls wir den Bürgern Gridanias Un[@16]annehm[@16]lichkeiten bereitet haben sollten.[@CR]Ich kann Euch versichern, dass Sir Yuhelmeric diese Vorfälle ebenfalls zutiefst bedauert.",Nous regrettons pro[@16]fon[@16]dé[@16]ment l'embarras causé aux habitants de Gridania. Sieur Yuhelmeric adressera cer[@16]tai[@16]ne[@16]ment des excuses officielles très pro[@16]chai[@16]ne[@16]ment.,对于给格里达尼亚城市居民带来麻烦这一事我在这里谢罪。[@CR]之后会由尤埃尔默里克大臣为大家讲话。
16,グリダニアへの帰途、道中の無事を祈る。,I pray the Twelve see you safely home.,"Ich werde zu Halone beten, auf dass Ihr unbeschadet zurückkehren werdet.","Je te souhaite un bon retour jusqu'à Gridania. Sois [@IF($E9(4),prudente,prudent)].",希望你平安地回到格里达尼亚。
17,"あ、[@SPLIT([@STRING($EB(1))], ,1)]さん。","There you are, [@SPLIT([@STRING($EB(1))], ,1)].","He, [@SPLIT([@STRING($EB(1))], ,1)].","Ah, [@SPLIT([@STRING($EB(1))], ,1)][@1D]!","啊，[@SPLIT([@STRING($EB(1))], ,1)]。"
18,ごめんね。[@CR]ほとんど、任務を押しつける形になってしまって。[@CR]でも、無事に済んだようで、よかったわ。,"It seems you've had to pick up the slack once again. I'm truly sorry. Glad to see you made it here in one piece, though.","Entschuldige. Wie es aussieht, hast du dich schon um alles gekümmert.[@CR]Probleme scheint es ja nicht gegeben zu haben. Sehr gut.","Je suis vraiment désolée de t'imposer toutes ces res[@16]pon[@16]sa[@16]bi[@16]li[@16]tés... Mais je suis contente, je vois que tu t'en es bien [@IF($E9(4),sortie,sorti)].",对不起。[@CR]把任务全都推到你头上。[@CR]但是，你能平安完成真是太好了。
19,少し待って。[@CR]わたしは別の件で、ここの方々に尋ねたいことがあるの。[@CR]ずっと捜している友達がいるんだ。,Do you mind waiting for a spell? There's someone here I must see─an old friend. I've been searching for him for quite some time.,"Warte noch, ich muss hier noch mit jemandem wegen einer anderen Angelegenheit sprechen.[@CR]Ich habe erfahren, dass ein Freund von mir hier lebt, den ich seit langer Zeit suche ...","Tu veux bien m'attendre avant de repartir à Gridania[@1D]? Je voudrais questionner quelques personnes ici. En fait, je recherche un ami depuis très longtemps...",稍等。[@CR]我因为一些其他的事，有些事情想问问这里的各位。[@CR]我一直在寻找一位朋友。
20,パスカルレー様は、こちらにいらっしゃいませんか？,"Begging your pardon, where might I find Ser Pascaleret?","Verzeiht, aber wo kann ich Sir Pascaleret finden?",Sauriez-vous où je pourrais trouver sieur Pascaleret[@1D]?,帕斯卡尔雷大人在吗？
21,キールティ、すまないな。[@CR]まだ、シワードは見つからないよ。[@CR]早く見つけないと、命が危ないというのにな。,"I know what you would ask, Keelty. Siward still eludes us. If we do not find him soon, his life will be forfeit.","Keelty, ich weiß, was du fragen willst, aber wir konnten Siward noch nicht finden.[@CR]Wenn wir ihn nicht bald finden, fürchte ich um sein Leben.","Je suis désolé, Keelty. Nous n'avons toujours pas retrouvé Siward. Je sais, sa vie est en danger...",姬迪，抱歉。[@CR]还是没有找到西沃德。[@CR]不马上找到他的话，他的生命就有危险了。
22,……そうですか、パスカルレー様。[@CR]一刻も早く、彼を救わないとなりません。,"Please, Ser, he must be found. He needs our help!","Sir Pascaleret, ich flehe euch an. Er braucht unsere Hilfe!","Oui, il faut absolument le retrouver le plus vite possible. Pascaleret, je vous en prie...",……是这样吗，帕斯卡尔雷大人。[@CR]必须要尽早救助他的性命。
23,キールティ[@CR]彼はもう、暗殺者に……,Keelty... He has chosen his path. His crimes are─,"Keelty, er hat seinen Weg gewählt. Er ist bereits zu einem Attentäter ...","Keelty, c'est un assassin, maintenant...",姬迪[@CR]他已经成为暗杀者……
24,彼は帰ってきます。[@CR]故郷の森へ、帰ってきます。,He [@1A(1)]will[@1A(0)] come back. He belongs in the Twelveswood.,Er wird zurückkehren. Er wird in seine Heimat zurückkehren - den Wald der Einkehr.,"Il rentrera, je le sais. Il reviendra à sa forêt natale.",他会回来的。[@CR]一定会回到他的故乡，这片森林之中。
25,とにかくだ。[@CR]暗殺者の討伐は、イシュガルドの教皇令。[@CR]賞金までかかっている。捕まるか、殺されるか、時間の問題だ。,"Don't be so naive, child. We are bound by the archbishop's word. The land is to be purged of all who would take a life in violation of the law, no matter their history. A price has been set on his head. It is but a matter of time before he is apprehended or killed.","Sei bitte nicht so naiv. Es gibt einen päpstlichen Erlass gegen Attentäter. Auf sie ist sogar ein Kopfgeld ausgesetzt. Es ist nur eine Frage der Zeit, bis er gefangen oder getötet wird ...","Tu dois être raisonnable, Keelty. L'Archevêque a ordonné la traque des assassins. Avec la récompense sur sa tête, ce n'est qu'une question de temps avant que Siward soit capturé, ou tué.",总之。[@CR]讨伐暗杀者是伊修加德的教皇命令。[@CR]这次还有赏金，所以被捕或者被杀都只是时间的问题了。
26,あなたと一緒に、森の様子を見ながら帰ろうと思ったけれど……[@CR]もう少し、いろいろ聞いてまわらなきゃならなくなってしまったわ。,"I still haven't found answers to the questions that brought me here, [@SPLIT([@STRING($EB(1))], ,1)]. And I will not leave until I have them.","[@SPLIT([@STRING($EB(1))], ,1)], ich hatte gedacht, dass wir zusammen zurückreisen können, doch nun muss ich dich bitten, alleine den Heimweg anzutreten. Ich werde mich hier noch etwas umhören.","[@SPLIT([@STRING($EB(1))], ,1)], je pensais rentrer à Gridania avec toi, mais je vais rester ici pour tenter d'en apprendre davantage.",我本想和你一起巡视下森林的样子就回来……[@CR]但有些事情我必须在周围多打听一些消息才行。
27,グリダニアの森へ逃げ込むとは、命知らずな者たちだ。,Knaves. You must be as witless as you are wicked to seek refuge in this wood.,"Sich in diesem verfluchten Wald zu verstecken, ist sehr verwegen.",Aller trouver refuge dans la forêt de Sombrelinceul... La folie vous a donc emportés tous autant que vous êtes.,竟然往格里达尼亚的森林里逃去，真是不要命的家伙。
28,早いわね、イシュガルドの騎兵団よ。,"Well, the Knights of Ishgard certainly waste no time.",Ritter aus Ishgard ... Ihr seid schnell ...,"Vous ne perdez pas de temps, chevaliers d'Ishgard.",很快嘛，伊修加德的骑兵团。
29,よせ、ここでは我々も見られている。,Lower your weapons. We will shed no blood here. The eyes of the wood are upon us.,Senkt eure Waffen. Der Wald soll nicht Zeuge unseres Blutvergießens werden.,"Gare, les yeux de la forêt nous observent.",拿开你的武器，元灵们也在看着我们呢。
30,さっさと行け。,Begone!,Beeilt euch!,Ecartez-vous.,快走！
31,出発だ。,Enough. March on.,Wir brechen auf!,"En route, compagnons.",出发。
32,シワード！　捜したわ！,Siward! I've been looking all over for you.,Siward! Überall habe ich nach dir gesucht!,"Siward, je t'ai cherché partout[@1D]!",西沃德！我找到你了！
33,何も言わずに、森を出るなんて。[@CR]どうしたのよ、いったい。,You were just going to leave without saying anything? Leave the Twelveswood? Leave me? An archer never abandons his─,Wie konntest du nur ohne ein Wort an irgendwen unseren Wald verlassen?![@CR]... Und mich. Was ist aus unserem Schwur geworden?,Tu es parti si sou[@16]dai[@16]ne[@16]ment... Que s'est-il passé[@1D]?,你竟然一声不吭的就离开了森林。[@CR]到底是怎么一回事啊。
34,俺は、もう、森を捨てたんだ。,This forest is dead to me.,Der Wald bedeutet mir nichts mehr.,"Tout ça, c'est du passé. Il n'y a plus de Sylve des Douze pour moi.",我已经，舍弃这个森林了。
35,えっ……,"Siward, you can't mean that...",Das kannst du nicht ernst meinen ...,"Siward, non...",什么？
36,精霊のご機嫌伺いをしながら弓を撃つなんて、ごめんだ。[@CR]俺の力は、もっと自由に使われるべきなんだ。,"I'll not loose another arrow in the service of the elementals. My strength is my own, to use as I see fit.",Mich vor jedem Pfeilschuss nach der Stimmung der „Gebieter“ zu erkundigen? Pah! Ich bin ein freier Hyuran und werde auch so handeln.,"J'en ai assez de me servir de mon arc selon le bon vouloir des esprits. Ma force m'appartient, et je veux m'en servir comme bon me semble.",在射击的同时还必须要考虑到元灵的情绪，我受够了。[@CR]我的力量，应该被更加自由的使用。
37,わかるだろ、キールティ。[@CR]おまえとは幼い頃から一緒にやってきたから、俺の気持ちはわかるだろ。,"You've known me longer than anyone, Kee. Since before we could string our own bows. You of all people should understand.","Wir sind zusammen groß geworden, Kee. Gerade du solltest mich verstehen.","Tu me comprends, Keelty[@1D]? Nous qui avons été in[@16]sé[@16]pa[@16]ra[@16]bles depuis notre enfance... Tu me comprends, n'est-ce pas[@1D]?",你懂的吧，姬迪。[@CR]你和我是从小一起长大的，你明白我的心情吧。
38,世界一の弓術士になったら、一度くらいは戻るさ。[@CR]じゃあな、キールティ。,"I'll come back someday, Kee. When the bards sing of Siward Silverstring, and every swain knows there never was a finer bowman in all Hydaelyn─[@1A(1)]then[@1A(0)] will I come back to you.","Wenn die Barden mich einst als besten Bogenschützen Eorzeas besingen werden, werde ich zurückkehren. Bis dahin, lebe wohl, kleine Kee.","Quand j'aurai réussi à devenir le plus grand des archers, je reviendrai, je te le promets. Prends soin de toi, Keelty.",我要成为世界第一弓箭手，然后再回来。[@CR]再见了，姬迪。
39,シワード……,Siward...,Siward ...,Siward...,西沃德……
40,行きも帰りも順調だったか？[@CR]森に異常はなかったか？,"[@SPLIT([@STRING($EB(1))], ,1)], good to see you. I trust your journey was a safe one. What have you to report?",[@STRING($EB(1))]. Ist alles planmäßig verlaufen? Im Wald gab es keine besonderen Vorkommnisse?,"Alors, [@SPLIT([@STRING($EB(1))], ,1)], tout s'est bien passé[@1D]? Vous n'avez pas eu de problème sur la route[@1D]?",来回的路上都顺利吗？[@CR]森林中没有异常吗？
41,そうか、イシュガルドの騎士たちが迎えに現れたか。[@CR]迅速で助かる。,I see. Lord Yuhelmeric's speed is to be commended. It is comforting to know the heretics have been apprehended.,"Die Ritter aus Ishgard sind gekommen, um die Häretiker abzuholen? Das ging ja schnell.",Je vois. Je suis re[@16]con[@16]nais[@16]sant à sieur Yuhelmeric d'avoir été si prompt. C'est un soulagement de savoir que ces hérétiques ont été capturés.,是吗，伊修加德的骑士们都出来迎接了吗？[@CR]这真是帮大忙了。
42,余所で悪さをした者が[@CR]何を勘違いしているのか、「黒衣森」へと逃げ込むのだ。,Gods know what madness could have driven them to take refuge in the Twelveswood.,"Ich frage mich, wie diese armen Seelen auf die Idee kommen, der Wald der Einkehr würde ihnen Schutz bieten?",Je me demande ce qui est passé par la tête de ces individus venus chercher refuge dans la Sylve des Douze après avoir commis leurs méfaits dans des contrées éloignées.,在别处作了恶的那些人[@CR]是不是搞错什么了，都逃往了“黑衣森林”。
43,しかも、ああいった輩は[@CR]身を隠すために枝を折り、飢えを潤すために果実をもぎる。[@CR]多くに精霊が宿っていることを知らずに。,"In their desperation, they broke branch and bush for shelter, and foraged carelessly to fill their foul bellies. Summoning the Knights was an act of compassion. I spared them a far worse fate.","Oder sollte ich besser sagen: solche Dummköpfe? Sie brechen Äste ab, um sich zu verbergen, essen von den Früchten des Waldes ...","Les individus de ce genre cassent des branches pendant leur fuite, arrachent des baies pour apaiser leur faim, tout ça sans se soucier des esprits qui les habitent.",而且，那些人[@CR]为了隐藏自己折断森林中的树枝，为了充饥摘掉果实。[@CR]却不知那里面寄宿着许多元灵。
44,それでもわたしたちの父母の時代は、[@CR]逃げ込んだ彼らを守ってあげていたのでしょう？,"And yet our own mothers and fathers strove to protect others like them, did they not?","Aber hat der Wald denn nicht damals auch unsere Eltern beschützt? Es ist traurig, wenn man bedenkt, wie sich die Zeiten geändert haben.",Où est passé ce temps où la Sylve des Douze offrait sa protection sans distinction...[@1D]?,但是即使如此，我们父母的那个年代，[@CR]还是保护了逃亡而来的那些人对吧？
45,仕方あるまい。[@CR]今や決して、平和な時代ではないのだ。,"Those days are gone, Keelty. The peace has left us.","Tja, die friedlichen Tage von einst sind gezählt.","C'est comme ça, Keelty. Nous ne vivons plus en temps de paix...",没办法。[@CR]现在决不能算是个和平的时代了。
46,もっと、わたしたちが強ければ……,If only because we lacked the strength to hold on to it.,Wenn ich doch nur stärker wäre ...,Si seulement nous étions plus forts...,如果我们能再强一点的话……
47,そのとおりだ。[@CR]平和を勝ち取る力さえあれば、森の精霊たちも多くを許すだろうにな。,"Aye, that much is clear now. It takes great strength to win peace, and greater strength to keep it. Were that strength ours again, no doubt the elementals would forgive us a great deal.","Genau. Wer den Frieden will, muss sich auf den Krieg vorbereiten.[@CR]Wenn wir stark genug sind, den Frieden zu bewahren, wird sich auch unsere Beziehung zu den Gebietern bessern.","C'est juste. Si nous étions assez forts pour ramener la paix, les esprits de la forêt seraient cer[@16]tai[@16]ne[@16]ment plus cléments.",正是如此。[@CR]如果拥有赢得和平的力量的话，想必森林元灵们也会原谅我们的。
48,……シワードが戻ってきてくれたら……,If only Siward were here...,Wenn Siward nur hier wäre ...,Si seulement Siward était parmi nous...,……如果西沃德回来的话……
49,これを与えよう、今回の働きに見合う報酬だ。[@CR]お前も強くなれ。強くあれ。,"Here you are, payment in full for your last ranging. Grow, [@SPLIT([@STRING($EB(1))], ,1)], and strive for strength. Mark my words─it is all that matters.","Hier, nimm das bitte für deine Mühen und tu mir einen Gefallen ...[@CR]Werde stärker! Trainiere jeden Tag und werde stärker!","Tenez, [@SPLIT([@STRING($EB(1))], ,1)]. C'est une récompense pour les services que vous avez rendus. Vous aussi, vous devez devenir [@IF($E9(4),forte,fort)] pour protéger la Sylve des Douze[@1D]!",这个给你，与这次你的付出相应的报酬。[@CR]你也要继续变强啊！加油！
50,聞いたわよ、ハムレット「アウルネスト」まで足を伸ばしたそうじゃない。,I heard you made it all the way to Owl's Nest.,"Ich habe gehört, dass du bis nach Ishgard gereist bist? Bis zum Weiler „Eulennest“?","J'ai entendu que vous êtes [@IF($E9(4),allée,allé)] jusqu'au Nid du hibou[@1D]?",我听说了哦。你的活动范围都已经扩张到辅城“枭巢”啦。
51,キールティの相棒に[@CR]冒険者があてられるのは、キールティ自身の希望なのよ。,"It was Keelty's wish to be paired with an adventurer. Didn't want to get too attached, I suppose.","Wusstest du eigentlich, dass Keelty sich die Abenteurer selbst aussucht, die ihre Partner werden?","C'est Keelty elle-même qui a demandé à avoir [@IF($E9(4),une aventurière,un aventurier)] pour partenaire.",姬迪的搭档[@CR]是冒险者，这一点也是姬迪所希望的。
52,依頼を受ける？,See the papers safely to Ishgard?,Überbringst du die Papiere sicher nach Ishgard?,Acceptez-vous[@1D]?,接受委托吗？
53,はい,Consider it done.,Die Gilde kann sich auf mich verlassen.,C'est comme si c'était fait.,是
54,いいえ,"I'm an archer, not a courier.","Ich bin vielleicht Waldläufer, aber kein Stadtkurier.","Non, j'ai mieux à faire.",否
55,そうだ、帝国の侵攻と蛮神の誕生が、すべてを大きく変えようとしている。[@CR]その変化に、我らも対応しなくてはならないのかもしれぬ。,"Between the Garleans and the Ixal, our resources are spread too thin. Still, we must do what we can.",Der Einfall der Truppen des Kaiserreiches und das Entstehen der wilden Stämme hat alles verändert. Wir müssen uns anpassen ... mit der Zeit gehen.,"Les Ixali n'ont de cesse de nous harceler, l'empire de Garlemald se prépare vraisemblablement à nous attaquer, mais nous devons faire face.",对了，帝国的入侵和蛮神的诞生，导致一切都发生了巨大的变化。[@CR]而我们也必须去应对那个变化。
56,キールティと話し[@CR]彼女とともにハムレット「アウルネスト」へ向かえ。,Go and speak with Keelty. You must make for Owl's Nest with all haste.,Sprich mit Keelty. Ihr müsst in aller Eile zum Weiler „Eulennest“ aufbrechen.,Vous devez apporter la lettre au Nid du hibou avec Keelty.,和姬迪对话[@CR]和她一起前往辅城“枭巢”。
57,イシュガルドの騎兵団に直接、[@CR]手渡さなければならない文書があるのだ。すみやかに遂行せよ。,"See those papers safe to the hands of the Knights of Ishgard, and no other. Go now, and Twelve be with you.","Die Papiere dürft ihr nur den Rittern aus Ishgard übergeben, niemandem sonst. Möge Oschon euch den Weg weisen.","Surtout, assurez-vous bien de la remettre en mains propres aux gardes[@1D]! Que Nophica soit avec vous.",有份文书[@CR]必须直接交给伊修加德的骑兵团，快点去执行吧。
58,ノノラトさん、当たり前のことばっかり言ってるけど。[@CR]結局、なんでイシュガルドの騎兵団に会いに行くの？,Our sole purpose is to protect the forest. What business could Nonolato possibly have with the Knights of Ishgard?,"Unsere Bestimmung ist es, den Wald zu schützen. Was könnte Nonolato mit den Rittern aus Ishgard zu bereden haben?",Je croyais que le travail des flèches divines était de protéger la forêt. Quel rapport avec Ishgard[@1D]? Nonolato aurait-il quelque chose derrière la tête[@1D]?,虽然诺诺拉特说这是理所当然的是。[@CR]但是到底为什么要去见伊修加德的骑兵团呢？
59,城塞都市イシュガルドは、鎮守の森を西に抜けた山岳地帯にある。,"So it's to be Ishgard, is it? Well, you need only head west out of the Twelveswood, and make for the mountains. The way is simple, but long.","Man sendet dich nach Ishgard? Nun, du musst nur dem Weg nach Westen folgen, bis du den Wald der Einkehr verlässt, und dich dann an den Bergen orientieren.","Si vous partez pour Ishgard, vous allez devoir sortir de la Sylve des Douze puis traverser les montagnes, vers l'ouest.",城塞城市伊修加德，位于镇守之森西方的山岳地带。
60,もともと危険な場所だから、交易は少なかったのだが[@CR]今や、都市に入ることすらできなくなってしまったよ。,"The region is fraught with its own dangers, which is why we seldom trade with them. In fact, last I heard, their gates were barred to outsiders.","Die Region, durch die dich deine Reise führen wird, birgt viele Gefahren. Deshalb kommen so wenige Händler aus Ishgard hier her.[@CR]Das Letzte, was ich über Ishgard hörte, ist, dass sie ihre Pforten nun vollständig für Außenstehende geschlossen haben.","La région est périlleuse, c'est pourquoi nous n'entretenons que peu de contacts. Aux dernières nouvelles, la Cité aurait même fermé ses portes aux étrangers.",原本就是个很危险的地方，交易又少之又少[@CR]现在更是连城市都无法进入了。
61,鎧を着てチョコボに乗ってる一団を[@CR]クルザス地方で見かけたら、とりあえず行儀よくしておくこと。,"You may come across armored knights on chocoboback once in Coerthas. Should that happen, I suggest you mind your manners.",Du wirst unterwegs in Coerthas womöglich auf schwer gerüstete Ritter auf hohen Chocobos treffen. Du solltest dich ihnen gegenüber sehr respektvoll verhalten.,"Si vous rencontrez des chevaliers en armure à dos de chocobo dans la région du Coerthas, je vous conseille de vous tenir con[@16]ve[@16]na[@16]ble[@16]ment.",在库尔札斯地区，[@CR]如果见到了身穿铠甲骑着陆行鸟的一行人，记得要有礼貌。
62,それこそが、イシュガルドの騎兵団だよ。[@CR]彼らはバラクーダ騎士団と真逆で、礼儀を重んじるんだ。,"Do not confuse the Knights of Ishgard with those of Limsa. If you ask me, it's a crime to let those Barracudas style themselves knights. Knights of a bloody fish? Laughable. No, it is the Ishgardians who are the true knights─they who value honor and respect above all else.",Verwechsle sie bloß nicht mit den Rittern des Barrakuda. Den Ishgardern ist ihr Stolz und Respekt wichtiger als das eigene Leben.,"A la différence de ceux de Limsa Lominsa, les chevaliers d'Ishgard attachent une grande valeur à l'honneur et au respect.",他们就是伊修加德的骑兵团。[@CR]他们和梭鱼骑士团完全相反，是个很重视礼仪的军队。
63,グリダニアとイシュガルドは、過去に何度か、戦火を交えている。[@CR]特に酷かったのは、ドラゴン族がらみの戦いのときだね。,"Gridania and Ishgard have raised their banners against one another several times in the past. The Battle of Dragonfall, in particular, was...tragic.",Gridania und Ishgard haben in der Vergangenheit viele blutige Kriege untereinander ausgefochten.[@CR]Besonders tragisch war die Schlacht vom Drachenfall ...,"Gridania et Ishgard sont entrées en conflit à de multiples occasions par le passé. Une bataille, à laquelle furent mêlés les dragons, reste dans les mémoires pour sa grande violence...",格里达尼亚和伊修加德过去曾经交战过数次。[@CR]最残酷的就是有关龙族的那次战役。
64,神勇隊隊長は[@CR]イシュガルドの騎兵団長さまと、よくお話しているみたい。[@CR]だから、あまり怖がる必要はないと思うわ。,I've heard it said the Gods' Quiver has been in close contact with the Knights of Ishgard. I'm sure it is no cause for concern.,Nophicas Schar steht wohl in engerem Kontakt mit den Rittern aus Ishgard. Ich mach mir deshalb jedenfalls keine Sorgen.,"Vous n'avez pas à vous inquiéter, les flèches divines ont signé un traité de bonne entente avec les chevaliers d'Ishgard.",神勇队队长[@CR]好像经常和伊修加德的骑兵团团长说话。[@CR]所以也不用那么害怕他们。
65,ただ、イシュガルドにはたくさんの騎兵団があるらしいから[@CR]どの騎兵団の団長に話が通っているか……謎ね。,"Still, it begs the question─with [@1A(1)]which[@1A(0)] order of knights are we in treaty?","Trotzdem würde ich natürlich auch gerne wissen, mit welchem Orden der Ritter wir gerade verhandeln.","Reste à savoir avec quel ordre de chevaliers nous avons signé ce traité... Ils sont nombreux, croyez-moi.",但是，伊修加德里有很多骑兵团[@CR]到底是和哪个骑兵团的团长通话的呢……还是个迷。
66,ハムレット「アウルネスト」の人たちは[@CR]よくあんな危険な場所に住んでいると思うわ。,I'll never understand the people of Owl's Nest. Who would choose to live in such a perilous place?,Die Einwohner des Weilers „Eulennest“ werde ich niemals verstehen. Wie kann man sich einen so gefährlichen Ort zum Leben aussuchen?,J'ai du mal à comprendre les gens du Nid du hibou. Quelle idée d'aller habiter dans un endroit aussi risqué[@1D]!,辅城“枭巢”的人[@CR]还真敢住在那么危险的地方啊。
67,だからといって[@CR]鎮守の森に入ってこられたら、今回のような騒ぎになるのだけれど。,"Not that I would rather they take refuge in the Twelveswood, mind you. That would only worsen the problems we now face.","Nicht dass du jetzt denkst, ich würde mir wünschen, sie würden im Wald der Einkehr Zuflucht suchen. Althyk bewahre! Wir haben wirklich schon genug Probleme.","Enfin, je les préfère encore là-bas plutôt que dans notre forêt. Moins nous avons d'étrangers qui tentent d'y pénétrer, mieux elle se porte.",所以[@CR]进入镇守之森之后，才会发生这次的骚乱。
68,グリダニアの者よ、気を抜くではないぞ。[@CR]地面ばかり見ていると、命を落とすことになる。,"You're far from the safety of the trees, adventurer. The elementals will not save you here.","[@IF($E9(4),Abenteurerin,Abenteurer)], deine Waffe verrät, dass du dich als Diener den Waldgeistern verschrieben hast. Du bist hier jedoch weit entfernt vom Schutz der Bäume.","La forêt de Sombrelinceul est loin derrière toi, [@IF($E9(4),aventurière,aventurier)]. Reste sur tes gardes, car aucun esprit ne viendra à ton secours ici.",格里达尼亚来的冒险者啊，不要大意。[@CR]只留神地面的话，可是会丧命的。
69,このハムレットは、我らがイシュガルドの管轄下にある。[@CR]他都市の者ならば、ここでイシュガルドの規律を学び、尊べ。,"This hamlet lies within the jurisdiction of Ishgard. Observe her law, or suffer her justice.",Dieser Weiler liegt im Hoheitsgebiet Ishgards. Befolge unsere Gesetze oder wir werden dich richten.,"Ce hameau est sous la juridiction d'Ishgard. Si vous avez affaire ici, vous devrez vous plier à nos lois.",这个辅城，是属于伊修加德管辖下的。[@CR]其他城市过来的人，必须要在这里学习并尊重伊修加德的规矩和法律。
70,ハムレット「アウルネスト」にて、[@CR]イシュガルドの騎兵団に会うことができたか。,Were you granted audience with the Knights of Ishgard garrisoned at Owl's Nest? Very good.,Die Ritter haben euch eine Audienz gewährt? Sehr gut.,Les chevaliers du Nid du hibou vous ont-ils accordé audience[@1D]? Très bien.,在辅城“枭巢”中，[@CR]见到伊修加德的骑兵团了吗？
71,ほう、ヴェールモン殿……[@CR]ちょうど騎兵団本隊がいらしていたようだな。[@CR]これは幸運、問題は早期に解決しそうだ。,Ser Vairemont? Your timing was fortunate. No doubt he will see to our dilemma at once.,"Sir Vairemont? Was für ein hervorragendes Timing. Bei ihm können wir uns sicher sein, dass er sich unverzüglich unserer Probleme annimmt.","Oh, vous avez rencontré sieur Vairemont[@1D]! La chance est avec nous, notre problème devrait être résolu rapidement.",哦，是韦雷蒙殿下啊……[@CR]正好骑兵团的主力部队来了。[@CR]太幸运了，这样问题可以早点解决了。
72,しかし、キールティはどうしたんだ？[@CR]組んでいる相手と、ともに帰ってこなくてどうする？,"And what of Keelty? I see you've somehow managed to return on your own, yet again.",Und wo hast du Keelty gelassen? Bist du etwa wieder allein zurückgekehrt?,"Mais au fait, où est passée Keelty[@1D]? Une fois de plus, vous êtes [@IF($E9(4),revenue,revenu)] sans elle...",但是姬迪到底是怎么了？[@CR]怎么能不和组队的搭档一起回来呢？
73,書類の中身はなんだったの？[@CR]……いたんしゃ？　イシュガルドで忌み嫌われてる異端者のことかな？,"The letters contained news of heretics? Hmmm... I have heard such stories from Ishgard, but what concern is it of the Gods' Quiver?","In den Papieren ging es um Häretiker? Hm ... Ich habe Geschichten darüber gehört, aber was haben wir bloß damit zu tun?","Alors, qu'est-ce qui était écrit, dans cette lettre[@1D]? Oh, il me semble avoir déjà entendu des histoires d'hérétiques en provenance d'Ishgard...",文件里写的什么？[@CR]……异端者？是说那个在伊修加德因为禁忌而被讨厌的异端者吗？
74,私は少し前に、城塞都市イシュガルドに迎えられたことがある。,"I traveled to Ishgard myself, not long ago.",Ich bin selbst einmal nach Ishgard gereist. Das ist noch gar nicht lange her.,"J'ai moi-même fait le voyage vers Ishgard, il n'y a pas si longtemps.",之前我还被城塞城市伊修加德欢迎了呢。
75,しかし、そこで見聞きしたことは他言するなと釘を刺された。[@CR]確かに、他言はしたくない視察内容だったぞ。,"The Knights of Ishgard made me swear before gods and man not to speak of anything I'd seen or heard during my time there. Things being what they were, I'm half grateful they did.","Ich musste dort vor den Rittern schwören, kein Sterbenswort darüber zu verlieren, was ich dort sah und hörte ...[@CR]Wenn man bedenkt, was ich dort mit ansehen musste, bin ich recht froh darüber, diesen Schwur geleistet zu haben.","On m'a fait promettre de ne parler à personne de ce que j'y ai vu ou entendu. Pour être honnête, c'est plutôt un soulagement de ne pas avoir à repenser à tout ça...",但是，他们却不准我把在那里所见所闻的事情告诉给其他人。[@CR]确实，那都是些不希望对他人讲的视察内容。
76,あの都市は、長い間、ドラゴン族と戦い続けているのよ。[@CR]私たちが、イクサル族と戦い続けているのと同じね。,The people of that poor hamlet have been at war with the dragons for longer than most can remember─not unlike ourselves and the Ixal.,"Ishgards Ritter kämpfen dort seit ewigen Zeiten gegen die Drachen. Sicher genauso lang schon, wie unsere Fehde gegen die Ixal andauert ...","Depuis des lustres, les habitants de ce hameau sont engagés dans un combat acharné contre les dragons. Tout comme nous avec les Ixali...",那个城市，长年和龙族对战。[@CR]就像我们同鸟人族对战一样。
77,彼女には、もともと相棒がいてね。[@CR]その人が帰ってくるのを待っているんだろうね。,"She had another partner before you. He forsook the Quiver and the Twelveswood long ago. None think he'll return, but she claims she'll wait as long as it takes.",Dabei wartet sie eigentlich auf die Rückkehr ihres früheren Partners ...,"Elle a eu un autre partenaire avant toi, mais il a abandonné la guilde et la Sylve des Douze. Personne ne croit à son retour, sauf Keelty. Elle dit qu'elle l'attendra le temps qu'il faudra.",她原本是有个搭档的。[@CR]她一直在等着那个人的归来。
78,先に、鎮守の森「黒衣森」に向かってちょうだい。[@CR]わたしも急いで用事を済ませて、あなたの後を追うから。,"I'm sorry, but you will have to return without me. I promise I won't be far behind. I'll catch up to you on the road─somewhere near Camp Emerald Moss.","Es tut mir leid. Ich verspreche dir, dass ich dir so schnell wie möglich folgen werde.","Tu veux bien partir devant, une fois de plus[@1D]? Je ne serai pas longue, je te le promets.",请你先去镇守之森“黑衣森林”吧。[@CR]我也会马上把私事处理完然后去找你的。
79,あなたと一緒に、森の様子を見ながら帰ろうと思ったけれど……[@CR]もう少し、いろいろ聞いてまわらなきゃならなくなってしまったわ。,"I still haven't found answers to the questions that brought me here, [@SPLIT([@STRING($EB(1))], ,1)]. And I will not leave until I have them.","Mir fehlen noch immer einige Antworten, und ich kann hier nicht weg, bevor ich sie gefunden habe.","[@SPLIT([@STRING($EB(1))], ,1)], je pensais rentrer à Gridania avec toi, mais je vais rester ici pour tenter d'en apprendre davantage.",我本想和你一起巡视下森林的样子就回来……[@CR]但有些事情我必须在周围多打听一些消息才行。
80,先に、鎮守の森「黒衣森」に向かってちょうだい。[@CR]わたしも急いで用事を済ませて、あなたの後を追うから。,"I'm sorry, but you will have to return without me. I promise I won't be far behind. I'll catch up to you on the road─somewhere near Camp Emerald Moss.","Mach dich bitte bereit, nach Gridania zurückzukehren. Wir treffen uns auf der Lichtung im Finsterwald wieder. Ich habe sie dir bereits auf der Karte markiert.","Tu veux bien partir devant, une fois de plus[@1D]? Je ne serai pas longue, je pense que je pourrai te rattraper près du camp de Moussémeraude.",请你先去镇守之森“黑衣森林”吧。[@CR]我也会马上把私事处理完然后去找你的。
81,そうかぁ。[@CR]森に、異端者たちが潜んでいたのを発見したから[@CR]イシュガルドの騎士たちに報告したってわけだったんだ。,"Of course, how could I have been so blind? Nonolato called upon the might of Ishgard to flush out the heretics hiding in the wood.","Aber natürlich. Nonolato hat die Ritter um Unterstützung gebeten, weil man Häretiker im Wald entdeckte. Warum bin ich denn nicht selbst darauf gekommen?","Je comprends, maintenant. Nonolato a averti les chevaliers d'Ishgard de la présence d'hérétiques dans la forêt.",是吗？[@CR]在森林中发现了有异端者在潜伏着[@CR]所以报告给了伊修加德的骑士们。
82,異端者と呼ばれる理由はひとつ。[@CR]イシュガルドの宗教理念に反した行動をしたからだよ。,"Those taken prisoner are heretics, plain and simple. They decry the faith of Ishgard, and are eternally condemned for it.","In Ishgard zum Häretiker zu werden, ist nicht schwer. Du musst einfach auf die Dogmen ihrer geistigen Führer spucken, und schon wirst du für immer wegen deiner Sünden verdammt.",Pourquoi les appelle-t-on des hérétiques[@1D]? Car ils se sont rendus coupables d'actes contraires aux dogmes religieux d'Ishgard.,称其为异端者是有原因的。[@CR]因为他们采取了违背伊修加德宗教理念的行动。
83,その結果、[@CR]彼らは、イシュガルドを追われてしまったんだ。,That is why they fled and sought refuge in the Twelveswood.,"Und weil die Häretiker gejagt werden, haben sie Zuflucht im Wald der Einkehr gesucht.",Ils sont venus trouver refuge dans la Sylve des Douze pour échapper au châtiment qui leur est réservé.,所以，[@CR]他们才会被驱逐出伊修加德。
84,ドラゴン族がらみの事件は、[@CR]今もなおグリダニアとイシュガルドに遺恨を残してる。,The Battle of Dragonfall is still a tender scar. Neither Gridania nor Ishgard is likely to soon forget.,"Die Schlacht vom Drachenfall hat tiefe Narben hinterlassen. Weder die Gridanier noch die Ishgarder werden so schnell vergessen, was damals geschah.",Les cicatrices laissées par cette bataille avec les dragons sont profondes... Il existe toujours un sentiment de rancœur entre Ishgard et Gridania.,有关龙族的事件，[@CR]直到现在在格里达尼亚和伊修加德依然存在着遗恨。
85,それを解消するためにも、今回のように協力の姿勢を見せることは大切だね。[@CR]帝国や蛮族と戦っているときに、後ろから攻められたくないからね。,"Hopefully, incidents like this latest one will serve to improve relations. With the Garleans and the beast tribes at our borders, the prospect of being flanked by the mounted strength of Ishgard does not bear thinking about.","Vorfälle wie dieser helfen hoffentlich, die Beziehungen zwischen unseren Nationen zu verbessern. Während einer Aus[@16]einander[@16]set[@16]zung mit den Wilden Stämmen und dem Kaiserreich wäre es fatal, wenn uns die Ritter aus Ishgard in den Rücken fielen.","C'est pourquoi des efforts de coopération entre nos deux Cités comme celui auquel vous venez de contribuer sont nécessaires. Alors que nous devons faire face aux Ixali et à l'Empire, nous n'avons pas besoin d'un ennemi sup[@16]plé[@16]men[@16]tai[@16]re.",为了消除那份遗留下来的怨恨，像这次一样让对方看到协作的态度是很重要的。[@CR]我们可不想在同帝国和蛮族作战的时候，被人从后面袭击。
86,幻術士さまが[@CR]イシュガルドの騎士たちを、ちゃんと出口まで案内したそうよ。,The conjurers saw Lord Yuhelmeric and his men safely out of the forest.,Die Druiden haben Herzog Yuhelmeric und seine Ritter unversehrt aus dem Wald geleitet.,Les élé[@16]men[@16]ta[@16]lis[@16]tes ont pris soin de rac[@16]com[@16]pag[@16]ner sieur Yuhelmeric et ses hommes hors de la Sylve des Douze.,听说幻术师大人们[@CR]把伊修加德的骑兵们都安全带到了出口呢。
87,彼らは鎮守の森に嫌われているから、[@CR]ちゃんと守ってあげないとならないの。まったく厄介だわね。,"The elementals have no love for the Ishgardians. Without an escort, they would not have made it out of the wood alive.",Die Ishgarder sind bei den Gebietern keine gern gesehenen Gäste. Ohne eine Eskorte hätte wer weiß was passieren können ...,"Les esprits n'apprécient pas la présence d'Ishgardais, nul doute qu'ils auraient manifesté leur colère sans l'escorte appropriée.",因为他们被镇守之森厌恶，所以必须好好保护他们才行。真的是麻烦死了。
88,鎮守の森は、押しなべて守るわけではない。[@CR]そのように都合のよいものなど、この世にはない。,This is the belief of the outsider─that the forest exists to provide for him. That to take and not to give is the way of things.,Solche Optimisten habe ich noch nicht gesehen ...,"Il y a tant d'étrangers qui pensent pouvoir bénéficier de la protection offerte par notre forêt, mais ce n'est pas un dû[@1D]!",镇守之森并不会保护所有在森林内部的人。[@CR]天底下没有这么好的事。
89,そして、精霊の怒りを買うことになるのだよ。,"I, for one, would sooner starve than suffer the wrath of the elementals.","Und all das ohne auch nur zu ahnen, dass sie den Zorn der Gebieter auf sich ziehen.","Et ce faisant, ils s'attirent leur colère...",于是他们就惹怒了元灵。
90,彼らは、イシュガルドでは重罪人として裁かれるわ。[@CR]だから、幻術士さまもお見逃しにならない。,There are those who oppose the Conclave─condemned by Ishgard for their crimes. Such sinners cannot escape the eyes of the conjurers.,Man wird sie in Ishgard als Schwerverbrecher bestrafen. Deshalb können die Druiden nicht einfach wegsehen.,Ils sont recherchés à Ishgard pour s'être opposés à l'Archevêque. De tels criminels ne peuvent pas échapper à la vigilance des élé[@16]men[@16]ta[@16]lis[@16]tes.,他们在伊修加德会被当做罪孽深重的人予以制裁。[@CR]所以，连幻术师大人也不会放过他们。
91,今のままでは、[@CR]シワードも戻ったら、きっと……,"If Siward were to return to the forest, he too would face a similar fate.","Wenn Siward jetzt zurückkehrt, wird er sicher ...","Si Siward revenait dans la forêt, lui aussi...",现在这样，[@CR]如果西沃德也回来的话，一定……
92,クルザス地方へ向かわなければならない任務のことよね？,"You are speaking of the ranging into Coerthas, yes?",Du weißt wegen des Auftrages in Coerthas also Bescheid?,Notre mission dans le Coerthas[@1D]?,必须前往库尔札斯地区的任务是吧？
93,あれが、神勇隊の弓術士[@STRING($EB(1))]か。,"So this is the Quiver's promising new archer─[@SPLIT([@STRING($EB(1))], ,1)].","Du bist [@SPLIT([@STRING($EB(1))], ,1)], [@IF($E9(4),die Waldläuferin,der Waldläufer)] von Nophicas Schar, richtig?","Alors voilà le nouvel espoir du Carquois, [@IF($E9(4),la fameuse,le fameux)] [@STRING($EB(1))].","那就是神勇队的弓箭手[@SPLIT([@STRING($EB(1))], ,1)]吗？"
94,組んだ相棒を恨むといい……殺せ！,"A pity. [@IF($E9(4),She,He)] could not have known pairing with Keelty would prove [@IF($E9(4),her,his)] demise. <sigh> Grant [@IF($E9(4),her,him)] a quick death, at least.","Du hast Pech mit deinem Partner ... Ergreift [@IF($E9(4),sie,ihn)]!","[@IF($E9(4),La pauvre,Le pauvre)], [@IF($E9(4),si elle,s'il)] avait su que faire équipe avec Keelty [@IF($E9(4),la,le)] mènerait à sa perte... Accordons-lui une mort rapide.",要恨就恨你那个搭档吧……动手！！
95,そうだ、騎士さまのおっしゃる通り、[@CR]俺たちも異端者と戦おうじゃないか！[@CR]勇気を出そう、敵は人だ！　恐れる必要なんてないんだ！,"Them knights have the right of it. Us farmers ought to be fightin' the heretics ourselves when we can. Ain't no cause for bein' afeared. Prick 'em an' they bleed, same as any. An' if they bleed, we can kill 'em.","Es ist alles genauso, wie die Ritter sagen. Unsere Feinde, die Häretiker, sind einfache Sterbliche.[@CR]Wir sollten ihnen mutig und ohne Furcht entgegentreten!","Oui, les chevaliers ont raison[@1D]! Nous autres fermiers devons aussi combattre les hérétiques[@1D]! Il n'y a aucune raison d'avoir peur, à vos fourches compagnons[@1D]!",是的，正如骑士所说，[@CR]我们也和异端者战斗吧！[@CR]拿出勇气！敌人是人类！没必要害怕！
96,相手も一筋縄ではいきませんよ。こちらも冒険者などを雇い、[@CR]汚れ仕事を任せればいいのではないでしょうか。,"Aye? And who'll tend yer crops when their dragonfire sends ye home charred to a crisp? Fightin' ain't our way, never has been. Leave the fightin' to the adventurers, like this'un here.","Diesem Feind ist mit normalen Mitteln nicht beizukommen, [@IF($E9(4),Abenteurerin,Abenteurer)]. Du solltest es wie wir machen, und das Kämpfen den Rittern überlassen.","Attention, on a pas affaire à n'importe qui non plus[@1D]! Moi j'dis qu'on d'vrait payer des aventuriers pour s'en charger[@1D]!",对方也不是用一般手段就对付的了的。咱们这边雇佣了冒险者，[@CR]把事情交给他们去做不就好了。
97,ふむふむ、見回りを強化し、[@CR]見知らぬ者は捕らえて調査する必要があるな。,"Y'ask me, it's the patrols what need bolsterin'. Any soul seen abroad without cause should be caught an' questioned!","Hm ... Man sollt die Wachposten verdoppeln und jeden aufgreifen und verhören, der nicht zu uns gehört ... wenn du mich fragst.","Hum, si vous voulez mon avis, on devrait commencer par renforcer les patrouilles. Il faut contrôler et questionner quiconque ayant l'air suspect[@1D]!",嗯嗯，要加强巡逻，[@CR]有必要逮捕那些陌生的人并调查他们。
98,暗殺者の討伐は、イシュガルドの教皇令。[@CR]暗殺者は捕まるか、殺されるか、時間の問題だ。,"These lands are to be purged of all who would take a life in violation of the law, no matter their history─that is the archbishop's word. It is but a matter of time before this fiend is apprehended or killed.","Es gibt einen päpstlichen Erlass gegen Attentäter. Auf sie ist sogar ein Kopfgeld ausgesetzt. Es ist nur eine Frage der Zeit, bis er gefangen oder getötet wird ...","L'Archevêque d'Ishgard a ordonné de traquer les assassins sans pitié. Avec la récompense sur sa tête, Siward ne pourra pas se cacher bien longtemps.",讨伐暗杀者是伊修加德教皇的命令。[@CR]暗杀者要么被捕，要么被杀，这只是早晚的事。
