 ,0,1,2,3,4
 ,str,str,str,str,str
1,,[en],"Wie ich höre hast du dein Können erheblich verbessert. Vorbildlich, vorbildlich!",On dirait que vous avez progressé. Admirable[@1D]!,[chs]
2,,[en],"Für jemanden mit solchen Fähigkeiten brauchen wir einen passenden Partner.Komm bitte zum Luftschutzturm（仮）, damit wir uns gemeinsam nach einem umsehen können.",Vous avez besoin d'un partenaire en accord avec vos nouvelles capacités. Venez tout de suite à[@1D]???.,[chs]
3,ううむ。,[en],Hm[@1D]...,Hmmm...,[chs]
4,いや、これも任務と諦めてくれ。[@CR]新しい相手だが、またも問題の多い相手となりそうだ。[@CR]弓術士としての素養は十分過ぎるほどにあるのだが。,[en],"Nein, das kann doch nicht gut gehen. Der Waldläufer, der als dein neuer Partner vorgeschlagen wurde[@1D]... er hat zwar viel Talent, aber[@1D]...","??? A propos de votre nouveau partenaire, c'est quelqu'un qui possède de grandes con[@16]nais[@16]san[@16]ces du tir à l'arc. Par contre, une fois de plus, on ne peut pas dire que ce soit quelqu'un sans histoires...",[chs]
5,ともかく、ちょうど新しい任務も入ったところだ。受けてくれるか？,[en],"Jedenfalls kommst du genau richtig, denn ich habe einen neuen Auftrag für dich. Bist du interessiert?","En tout cas, ça tombe très bien, nous avons justement une mission à vous proposer. Qu'en pensez-vous[@1D]?",[chs]
6,組替えが不満か。キールティと仲良くやっていることは承知している。[@CR]しかし、自分の実力に見合った相手と組まねば、いつか命を落とすことになる。[@CR]……といっても、今回は少し話が別だがな……,[en],"Ich verstehe ja, dass du dich mit Keelty angefreundet hast, aber wenn du keinen Partner hast, der über die gleichen Fähigkeiten wie du verfügt, kann dich das irgendwann Kopf und Kragen[@1D]... Aber davon willst du ja anscheinend nichts wissen[@1D]...","Vous rechignez à changer de partenaire, c'est ça[@1D]? Ecoutez, je sais que vous vous entendez bien avec Keelty, mais vous serez en danger si vous ne faites pas équipe avec quelqu'un de votre niveau. D'ailleurs, pour être honnête, je ne suis pas rassuré par votre nouveau partenaire, mais pour d'autres raisons...",[chs]
7,この頃、鎮守の森で行方知れずになる者が多い。[@CR]精霊たちに連れ去られ「鬼」となった者もいるが、それだけが原因ではなさそうだ。,[en],"In letzter Zeit häufen sich die Ver[@16]misst[@16]mel[@16]dungen von Personen, die im Wald der Einkehr verschwinden zu scheinen.Natürlich lassen die erzürnten Gebieter ab und zu jemanden vom Waldboden verschwinden, aber das allein kann nicht die Ursache sein.","Ces derniers temps, de nombreuses personnes dis[@16]pa[@16]rais[@16]sent dans la forêt. Bien sûr, il y a ceux devenant des démons après avoir été emmenés par les esprits, mais ils ne sont pas les seuls.",[chs]
8,道に迷った者や、魔物に食われた者もいるだろう。[@CR]よそ者の往来が多くなり、魔物の力も増している。,[en],"Der Verkehr auf den Waldwegen nimmt zu, die Monster des Waldes werden immer aggressiver und manch einer, der vom Weg abkommt, wird von den Monstern gefressen. Warum kommen Leute auch auf die Idee, sich im Wald verstecken zu wollen?","Certains sont sûrement dévorés par des monstres après s'être égarés. En effet, beaucoup de monstres se montrent aggressifs avec la mul[@16]ti[@16]pli[@16]ca[@16]tion des allées et venues dans la forêt. Et tous ceux qui viennent pour se cacher...",[chs]
9,何にしろ、放っておいては厄介だ。精霊たちを刺激することになる。[@CR]そこで我々の手で、森に入った異物を探し出さねばならない。,[en],"Wir müssen jedenfalls etwas unternehmen, bevor die Situation eskaliert. Wir müssen die „Fremdkörper“ aus dem Wald entfernen, bevor sie die Gebieter und Monster noch weiter reizen.","Quoi qu'il en soit, nous ne pouvons pas ignorer la situation, cela ne servirait qu'à attiser la colère des esprits. C'est donc à nous d'aller chercher dans la forêt les malavisés qui s'y sont introduits.",[chs]
10,そんな中、「ムントゥイ醸造庫」に、多数のシルフ族が攻め込んだという知らせがあった。奴らめ、食糧を根こそぎ奪う気ではないだろうか。シルフ族はあんなナリだが、我々の食べ物を気に入っているのだ。,[en],"Du wirst dich zu den Mun-Tuy-Braukellern begeben und dort nach Leuten suchen, die sich verlaufen und dort versteckt haben. Sei jedoch auf der Hut! Auch wenn du dort jemanden findest, lässt sich nicht auf Anhieb sagen, ob es sich um einen Freund oder Feind handelt.","Vous allez descendre dans les Celliers de Mun-Tuy et rechercher d'éventuels égarés. Attention cependant, si vous apercevrez une silhouette humaine, assurez-vous bien qu'elle soit amicale avant de vous approcher.",[chs]
11,そして、奴らは何を考えているかよくわからん。「ムントゥイ醸造庫」で働いている者たちのことが心配だ。彼らは捕虜とされているか、もしくは……,[en],"Um nochmal auf deinen neuen Partner zurückzukommen, er ist momentan nicht auffindbar. Ich hoffe nur, dass er nicht so unvernünftig war, bereits alleine loszugehen[@1D]...","Oh, j'oubliais de vous dire, mais votre nouveau partenaire est absent. Je vous conseille d'être raisonnable et de ne pas partir en mission en solitaire.",[chs]
12,早急に救助に迎え。お前が組むべき相手は不在だが、今は仕方あるまい。グリダニア都市民のために、その力を奮ってみせよ。,[en],"Wenn du dich auf den Weg machst, nimm lieber ○ Abenteurer mit. Sicher ist sicher.",Il serait sûrement judicieux de réunir[@1D]??? équipiers parmi vos amis aventuriers.,[chs]
13,早急に救助に迎え。お前が組むべき相手は不在だが、今は仕方あるまい。グリダニア都市民のために、その力を奮ってみせよ。,[en],"Wenn man die Geister des Waldes erzürnt, lassen sie einen verschwinden - das weiß in Gridania jedes Kind. Abenteurer bilden da keine Ausnahme!","Quiconque ose provoquer la colère des esprits sera enlevé/disparaîtra. Ça, tout le monde le sait à Gridania. Faites attention, car les aventuriers ne font pas exception.",[chs]
14,早急に救助に迎え。お前が組むべき相手は不在だが、今は仕方あるまい。グリダニア都市民のために、その力を奮ってみせよ。,[en],"Der Wald der Einkehr ist ein gruseliger Ort. Die Bürger der anderen Städte machen einen großen Bogen um ihn, weil sich die Geschichten überall herumsprechen. Selbst wenn man auf den Wegen bleibt, wird man die ganze Zeit von den Gebietern beobachtet[@1D]...","??? est un endroit vraiment effrayant. D'ailleurs, les habitants des autres Cités le savent bien et la contournent par tous les moyens. En vérité, même si la route paraît un peu plus rassurante, les esprits n'y relâchent pas leur sur[@16]veil[@16]lan[@16]ce.",[chs]
15,早急に救助に迎え。お前が組むべき相手は不在だが、今は仕方あるまい。グリダニア都市民のために、その力を奮ってみせよ。,[en],Ich mache mir solche Sorgen[@1D]... Wenn ihm nun etwas passiert ist[@1D]...,"Aaaah, ça m'inquiète, ça m'inquiète tellement...",[chs]
16,早急に救助に迎え。お前が組むべき相手は不在だが、今は仕方あるまい。グリダニア都市民のために、その力を奮ってみせよ。,[en],"Deit... Ein Bekannter von mir, er ist vor Tagen im Wald spazieren gegangen, aber[@1D]...","Pardon, ce qui m'inquiète[@1D]? Eh bien, c'est Dei... heuu, une con[@16]nais[@16]san[@16]ce. Il est toujours à traîner bizarrement dans la forêt.",[chs]
17,やぁ、なんだい？,[en],"Hallo, werter Herr/holde Maid.","Oui, que voulez-vous[@1D]?",[chs]
18,ボクの美しさに引き寄せられてやってきたチョウチョウかな？,[en],"Gehe ich recht in der Annahme, dass Ihr durch meine Schönheit angezogen wurdet wie eine Motte vom Licht?",Encore un petit papillon attiré par ma majestueuse beauté[@1D]?,[chs]
19,さぁ、ボクの輝きを、その瞳に焼き付けておくれ。[@CR]近いうちに、ボクはキミの前から姿を消すだろうから。,[en],"So lasst mich meinen Glanz in Eure trüben Pupillen einbrennen, bevor ich mich vor Euch in Luft auflöse.","Eh bien, profitez donc de ma splendeur tant que vous en avez la liberté. Bientôt, je ne serai peut-être plus là pour vous émerveiller.",[chs]
20,ありがとう、ありがとう、喝采をどうもありがとう。,[en],"Herzlichen Dank für den[@1D]... nun ja, nicht unverdienten Beifallssturm.","Merci, merci pour tous ces ap[@16]plau[@16]dis[@16]se[@16]ments[@1D]!",[chs]
21,おや、キミは弓術士かな。[@CR]ボクは、ディートリッヒ。世界一美しい、弓術士だよ。,[en],"Ihr übt den gleichen Beruf aus wie ich. Wenn ich mich vorstellen darf, Deitrich, der schönste Waldläufer Eorzeas.","Tiens donc, ne seriez-vous pas [@IF($E9(4),une archère,un archer)], vous aussi[@1D]? Mon nom est Deitrich, et mon abilité arc en main n'a d'égale que ma beauté hors du commun.",[chs]
22,ボクを呼びに来てくれたのだね。[@CR]グリダニアの人々は心配しているだろうね。,[en],"Ihr seid sicher gekommen, um mich zur Rückkehr zu bewegen. Die Bevölkerung Gridanias sorgt sich um mein Wohl.Ich muss Euch leider enttäuschen, es ist meine Bestimmung, im Wald umherzuwandern.","Je devine que vous êtes [@IF($E9(4),venue,venu)] jusqu'ici pour me chercher, n'est-ce pas[@1D]? Tout le monde à Gridania doit être mort d'inquiétude à mon sujet.",[chs]
23,ああ、なんて呪われし運命。[@CR]精霊たちよ、この苦悩に満ちてなお美しく輝ける、[@CR]このボクを助けてくれたまえ。,[en],"Oh, wie ich mein Schicksal verfluche. Ihr Geister des Waldes, so errettet mich doch von diesen Qualen. Kann es denn Recht sein, der Welt meine Schönheit vorzuenthalten?","Aaah, quel funeste destin que le mien. Ô esprits, venez moi en aide, brillant par ma majesté mais de souffrances accablé[@1D]!",[chs]
24,それにしても、さすがのボクも踊り疲れたよ。[@CR]この泉の水には、美肌効果があるそうなんだ。[@CR]ひとっ風呂浴びて、ますます美しさに磨きがかかっただろう。,[en],"Das Tanzen hat mich erschöpft. Meine Gestalt spiegelt sich so herrlich in der Quelle, dass ich beim Betrachten immer wieder die Zeit vergesse[@1D]...","Las, même moi, je suis fatigué de danser. Avec cette source/bassin qui me renvoie l'image de ma danse majestueuse, je n'ai pas vu le temps passer.",[chs]
25,それに総立ち拍手喝采で出待ちしてくれたキミにも、[@CR]感謝の念を示したい。,[en],"Ich möchte Euch gegenüber jedoch meinen Dank für den Applaus ausdrücken. Richtet den wartenden Fans im Luftschutzturm bitte aus, dass ich bald zurückkehren werde.","Quelle ovation frénétique[@1D]! Merci, merci. Je voudrais vous exprimer ma gratitude, et pour ce faire, je vais docilement m'en aller de ce pas à[@1D]???. Vous pouvez rassurer la personne qui vous a [@IF($E9(4),envoyée,envoyé)] à ma recherche.",[chs]
26,どうした、何か見つけたのか？,[en],Und? Wen hast du entdeckt?,"Alors, quelles sont les nouvelles[@1D]?",[chs]
27,……ディ、ディートリッヒだと！？　よくやった、何度も奴を呼び出していたが、応答がなかったのだ！　「神勇隊司令砦」に戻ってこい！,[en],"Dei... Deitrich!? Gute Arbeit, du hast ja keine Ahnung wie oft ich ihn über die Kontaktperle gerufen und keine Antwort erhalten habe[@1D]...Komm bitte zurück zum Luftschutzturm.","V-vous avez trouvé Deitrich[@1D]? Magnifique[@1D]! Malgré toutes nos recherches, nous n'avions aucun signe de lui. Revenez tout de suite à[@1D]???, s'il vous plaît.",[chs]
28,そしてある意味、お前は弓術士に向いているのかもしれんな。[@CR]見つけるべき相手を、きちんと見つけてきたのだから。,[en],Der Beruf des Waldläufern scheint dir im Blut zu liegen. Du hast auf Anhieb deinen neuen Partner gefunden!,"Peut-être que vous êtes [@IF($E9(4),faite,fait)] pour être [@IF($E9(4),archère,archer)], finalement. Oui, vous avez été capable de trouver l'équipier qui vous est destiné.",[chs]
29,ああ、認めたまえ、ノノラトよ。,[en],"Nonolato, so gebt es doch zu. Mein strahlendes Antlitz hat Euch gefehlt wie das Licht des Mondes in einer finsteren Nacht im Wald. Kam Euch die Zeit ohne mich denn nicht wie eine lange, finstere Nacht vor?","Aaah, enfin tu avoues, Nonolato[@1D]! Tel le fré[@16]mis[@16]se[@16]ment des arbres s'enfonçant dans les ténèbres au fur et à mesure que la lune décroît, ton cœur n'a cessé de souffrir lors des longues nuits en mon absence[@1D]!",[chs]
30,うるさいぞ、ディートリッヒ。[@CR]シルフ族の追調査はどうなったのだ。[@CR]お前の報告は、自分のことばかり書いてあって意味不明だと言っただろう。,[en],"Deitrich, du überspannst gerade gefährlich meinen Geduldsbogen! Erzähl mir lieber etwas über deine Untersuchungen über die Sylphen.In deinen Berichten hast du nur über dich geschrieben, was du damit sagen wolltest ist mir absolut unklar[@1D]...","Epargne-moi ton charabia, Deitrich. Tu en es où avec ton enquête sur le peuple sylphe[@1D]? Je n'ai rien compris à ton dernier rapport, tout ce qui était écrit ne parlait que de toi.",[chs]
31,シルフ族は、ボクの美しさに理解がない。[@CR]イクサル族も、帝国も、同じ穴のカエル（仮。魔物名が入る）。,[en],"Die Sylphen verstehen nicht, wie sehr ich von der Natur gesegnet wurde. Sie sind genau wie die Ixal und die Garlear nicht besser als mistige Karpfenkröten（仮）, sie erkennen keine Wohlgestalt und sollten vernichtet werden!","Les Sylphes sont incapables de comprendre ma beauté. Pas plus que les Ixali, ceux de l'Empire ou même[@1D]???, d'ailleurs. Je le crie haut et fort, les ignorants du beau n'ont pas leur place dans notre monde[@1D]!",[chs]
32,気概はあるようだが、行動に移してくれ。[@CR]お前の腕ならば、一個小隊くらい殲滅できるだろう。,[en],"Du solltest dein Selbst[@16]be[@16]wusst[@16]sein mal in Taten umsetzen. Mit deinem Können dürfte es dir doch nicht schwerfallen, einen gegnerischen Trupp auszulöschen[@1D]...","Tu parles beaucoup, et si tu passais à l'acte, pour voir[@1D]? Connaissant ton habileté, tu devrais être capable d'éliminer[@1D]??? à toi tout seul, hein[@1D]?",[chs]
33,戦いは美しくないのだよ、ノノラト。[@CR]泥と汗と血は、美しいものではないのだよ、ノノラト。,[en],"Nonolato, es gibt nichts Schönes am Kämpfen. Weder Blut, noch Schweiß, noch Dreck[@1D]... deshalb ziehe ich mich in den Wald zurück.","La guerre, c'est le comble de la disgrâce, mon cher Nonolato. Tout n'est que boue, sueur et sang... il n'y a pas de place pour la beauté, il n'a pas de place pour moi. C'est pour ça que je vais, de parts et d'autres de notre forêt, isolée mais inviolée.",[chs]
34,まったく……。,[en],Ich fass es nicht[@1D]...,C'est peine perdue...,[chs]
35,とにかく、お前に頼みたい。[@CR]ディートリッヒを、しばらく引き留めてくれ。[@CR]あいつは、いつでも森でフラフラしているし、良からぬことを企んでいる。,[en],"[play], halte Deitrich bitte davon ab, sich wieder in den Wald davonzustehlen. Wenn einer so viel Zeit alleine im Wald verbringt, kann nichts Gutes dabei herauskommen.","Voilà justement pourquoi j'ai besoin de vous. Je voudrais que vous reteniez cet énergumène. Je le soupçonne de préparer quelque chose de louche, à toujours traîner en forêt. Qu'en dites-vous[@1D]?",[chs]
36,そうはいかん。[@CR]奴こそが、これから先、お前が組む相手だ。わかったな？,[en],Das kann ich nicht zulassen. Du bist sein neuer Partner und damit für ihn verantwortlich. Haben wir uns verstanden?,"Non, je crois que vous m'avez mal compris. A partir de maintenant, c'est votre partenaire, voyez-vous[@1D]?",[chs]
37,良い返事だ。これから先、奴とは長いつきあいになるだろう。[@CR]組になるとはそういうことだからな。,[en],Richtig so. Ihr werdet eine ganze Weile ein Team sein und du bist für deinen Partner verantwortlich.,"Très bien. Vous allez sûrement devoir passer beaucoup de temps à ses côtés, je vous souhaite tout le courage du monde...",[chs]
38,人々はボクを愛し、グリダニアはボクを愛している。[@CR]どうか、泣かないでくれたまえ。ボクには、精霊たち踊るグリダニアの森こそ相応しいのだ。,[en],"Die Bürger Gridanias, alle lieben mich. Doch sie sollen nicht weinen, nur weil ich mich im Wald, in dem die Geister tanzen, geborgener fühle, als bei ihnen[@1D]...","A vous tous qui m'aimez, à Gridania, je vous en prie, retenez vos larmes[@1D]! Danser au beau milieu de la forêt, sous l'œil des esprits, telle est ma destinée.",[chs]
39,それでもボクを引きとめていたいと言うのならば、[@CR]そうだね、約束してくれるかな。,[en],"Ich weiß, um was Euch Nonolato gebeten hat, aber versprecht mir bitte, mich nicht aufzuhalten.","Dites-donc, vous, malgré ça, vous comptez m'arrêter[@1D]? Dans ce cas, vous allez me faire une promesse.",[chs]
40,"内容も聞かないで断るとは、なんと非情な[@IF($E9(4),女,男)]なのだ。[@CR]ああ、ああ、なんということだ、悲しみにくれるボクも美しい。",[en],Ihr lehnt ab ohne auch nur nach dem Grund für meine Bitte zu fragen? Habt Ihr denn gar keine Gefühle?,"Seriez vous [@IF($E9(4),cruelle,cruel)] au point de refuser avant même de m'avoir écouté[@1D]? La tristesse emplit mon corps, et... aaah, que je suis beau[@1D]!",[chs]
41,多くの者が精霊を見ているというのに、ボクは見ることができない。[@CR]どんなに悪さをしても、精霊たちは姿を現さないのだ。,[en],"Viele Leute haben die Gabe, die Gebieter sehen zu können, aber ich kann dies nicht. Egal was ich auch versuche, sie zeigen sich mir einfach nicht.","Bien que de nombreuses personnes affirment avoir vu les esprits, je n'ai jamais eu cette chance. Aussi vils soient mes actes, jamais ils n'ap[@16]pa[@16]rais[@16]sent devant moi.",[chs]
42,ああ、ボクの美しさが憎い。[@CR]精霊たちは、この美しいボクに恐れをなしているのか。[@CR]これほど罰を請うているのに。,[en],"So schön wie ich zu sein ist der reinste Fluch. Ob sich die Gebieter wohl von meiner Schönheit geblendet verstecken? Ich befürchte ja, dass sie einfach nur neidisch sind.","Je hais ma beauté. Les esprits en seraient-ils effrayés[@1D]? Quelle cruelle ironie, alors même que tout ce que je souhaite est de recevoir leur punition...",[chs]
43,……けれど、もう、悲しくはないよ。キミは約束してくれた。,[en],Aber dank Eurem Versprechen muss ich nun nicht mehr einsam sein[@1D]...,"Toutefois... l'heure n'est plus à la mélancolie, car vous m'avez donné votre parole. Je sais maintenant que vous êtes [@IF($E9(4),chaleureuse et bien[@16]veil[@16]lan[@16]te,chaleureux et bienveillant)] telle la douce brise du printemps.",[chs]
44,共に、精霊の声を聞こう、春風のように暖かく優しいキミ。[@CR]美しいボクと優しいキミで、輝かしい未来の扉を開こう。,[en],"Mein Freund, Ihr seid gutmütig wie der warme Frühlingswind, lasst uns gemeinsam den Stimmen der Geister lauschen.Eure Güte und meine Schönheit[@1D]... gemeinsam werden wir die Tür in eine wolkenlose Zukunft aufstoßen[@1D]...","Ensemble, écoutons le message des esprits, et grâce à ma beauté et à votre bonté, ouvrons le chemin vers un futur étincelant[@1D]!",[chs]
45,とにかく、ディートリッヒは納得してくれたようだな。,[en],"Hm[@1D]... Immerhin hast du es geschafft, dass Deitrich überhaupt mit dir spricht.","Eh bien, on dirait que Deitrich vous a [@IF($E9(4),adoptée,adopté)].",[chs]
46,これでお前も、新しい任務を受けることができるようになった。[@CR]しかし、どっと疲れただろう。まずは休め。,[en],"Damit bist du bereit, deine neue Aufgabe anzugehen. Die Aufgabe wird bestimmt an deinen Kräften zehren, also ruhe dich erst einmal aus.","Dorénavant, vous allez pouvoir accepter de nouvelles missions. Mais que diriez-vous de prendre un peu de repos[@1D]? Vous devez être [@IF($E9(4),épuisée,épuisé)], après avoir écouté les di[@16]va[@16]ga[@16]tions de Deitrich...",[chs]
47,これでお前も、新しい任務を受けることができるようになった。[@CR]しかし、どっと疲れただろう。まずは休め。,[en],[de],[fr],[chs]
48,これでお前も、新しい任務を受けることができるようになった。[@CR]しかし、どっと疲れただろう。まずは休め。,[en],[de],[fr],[chs]
49,これでお前も、新しい任務を受けることができるようになった。[@CR]しかし、どっと疲れただろう。まずは休め。,[en],[de],[fr],[chs]
50,依頼を受ける？,[en],[de],[fr],[chs]
51,はい,[en],[de],[fr],[chs]
52,いいえ,[en],[de],[fr],[chs]
53,約束する？,[en],[de],[fr],[chs]
54,はい,[en],[de],[fr],[chs]
55,いいえ,[en],[de],[fr],[chs]
56,それに、前回のように、わざと森へ逃げ込む者も絶えない。,[en],[de],[fr],[chs]
57,近頃、鎮守の森で行方知れずになる者が多い……。[@CR]おそらくは、紛れ込んだ異物に精霊たちが反応し、森を守ろうとしているからであろう。[@CR]我々は、幻術士さまや鬼哭隊とともに、森に入った異物を取り除かねばならぬ。,[en],[de],[fr],[chs]
58,そして今、「ムントゥイ醸造庫」がシルフ族に襲われたという情報が入った。[@CR]シルフ族は、時に狂暴だ。あの場所にいる作業員たちが心配だな。[@CR]どこかに隠れてやりすごしているといいが……。,[en],[de],[fr],[chs]
59,「ムントゥイ醸造庫」でおかしなものを見たという報告が、[@CR]鬼哭隊に寄せられているそうだ。,[en],[de],[fr],[chs]
60,そこで俺が調べたところ……[@CR]いや、お前は自分の目で確かめた方がいいだろう。,[en],[de],[fr],[chs]
61,その名の通り、「ムントゥイ醸造庫」はムントゥイ豆がいっぱいあるところよ。[@CR]あの豆は、グリダニアの主食の一種なの。,[en],[de],[fr],[chs]
62,暗いところでもしゃもしゃ生えるから、[@CR]雨期でも冬季でも安定した供給を得ることができるわ。[@CR]園芸師さんたちのおかげもあるけどね。,[en],[de],[fr],[chs]
63,しかし、ボクには使命があって、この森をさまよわないとならないんだ。,[en],[de],[fr],[chs]
64,ボクは素直に「神勇隊司令砦」へ戻るから、[@CR]そう、伝えておいてくれたまえ。ボクを探すよう頼んだ人に、ね。,[en],[de],[fr],[chs]
65,そうか。「ムントゥイ醸造庫」でそんなことがあったのか。[@CR]シルフどもを追い出してくれるとは、よくやった。,[en],[de],[fr],[chs]
66,美しきボクを失い、キミの心は月が欠けるがごとく、[@CR]闇に沈む木々のざわめきのごとく、むせびなく夜を何度過ごしたことなのか。,[en],[de],[fr],[chs]
67,美に疎いものたちは、滅ぼさなくてはならない！,[en],[de],[fr],[chs]
68,だからボクは旅立つのだ、孤独な、しかし清廉な輝きに満ちた森へと。,[en],[de],[fr],[chs]
69,森の精霊たちを怒らせると、隠されてしまう。[@CR]そのことは、グリダニアに住む者は赤ん坊ですら知っている。[@CR]冒険者ですら例外ではないからね、気を付けてくれよ。,[en],[de],[fr],[chs]
70,鎮守の森は、とってもとっても怖いところだよ。[@CR]他都市の人たちにも有名で、できるだけ、あの森は通らないようにしてる。[@CR]街道沿いはまだマシだけど、それでも精霊は見ているんだよ。じーっとね。,[en],[de],[fr],[chs]
71,心配だなぁ。ああ、心配だぁ、心配だぁ。,[en],[de],[fr],[chs]
72,……何がって、ディート……[@CR]いや、僕の知り合いのことが心配でたまらないんだよ。[@CR]日頃から、鎮守の森をフラフラさまようような奴なんでね。,[en],[de],[fr],[chs]
73,「ムントゥイ醸造庫」でおかしたものを見たという報告を無視したいものだが……。あそこは、グリダニアの民にとって大事な食品が生み出される場所。,[en],[de],[fr],[chs]
74,ムントゥイ豆を熟成させると、塩辛いソースができるのだ。このソースは、グリダニア料理の要でもある。よって、神勇隊としては「ムントゥイ醸造庫」の調査をおろそかにするわけにはいかん。,[en],[de],[fr],[chs]
75,なるほどね、シルフ族は攻め込んできたわけではなかったのか。逆に、まとめて一団、さらわれて来たとは驚きだ。,[en],[de],[fr],[chs]
76,それだけの力があるというのに、何故、あいつは踊ってばかりいるんだ。唯一の友人、ノノラトが諭してやればいいというのに。,[en],[de],[fr],[chs]
77,この事件も、精霊たちの仕業なのかな。……ん？　だとしたら、何の精霊の仕業かって？,[en],[de],[fr],[chs]
78,そうだなぁ……ディートリッヒを踊らせるくらいだから……月の精霊かもしれない。満月を見ていると、ふつふつと静かな情熱が湧いてくることってないかい？,[en],[de],[fr],[chs]
79,よかったわ。「ムントゥイ醸造庫」で働いていた人たちは、全員無事だったみたいね。大事なムントゥイ豆も、貯蔵用の樽も無事だと聞いたわ。,[en],[de],[fr],[chs]
80,園芸師たちも胸をなで下ろしていたわよ。神勇隊の冒険者さんに、お礼も言っていたわ。つまり、あなたの活躍のことよ、ありがとう。,[en],[de],[fr],[chs]
81,心配した甲斐があったというか何というか。あのディートリッヒを見つけてくれたみたいだね。,[en],[de],[fr],[chs]
82,あ、いや、僕は友人じゃないよ。ただの知り合いさ。本当は、ただの同僚なんだけど、神勇隊自体の印象を悪くしすぎるから、「知り合い」って強調させてもらうよ。,[en],[de],[fr],[chs]
