 ,0,1,2,3,4
 ,str,str,str,str,str
2,よッォ！　黒魔道士サマッァ！[@CR]「ヴォイドゲート」を閉じるためのカギ……黒魔法の調子は上々かいッィ！？,"To close Voidgate, strong black magic you need. Ready for test, are you?","Kha, [@IF($E9(4),Schwarzmagierin,Schwarzmagier)]! Die Nichtspforte versiegelnde Kraft, schon stärker ist in dir?","[@IF($E9(4),Celle-là,Celui-là)] a l'air [@IF($E9(4),sûre d'elle,sûr de lui)]. [@IF($E9(4),Elle,Il)] apprécie sa magie noire[@1D]?",
3,そりゃッァよかったなッァ！　……だがッァ、気づいてるかッァ！？[@CR]アンタの魔力からッァ、「妙～な気配」が感じられるようにッィ[@CR]なってきてるぞッォ！,"Very good. Squaaawk! You have sharp sense, like Dozol. Noticed, have you? Your aura. Strangeness, it has.","Hervorragend! Und aufgefallen ist dir? Wegen deiner Magie, eine seltsame Aura umgibt dich.","Oh vraiment[@1D]? [@IF($E9(4),Celle-là,Celui-là)] ne ressent rien de particulier, rien d'“étranger” dans sa puissance magique, hmm[@1D]?",
4,そいつはよッォ、「ヴォイドゲート」から滲み出る「妖霧」だッァ！[@CR]黒魔法に目覚めたアンタの魔力にッィ、ヴォイドの気配がッァ[@CR]引き寄せられてやがるンだッァ！,"Now, the Voidgate. Gloom, it makes. Like black breath. Gloom drawn to black magic. Drawn to you. Like moth to flame. Black magic, it seeks, to corrupt and make own.",Aus der Pforte zum Nichts dunkles Atmen rauskommt. Deine schwarze Macht die Finsternis anlockt!,Le néant est attiré par la magie noire comme un insecte par le feu. Il tente de s'y fondre pour se mêler à son pouvoir et le corrompre.,
5,……ッとッォ、ビビるこたぁねッェ！！[@CR]その程度の「妖霧」ならッァ、黒魔道士サマのアンタがッァ[@CR]次の「カギ」を手に入れればッァ、追っ払えるだろうよッォ！,"No fear yet! Still weak, Gloom is. Time, you have. Strong [@SPLIT([@STRING($EB(1))], ,1)] find next key!","[@1A(1)]khru[@1A(0)] Nicht wollte ich Angst machen. Nicht stark ist das dunkle Atmen noch. Wenn erreichst du die nächste Probe, du kannst es beseitigen selbst. Gelobter Dozol Meloc flüstert dir Methode. Kha?","Heu[@16]reu[@16]se[@16]ment, l'influence du néant est encore faible, et si [@IF($E9(4),celle-là,celui-là)] obtient la prochaine clef, [@IF($E9(4),elle,il)] pourra facilement la repousser.",
6,昔むかーしッィ……[@CR]黒魔道士ってのがッァ、数多く存在していた時代ッィ。[@CR]中でもッォ、ずば抜けてスゴウデの黒魔道士がいたッァ……。,"Many black mages, there were. Long ago. One more powerful than rest. Very powerful. Epic, even. Epic black mage.","Meister und weise. Vorausgesehen hat, dass jemand wird missbrauchen die schwarze Magie, Zerstörungsmagie.","Il y a des siècles de cela, il y avait un grand nombre de mages noirs. L'un d'entre eux était par[@16]ti[@16]cu[@16]liè[@16]rement puissant, mais lui savait à quel point la magie noire était dangereuse.",
7,黒魔法はッァ、エオルゼアの各地に散らされたッァ！[@CR]ほとんどが風化したりッィ、忘れられちまったりしたみてェだがッァ、[@CR]そのひとつはッァ、黒衣森の奥深くにある石塔に今も刻まれてるッゥ。,"Teaching, writing, spread over realm. Lost to time, they were. Forgotten. One carved in stone. Still in stone. Stone in wood. Wood of Black Shroud. Squaaawk!",Schwarzmagier wurden verstreut auf alle Gebiete. Großes Wissen alles verwittert und vergessen. Nur Teile sind eingeritzt noch in eine Steinstele im tiefen Westwald.,"Pour faire bonne mesure, les écrits qui y faisaient référence ont été cachés un peu partout en Eorzéa. De nos jours, beaucoup ont été détruits par l'érosion ou perdus. Mais celui-ci connaît l'existence d'une stèle au fond de la forêt de Sombrelinceul sur laquelle est gravée une inscription.",
9,……こいつはよッォ[@CR]オレのッォひいバアちゃんがッァ、一族だけにッィ伝えたことなんだゼ？[@CR]魔力の流れまでッェ読みとることができたッつゥ、スゲー術士だったのサッァ！,"Knowledge of my line, this is. Passed to Dozol from mother. From mother mother. From mother mother mother. Four hatchings past. Strong mage, she was. Epic, even. Epic mage!","Ixal sind meisterlich mit dem Lesen von Wind. Aber Großgroßmutter kann auch spüren das Strömen von Magie. Außer[@16]ge[@16]wöhn[@16]liches Medium war sie, kha!","La mère de la grand-mère de celui-ci a révélé ce secret à sa famille. Elle était une mage remarquable, capable de suivre le mouvement des flux magiques.",
10,けどよッォ、呪術を極めるためにッィ[@CR]宿敵のアマルジャ族とッォ、手ェ組んだッァとか言われてよッォ[@CR]……巣をッォ、追われることにッィなっちまったんだッァ……。,"Great love for dark art. More than anything. Joined with lizardmen to learn all. Name betrayer, she was. Chased from village. Squaaawk!","Aber verstehst du. Damit sie kann perfektionieren die Thaumaturgie, sie hat gemacht einen Schulterschluss mit den Amalj'aa! Freundlich mit Amalj'aa sein hatte Folgen. Sie ist von Heimat rausgeschmissen worden.",Mais elle a été bannie de son village lorsqu'on a découvert qu'elle était en rapport avec des occultistes amalj'aa dans le but de per[@16]fec[@16]tion[@16]ner son art.,
12,この言葉を聞いたらッァ、居ても立ってもいられなくなってッェ[@CR]ここザナラーンに来ちまってたッァ。言い伝えを頼りにッィ、巣を[@CR]飛び出しちまうバカはッァ、オレだけじゃッァなかったみてーだがなッァ。,"Good words. Deep words. Bring Dozol here, they did. To pass on. Not Dozol alone. Others come too. Other mages.","Verstehst du, ich kenne gar nicht das Gesicht und die Stimme von meiner Großgroßmutter. Aber weil ich hörte ihren prophetischen Ausspruch, ich konnte es nicht aushalten, ohne hierher zu kommen, in Sand, zum Treffen. Bin ich nicht der Einzige, siehst du.","Celui-ci a décidé de se rendre dans le Thanalan lorsqu'il a entendu ces paroles. On a beaucoup ri de lui dans son village, mais celui-ci sait maintenant que sa décision était juste. Trois autres mages comme lui ont quitté leur terre natale pour se retrouver ici.",
14,ンッァ！　なんだよッォ！[@CR]オレの言葉がッァ、信用ならねェってかッァ！？[@CR]まさかッァ、ビビったとは言わねェだろうなッァ！！！,"Scared of beast, you are? Disappoint, Dozol is. [@1A(1)]Very[@1A(0)] disappoint.","Komm schon, gelobter Dozol Meloc sagt, du schaffst das Ungeziefer von Erdboden, schwöre ich!","Bah[@1D]! Finalement, [@IF($E9(4),celle-là est une chienne,celui-là est un chien)] des Cités avant d'être [@IF($E9(4),une,un)] mage noir[@1D]!",
15,オウッゥ、その意気だッァ！[@CR]行ってきなッァ！　黒魔道士サマよッォ！！,"Go now! Fly! Go, fly means. Squaaawk!","Kha, mutig! Geh dann, [@IF($E9(4),Schwarzmagierin,Schwarzmagier)]. Gibst du ihnen Saures!",Bon courage[@1D]!,
16,「ヴォイドゲート」を閉ざすカギを握るアンタにッィ[@CR]ゲートのッォ向こう側の力「妖霧」が反応しているんだッァ！[@CR]こいつを追っ払うためにッィ、新たな黒魔法をッォ修得しなきゃならねッェ！,"Gloom senses [@SPLIT([@STRING($EB(1))], ,1)]. Senses keeper of key. Repel it, you must. Repel with hidden black magic.","Du hast Methode zum Versiegeln von Nichtspforte, und dunkles Atmen von anderer Seite Reaktion zeigt auf deine Kraft. Musst du neue Schwarzmagie erlernen zum Wegscheuchen.","Le néant est attiré par la magie noire comme un insecte par le feu. Il tente de s'y fondre pour se mêler à son pouvoir et le corrompre. Pour repousser cette corruption, [@IF($E9(4),celle-là,celui-là)] a besoin de nouveaux pouvoirs[@1D]!",
17,"黒衣森の奥地ッィ……[@CR]「ティノルカ西部森林」のッォ「紅の樹帯」の北西にあるッゥ[@CR]苔むした石塔にッィ、アンタのその「[@SWITCH([@SHEET(itemData,11000556,41)],[@COLOR(#fff3f3f3)],[@COLOR(#ffc0ffa0)],[@COLOR(#ff60c8ff)],[@COLOR(#ffb38cff)],[@COLOR(#ffffa666)],[@COLOR(#ffe5dd7e)])][@EDGECOLOR(#ff262626)][@SHEET(xtx/itemName,11000556,4)][@EDGECOLOR($EC)][@COLOR($EC)]」をかざすンだッァ！","Deep in Black Shroud. West Shroud. Northwest of Turning Leaf. Mossy stone stela. Raise [@SWITCH([@SHEET(itemData,11000556,41)],[@COLOR(#fff3f3f3)],[@COLOR(#ffc0ffa0)],[@COLOR(#ff60c8ff)],[@COLOR(#ffb38cff)],[@COLOR(#ffffa666)],[@COLOR(#ffe5dd7e)])][@EDGECOLOR(#ff262626)][@SHEETEN(xtx/itemName,3,11000556,1,1)][@EDGECOLOR($EC)][@COLOR($EC)] there, you must. Raise high! Squaaawk!","Mitten drin in dem Finsterwald ist Wandelndes Blatt. Gehst du nordwestlich, dann gibt es da eine Steinstele. Erkennst du gleich, viel Moos. Einfach draufhältst du [@SWITCH([@SHEET(itemData,11000556,41)],[@COLOR(#fff3f3f3)],[@COLOR(#ffc0ffa0)],[@COLOR(#ff60c8ff)],[@COLOR(#ffb38cff)],[@COLOR(#ffffa666)],[@COLOR(#ffe5dd7e)])][@EDGECOLOR(#ff262626)][@SHEETDE(xtx/itemName,2,11000556,1,4,1)][@EDGECOLOR($EC)][@COLOR($EC)] und perfekt.","La stèle située à Rougeramée, au nord-ouest de la forêt de l'ouest de Sombrelinceul, cache un ancien secret. [@IF($E9(4),Celle-là,Celui-là)] doit se servir de [@SWITCH([@SHEET(itemData,11000556,41)],[@COLOR(#fff3f3f3)],[@COLOR(#ffc0ffa0)],[@COLOR(#ff60c8ff)],[@COLOR(#ffb38cff)],[@COLOR(#ffffa666)],[@COLOR(#ffe5dd7e)])][@EDGECOLOR(#ff262626)][@SHEETFR(xtx/itemName,5,11000556,1,1)][@EDGECOLOR($EC)][@COLOR($EC)] pour le découvrir.",
18,使命を負いし黒魔道士がッァ、その証に導かれた時ッィ[@CR]まじないからッァ、新たな「黒魔法」が解き放たれるだろうッォ……。,"Gem guides black mage. Chosen black mage. Unlock hidden magic, it will.","Es wird neue Kraft freigesetzt werden, wenn kommst du mit deinem Schwarzmagier-Ausweis da hin.","Le destin de [@IF($E9(4),celle-là,celui-là)] est tracé.",
19,行ってきなッァ、黒魔道士サマッァ！[@CR]心配いらねッェ、今のアンタなら大丈夫だッァ！,"Go now! Fly! Go, fly means. Squaaawk!","Also, machst du jetzt schnell, [@IF($E9(4),Schwester,Bruder)]. Kannst du schon schaffen, glaube ich!","[@IF($E9(4),Elle,Il)] n'a rien à craindre [@IF($E9(4),si elle,s'il)] maîtrise sa magie noire.",
20,汝の身に目覚めし「黒魔法」。[@CR]「ヴォイドゲート」より出ずる邪なる霧……暗雲低迷、一筋縄ではいかぬ模様。,"A powerful black magic has awakened within you, [@SPLIT([@STRING($EB(1))], ,1)]. It has not gone unnoticed. Gloom seeps forth from the Voidgate. Darkness gathers. The way before us will not be easy.","Die Schwarzmagie, derer du dich bedienst, scheint die dunklen Mächte des Nichts anzuziehen. Hmm ... Herkömmliche Mittel dürften hier wohl nicht zum Erfolg führen.","Une puissante magie noire, en toi s'est éveillée. La corruption du néant, elle a attiré.",
21,然れども、ドゾル・メロックの言葉、嘘偽りはあるまい。[@CR]軽佻浮薄な者なれど、不撓不屈の志を抱き、馳せ参じた様子。[@CR]其の導きに従えば、汝、必ずや新たな「黒魔法」を得るであろう。,"Dozol Meloc's words are steeped in truth. Though he speaks as one touched by the gods, and is prone to caprice, his motives are pure. By his guidance, you will find the black magic that awaits you.","Dozol Meloc handelt schneller, als er denkt, aber sein unerschütterlicher Wille hat ihn durch alle Unbilden bis hierher gebracht. Er spricht aufrichtig, keine Arglist liegt in seinen Worten. Und du, [@STRING($EB(1))], wirst dir durch seine Hinweise neue Aspekte der Schwarzmagie zu eigen machen.","Les paroles de Dozol Meloc, tu dois croire. Aussi forte que la tienne, sa détermination est. Par lui, laisse-toi guider, et un nouveau pouvoir, tu gagneras.",
22,黒衣森　行く　みーたい？[@CR]あの地ー　不思ー議な空気　満ちーてーる　聞ーたこーとある。[@CR]ヘンテコー魔物　精霊とーか　目に見ーえない　存在　いーるとか。,"You travel for the Shroud, yes? Yes, yes, it is a mysterious place. Home to timeless elementals, and all manner of strange creatures─uncanny, bizarre, strange.",In den Finsterwald gehst du? [@1A(1)]schüttel[@1A(0)][@CR]Leichtsinn ist Untergang. Fürchterliche Kreaturen und Elementare sind dort.,"Tu vas à la forêt de Sombrelinceul[@1D]? Il paraît que c'est un endroit étrange, très étrange, oui, avec de drôles de monstres et des esprits.",
23,そーんな　辺鄙　とーころ　まじーない　残す[@CR]そーの　おーむかし　黒魔道士　よーっぽど　心配　かーな。,"A secret waits in the wood, too. Waits there, hidden─forgotten, unseen, hidden! Yes, yes, laid to rest there by a black mage of old, it was. But will you find it?","Dass sie an so abgelegenem Ort ihren Zauber hinterließen, zeigt das Misstrauen und die Eifersucht der Schwarzmagier. Furcht macht angreifbar.",Le mage noir d'antan qui a caché un secret là-bas ne voulait vraiment pas que quelqu'un le trouve.,
24,[@STRING($EB(1))]の[@CR]「黒魔道士の証」の輝きを受け、石塔に文字が浮かび上がってきた。,"Your Gem of Shatotto shines bright, revealing an inscription in the stone.",Die Stele reagiert auf deinen Schwarzmagier-Kristall: Die eingemeißelten Zeichen treten in mystischem Leuchten hervor.,"L'éclat du titre de mage noir de [@SPLIT([@STRING($EB(1))], ,1)] fait apparaître des ins[@16]crip[@16]tions sur la stèle.",
25,……我、ヴォイドゲートよりいずる、邪なるいざない断ち切らん。[@CR]古の魔石を通じ、あらたなる「黒魔法」、力の導き手に授けん……,"“Thou comest here, Mage of the Black,[@CR]Wielder of Magicks of Great Doom,[@CR]That thou might bring lost Powers back,[@CR]To seal the Gate, and quell the Gloom.”","Ich kann dem Bösen nicht entsagen, das aus dem Nichts mich ruft. Durch alten Stein sei dir verliehen, dir dargetan die dunkle Lehre, die Schwarzmagie, die neu ersteht.",Tu portes la marque des mages noirs... Je vais donc te transmettre le savoir qui sera un rempart contre le néant. Utilise-le avec sagesse.,
26,ククルカ様は、ナルザル神の眼を通じ、すべてをご覧になっています。[@CR]さあ、行きなさい。黒魔道士として、あなたの務めを果たすのです。,You need not report your every coming and going to us. Master sees all through the eyes of Nald'thal. A task stands before you. See it done.,"Großmeister Ququruka sieht alles durch die allwissenden Augen Nald'thals. Er wird deinen Schritt beschützen, wenn du deine Mission erfüllst.","Maître Ququruka voit tout par les yeux des Marchands, nul besoin de l'informer. Allez, vous avez une mission à remplir et un destin à accomplir.",
27,よッォ、黒魔道士サマッァ！　アマルジャの野郎からッァ話は聞いてるゼッェ！[@CR]アンタがッァ黒魔法を使いこなせるようになった頃ッォ、ここに来なッァ！[@CR]ちぃっとッォ、確かめたいことがあってなッァ！,"Black mage, you are. Dozol hear all from lizardman. You come back when ready. Next task, I give. Squaaawk!","[@IF($E9(4),Schwarzmagierin,Schwarzmagier)] ... Hat der Amalj'aa mir gesagt, verstehst du. Du kommst, wenn dir die Waffe nicht mehr runterfällt beim Zaubern. Und gekommen bist du, echt. Aber lass mich prüfen ...","[@IF($E9(4),Celle-là,Celui-là)] a appris la magie noire, l'Amalj'aa a dit. Mais [@IF($E9(4),elle,il)] doit encore apprendre à la maîtriser [@IF($E9(4),si elle,s'il)] veut l'en[@16]sei[@16]gne[@16]ment de celui-ci.",
28,黒魔道士のレベルが45以上になると、ドゾル・メロックから[@CR]黒魔道士クエスト「いざないの霧」を受注することができます。,The next black mage quest will be available from Dozol Meloc upon reaching level 45.,"Sobald du Er[@16]fah[@16]rungs[@16]stufe 45 in der Charakterklasse Thaumaturg erreicht hast, kannst du von Dozol Meloc den Schwarzmagier-Auftrag „Das dunkle Atmen“ erhalten.","Dozol Meloc propose la quête suivante, “La corruption du néant”, aux mages noirs de niveau 45.",
29,調子は上々？,"Ready, are you?",Fühlst du die Stärke der Schwarzmagie?,Vous appréciez votre magie noire[@1D]?,
30,はい,"Ready, am I.",Mit jeder Faser meines Körpers.,Et pas qu'un peu[@1D]!,
31,いいえ,Not ready...I am n─ <sigh> Just no.,Ich weiß nicht so recht ...,Elle me met mal à l'aise...,
32,フッゥーン……サスガだなッァ！[@CR]アンタの魔力につきまとう、「妙～な気配」に勘づいてるんだろッォ！？,"Fool! Squaaawk! But no matter. Sharp sense, Dozol has. Your aura. Strangeness, it has.",Wissen. Wozu wissen du willst! Fühlen du musst! Eine seltsame Aura hier ist.,"[@IF($E9(4),Celle-là,Celui-là)] a les sens affûtés [@IF($E9(4),si elle,s'il)] sent l'aura étrangère qui imprègne sa puissance magique.",
33,苔むした石塔が佇んでいる。,A stone stela covered in moss rises here.,Du stehst vor einer moosbewachsenen Steinstele.,Vous voyez une stèle recouverte de mousse.,
34,とうとうッゥ、ゲートの封印が綻び始めたみてェだなッァ……。[@CR]黒魔法とヴォイドゲートはッァ、切っても切れねェ仲ッァ。クククッゥ……[@CR]放っておけばッァ、アッチ側に引きずり込まれちまうかもしれねェゾッォ！？,"Losing strength, seal is. Black magic and Voidgate share bond. Very deep. But must not leave be too long. Else other side maybe take you! Squaw-aw-awk.","Tor schon hat sich begonnen zu öffnen. Gebunden ist die Schwarzmagie an das Nichts.[@CR]Kha kha kha! Aufpassen, weil dich sonst rüberreißt die Kraft auf die andere Seite!","Le lien entre les portes du néant et la magie noire est indissoluble. Héhé, les portes sont en train de s'ouvrir, si [@IF($E9(4),celle-là,celui-là)] ne fait pas attention, [@IF($E9(4),elle,il)] risque même d'être [@IF($E9(4),aspirée,aspiré)] de l'autre côté.",
35,こいつこそッォ、妖霧を退ける新たなッァ「カギ」ッィ！[@CR]使命を負った黒魔道士がッァ、その「証」に導かれた時ッィ！[@CR]まじないからッァ、黒魔法が解き放たれるッゥつッゥ仕掛けなのサッァ！！,"Chosen [@SPLIT([@STRING($EB(1))], ,1)] is chosen! Unleash power of this black magic, you can. Key, it is! Key to end of Gloom!","Das wird Mittel zum Zumachen, verstehst du! Damit können wir wegdrücken dunkles Atmen. Versiegeln wir die Tür.","C'est la clef qui permettra à [@IF($E9(4),celle-là,celui-là)] de repousser la corruption du néant. Le titre de mage noir permet à son porteur de dissiper les sorts qui la gardent.",
36,あとよッォ、ひいバアちゃんが残したッァ「言葉」も教えてやるッゥ！[@CR]……「魔の道を知る4名の者ッォ、荒れ野にて出会いし時ッィ……[@CR]古の破壊の力もて邪なるものを封じ、正しき道を切り開かん」つッてッェ！,"Her words, Dozol keeps. Teach to strong [@SPLIT([@STRING($EB(1))], ,1)] now.[@CR]“Four magi meet, in barren land,[@CR]Old black powers, have they, in hand[@CR]Fate of all wicked, be made stark[@CR]Path to light then be lit by squaaawk!”[@CR]That her squaaawk. Not Dozol squaaawk. Should be [@1A(1)]dark[@1A(0)], Dozol thinks.","Als sie aus der Heimat auszog, unserer Familie hat sie aber was dagelassen. Steinstele und Worte! „Vier Magieleute treffen in Sandgegend“, echt hat sie das gesagt.","Avant de partir, elle a fait cette prédiction à ses enfants[@1D]: “Quatre mages se rencontreront dans des terres désertiques. Ils scelleront une force néfaste avec un savoir oublié. Ils éclaireront le droit chemin par la magie des ténèbres.”",
37,黒衣森の奥地ッィ……「ティノルカ西部森林」へ行ってみなッァ！[@CR]石塔があるッゥ「紅の樹帯」付近はッァ、凶暴な魔物がウロついてるがッァ[@CR]心配いらネッェ、アンタなら大丈夫だッァ！　オレサマが保証してやらッァ！,"Deep in Black Shroud. West Shroud. Near stone stela of Turning Leaf. Lurking beast, there is. Slay it, you must. No need fear beast. Strong [@SPLIT([@STRING($EB(1))], ,1)] is strong!","Gehst du jetzt in den Finsterwald. Die Steinstele ist bei Wandelndes Blatt, kennst du? Dort sind wilde Kreaturen, aber du kannst schaffen.","La stèle est située à Rougeramée, dans la forêt de l'ouest de Sombrelinceul. Des monstres féroces rôdent dans les environs, mais ils ne poseront pas de problème à [@IF($E9(4),une vraie,un vrai)] mage noir.",
38,イクサル族だとかッァ、アマルジャ族だとかッァ……[@CR]アンタッァそんなん関係なくッゥ、オレたちの話を聞いてくれたなッァ！[@CR]その気概ってヤツにいっちょッォ、懸けてやるッゥ！　力を貸すゼッェ！,"Birdman. Lizardman. No matter. All wait for strong [@SPLIT([@STRING($EB(1))], ,1)]. True grit, you have. Help you, Dozol will.","Ixal oder Amalj'aa oder welches Volk ... Dir ist egal, kha? Hast du trotzdem geduldig zugehört. Gut bist du. Bin ich auch auf deiner Seite.","En dépit de la haine entre nos peuples et les serpents des Cités, [@IF($E9(4),celle-là,celui-là)] n'a pas hésité à suivre les conseils de l'Amalj'aa et à écouter celui-ci. [@IF($E9(4),Elle,Il)] mérite de l'aide.",
39,ンでもってッェ、その方法ならッァ！[@CR]このドゾル・メロックサマが教えてやらッァ！[@CR]アーッァ、ゴホンッゥ。いいかッァ、よーく聞けよッォ？,"Teach you, Dozol will, what must do.","[@1A(1)]khom[@1A(0)] Hörst du gut. Lange vorbei, viele Schwarzmagier waren existent. Einer unübertrefflich meisterlich war.",Celui-ci sait quoi faire.,
40,苔むした石塔から、黒魔法の導きを読み取った！,Reading the inscription grants you the power of a new black magic!,Du konntest die schwarzmagischen Lehren in der Stele entziffern!,Vous avez appris un nouveau pouvoir en lisant les ins[@16]crip[@16]tions[@1D]!,
41,そいつはッァ、破壊の力であるッゥ黒魔法が、悪用されるのを案じてッェ[@CR]いくつかの黒魔法にッィ、自分の認めた者だけがッァ修得できるようッゥ[@CR]「まじない」をかけてッェ、封じちまったそうだッァ。,"Black magic too powerful. Too dangerous. Wrong hands must not have. Know this, he did. Enciphered spells. Hid secrets. Dark way passed to few. Very few.","Und infolgedessen hat weggesperrt die Lehren mit einem Spruch. Nur sehen können sie Befugte, von [@1A(1)]ihm[@1A(0)] Befugte.",Il craignait qu'elle ne soit utilisée à des fins maléfiques. Il décida donc de protéger ses secrets au moyen de sorts puissants pour ne les révéler qu'à ceux qu'il estimait dignes de les apprendre.,
