 ,0,1,2,3,4
 ,str,str,str,str,str
1,本棚に古そうな本が並んでいる。,A number of ancient-looking tomes and treatises adorn the shelf.,In dem Regal stehen alte Schriften und Bücher.,Vous apercevez de vieux ouvrages sur l'étagère.,书架上陈列着很多古老的书。
2,どれを手に取る？,Which volume would you like to peruse?,Welches Werk möchtest du näher betrachten?,Lequel voulez-vous lire[@1D]?,要拿哪本呢？
3,『五紀暦』,The Five Ages─An Eorzean Chronology.,Die Fünf Zeitalter - Eine Eorzäische Chronologie.,Le calendrier éorzéen.,“五纪历”
4,『六属創世記』,Essences & Permutations─A Treatise of the Six Elements.,Rosarium Elementum - Eine Abhandlung zu den sechs Elementen.,Les six éléments.,“六属创世纪”
5,『とある英雄の冒険譚』,[en],"Ballade von [@IF($E9(4),einer die,einem der)] auszog, [@IF($E9(4),eine Abenteurerin,ein Abenteurer)] zu werden.","La geste d'[@IF($E9(4),une aventurière,un aventurier)].",“某个英雄的冒险故事”
6,取らない,None of them.,Ich bin Analphabet.,Aucun.,不拿
7,『五紀暦』[@CR]序文と5篇の章より成る古書のようだ。,A cursory examination reveals that the volume is comprised of a preface and five chapters dealing with the concept of time.,"Ein erster, prüfender Blick offenbart, dass das Werk in fünf Kapitel unterteilt ist.",Un livre aux pages jaunies composé d'une courte préface et de cinq chapitres.,“五纪历”由序章和五篇正文组成的古代书籍。
8,読んでみる？,Which portion would you care to read?,Welches Kapitel möchtest du eingehender studieren?,Que voulez-vous lire[@1D]?,要读读看吗？
9,序文,The preface.,Das Vorwort.,La préface.,序章
10,日,Chapter I─The Suns.,Kapitel I - Die Sonnen.,Le chapitre sur les soleils.,日之章
11,月,Chapter II─The Moons.,Kapitel II - Die Monde.,Le chapitre sur les lunes.,月之章
12,年,Chapter III─The Years.,Kapitel III - Die Jahre.,Le chapitre sur les années.,年之章
13,人暦,Chapter IV─Of Man.,Kapitel IV - Von Sterblichen.,Le chapitre sur les cycles mortels.,人之章
14,神暦,Chapter V─Of Gods.,Kapitel V - Von Göttern.,Le chapitre sur le temps divin.,神之章
15,読むのをやめる,Read no more.,Ich bin des Lesens müde ...,Fermer le livre.,不读了
16,本書は、第六星暦233年[@CR]筆者シャーレアンの占星術師リューフォンにより[@CR]各都市で独自に用いられていた暦を統一する意図の下に著された。,"Penned by Lewphon of Sharlayan, master theologian and astrologist, in the Year 233 of the Sixth Astral Era, to weave together the disparate histories of the nations of Eorzea with a common thread─the thread of time.","Niedergeschrieben im Jahre 233 der 6. Ära des Lichts vom Theologen und Astrologen Lewphon von Sharlayan, handelt dieses Buch in mehreren Kapiteln die Geschichte Eorzeas ab. Durch alle Kapitel führt ein leitender Faden, der Faden der Zeit.","La disparité des calendriers utilisés par les Cités éorzéennes est un obstacle à nos échanges. C'est pourquoi j'ai décidé de mettre au point un calendrier commun qui j'espère nous rapprochera.[@CR]Lewphon, devin sharlayanais, 233e année de la 6e ère astrale.",本书写于第六星历233年，由萨雷安的占星术师卢弗恩所著，他本着将各个城市采用的年历进行统一的想法著作了此书。此书由小时构成的“日”之章，日构成的“月”之章，月构成的“年”之章，众人构成的年的周期“人历”，与众神形成的悠久的历史“神历”这五章组成……
17,「日」[@CR]4つの時をひと刻とし、氷、水、風、雷、火、土の刻を経て、[@CR]1つの「日」と成す。すなわち、日は24の時より成る……,"By the unit of a sole Sun we mean that period which lasts for the duration of four cycles of the six elemental hours─those of Ice, Water, Wind, Lightning, Fire, and Earth. And so is the Sun twenty hours and four, and so shall it ever be.","Mit einer Sonne bezeichnet der Gelehrte den Zeitraum eines Durchlaufs aller vier Zyklen der sechs elementaren Stunden des Eises, Wassers, Windes, Blitzes, Feuers und der Erde. Und so dauert eine Sonne vierundzwanzig Stunden, und so soll es sein immerdar.","Un soleil est divisé en six périodes, chacune d'elles sous l'influence d'un élément[@1D]: la glace, l'eau, le vent, la foudre, le feu et la terre. Une période est composée de 4 heures. Un soleil est donc formé de 24 heures.",“日”将四个小时作为一个刻度，经过了冰，水，风，雷，火，土这六个刻度，就完成了一“日”。故一日是由二十四个小时形成的……
18,「月」[@CR]風、雷、火、土、氷、水の6つの属日。[@CR]これに、星と霊の2極日を加えて8日。,"The life of a single Moon spans four cycles of eight Suns, and is thus the sum of thirty and two.",Das Leben eines Mondes umspannt vier Zyklen von je acht Sonnen und summiert sich somit zu einer Lebensspanne von zweiunddreißig Sonnen.,"Une lune est composée de quatre semaines, chacune d'elles divisée en six soleils élémentaires et deux soleils polaires, soit huit au total. Une lune a donc 32 soleils.",“月”首先分为风，雷，火，土，冰，水这六个属性日。再加上星，灵这两个极日便是八日。而像这样度过四个轮回便是一个“月”，故一个月由三十二日组成……
19,「年」[@CR]星と霊、2つの極性を廻る月を、交互に6属巡りて、[@CR]1つの「年」と成す。すなわち、年は12の月より成る……,"The Year is made when the Moons go round the two Astral and Umbral poles, fluctuating between the six elements, and that in turn. In this, the Year can be said to be the length of twelve Moons.","Ein Jahr ist vergangen, wenn der Mond im Wechsel über den Lichtpol und den Schattenpol der sechs Elemente gewandert ist. So ergibt sich, dass ein Jahr aus zwölf Monden besteht.","Une année est formée de la succession des lunes, chacune d'elles alternativement proche du pôle astral puis ombral et sous l'influence d'un des six éléments. Une année est donc composée de douze lunes.",“年”星与灵两个极性轮回之月，各交互循环六个属性，则成一“年”。故年由十二个月所组成……
20,星1月、霊1月（旧暦1、2月）は、[@CR]氷が統べ、すべてを凍らせて次の命脈を保たん。[@CR]星2月、霊2月（旧暦3、4月）は、[@CR]水が統べ、氷を溶かして命の水脈を流さん。,"The first and second Moons of the Year are the first Astral and first Umbral, and together they share an affinity with Ice. On their watch, all is frozen, and breath of life sloweth to near silence beneath.","Der erste und der zweite Mond des Lichts und des Schattens stehen im Zeichen des Eises. Während sie über den Himmel fahren, ist alles gefroren und der Atem des Lebens ist langsam und still.","Les 1res lunes astrale et ombrale (anciennement 1er et 2e mois de l'année) sont régies par la glace, qui gèle toutes choses et les préserve. Les 2es lunes astrale et ombrale (anciennement 3e et 4e mois de l'année) sont dirigées par l'eau, porteuse de vie.",星一月，云一月（旧历的一，二月）由冰统治，冻结万物，保护命脉。星二月，云二月（旧历的三，四月）由水统治，融化冰寒，传承生命。星三月，云三月（旧历的五，六月）由风统治，拨开云雾，带来恩惠。
21,星5月、霊5月（旧暦9、10月）は、[@CR]火が統べ、草木を緋色に染めあげん。[@CR]星6月、霊6月（旧暦11、12月）は、[@CR]土が統べ、すべてを大地へと還さん……,"The fourth pairing of Astral and Umbral Moons come seven and eight, when the heavens rageth with the furies of Lightning, and sendeth them below with godly terror to test the faith of men.[@CR]The ninth and tenth Moons are the fifth Astral and Umbral, as the Lightning turns to Fire, and it charreth growing life with the colors of its flames, bleeding blade and leaf with brilliant hues of crimson and scarlet.[@CR]Year's end cometh in the eleventh and twelfth Moons, the sixth Astral and sixth Umbral, in which Earth consumes all, for out of the ground we are taken for the dust we are, and to the dust we shall return.","Mit dem vierten Paar von Licht- und Schattenmond öffnet sich der Himmel und die Götter lassen Blitze herabfahren, um den Glauben der Sterblichen auf die Probe zu stellen. Der neunte und zehnte Mond des Jahres, also Licht- und Schattenmond Nummer fünf, bringt das Feuer, und Blätter und Gräser färben sich scharlachrot. Mit dem sechsten Lichtmond und dem sechsten Schattenmond geht das Jahr zu Ende und alles wird zu Erde, aus der es entstand.","Les 5es lunes astrale et ombrale (anciennement 9e et 10e mois de l'année) sont régentées par le feu, qui teinte la végétation de ses couleurs et qui disparaît d'autant plus vite que sa flamme est vive. Les 6es lunes astrale et ombrale (anciennement 11e et 12e mois de l'année) sont commandées par la terre, qui reprend tout ce qu'elle a donné.",星四月，云四月（旧历的七，八月）由雷统治，劈天破地，试炼人间。星五月，云五月（旧历的九，十月）由火统治，草木纷飞，星火燎原。星六月，云六月（旧历的十一，十二月）由土统治，世间万物，终归大地……
22,「人暦」[@CR]神々に賜りし12の年、航年、浪年、工年、破年、審年、商年、[@CR]豊年、時年、戦年、慈年、識年、運年を経て、1つの「周期」と成す。,"The wisdom of the Twelve saw fit to grant man with the cycle of years, and in turn the reverence of man bound them to his gods─the Year of the Navigator, of the Wanderer, of the Builder, of the Destroyer, of the Warden, of the Traders, of the Matron, of the Keeper, of the Fury, of the Lover, of the Scholar, and of the Spinner.","In ihrer unendlichen Weisheit entschieden die Zwölf, im Zyklus der Jahre abwechselnd über die Geschicke ihrer Kinder zu wachen. So gibt es das Jahr der Lotsin, des Wanderers, des Erbauers, des Zerstörers, der Aufseherin, der Kaufleute, der Mutter, des Hüters, der Furie, der Liebenden, des Forschers und der Norne. Jeder dieser Zyklen ist heilig und wird als eine Epoche bezeichnet.",Un cycle mortel est la succession de douze années.,“人历”度过众神赐予的12年，航年，浪年，工年，破年，审年，商年，丰年，时年，战年，慈年，识年，运年为一个周期。
23,すなわち、人暦の周期は12の年より成る……,"The turning of these Years twelve is a sacred thing, and together they comprise one epoch of man, by which the histories of his endeavor are measured.",Eine Epoche der Sterblichen dieser Welt dauert demnach zwölf Jahre.,"Chacune est sous l'influence d'un des Dieux[@1D]: Llymlaen la Navigatrice, Oschon le Vagabond, Byregot l'Artisan, Rhalgr le Destructeur, Azeyma la Gardienne, Nald'thal les Marchands, Nophica la Mère, Althyk le Contemplateur, Halone la Conquérante, Menphina la Bien-aimante, Thaliak l'Erudit et Nymeia la Fileuse.",故人历的周期为12年……
24,「神暦」[@CR]悠久の時は神々が統べる。人の発展する「星暦」の時代と[@CR]衰亡する「霊災」の時代は、神々の御業により交互に訪れる。,The constancy and eternity of time derive from the pulse and breath of the Twelve.,"Den zeitlosen Plan der Götter vermag auch ein Gelehrter nur zu hinterfragen, nicht aber zu enträtseln.","Le temps divin est éternel, il est le privilège des dieux. Ce sont eux qui dirigent les ères d'Hydaelyn, qui sont formées d'une longue succession de cycles mortels. Chaque ère est proche d'un des deux pôles[@1D]: les astrales sont caractérisées par l'ascension des hommes et les ombrales par leur déclin.",“神历”管理悠久的时间的，是众神之手。振兴人类发展的“星历”，和导致人类走向衰亡的“灵灾”，在众神的操作下交互而至，不管是再强大的国家，再厉害的魔王，都逃不过这轮回。
25,現代は、第六霊災たる大洪水の時代を経た後、すなわち第六星暦である。[@CR]この時代が、いかなる時代であったかは、後世の史家に委ねられよう。[@CR]また、終わりを告げる第七霊災がいつ訪れるかは、神々のみぞ知るだろう。,"Since the peace among the Twelve was broken and life was created to wage their wars, six cycles of the Eras have come to pass in keeping with the elemental order. The Sixth Umbral Era belonged to the waters, as heavy rains fell and the seas rose high, submerging and cleansing all in a great deluge. With time the waters receded, ushering in the present Sixth Astral Era, during which man has again rebuilt his halls and tilled his lands.","Momentan schreiben wir die 6. Ära des Lichts, die auf die große Sintflut, das Ende der 6. Ära des Schattens, folgte. Ob die Sterblichen in dieser Ära etwas Großes erschaffen, bleibt für die Gelehrten kommender Zeiten zu beurteilen. Die Weltgeschichte ist das Weltgericht und so wird auch die nächste Katastrophe über uns hereinbrechen. Um das Wie und das Wann zu wissen, bleibt den Göttern vorbehalten.","La 6e ère ombrale, marquée par de nombreuses catastrophes naturelles, a pris fin et nous sommes désormais dans la 6e ère astrale. Seuls les Douze savent ce qu'elle deviendra. Je ne sais rien du nom que lui donneront nos descendants, ni du fléau qui signalera le début de la 7e ère ombrale.",现在经历了第六灵灾的大洪水时代，步入了第六星历。这个时代究竟是个怎样的时代，会有后人记述。而第七灵灾究竟会何时到来，恐怕只有众神知晓。
26,ただ確かなことは、この第六星暦は我々の手に委ねられており、[@CR]我々次第で、栄光の時代にも屈辱の時代にも、成し得るということである。,Naught save the ken of the Twelve themselves knoweth when the Seventh Umbral Era shall come and end our days. The sole certainty what resides within man is the selfsame as it has ever been─ours is the power to make of our Era what we might.,"Die 6. Ära des Lichts zu gestalten, liegt jedoch in unseren Händen. Wird man in kommenden Chronologien schändlich darüber schreiben oder sie besingen, weil diese Ära vor Glorie glänzen wird ...?","L'unique certitude que j'ai, c'est que l'ère actuelle deviendra ce que nous en ferons[@1D]: un âge d'honneur ou de déshonneur.",但目前确认的是，这第六星历落在了吾等的肩膀上，或繁荣昌盛，或悲惨不堪，全看吾等的所作所为。
27,『六属創世記』[@CR]創世にまつわる伝承を集めた本のようだ。,A cursory examination reveals that the volume is comprised of four chapters dealing with the elements and creation.,In diesem Werk stehen Über[@16]lie[@16]fe[@16]run[@16]gen zum Zusammenspiel der Elemente Hydaelyns niedergeschrieben.,Ce livre semble être un recueil des croyances populaires sur les éléments qui composent le monde.,“六属创世纪”
28,読んでみますか？,Which portion would you care to read?,Welches Kapitel möchtest du eingehender studieren?,Quel chapitre voulez-vous lire[@1D]?,要读读看吗？
29,廻りくる六つの生誕,Chapter I─The Six Nativities & Myriad Creation.,Der Kreislauf der sechs Geburten.,Le cycle des six naissances.,六属性的诞生
30,果てしなき三つの凱旋,"Chapter II─The Three Conquests, Boundless and Unwavering.",Die drei endlosen Triumphe.,Les trois ascendances indéfectibles.,三属性的凯旋
31,終わりなき三つの敗北,"Chapter III─The Three Submissions, Timeless and Unending.",Die drei endlosen Niederlagen.,Les trois éternelles sujétions.,三属性的败北
32,揺るぎなき二つの支配,Chapter IV─Dynamic Opposites & the Bifurcation of Polarity.,Die zwei unangefochtenen Hegemonien.,Les deux règnes in[@16]éb[@16]ran[@16]la[@16]bles.,二属性的支配
33,読むのをやめる,Read no more.,Ich bin des Lesens müde.,Fermer le livre.,不读了
34,「廻りくる六つの生誕」[@CR]雷は落ちて火を生み　火は燃えて土を生み[@CR]土は遮りて氷を生み　氷は溶けて水を生み[@CR]水は昇りて風を生み　風は曇りて雷を生んだ……,"The spark of Lightning ignites when it strikes, and thus Fire is born.[@CR]The heat of Fire renders to ash all that it touches, and thus Earth is born.[@CR]The density of Earth shuns Sun and harbors cold, and thus Ice is born.[@CR]The armor of Ice melts away, and thus Water is born.[@CR]The moistness of Water mists and rises, and thus Wind is born.[@CR]The gusts and sighs of Wind gather the clouds, and thus Lightning is born.","Der herabfahrende Blitz entzündet das Feuer, das Feuer brennt und gebiert neue Erde, die Erde wird durchdrungen und gebiert das Eis, das Eis wiederum schmilzt zu Wasser, das Wasser steigt hinauf und beflügelt den Wind, der Wind bewölkt sich und gebiert den Blitz ...","La foudre en tombant crée le feu, qui brûle toutes choses pour qu'elles retournent à la terre. Celle-ci érige les montagnes sur lesquelles naît la glace, qui fond pour donner vie à l'eau. Cette dernière s'évapore et se transforme en vent, qui lui monte aux cieux et forme les nuages, eux-mêmes enfantant la foudre.",“六属性的诞生”落雷生火 火尽出土土避生冰 冰融成水水升化风 风暗闪雷……
35,「果てしなき三つの凱旋」[@CR]土は雷を吸い尽くし[@CR]水は土を流し尽くし[@CR]雷は水を走り尽くした……,Earth grounds Lightning.[@CR]Water erodes Earth.[@CR]Lightning boils Water.,Die Erde leitet den Blitz ab.[@CR]Der Blitz durchströmt das Wasser.[@CR]Das Wasser spült die Erde hinfort ...,La terre absorbe la foudre.[@CR]L'eau emporte la terre.[@CR]La foudre domine l'eau.,“三属性的凯旋”土嗜雷尽水淹土亡雷走水涸……
36,「終わりなき三つの敗北」[@CR]火は風に消され[@CR]氷は火に溶かされ[@CR]風は氷に防がれた……,Fire is extinguished by Wind.[@CR]Ice is melted by Fire.[@CR]Wind is obstructed by Ice.,Das Feuer wird vom Wind ausgeblasen.[@CR]Der Wind wird vom Eis abgewehrt.[@CR]Das Eis wird vom Feuer geschmolzen ...,Le feu est éteint par le vent.[@CR]La glace fond sous l'action du feu.[@CR]Le vent ne peut pénétrer la glace.,“三属性的败北”火消于风冰融于火风断于冰
37,「揺るぎなき二つの支配」[@CR]雷も　火も　土も　氷も　水も　風も[@CR]すべては霊の上にあり　すべては星の下にある[@CR]近いか　遠いか　ただそれだけ……,"The six elements are manifest in all things great and small, and their polarity deriveth from the Astral heavens above and the Umbral depths below.","Egal ob Blitz, Feuer, Erde, Eis, Wasser oder Wind - sie alle werden auf ewig über dem Schatten stehen und doch niemals über dem Licht. Sie werden sich ihnen höchstens annähern oder sich von ihnen entfernen.","La place des six éléments est et restera éter[@16]nel[@16]le[@16]ment au-dessus des ombres et en dessous des astres. Ils s'approchent et s'éloignent de ces deux pôles sans relâche, mais jamais ils ne les atteignent com[@16]plè[@16]te[@16]ment.",二属性的支配雷 火 土 冰 水 风皆在灵之上 皆在星之下或近或远  仅此而已……
38,『とある英雄の冒険譚』なんだか身に覚えのある英雄の冒険譚がつづられている……,[en],Moment mal! Auf dem Einband dieses dieses Buches ist zweifelsohne dein Antlitz abgebildet ...,"L'histoire de l'[@IF($E9(4),aventurière,aventurier)] contée dans ce livre ressemble à s'y méprendre à la vôtre...",“某个英雄的冒险故事”总之是一个有印象的英雄的冒险故事……
39,こちらでPS3用トロフィーの設定が可能です。,[en],"Hier hast du die Möglichkeit, eine PS3-Trophäe aus deiner Sammlung auszuwählen.",Une série de trophées y est mentionnée.,可以设定ps3用的奖杯。
40,どのトロフィーを選びますか？,[en],Mit was für einer Trophäe möchtest du protzen?,Que voulez-vous consulter[@1D]?,选择哪个奖杯呢？
41,ブロンズトロフィー,[en],Bronzene Trophäen.,Les trophées de bronze.,青铜奖
42,シルバートロフィー,[en],Silberne Trophäen.,Les trophées d'argent.,白银奖
43,ゴールドトロフィー,[en],Goldene Trophäen.,Les trophées d'or.,黄金奖
44,やっぱりやめる,[en],Ich lasse es lieber.,Arrêter.,算了
45,条件を満たしたトロフィーはありません。,[en],Es sind keine Trophäen dieser Kategorie vorhanden.,Vous avez mal lu et ne trouvez aucune référence à un quelconque trophée.,没有满足条件的奖杯
46,どのトロフィーを選びますか？,[en],Wähle eine deiner Trophäen aus.,Quel trophée vous intéresse[@1D]?,选哪个奖杯呢？
47,トラベラー,[en],Unbekannter Reisender,Voyageur.,旅行者
48,アドベンチャラー,[en],Abenteuerlust,Aventurier.,冒险家
49,エンプロイヤー,[en],Brotherr,Patron.,雇员
50,トレイニー,[en],Erste Schritte,Apprenti.,PS3用
51,シーカー,[en],Wissbegieriger Lehrling,Discipliné.,探索者
52,フェローシップ,[en],Kontaktfreudigkeit,Compagnon.,研究员
53,リージョナルヒーロー,[en],Aushilfsschwert,Volontaire régional.,区域英雄
54,ローカルヒーロー,[en],Schaffenskraft,Volontaire local.,本地英雄
55,デストロイヤー,[en],Kampfeslust,Destructeur.,破坏者
56,やっぱりやめる,[en],Ich nehm doch eine andere Kategorie.,Arrêter.,算了
57,どのトロフィーを選びますか？,[en],Wähle eine deiner Trophäen aus.,Quel trophée vous intéresse[@1D]?,选择哪个奖杯呢？
58,インベスター,[en],Investor,Investisseur.,投资家
59,ギルドマイスター,[en],Abenteuerliche Karriere,Maître de guilde.,行会大师
60,エクスプローラー,[en],Wandervogel,Explorateur.,探测员
61,ベテランアドベンチャラー,[en],Alter Haudegen,Aventurier vétéran.,老手冒险家
62,アデプト,[en],Eingeweihter,Adepte.,巨擘
63,リージョナルレジェンド,[en],Barmherziger Samariter,Héros régional.,区域传说
64,ローカルレジェンド,[en],Lokale Legende,Héros local.,本地传说
65,ウォーモンガー,[en],Bellizist,Belliqueux.,战斗狂
66,ファクショナルフレンド,[en],Hospitant,Partisan.,PS3用
67,やっぱりやめる,[en],Ich nehm doch eine andere Kategorie.,Arrêter.,还是算了
68,どのトロフィーを選びますか？,[en],Wähle eine deiner Trophäen aus.,Quel trophée vous intéresse[@1D]?,选择哪个奖杯？
69,ファイティングマスター,[en],Waffenmeister,Combattant.,战斗精英
70,ソーサラスマスター,[en],Erzmagier,Magicien.,魔法导师
71,クラフトマスター,[en],Handwerkspapst,Artisan.,能工巧匠
72,ギャザリングマスター,[en],Manischer Pionier,Récolteur.,大地使者
73,インペリアルレブル,[en],Widerstandskämpfer,Résistant.,帝国资本家
74,ノートリアスハンター,[en],Legendentöter,Chasseur célèbre.,名声狼藉的猎人
75,トリプルマイスター,[en],Perfektionist,Grand maître.,名家巨擘
76,やっぱりやめる,[en],Ich nehm doch eine andere Kategorie.,Arrêter.,还是算了
77,新たな冒険譚を読むことができた！,[en],"Du hast die „Ballade von [@IF($E9(4),einer die,einem der)] auszog, [@IF($E9(4),eine Abenteurerin,ein Abenteurer)] zu werden“ gelesen.",La geste parle d'un nouvel exploit récompensé par un trophée[@1D]!,可以阅读新的冒险故事了！
78,時を紡ぐ『日』、日を紡ぐ『月』、[@CR]月を紡ぐ『年』、人々の紡ぐ年の周期『人暦』、[@CR]神々の司る悠久の歴史『神暦』の五章より成る……,"For through its inevitable march the hours turn into Suns, and they into Moons, and they into Years. And from the Years come the Ages of Man. And ever eclipsing those is the eternity of Gods.","Und so steht geschrieben von Stunden, die zu Sonnen werden. Sonnen, die sich zu Monden wandeln, Monde, die zu Jahren werden. Und mit den Jahren kommen die Zeitalter der Sterblichen, um in ihrer Gesamtheit doch nur vor der Unendlichkeit der Götter zu verblassen.","Les soleils, lunes et années constituent les fibres du fil du temps qui s'écoule inexorablement, d'une part via le temps divin, et d'autre part via les cycles mortels.",可以阅读新的冒险故事了！
79,6つの属日と2つの極日を4周し、1つの「月」と成す。[@CR]すなわち、月は32の日より成る……,"The eight deriveth from the elements six, Ice, Water, Wind, Lightning, Fire, and Earth, and the polarities two, Astral and Umbral.","Die acht Sonnen wiederum sind geprägt durch die sechs Elemente Eis, Wasser, Wind, Blitz, Feuer und Erde und die zwei Polaritäten Licht und Schatten.","Les soleils élémentaires sont ceux du vent, de la foudre, du feu, de la terre, de la glace et de l'eau. Les polaires sont ceux de l'astral et de l'ombral.",可以阅读新的冒险故事了！
80,星3月、霊3月（旧暦5、6月）は、[@CR]風が統べ、雲を飛ばして恩恵をもたらさん。[@CR]星4月、霊4月（旧暦7、8月）は、[@CR]雷が統べ、天を開きて試練をもたらさん。,"The second Astral and second Umbral Moons come third and fourth in turn, and they are the Water of the melting Ice, and with their flowing slaketh the thirst of life again.[@CR]Fifth and sixth are the third Astral and third Umbral Moons, and the Wind bloweth over the Water, carrying its heavenly boons near and far.","Wenn der zweite Schattenmond vom dritten Lichtmond abgelöst wird, schmilzt das Eis und das Land erwacht zu neuem Leben. Während des dritten Licht- und des dritten Schattenmondes, also des fünften und sechsten Mondes im Jahr, bläst der Wind über das Wasser und trägt dessen Segen nach nah und fern hinaus.","Les 3es lunes astrale et ombrale (anciennement 5e et 6e mois de l'année) sont gouvernées par le vent, qui sème les bienfaits sur la terre. Les 4es lunes astrale et ombrale (anciennement 7e et 8e mois de l'année) sont dominées par la foudre, qui déchire les cieux et amène des bouleversements.",可以阅读新的冒险故事了！
81,いかなる強大な国家も偉大な名君も、[@CR]この輪廻から逃れることは適わなかった。,"And by their divine will the brilliance of the Astral Eras which see man flourish and prosper, and the shadows of the Umbral Eras which see man falter and doubt, are visited upon him in equal, and neither the greatest good nor the greatest evil may escape their purview.","Mit ziemlicher Bestimmtheit lässt sich jedoch behaupten, dass eine Ära des Lichts immer mit einer Ära des Schattens im Wechsel steht. In der Ära des Lichts entwickeln sich die Sterblichen zur Blüte, um in der Ära des Schattens - von einer Katastrophe heimgesucht - unterzugehen. So entsteht mit jedem mächtigen Reich ein mächtiger Feind, und alles Leben wiederholt sich in einem ewigen Wechselspiel von Werden und Vergehen.","Tous, du plus humble des paysans au plus puissant des rois, y sont soumis.",可以阅读新的冒险故事了！
