 ,0,1,2,3,4
 ,str,str,str,str,str
1,なんだ、ヤワそうな野郎だな。[@CR]ここは武器や船を作っているところだ。[@CR]真剣勝負についてこれるってんなら、しごいてやってもいいぜ？,"Well would ye look at that, laddies―another fearless adventurer wanders into the forge. Ye like playin' Knights 'n' Dragons with the other kiddies, eh? We can play if ye like. Just let me warm me poker first.","Was bist du denn für'n Weichei? Hier werden Schiffe und Waffen aus hartem Stahl produziert! Wenn du hier arbeiten willst, dann musst du ordentlich ranklotzen!","Dis-moi, tu m'as l'air bien [@IF($E9(4),faiblarde,faiblard)]. Tu sais qu'ici on forge des armes et on construit des navires[@1D]? C'est pas pour les mauviettes[@1D]!",看起来是个弱家伙啊。[@CR]这里是制造武器和船的地方。[@CR]如果你能撑下来的话，我可以给你锻炼锻炼。
2,"ほう、[@IF($E4($E8(1),1),鍛冶,甲冑)]で食っていこうと決心したか。名前は？","Ah, so ye reckon ye've got iron in yer veins now, eh? Well, we'll jus' see about that, won't we? Tell us, what mangy moniker did yer mammy cry out when ye finally quit her quakin' loins?","[@IF($E4($E8(1),1),Grobschmied,Plattner)] ist also dein Traumjob, hm? Name?","Alors comme ça, tu t'es mis en tête de devenir [@IF($E4($E8(1),1),[@IF($E9(4),forgeronne,forgeron)],[@IF($E9(4),armurière,armurier)])], hein[@1D]? Comment tu t'appelles[@1D]?","哟，决心来[@IF($E4($E8(1),1),锻铁,铸甲)]了吗？名字是？"
3,"[@STRING($EB(1))]か、よろしく頼む。[@CR][@IF($E4($E8(1),1),鍛冶師,甲冑師)]になりたいって奴は、[@CR]たいていがでっかい船を造りたがるもんだが、おまえはどうだ？","[@STRING($EB(1))], eh? Good enough for an unsooted whelp, I s'pose. So, what be yer heart a-yearnin' t' pound into bein'? Most o' the forgehands walk through this here door dreamin' o' buildin' their own grand ship. Mayhaps ye be thinkin' the same, eh?","Okay, [@STRING($EB(1))], dann enttäusch mich mal nicht. Die meisten Kerle und auch Bräute, die sich bei mir vorstellen, sind groß wie Schränke und wollen ihre eigenen - möglichst ausufernd großen - Schiffe bauen. Was ist mit dir?","Tu es [@IF($E9(4),la bienvenue,le bienvenu)], [@SPLIT([@STRING($EB(1))], ,1)]. La plupart des gars qui disent vouloir travailler ici se voient déjà bâtir des navires gi[@16]gan[@16]tesques. Tu te sens de taille[@1D]?","[@SPLIT([@STRING($EB(1))], ,1)]吗，以后多关照啦。[@CR]想成为[@IF($E4($E8(1),1),锻铁匠,铸甲匠)]的人，一般都想建造大船，[@CR]你呢？"
4,船のようなでっかいものを造るってことは、[@CR]おまえ自身がでっかい器を持ってないと成り立たん。[@CR]なんといっても、何百人もの命を預かるもんだからな。,"Ye ken what they say 'bout a [@IF($E9(4),woman what longs fer a big ship,man what don't feel complete wi'out a big ship)]? Hahahah! I'm sure ye do. But buildin' a ship be a serious business. Knowin' the fate o' countless souls be restin' on yer own humble craftsmanship can prove more burden than a mountain o' lead.","Wer große Schiffe bauen will, der braucht ein ebenso großes Selbst[@16]be[@16]wusst[@16]sein. Ein riesiges Schiff kann ich keinem Lutscher anvertrauen, schließlich hängen Hunderte von Leben an unserer sauber ausgeführten Arbeit ...","Si tu veux t'attaquer à un chantier aussi important, tu vas devoir prouver ta valeur. Construire un bateau c'est du sérieux[@1D]: les vies de centaines de passagers et de membres d'équipage sont en jeu[@1D]!",要建造船只那样的大家伙的话，[@CR]你自己必须要具备那样的技能。[@CR]因为再怎么说也是承载着好几百人性命的东西。
5,自分の器がどの程度か、早速、ここにいる先輩たちが見極めるだろうよ。[@CR]とりあえず、奥にいる「ミミドア」さんに話しかけてみな。[@CR]この道、数十年のベテランだ。,"Question is, can yer heart handle that burden, eh? Well, ain't no one better t' size ye up than ol' Mimidoa. He looks no more'n a fortnight past his tenth nameday, but truth be told, the wee man's been poundin' steel since back before anyone can remember. Don't seem none the worse for it, neither.","Was du so drauf hast, können wir sofort testen. Rede einfach mit Mimidoa dort drüben. Er hämmert seit Jahrzehnten ... ein richtiger Veteran!","Je pense que les habitués du coin devraient pouvoir t'évaluer. Adresse-toi d'abord à Mimidoa, là-bas. C'est un vétéran qui compte plusieurs dizaines d'années de pratique dans l'art de la forge.",快点让前辈们鉴别一下你的技能到底是什么程度吧。[@CR]先去和里面的“弥弥德亚”谈谈吧。[@CR]他是在这条路上走了几十年的老手了。
6,断るなんて、そりゃ、小せぇなぁ。,"'Fraid the ol' man'll see ye fer the young impostor ye truly are, eh? Then ye'd best find yerself a new profession.","Dein Glück! Dabei dachte ich erst, du hättest dich in der Tür geirrt und würdest hier meine Zeit verschwenden. Dann hätte es jetzt was gegeben ...","Tu abandonnes déjà[@1D]? Je t'avais [@IF($E9(4),surestimée,surestimé)]...",竟然会拒绝，也太小气了。
7,器の大きさがわかったとしても、諦めるなよ。[@CR]人ってのは成長して、器を入れ替えていくもんだ。,"Remember, take what ye're told with a grain o' salt, [@IF($E9(4),lass,lad)]. Jus' 'cause th' burden be beyond bearin' fer now, it don't mean ye be doomed t' failure fer the rest o' yer days.","Sehr gut. Leben bedeutet reifen, und mit der Reife kommt der Glauben an sich selbst und seine gereiften Fertigkeiten.","Même lorsque tu penses ne pas avoir l'étoffe pour le travail du métal, n'abandonne pas[@1D]! Le plus important dans la vie, c'est apprendre de ses erreurs et progresser.",即使知道自己有几两重，也不要放弃啊。[@CR]因为人随着成长，技能也会越来越高的。
8,……。,......,...,...,……
9,ほえ？　なんだってえ？,What ye say? What ye say?,Hm? Was hast du gesagt?!,Comment[@1D]? Qu'est-ce que c'est[@1D]?,什么？你说啥？
10,"ふむふむ、新入りの[@SPLIT([@STRING($EB(1))], ,1)]どんか。[@CR]若者は大歓迎だぞい。","'Nother 'nitiate, eh? 'Nitiate, ye say? Gettin' lots o' 'nitiates these days. Lots o' 'nitiates. What day ye say it was?","Soso, [@STRING($EB(1))], ein neuer Lehrling ... Frisches Blut ist hier gern gesehen.","Hoho, alors c'est toi [@SPLIT([@STRING($EB(1))], ,1)], [@IF($E9(4),la nouvelle,le nouveau)][@1D]? Les petits jeunes dans ton genre sont les bienvenus[@1D]!","嗯嗯，是新来的[@SPLIT([@STRING($EB(1))], ,1)]啊。热烈欢迎年轻人。"
11,"[@SPLIT([@STRING($EB(1))], ,1)]どんは、[@CR][@IF($E4($E8(1),1),鍛冶,甲冑仕事)]については、あまり知らんようだの。綺麗な手をしてる。","Name's [@STRING($EB(1))], is it? [@SPLIT([@STRING($EB(1))], ,1)] ain't done much in the way of smittin' now, has [@IF($E9(4),she,he)]? Ain't done much at all. Hands too clean. Too pale. No calluses. How long did [@IF($E9(4),she,he)] say [@IF($E9(4),she,he)]'d been smittin'? Not long?","Ich wette, du hast [@IF($E9(4),fein manikürte Hände,richtig zarte Frauenhände)], [@SPLIT([@STRING($EB(1))], ,1)]. Nicht viel Ahnung vom Schmieden, was?","Mais dis-moi, on dirait que tu ne t'y connais pas beaucoup en forge, tes mains sont toutes propres.","[@SPLIT([@STRING($EB(1))], ,1)]对于[@CR][@IF($E4($E8(1),1),锻铁,铸甲工作)]似乎不太了解啊。有着一双漂亮的手啊。"
12,どれくらいの力があるか見たいぞい。[@CR]簡単なものを作ってきてちょうだいな。,"Ah, another 'nitiate, eh? Then I've got to test ye. Gives ye a test, I will. Then we'll see if ye've got smittin' in yer blood. What say ye, [@IF($E9(4),missy,son)]?","Ich würde gern mal sehen, wie gewandt du bist. Kannst du mir etwas ganz Einfaches anfertigen?","Je veux voir ce que tu vaux. Pour ça, tu vas me fabriquer quelques petits bibelots.",想看看你的能力到什么程度。[@CR]先来做个简单的东西吧。
13,"ほれほれ、[@CR]「[@IF($E4($E8(1),1),[@SWITCH([@SHEET(itemData,11000004,41)],[@COLOR(#fff3f3f3)],[@COLOR(#ffc0ffa0)],[@COLOR(#ff60c8ff)],[@COLOR(#ffb38cff)],[@COLOR(#ffffa666)],[@COLOR(#ffe5dd7e)])][@EDGECOLOR(#ff262626)][@SHEET(xtx/itemName,11000004,4)][@EDGECOLOR($EC)][@COLOR($EC)],[@SWITCH([@SHEET(itemData,11000008,41)],[@COLOR(#fff3f3f3)],[@COLOR(#ffc0ffa0)],[@COLOR(#ff60c8ff)],[@COLOR(#ffb38cff)],[@COLOR(#ffffa666)],[@COLOR(#ffe5dd7e)])][@EDGECOLOR(#ff262626)][@SHEET(xtx/itemName,11000008,4)][@EDGECOLOR($EC)][@COLOR($EC)])]」をひとつ作って、持ってくるぞい。","Make me [@IF($E4($E8(1),1),[@SWITCH([@SHEET(itemData,11000004,41)],[@COLOR(#fff3f3f3)],[@COLOR(#ffc0ffa0)],[@COLOR(#ff60c8ff)],[@COLOR(#ffb38cff)],[@COLOR(#ffffa666)],[@COLOR(#ffe5dd7e)])][@EDGECOLOR(#ff262626)][@SHEETEN(xtx/itemName,1,11000004,1,1)][@EDGECOLOR($EC)][@COLOR($EC)],[@SWITCH([@SHEET(itemData,11000008,41)],[@COLOR(#fff3f3f3)],[@COLOR(#ffc0ffa0)],[@COLOR(#ff60c8ff)],[@COLOR(#ffb38cff)],[@COLOR(#ffffa666)],[@COLOR(#ffe5dd7e)])][@EDGECOLOR(#ff262626)][@SHEETEN(xtx/itemName,1,11000008,1,1)][@EDGECOLOR($EC)][@COLOR($EC)])]. That's yer test. Ye hear me? Eh? Speak up, I can't hear ye! Ah?","Also gut, dann mach mir bitte [@IF($E4($E8(1),1),[@SWITCH([@SHEET(itemData,11000004,41)],[@COLOR(#fff3f3f3)],[@COLOR(#ffc0ffa0)],[@COLOR(#ff60c8ff)],[@COLOR(#ffb38cff)],[@COLOR(#ffffa666)],[@COLOR(#ffe5dd7e)])][@EDGECOLOR(#ff262626)][@SHEETDE(xtx/itemName,1,11000004,1,4,1)][@EDGECOLOR($EC)][@COLOR($EC)],[@SWITCH([@SHEET(itemData,11000008,41)],[@COLOR(#fff3f3f3)],[@COLOR(#ffc0ffa0)],[@COLOR(#ff60c8ff)],[@COLOR(#ffb38cff)],[@COLOR(#ffffa666)],[@COLOR(#ffe5dd7e)])][@EDGECOLOR(#ff262626)][@SHEETDE(xtx/itemName,1,11000008,1,4,1)][@EDGECOLOR($EC)][@COLOR($EC)])].","Fabrique [@IF($E4($E8(1),1),[@SWITCH([@SHEET(itemData,11000004,41)],[@COLOR(#fff3f3f3)],[@COLOR(#ffc0ffa0)],[@COLOR(#ff60c8ff)],[@COLOR(#ffb38cff)],[@COLOR(#ffffa666)],[@COLOR(#ffe5dd7e)])][@EDGECOLOR(#ff262626)][@SHEETFR(xtx/itemName,1,11000004,1,1)][@EDGECOLOR($EC)][@COLOR($EC)],[@SWITCH([@SHEET(itemData,11000008,41)],[@COLOR(#fff3f3f3)],[@COLOR(#ffc0ffa0)],[@COLOR(#ff60c8ff)],[@COLOR(#ffb38cff)],[@COLOR(#ffffa666)],[@COLOR(#ffe5dd7e)])][@EDGECOLOR(#ff262626)][@SHEETFR(xtx/itemName,1,11000008,1,1)][@EDGECOLOR($EC)][@COLOR($EC)])] et reviens me voir quand tu auras fini[@1D]!","你来做一个“[@IF($E4($E8(1),1),[@SWITCH([@SHEET(itemData,11000004,41)],[@COLOR(#fff3f3f3)],[@COLOR(#ffc0ffa0)],[@COLOR(#ff60c8ff)],[@COLOR(#ffb38cff)],[@COLOR(#ffffa666)],[@COLOR(#ffe5dd7e)])][@EDGECOLOR(#ff262626)][@SHEET(xtx/itemName,11000004,131)][@EDGECOLOR($EC)][@COLOR($EC)],[@SWITCH([@SHEET(itemData,11000008,41)],[@COLOR(#fff3f3f3)],[@COLOR(#ffc0ffa0)],[@COLOR(#ff60c8ff)],[@COLOR(#ffb38cff)],[@COLOR(#ffffa666)],[@COLOR(#ffe5dd7e)])][@EDGECOLOR(#ff262626)][@SHEET(xtx/itemName,11000008,131)][@EDGECOLOR($EC)][@COLOR($EC)])]”，拿过来吧。"
14,レシピはこれだぞい。よく読むぞい。,"Here's the recipe. Best give it a good ol' lookin' at afore startin'. A good ol' lookin' at, y'hear? Eh?",Hier ist die Anleitung dazu. Lies sie dir genau durch!,Voici la recette. Etudie-la bien at[@16]ten[@16]ti[@16]ve[@16]ment.,这是制作方法。好好看看啊。
15,船職人は、確かに花形だぜ。でもそりゃ、昔の話さ。,"Time was, shipwrights were the most respected craftsmen in town... Each had his own style, and each ship was as different as the fish in the sea.",Handwerker aus unserer Werft sind berühmt und angesehen. Zumindest war es früher einmal so ...,Les artisans fabricants de bateaux font un boulot incroyable[@1D]! Mais leur gloire appartient au passé...,船上的工作人员很牛的。不过那是过去的事了。
16,今では基本的に、同じ型を使っての作業を繰り返して[@CR]できるだけ工期を短くしている。効率的作業ってやつだ。,But them days are long gone. 'Tis quantity afore quality that the forgemasters preach now. The only ships being built are those forged from a model and chased out the yard as quick as they can snap the parts together. Ain't a whit of tradition left in the trade.,Wir benutzen die gleichen Formen und wiederholen die gleichen Arbeits[@16]schritte. Durch diese effiziente Arbeitsweise konnten wir die benötigte Arbeitszeit verkürzen.,"De nos jours, on se contente de répéter la même opération en utilisant un seul et unique moule. Tout ça pour réduire les délais de fabrication[@1D]! Il n'y a vraiment plus que le rendement qui importe...",不过现在基本就是按照统一的铸型重复作业，[@CR]尽可能缩短工期。一个效率工种。
17,サハギン族、そして「海蛇の舌」との戦いが激化している。,"Limsa and the fishbacks have been at each other's throats for some time now. Why, I can't remember the last day the stench of sulphur from their cannons wasn't carried up off the sea by the saltwinds.","Die Kämpfe mit den Sahagin, vor allem mit diesen vermaledeiten Plündernden Schlangen, werden immer brutaler.",Le conflit qui nous oppose aux Sahagins et aux pillards du serpent se fait de plus en plus intense.,和鱼人族的手下“海蛇之舌”的战斗激化了。
19,鍛冶には炎が絶対必要。[@CR]だけど、炎を長い時間見つめていると、目を痛めやすいのよ。気をつけてね。,"'Eard the sayin' “got a fire in yer eye”? Well it ain't jus' words. I once saw a bloke stare into them forges ten bells straight. By the time the day was done, 'is eyeballs were black as pitch. Take care, friend, or it'll be you meetin' the same fate.","Wenn du zu lange ins Schmiedefeuer guckst, entzünden sich deine Augen. Pass also auf!","Les flammes sont indissociables du travail de métallurgie. Mais en les fixant trrrop longuement, on peut s'abîmer les yeux. Fais bien attention[@1D]!",火是锻铁必不可少的东西。[@CR]但是看的时间长了眼睛会疼。要注意啊。
20,リムサ・ロミンサの船には、必ず鍛冶師、甲冑師、調理人が乗るの。[@CR]船酔いしない体質なら、船つきの職人として稼ぐといいわ。,"All ships sailing out of Limsa employ no less than one smitty and no more than one cook. A clever man seeking to make some good, hard coin with his smithing skills would need look no further than the sea.","Schiffe aus Limsa Lominsa laufen immer mit mindestens einem Grobschmied, einem Plattner und einem Koch an Bord aus. Wenn dein Magen mit starkem Wellengang zurechtkommt, dann kannst du auf einem Schiff arbeiten und gutes Geld verdienen.","Un bateau limséen ne lève jamais l'ancre sans un forgeron, un armurier et un cuisinier à son bord. Si tu n'as pas le mal de mer, ça pourrait être une bonne idée de gagner ta vie de cette façon.",利姆萨·罗敏萨的船上肯定会有锻铁匠、铸甲匠和厨师。[@CR]如果你不晕船的话，可以跟船挣钱。
22,"おうおう、筋は良さそうだねえ。[@CR][@SPLIT([@STRING($EB(1))], ,1)]どん、なかなかやるぞい。","What's this? I told ye t' make this, did I? Don't recall doin'. 'Tis fine work, nonetheless. Fine work, indeed.","Hervorragende Arbeit, [@SPLIT([@STRING($EB(1))], ,1)]. Na, wer hätte das gedacht.","C'est que tu te débrouilles pas mal du tout[@1D]! Bon travail, [@SPLIT([@STRING($EB(1))], ,1)].","哦哦，素质不错啊。[@CR][@SPLIT([@STRING($EB(1))], ,1)]，干得不错。"
23,わしの前に回り込もうと努力する点も、なかなか評価できるぞい。,"Ye've got that spark. Ye never give up. I likes that about ye. Ye reminds me of a [@IF($E9(4),lass,lad)] I once had makin' me gramophone parts. [@SPLIT([@STRING($EB(1))], ,1)] was [@IF($E9(4),her,his)] name. Nice enough [@IF($E9(4),lass,lad)]. None too bright, though.","Ich sehe, dass du dich sehr angestrengt hast, um mich zu beeindrucken. Und das hast du auch geschafft.","Je suis tout autant im[@16]pres[@16]sion[@16]né par ton obstination à essayer de me tourner autour. Je t'avoue que je te préfère à ma gauche, là.",在我面前坚持不懈地努力，可以得到不错的评价啊。
24,失礼したのう。[@CR]鍛冶職人を長くやっとるといろいろあってのう。,Now if ye'd just stop all that weavin' an' windin'.,"Myahaha, entschuldige bitte. Nach langen Jahren als Grobschmied ist mein rechtes Ohr nicht mehr das beste.","Oh, c'est vrai, je ne t'ai pas encore expliqué[@1D]!",不好意思。[@CR]成为锻铁匠时间长了发生了很多事情。
25,いやいや、これはこれで、結構、便利だぞい。,Hm? Ye worried havin' a bum ear might make life terrible hard here in the forge? Ahahahah! I wouldn't trade her fer the world!,"Keine Sorge. Besser auf einem Ohr taub als auf beiden Augen blind, sag ich immer. Das mit dem tauben Ohr hat auch seine Vorteile ...","Non, non, parfois ça peut s'avérer bien pratique, tu sais.",这样就行了，挺方便的。
26,ミミドアちゃん、今晩またよろしくねえ。,"We'll be seeing you tonight, right, Mimidoa?","Mimidoa, wir zählen heute Abend auf dich. ♪","On compte sur vous ce soirrr, Mimidoa[@1D]!",弥弥德亚，今晚也拜托了。
27,ミミドアちゃんがいないとだめなの。,"Why, what ever would we do without you?","Mimidoa, ohne dich wär es einfach nicht dasselbe. ♪",Qu'est-ce qu'on s'ennuie sans vous[@1D]!,弥弥德亚不在可不行。
28,待ってるわ～。,Things just wouldn't be the same.,Wir werden auf dich warten ... ♪,On vous attendra à la même heure que d'habitude[@1D]!,我在等你呢～
29,このように、いろいろと役立つものだぞい。,Me bum ear? I wouldn't trade 'er for the world! Hahahaha!,Genau das meine ich.,"Comme dans ces cas-là, tu vois, ça peut servir[@1D]!",就像这样挺有用的。
30,"[@IF($E4($E8(1),1),鍛冶師ギルド,甲冑師ギルド)]に入る？","Join the [@IF($E4($E8(1),1),Blacksmiths' Guild,Armorers' Guild)]?","Der [@IF($E4($E8(1),1),Schmiedegilde,Gilde der Plattner)] beitreten?","Voulez-vous rejoindre la guilde des [@IF($E4($E8(1),1),forgerons,armuriers)][@1D]?","要加入[@IF($E4($E8(1),1),锻铁匠行会,铸甲匠行会)]吗？"
31,はい,Aye.,Ja. Statt Ränken schmiede ich lieber Stahl.,Je suis là pour ça[@1D]!,好的
32,いいえ,Nay.,Ich will mir nicht auf die zarten Finger hauen.,"Non, j'ai changé d'avis.",不要
33,依頼を受ける？,Speak with Mimidoa?,Du willst einen Auftrag?,Acceptez-vous[@1D]?,接受委托吗？
34,はい,Aye.,Ja.,"Oui, bien sûr.",好的
35,いいえ,Nay.,Nein.,Pas question[@1D]!,不要
36,"こっちの耳が遠くなってしもうたから、[@CR]反対側の耳を[@SPLIT([@STRING($EB(1))], ,1)]どんの方に向けて、[@CR]聞こえやすいようにしてたんだぞい。","Y'see, this here [@1A(1)]ear[@1A(0)] don't [@1A(1)]hear[@1A(0)], so I has t' turn me head when I wants to listen, like. Ain't no need fer ye t' keep flankin' me.","Wenn ich dir das andere Ohr zuwende, kann ich dich besser verstehen.","A force de passer mon temps à forger, je suis devenu sourd d'une oreille. J'essayais juste de tendre l'autre oreille vers toi pour mieux t'entendre.","我这边的耳朵不太好使，[@CR]另一边的耳朵冲着[@SPLIT([@STRING($EB(1))], ,1)]，就容易听到了。"
37,あの一段高いところにいる「ミミドア」さんに話しかけてみな。[@CR]この道、数十年のベテランだ。,Now toddle off t' Mimidoa―the short-arse up on that balcony. An' be quick about it. A man o' his age ain't got many turns o' the sun left in him.,Siehst du Mimidoa dort oben? Rede mit ihm. Er ist ein Veteran unter den Grobschmieden und wird dir weiterhelfen.,"Présente-toi à Mimidoa, là-bas. C'est un vétéran qui compte plusieurs dizaines d'années de pratique dans l'art de la forge.",你去找站在高处的“弥弥德亚”谈谈吧。[@CR]他是在这条路上走了几十年的老手了。
38,今まで数多くの船に同乗して、整備士として働いていたんだ。[@CR]あのお人の働きがあったからこそ、多くの船乗りが無事に戻れたんだぜ。,"The old hand spent his youth workin' on ships, makin' certain each an' every one might stay afloat long enough t' return t' port. 'Twas his skill with a hammer what saw many a sailor back t' shore.","Er ist auf unzähligen Schiffen mitgefahren und hat sich um deren Instandhaltung gekümmert. Ihm allein haben es viele Seeleute zu verdanken, dass sie unversehrt am Ziel angelangt sind.","Dans sa jeunesse, il a fait ses armes comme mécanicien sur une multitude de bateaux. Grâce à ses efforts, il a sûrement permis à beaucoup de marins de revenir sains et saufs de leurs traversées[@1D]!",迄今为止我们同乘过很多船，一起作为准备人员为船只工作。[@CR]多亏了那个人的工作，才让很多水手都平安地回来了。
39,"わぁ、[@IF($E4($E8(1),1),鍛冶師ギルド,甲冑師ギルド)]に入ってくれたのね！[@CR]嬉しいわ、これからよろしくね！","Joined th' [@IF($E4($E8(1),1),smitties,armorers)], have ye? Well, ain't this a fine day? Now I don't need no permission from the forgemaster t' sling ye in the fires if ye step out o' line.","Oh, du hast dich der [@IF($E4($E8(1),1),Schmiedegilde,Gilde der Plattner)] angeschlossen! Das freut mich sehr. Auf gute Zusammenarbeit!","Alors comme ça tu as finalement décidé de rejoindre [@IF($E4($E8(1),1),la guilde des forgerons,la guilde des armuriers)][@1D]? On va pouvoir trrra[@16]vail[@16]ler ensemble, ça c'est une bonne nouvelle[@1D]!","哇，你加入[@IF($E4($E8(1),1),锻铁匠行会,铸甲匠行会)]了啊！[@CR]真开心，请多关照啦！"
40,ここは鍛冶＆甲冑師ギルドのワークショップだよ。[@CR]僕はここで精一杯、君の補佐をさせてもらうからね。,Welcome to th' guildshop. Jus' don't be thinkin' on account o' th' fact ye're [@1A(1)]officially[@1A(0)] one of us that I'll be givin' ye a special discount.,Das hier ist die Werkstatt der Grobschmiede und Plattner. Ich werde dir hier mit Rat und Tat zur Seite stehen.,"Oui, tu es bien à l'atelier réservé aux forgerons et aux armuriers. Je suis ici pour t'assister, donc n'hésite pas à me demander si tu as besoin de quoi que ce soit.",这里是锻铁匠&铸甲匠行会的工作商店。我们会在这里尽全力帮助你们的。
41,いいなぁ、ミミドアさんにお仕事を習うことができて。[@CR]あたしから見たら、ほんとうに憧れの大先輩なんだから。,Hear you'll be prenticing under ol' Mimidoa. Consider yourself lucky. Took me five years of pounding chocoboshoes before the master'd even give me a second look.,"Hast du ein Glück. Ich wünschte, Meister Mimidoa würde mir etwas beibringen. Unter allen Grobschmieden in der Gilde ist er mein größtes Vorbild.","Quelle chance tu as d'avoir Mimidoa comme professeur[@1D]! De tous les forgerons que je connais, c'est bien la personne que je respecte le plus.",从弥弥德亚那里得到了工作真好啊。[@CR]因为他是我很崇敬的前辈啊。
42,この頃は、鍛冶師の知識で変わったものを作ってるらしいわ。[@CR]みんな、そのカラクリがわからないみたい。,"Even then, he was so caught up in one of his pet projects, I was lucky if I got three words out of him at a sitting─if that.","Er werkelt mit all seinem Wissen gerade an etwas Merkwürdigem, dessen Funktionsweise keiner von uns so richtig zu verstehen vermag.","Au fait, ces derniers temps, il passe beaucoup de temps à travailler sur un mystérieux projet. Personne ne sait vraiment de quoi il s'agit...",最近锻铁匠用他们的知识在做奇怪的东西。[@CR]大家不知道他们的用意是什么。
43,この頃、よからぬ噂が多い。[@CR]我等も、リムサ・ロミンサのために全力であたらねばならない。,"Godsdamned rumors fouling the city like a corpse in a well. Wish there were something we could do, but what good's a man with a hammer when it's words we're facing?",In letzter Zeit machen viele negative Gerüchte die Runde. Wir müssen für unser geliebtes Limsa alle unser Bestes geben!,"On entend beaucoup de rumeurs in[@16]quié[@16]tan[@16]tes, ces temps-ci... Nous autres forgerons devons travailler d'arrache-pied pour être prêts à protéger notre Cité si quelque chose devait arriver.",最近有很多不好的传闻。[@CR]我们也要为了利姆萨·罗敏萨尽全力才行。
44,そこで冒険者、おまえのような者の助けが必要なのだ。[@CR]お前もリムサ・ロミンサの盾となれ。,"How about we work it like this: I forge you a sword, then you use it to close the bile-spewers' gobs or─failing that─open their throats?","Wir sind auf die Hilfe von [@IF($E9(4),Aben[@16]teu[@16]re[@16]rin[@16]nen,Abenteurern)] wie dir angewiesen. Ihr müsst der Schild unserer Stadt werden.",C'est aussi pour ça que nous avons besoin d'aventuriers comme toi[@1D]! Tu dois te préparer à tout donner pour Limsa Lominsa.,那边的冒险者，我们需要像你这样的人的帮助。[@CR]你也成为利姆萨·罗敏萨的盾吧。
45,ん、ギルドに入ったようだが[@CR]おまえは鍛冶師か？　それとも甲冑師か？,"Say ye're one of us, eh? Well, of course ye are! Ye can't rightly be [@1A(1)]both[@1A(0)] of us, now, can ye? Ye're either an armorer or a smitty. And if ye're a smitty, then ye just made yerself a friend.","Du scheinst ein Mitglied der in der Werft ansässigen Gilden zu sein ... Bist du ein Grobschmied? Nein, warte ... Plattner?","Tiens, tu as décidé de rejoindre notre guilde, finalement[@1D]? Laisse-moi te poser une petite question. Ta spécialité, c'est la forge ou l'armurerie[@1D]?",嗯。你好像进入了行会，[@CR]你是锻铁匠还是铸甲匠啊？
46,鍛冶師なら大歓迎。[@CR]甲冑師なら……そうだな、まぁ新入りには優しくしてやるか。[@CR]俺って紳士だな。,"Now, if an armorer ye be...well... See, a river brimful o' bad blood runs 'twixt th' armorers and smitties, yet 'cause there be but one roof 'ere─an' all our 'eads stuck 'neath 'er like a leg under an 'ound─we makes a point o' bein' polite...most days.","Falls du ein Grobschmied bist, heiße ich dich auf das Herzlichste willkommen![@CR]Falls du ein Plattner bist ... Nun ja, man soll immer nett zu den Neuen sein ...","Si tu es [@IF($E9(4),forgeronne,forgeron)], je me ferai un plaisir de t'aider et de t'apprendre ce que je sais. Sinon... Essaye de pas trop traîner dans mes pattes.",要是锻铁匠的话非常欢迎。[@CR]要是铸甲匠嘛……我会对新人温柔一些的。[@CR]我可是个绅士啊。
47,いらっしゃいませぇ～。[@CR]ナルディク＆ヴィメリー社は、リムサ・ロミンサいちの大会社よ～。,"Welcome to the finest of forges you'll find in this fair city. Naldiq & Vymelli's is the name, and you'll find there ain't no better name if you're searching for [@1A(1)]the[@1A(0)] name in steel and iron workings.","Herzlich willkommen in der Naldiq & Vymelli-Werft, dem Groß[@16]un[@16]ter[@16]neh[@16]men in Limsa Lominsa. ♪",Bienvenue chez Naldiq et Vymelli[@1D]! Notre entreprise est la plus importante de Limsa Lominsa.,欢迎光临。[@CR]纳尔迪克＆威米利作坊是利姆萨·罗敏萨第一的大公司啊。
48,気に入られちゃって出世しちゃったら[@CR]冒険者やめたくなること、まちがいなしだわよ～。,And might you have come to borrow the fine name of our fiery forges to make a name for yourself? But of course you have!,"Wenn du dich hier eingelebt und die ersten Erfolge verbucht hast, wirst du schon bald das Abenteurerleben an den Nagel hängen wollen, glaub mir.","Qui sait, si vous travaillez bien, vous aurez peut-être de l'avancement[@1D]? Dans ce cas, je vous conseille d'abandonner les aventures et de faire carrière ici[@1D]! C'est un rêve pour beaucoup, vous savez.",能够被公司看中出人头地的话，[@CR]肯定就不做冒险者了。
49,いらっしゃいませぇ～。[@CR]ナルディク＆ヴィメリー社は、鍛冶師と甲冑師が作った大会社よ～。,"Welcome to Naldiq & Vymelli's, metallurgists extraordinaire─founded many, many generations gone by legendary forgemasters Naldiq the Wright and Vymelli the Smith...or was it Naldiq the Smith and Vymelli the Wright...?","Hereinspaziert! Hier ist die Naldiq & Vymelli-Werft, die die Grobschmiede und Plattner der Stadt aus dem Nichts geschaffen haben!","[@IF($E3($E9(11),12),[@IF($E3($E9(11),4),Bonsoir,Bonjour)],[@IF($E3($E9(11),17),Bonjour,Bonsoir)])] à vous [@IF($E9(4),aventurière,aventurier)][@1D]! Je suis sûre que vous allez vous plaire ici. Un conseil, ne faites pas attention aux forgerons et aux armuriers qui se chamaillent...",欢迎光临。[@CR]纳尔迪克＆威米利作坊是锻铁匠和铸甲匠创造的大公司啊。
50,数年ごとに社長と副社長が交代してるから、[@CR]鍛冶師と甲冑師は平等～ってことになってるわ～。,"Ah, but that is a detail of little import, for it was the fire in their [@1A(1)]collective[@1A(0)] eyes and the passion in their [@1A(1)]collective[@1A(0)] hearts that paved the proverbial way for all you see before you! Why, even today, we honor both our forefathers by changing our leadership every few years to ensure that both armorers [@1A(1)]and[@1A(0)] smiths are given the opportunity to serve as guildmaster.","Alle paar Jahre wechseln sich bei uns der Firmenpräsident und der stellvertretende Direktor gegenseitig ab, wodurch gewährleistet wird, dass Grobschmiede und Plattner als gleichberechtigte Partner zu[@16]sammen[@16]arbeiten können.","Tout est fait pour que nous nous entendions, pourtant. Même la place de directeur est attribuée par alternance à un forgeron et à un armurier[@1D]! Ça serait tellement plus simple si nous travaillions tous main dans la main...",这些年来社长和副社长一直由锻铁匠和铸甲匠轮流担当。[@CR]证明双方是平等的。
51,へぇ、ミミドアさんの弟子になるのか。[@CR]ミミドアさんなら、作業場の中にいるはずだぜ。,"Set to work under ol' Mimidoa, are ye? Well, then ye'd best get at it. The man ain't got the time t' waste on an unsooted whelp, and ye ain't got the craft nor the clout t' be keepin' him waitin'.","Häh, du bist ein Lehrling von Mimidoa!?[@CR]Wenn du deinen Meister suchst, den wirst du sicherlich in der Werkstatt antreffen.","Si Mimidoa t'a [@IF($E9(4),acceptée,accepté)] comme disciple, je me fais aucun souci pour toi[@1D]!",哦，你要成为弥弥德亚的弟子吗？[@CR]你要找弥弥德亚的话，他应该在工作地点。
52,小さいからって見逃すんじゃねぇぞ。[@CR]俺のガキんちょみたいに、でっかい力を秘めてる人さ。,"And jus' 'cause he's vertic'ly challenged, don't think ye can go givin' him lip. I seen him serve a Roeggie a thick ear with one hand while temperin' a sword with tother. His bloomin' [@1A(1)]ear[@1A(0)], mind!","Er ist zwar klein, aber übersieh ihn bloß nicht! Ich sage dir, bei ihm ist es wie bei meinem Lausejungen zu Hause: Nicht der Größte, aber Bärenkräfte!","Il t'attend à l'intérieur, mais attention à pas le manquer, il est pas plus haut que trois pommes. Je crois qu'il est aussi petit qu'il est habile de ses mains, haha[@1D]!",虽然目标小不过也不能忽视啊。[@CR]像我的孩子一样，有着很大的力量啊。
53,あら、先輩たちには、ちゃんとご挨拶したのかしら。,Ye paid proper obeisances t' yer fellow forgemates?,Hast du dich bei deinen neuen Kollegen ordentlich vorgestellt?,Avez-vous pris le soin de vous présenter à vos nouveaux collègues de travail[@1D]?,呀，好好和前辈们打招呼了吗？
54,きちんと真っ正面に立って、[@CR]しっかり目を見て、自分を売り込なさいね。,"A good forge is built on respect. Ye don't show none, ye don't get none.","Brust raus, Hintern rein, dem Gegenüber in die Augen gucken ... Du musst dich anstrengen, wenn du einen guten Eindruck hinterlassen willst!","N'oubliez pas, tenez-vous bien [@IF($E9(4),droite,droit)], soyez [@IF($E9(4),polie,poli)] et surtout, gardez toujours le sourire[@1D]!",要和前辈面对面，好好地看着他的眼睛，推销自己啊。
55,"お、「[@IF($E4($E8(1),1),[@SWITCH([@SHEET(itemData,11000004,41)],[@COLOR(#fff3f3f3)],[@COLOR(#ffc0ffa0)],[@COLOR(#ff60c8ff)],[@COLOR(#ffb38cff)],[@COLOR(#ffffa666)],[@COLOR(#ffe5dd7e)])][@EDGECOLOR(#ff262626)][@SHEET(xtx/itemName,11000004,4)][@EDGECOLOR($EC)][@COLOR($EC)],[@SWITCH([@SHEET(itemData,11000008,41)],[@COLOR(#fff3f3f3)],[@COLOR(#ffc0ffa0)],[@COLOR(#ff60c8ff)],[@COLOR(#ffb38cff)],[@COLOR(#ffffa666)],[@COLOR(#ffe5dd7e)])][@EDGECOLOR(#ff262626)][@SHEET(xtx/itemName,11000008,4)][@EDGECOLOR($EC)][@COLOR($EC)])]」を作れと頼まれたのか。[@CR]ミミドアさんの期待に沿えるように頑張るんだぞ。","Ol' chief bid ye make him [@IF($E4($E8(1),1),[@SWITCH([@SHEET(itemData,11000004,41)],[@COLOR(#fff3f3f3)],[@COLOR(#ffc0ffa0)],[@COLOR(#ff60c8ff)],[@COLOR(#ffb38cff)],[@COLOR(#ffffa666)],[@COLOR(#ffe5dd7e)])][@EDGECOLOR(#ff262626)][@SHEETEN(xtx/itemName,1,11000004,1,1)][@EDGECOLOR($EC)][@COLOR($EC)],[@SWITCH([@SHEET(itemData,11000008,41)],[@COLOR(#fff3f3f3)],[@COLOR(#ffc0ffa0)],[@COLOR(#ff60c8ff)],[@COLOR(#ffb38cff)],[@COLOR(#ffffa666)],[@COLOR(#ffe5dd7e)])][@EDGECOLOR(#ff262626)][@SHEETEN(xtx/itemName,1,11000008,1,1)][@EDGECOLOR($EC)][@COLOR($EC)])], eh? Prattlin' like a harpy in heat won't get ye no closer t' completin' the task now, will it?","Er hat dich gebeten, etwas anzufertigen? Dann sieh mal zu, dass du seine Erwartungen an dich nicht enttäuschst!","Mimidoa t'a demandé de fabriquer [@IF($E4($E8(1),1),[@SWITCH([@SHEET(itemData,11000004,41)],[@COLOR(#fff3f3f3)],[@COLOR(#ffc0ffa0)],[@COLOR(#ff60c8ff)],[@COLOR(#ffb38cff)],[@COLOR(#ffffa666)],[@COLOR(#ffe5dd7e)])][@EDGECOLOR(#ff262626)][@SHEETFR(xtx/itemName,1,11000004,1,1)][@EDGECOLOR($EC)][@COLOR($EC)],[@SWITCH([@SHEET(itemData,11000008,41)],[@COLOR(#fff3f3f3)],[@COLOR(#ffc0ffa0)],[@COLOR(#ff60c8ff)],[@COLOR(#ffb38cff)],[@COLOR(#ffffa666)],[@COLOR(#ffe5dd7e)])][@EDGECOLOR(#ff262626)][@SHEETFR(xtx/itemName,1,11000008,1,1)][@EDGECOLOR($EC)][@COLOR($EC)])][@1D]? Je compte sur toi pour ne pas le décevoir. Courage[@1D]!","他让你做一个“[@IF($E4($E8(1),1),[@SWITCH([@SHEET(itemData,11000004,41)],[@COLOR(#fff3f3f3)],[@COLOR(#ffc0ffa0)],[@COLOR(#ff60c8ff)],[@COLOR(#ffb38cff)],[@COLOR(#ffffa666)],[@COLOR(#ffe5dd7e)])][@EDGECOLOR(#ff262626)][@SHEET(xtx/itemName,11000004,131)][@EDGECOLOR($EC)][@COLOR($EC)],[@SWITCH([@SHEET(itemData,11000008,41)],[@COLOR(#fff3f3f3)],[@COLOR(#ffc0ffa0)],[@COLOR(#ff60c8ff)],[@COLOR(#ffb38cff)],[@COLOR(#ffffa666)],[@COLOR(#ffe5dd7e)])][@EDGECOLOR(#ff262626)][@SHEET(xtx/itemName,11000008,131)][@EDGECOLOR($EC)][@COLOR($EC)])]”吗？[@CR]你可要回应弥弥德亚的期待好好努力啊。"
56,"足りないものがあったら、[@IF($E4($E8(1),1),スミドヘームルの店,ジョエローの店)]から買うといい。[@CR]金欠なら、冒険者ギルドでギルドリーヴってものがあるだろ。","If ye find yerself short o' supplies, there ain't aught stoppin' ye from partin' with a handful o' that hard-earned gelt ye got linin' yer pockets there. And if ye're short on gelt, well, let me be the first t' escort ye t' our fine door─an amazin' contraption that'll not only allow ye leave o' th' guild, but'll open right up again when ye've scraped together some coin.","Falls dir Materialien fehlen sollten, kannst du sie dir bei [@IF($E4($E8(1),1),Smydhaemrs,Joellauts)] Laden besorgen.[@CR]Und wenn du kein Geld hast, etwas im Laden zu kaufen, dann musst du wohl oder übel erst einmal ein paar Freibriefe für die Aben[@16]teurer[@16]gil[@16]de erledigen ...","S'il te manque des composants, demande à [@IF($E4($E8(1),1),Smydhaemr,Joellaut)], il aura cer[@16]tai[@16]ne[@16]ment ce dont tu as besoin en magasin. Et si tu n'as pas de quoi payer, quelques mandats de guilde et le tour est joué[@1D]!","如果材料不够的话，去[@IF($E4($E8(1),1),斯密德海穆尔的店,若约的店)]买就好。[@CR]如果钱不够的话，可以用冒险者行会的行会理符吧。"
57,船つきの職人になったら、あたしに一声、相談してね。[@CR]船上で限られた材料を前にして、甲冑師との喧嘩の仕方を教えてあげなきゃ。,"Now, if you were ever to find a place on a ship, I might be of a mind to teach you some tricks on how to persuade your fellow crewmates into providing you with all the supplies you'll need.","Wenn du eine Stelle auf einem Schiff gefunden hast, melde dich wieder bei mir. Ich gebe dir dann ein paar Tipps dazu, wie du mit den wenigen Materialien auf See zurechtkommst und bring dir ein paar Schimpfwörter bei. Die wirst du für den Plattner brauchen, den du mit an Bord hast ...","Mais tu dois savoir qu'une fois à bord, les matériaux sont très limités, et les querelles entre forgerons et armuriers pour se les approprier ne sont pas rares. Au cas où tu déciderais de suivre cette voie, préviens-moi, je t'apprendrai comment ne pas te laisser faire[@1D]!",你如果做上了随船的工匠的话，来和我打个招呼吧。[@CR]我要教你为了船上有限的材料如何和铸甲匠争辩。
58,軍船も海賊船も、修理待ちが多くて[@CR]きちんとした整備が十分にできない現状。副社長が奮闘してくれればよいが。,"It's got to the point where nigh on every ship that berths here, 'Cuda [@1A(1)]or[@1A(0)] pirate, needs patching up by one of our crew.",Egal ob die Schiffe von der Marine stammen oder von den Piraten - alle müssen sie lange auf Reparaturen warten. Wir kommen mit der Wartung einfach nicht hinterher.,Il y a de nombreux bateaux en attente de réparation et nous sommes com[@16]plè[@16]te[@16]ment dépassés. Si seulement le sous-directeur y mettait un peu plus du sien...,军船和海盗船还有很多船只需要修理，[@CR]目前还没有准备好。副社长要是加把劲就好了。
59,さっき、ミミドアさんから[@CR]話をきいてた冒険者は、違うものを作れって言われてたな。,"As of late, seems like ol' Mimidoa's been havin' adventurers just like ye forgin' him all manner of things.","Ich dachte, Mimidoa hätte für die Abenteurer einen anderen Auftrag im Sinn gehabt.","Tout à l'heure, j'ai entendu Mimidoa demander à un aventurier de fabriquer un objet différent...",刚才和弥弥德亚交谈过的冒险者[@CR]得到了做另一样东西的提示。
60,"ああ、そうか。[@CR]オマエは[@IF($E4($E8(1),1),鍛冶師,甲冑師)]だから、作れるものが違うってわけか。","And by the looks of it, his eye for talent ain't gone cloudy yet! He's got some use out of every half-decent trainee smitty and armorer in the shop!","Ach so. Du bist [@IF($E4($E8(1),1),Grobschmied,Plattner)] und deshalb solltest du etwas anderes herstellen. Jetzt kapier ich das endlich!","Ah mais oui, c'est sûrement parce que toi, tu es [@IF($E4($E8(1),1),[@IF($E9(4),forgeronne,forgeron)],[@IF($E9(4),armurière,armurier)])]. L'armurerie et la métallurgie sont deux disciplines à ne pas confondre.","啊，这样啊。[@CR]因为你是[@IF($E4($E8(1),1),锻铁匠,铸甲匠)]，所以能做的东西不同啊。"
61,"[@SPLIT([@STRING($EB(1))], ,1)]どんに[@CR]どれくらいの力があるか見たいぞい。[@CR]「[@IF($E4($E8(1),1),[@SWITCH([@SHEET(itemData,11000004,41)],[@COLOR(#fff3f3f3)],[@COLOR(#ffc0ffa0)],[@COLOR(#ff60c8ff)],[@COLOR(#ffb38cff)],[@COLOR(#ffffa666)],[@COLOR(#ffe5dd7e)])][@EDGECOLOR(#ff262626)][@SHEET(xtx/itemName,11000004,4)][@EDGECOLOR($EC)][@COLOR($EC)],[@SWITCH([@SHEET(itemData,11000008,41)],[@COLOR(#fff3f3f3)],[@COLOR(#ffc0ffa0)],[@COLOR(#ff60c8ff)],[@COLOR(#ffb38cff)],[@COLOR(#ffffa666)],[@COLOR(#ffe5dd7e)])][@EDGECOLOR(#ff262626)][@SHEET(xtx/itemName,11000008,4)][@EDGECOLOR($EC)][@COLOR($EC)])]」をひとつ作って、持ってくるぞい。","Quiet now, an' listen. I needs t' find out if there be some use in them arms o' yours. Make us [@IF($E4($E8(1),1),[@SWITCH([@SHEET(itemData,11000004,41)],[@COLOR(#fff3f3f3)],[@COLOR(#ffc0ffa0)],[@COLOR(#ff60c8ff)],[@COLOR(#ffb38cff)],[@COLOR(#ffffa666)],[@COLOR(#ffe5dd7e)])][@EDGECOLOR(#ff262626)][@SHEETEN(xtx/itemName,1,11000004,1,1)][@EDGECOLOR($EC)][@COLOR($EC)],[@SWITCH([@SHEET(itemData,11000008,41)],[@COLOR(#fff3f3f3)],[@COLOR(#ffc0ffa0)],[@COLOR(#ff60c8ff)],[@COLOR(#ffb38cff)],[@COLOR(#ffffa666)],[@COLOR(#ffe5dd7e)])][@EDGECOLOR(#ff262626)][@SHEETEN(xtx/itemName,1,11000008,1,1)][@EDGECOLOR($EC)][@COLOR($EC)])] and we'll see how much temperin' yer skills require.","[@SPLIT([@STRING($EB(1))], ,1)], ich möchte mich gerne davon überzeugen, wie viel Kraft und Geschick du besitzt.[@CR]Fertige mir doch bitte [@IF($E4($E8(1),1),[@SWITCH([@SHEET(itemData,11000004,41)],[@COLOR(#fff3f3f3)],[@COLOR(#ffc0ffa0)],[@COLOR(#ff60c8ff)],[@COLOR(#ffb38cff)],[@COLOR(#ffffa666)],[@COLOR(#ffe5dd7e)])][@EDGECOLOR(#ff262626)][@SHEETDE(xtx/itemName,1,11000004,1,4,1)][@EDGECOLOR($EC)][@COLOR($EC)],[@SWITCH([@SHEET(itemData,11000008,41)],[@COLOR(#fff3f3f3)],[@COLOR(#ffc0ffa0)],[@COLOR(#ff60c8ff)],[@COLOR(#ffb38cff)],[@COLOR(#ffffa666)],[@COLOR(#ffe5dd7e)])][@EDGECOLOR(#ff262626)][@SHEETDE(xtx/itemName,1,11000008,1,4,1)][@EDGECOLOR($EC)][@COLOR($EC)])] an, ja? Ich warte hier.","Je veux d'abord voir ce que tu vaux. Fabrique [@IF($E4($E8(1),1),[@SWITCH([@SHEET(itemData,11000004,41)],[@COLOR(#fff3f3f3)],[@COLOR(#ffc0ffa0)],[@COLOR(#ff60c8ff)],[@COLOR(#ffb38cff)],[@COLOR(#ffffa666)],[@COLOR(#ffe5dd7e)])][@EDGECOLOR(#ff262626)][@SHEETFR(xtx/itemName,1,11000004,1,1)][@EDGECOLOR($EC)][@COLOR($EC)],[@SWITCH([@SHEET(itemData,11000008,41)],[@COLOR(#fff3f3f3)],[@COLOR(#ffc0ffa0)],[@COLOR(#ff60c8ff)],[@COLOR(#ffb38cff)],[@COLOR(#ffffa666)],[@COLOR(#ffe5dd7e)])][@EDGECOLOR(#ff262626)][@SHEETFR(xtx/itemName,1,11000008,1,1)][@EDGECOLOR($EC)][@COLOR($EC)])] et reviens me voir quand tu auras fini.","我想看看[@SPLIT([@STRING($EB(1))], ,1)][@CR]的能力到什么程度。[@CR]你来做一个“[@IF($E4($E8(1),1),[@SWITCH([@SHEET(itemData,11000004,41)],[@COLOR(#fff3f3f3)],[@COLOR(#ffc0ffa0)],[@COLOR(#ff60c8ff)],[@COLOR(#ffb38cff)],[@COLOR(#ffffa666)],[@COLOR(#ffe5dd7e)])][@EDGECOLOR(#ff262626)][@SHEET(xtx/itemName,11000004,131)][@EDGECOLOR($EC)][@COLOR($EC)],[@SWITCH([@SHEET(itemData,11000008,41)],[@COLOR(#fff3f3f3)],[@COLOR(#ffc0ffa0)],[@COLOR(#ff60c8ff)],[@COLOR(#ffb38cff)],[@COLOR(#ffffa666)],[@COLOR(#ffe5dd7e)])][@EDGECOLOR(#ff262626)][@SHEET(xtx/itemName,11000008,131)][@EDGECOLOR($EC)][@COLOR($EC)])]”，拿过来吧。"
62,うーむ、こんなものかの。[@CR]ちょっとがっかりな出来映えじゃ。,"Eh? 'Nother 'nitiate, are ye? No? Then what in the Builder's name do ye call this? Ain't no smitty with a whit o' pride'd dare claim this work fer [@IF($E9(4),her,his)] own.",Hm ... Ich hätte wohl nicht gleich zu viel von dir erwarten sollen.,Oh... Je dois dire que je te pensais capable de bien mieux.,嗯，就这样吗？[@CR]有些让人失望啊。
63,"ぐーんと上達するための修行じゃぞい。[@CR]作るのはかなり難しいがの、「[@SWITCH([@SHEET(itemData,11000005,41)],[@COLOR(#fff3f3f3)],[@COLOR(#ffc0ffa0)],[@COLOR(#ff60c8ff)],[@COLOR(#ffb38cff)],[@COLOR(#ffffa666)],[@COLOR(#ffe5dd7e)])][@EDGECOLOR(#ff262626)][@SHEET(xtx/itemName,11000005,4)][@EDGECOLOR($EC)][@COLOR($EC)]」を作るとよかよか。","Mayhaps a few moons facin' the flames of a forge'll right ye. To put it plain-like, ye needs some practice─and what better way t' sharpen up the dullest o' skills than by craftin' [@SWITCH([@SHEET(itemData,11000005,41)],[@COLOR(#fff3f3f3)],[@COLOR(#ffc0ffa0)],[@COLOR(#ff60c8ff)],[@COLOR(#ffb38cff)],[@COLOR(#ffffa666)],[@COLOR(#ffe5dd7e)])][@EDGECOLOR(#ff262626)][@SHEETEN(xtx/itemName,1,11000005,1,1)][@EDGECOLOR($EC)][@COLOR($EC)]?","Es ist halt noch kein Meister vom Himmel gefallen.[@CR]Du solltest ein paar [@SWITCH([@SHEET(itemData,11000005,41)],[@COLOR(#fff3f3f3)],[@COLOR(#ffc0ffa0)],[@COLOR(#ff60c8ff)],[@COLOR(#ffb38cff)],[@COLOR(#ffffa666)],[@COLOR(#ffe5dd7e)])][@EDGECOLOR(#ff262626)][@SHEETDE(xtx/itemName,5,11000005,2,1,1)][@EDGECOLOR($EC)][@COLOR($EC)] herstellen. Nichts ist besser zum Üben geeignet.","Tu dois encore progresser[@1D]! Tiens, pour t'entraîner, tu vas me fabriquer [@SWITCH([@SHEET(itemData,11000005,41)],[@COLOR(#fff3f3f3)],[@COLOR(#ffc0ffa0)],[@COLOR(#ff60c8ff)],[@COLOR(#ffb38cff)],[@COLOR(#ffffa666)],[@COLOR(#ffe5dd7e)])][@EDGECOLOR(#ff262626)][@SHEETFR(xtx/itemName,1,11000005,1,1)][@EDGECOLOR($EC)][@COLOR($EC)]. Ce n'est pas un travail aisé, mais tu apprendras sûrement beaucoup en t'y attelant.","这是为了有明显提高的修行。[@CR]去做制作起来非常困难的“[@SWITCH([@SHEET(itemData,11000005,41)],[@COLOR(#fff3f3f3)],[@COLOR(#ffc0ffa0)],[@COLOR(#ff60c8ff)],[@COLOR(#ffb38cff)],[@COLOR(#ffffa666)],[@COLOR(#ffe5dd7e)])][@EDGECOLOR(#ff262626)][@SHEET(xtx/itemName,11000005,131)][@EDGECOLOR($EC)][@COLOR($EC)]”。"
64,作り方は、おてんばイオファ先生に教えてもらうぞい。,"That oaf of a smith, Iofa, will have th' recipe handy, I should think. Now bugger off!",Frage Iofa wegen der Anleitung.,"Pour savoir comment faire, demande à Iofa.",制作方法去找活泼的伊奥珐老师教你吧。
65,初心者のわりには、なかなかよくできたぞい。,"Eh? Who'd ye say ye was, again? 'Nother 'nitiate? [@STRING($EB(1))]? Can't say I heard the name before. Then again, I can't well recall what it was I broke me fast on, so... What? 'Nother 'nitiate? What'd ye bring me?",Also für einen Anfänger ist das gar nicht mal schlecht.,"Hum, ça n'est pas mal du tout pour [@IF($E9(4),une débutante,un débutant)].",作为新手来说做得很不错了。
66,"もう一歩、上達するためにちょっと難しい事に挑戦してもらうぞい。[@CR]「[@SWITCH([@SHEET(itemData,11000006,41)],[@COLOR(#fff3f3f3)],[@COLOR(#ffc0ffa0)],[@COLOR(#ff60c8ff)],[@COLOR(#ffb38cff)],[@COLOR(#ffffa666)],[@COLOR(#ffe5dd7e)])][@EDGECOLOR(#ff262626)][@SHEET(xtx/itemName,11000006,4)][@EDGECOLOR($EC)][@COLOR($EC)]」の作り方を、[@CR]誇り高いコルソン先生に教えてもらうとよかよか。","Hm... It ain't half-bad, but I wouldn't go as far as callin' it half-good. Mayhaps ye require a challenge what'll really test the temper o' yer skills. How's about ye pound us out [@SWITCH([@SHEET(itemData,11000006,41)],[@COLOR(#fff3f3f3)],[@COLOR(#ffc0ffa0)],[@COLOR(#ff60c8ff)],[@COLOR(#ffb38cff)],[@COLOR(#ffffa666)],[@COLOR(#ffe5dd7e)])][@EDGECOLOR(#ff262626)][@SHEETEN(xtx/itemName,1,11000006,1,1)][@EDGECOLOR($EC)][@COLOR($EC)]? Young Colson'll learn ye the parts ye'll need.","Du solltest dich langsam an etwas Schwierigerem versuchen ... zum Beispiel [@SWITCH([@SHEET(itemData,11000006,41)],[@COLOR(#fff3f3f3)],[@COLOR(#ffc0ffa0)],[@COLOR(#ff60c8ff)],[@COLOR(#ffb38cff)],[@COLOR(#ffffa666)],[@COLOR(#ffe5dd7e)])][@EDGECOLOR(#ff262626)][@SHEETDE(xtx/itemName,1,11000006,1,3,1)][@EDGECOLOR($EC)][@COLOR($EC)]. Red mal mit Colson, er wird dir erklären, wie es geht.","Mais il te reste encore beaucoup à apprendre[@1D]! Et si tu essayais de con[@16]fec[@16]tion[@16]ner [@SWITCH([@SHEET(itemData,11000006,41)],[@COLOR(#fff3f3f3)],[@COLOR(#ffc0ffa0)],[@COLOR(#ff60c8ff)],[@COLOR(#ffb38cff)],[@COLOR(#ffffa666)],[@COLOR(#ffe5dd7e)])][@EDGECOLOR(#ff262626)][@SHEETFR(xtx/itemName,1,11000006,1,1)][@EDGECOLOR($EC)][@COLOR($EC)][@1D]? Je suis sûr que ça sera un exercice intéressant pour toi. Colson, dehors, te donnera les in[@16]struc[@16]tions nécessaires.","为了进一步提高能力让你挑战难一点的工作吧。[@CR]让骄傲的科尔森老师告诉你“[@SWITCH([@SHEET(itemData,11000006,41)],[@COLOR(#fff3f3f3)],[@COLOR(#ffc0ffa0)],[@COLOR(#ff60c8ff)],[@COLOR(#ffb38cff)],[@COLOR(#ffffa666)],[@COLOR(#ffe5dd7e)])][@EDGECOLOR(#ff262626)][@SHEET(xtx/itemName,11000006,131)][@EDGECOLOR($EC)][@COLOR($EC)]”的制作方法吧"
67,これは、すごいぞい！[@CR]初心者でこれだけ良い物を作れるとはの、ミミドアたまげったじゃぞい！,"Eh? Where'd ye crawl in from? I don't recall sendin' for no 'nitiates. Eh? [@STRING($EB(1))]? I once knew a [@SPLIT([@STRING($EB(1))], ,1)] back when I served on the [@1A(1)]Cloud Dancer[@1A(0)]. [@IF($E9(4),She was a buxom young lass with eyes as big an' round as ogre pumpkins,He was a strappin' young lad wi' teeth as white as a princess's paps)]. Ye ain't [@IF($E9(4),her,him)], though. Nose ain't quite right... And who are ye, again? Ah, got somethin' fer me, has ye?","Da hau mir doch einer auf den Finger! Unglaulich. Man könnte meinen, dass du schon seit Jahren schmiedest.","Quelle surprise, c'est prodigieux[@1D]! Je ne crois pas avoir déjà vu un débutant capable d'un travail d'une aussi bonne qualité.",这真是太厉害了！[@CR]新手能够做出这么好的东西，我也吓了一跳呢！
68,"その才能を活かして[@CR]「[@SWITCH([@SHEET(itemData,11000007,41)],[@COLOR(#fff3f3f3)],[@COLOR(#ffc0ffa0)],[@COLOR(#ff60c8ff)],[@COLOR(#ffb38cff)],[@COLOR(#ffffa666)],[@COLOR(#ffe5dd7e)])][@EDGECOLOR(#ff262626)][@SHEET(xtx/itemName,11000007,4)][@EDGECOLOR($EC)][@COLOR($EC)]」を作ってほしいぞい。[@CR]実はあくどいソソゼ先生に話しかけてみるとよかよか。","Hmmm... Fine work fer a 'nitiate... A little too fine... Buy this at the markets, did ye? Well, then it proves ye can tell gems from junk...which can't be said o' many. Mayhaps ye're ready t' try yer hand at [@SWITCH([@SHEET(itemData,11000007,41)],[@COLOR(#fff3f3f3)],[@COLOR(#ffc0ffa0)],[@COLOR(#ff60c8ff)],[@COLOR(#ffb38cff)],[@COLOR(#ffffa666)],[@COLOR(#ffe5dd7e)])][@EDGECOLOR(#ff262626)][@SHEETEN(xtx/itemName,1,11000007,1,1)][@EDGECOLOR($EC)][@COLOR($EC)]. Won't find more'n a handful o' 'nitiates in the forge who're up to the task, but Sosoze can learn ye what needs learnin'.","Solch seltenes Talent muss gefördert werden. Deshalb möchte ich, dass du mir [@SWITCH([@SHEET(itemData,11000007,41)],[@COLOR(#fff3f3f3)],[@COLOR(#ffc0ffa0)],[@COLOR(#ff60c8ff)],[@COLOR(#ffb38cff)],[@COLOR(#ffffa666)],[@COLOR(#ffe5dd7e)])][@EDGECOLOR(#ff262626)][@SHEETDE(xtx/itemName,1,11000007,1,4,1)][@EDGECOLOR($EC)][@COLOR($EC)] anfertigst.[@CR]Meister Sosoze hat sicherlich ein paar gute Ratschläge für dich übrig.","Es-tu capable de faire encore mieux[@1D]? Cette fois-ci, j'ai un défi à la hauteur de ton talent à te proposer. Tu vas devoir fabriquer [@SWITCH([@SHEET(itemData,11000007,41)],[@COLOR(#fff3f3f3)],[@COLOR(#ffc0ffa0)],[@COLOR(#ff60c8ff)],[@COLOR(#ffb38cff)],[@COLOR(#ffffa666)],[@COLOR(#ffe5dd7e)])][@EDGECOLOR(#ff262626)][@SHEETFR(xtx/itemName,1,11000007,1,1)][@EDGECOLOR($EC)][@COLOR($EC)], et crois-moi, ce n'est pas une mince affaire. Sosoze saura t'apprendre la méthode.","好好利用你的才能去做[@CR]“[@SWITCH([@SHEET(itemData,11000006,41)],[@COLOR(#fff3f3f3)],[@COLOR(#ffc0ffa0)],[@COLOR(#ff60c8ff)],[@COLOR(#ffb38cff)],[@COLOR(#ffffa666)],[@COLOR(#ffe5dd7e)])][@EDGECOLOR(#ff262626)][@SHEET(xtx/itemName,11000006,131)][@EDGECOLOR($EC)][@COLOR($EC)]”吧。[@CR]你可以去问问阴险的索索泽老师。"
69,うーむ、こんなものかの。[@CR]ちょっとがっかりな出来映えじゃ。,"Eh? Another 'nitiate, are ye? No? Then what in the Builder's name do ye call this? Ain't no armorer with a whit o' pride'd dare claim this work fer [@IF($E9(4),her,his)] own.",Hm ... Selbst von einem Naseweis wie dir hätte ich eigentlich eine bessere Arbeit erwartet.,Oh... Je dois dire que je te pensais capable de bien mieux.,嗯，就这样吗？[@CR]有些让人失望啊。
70,"ぐーんと上達するための修行じゃぞい。[@CR]作るのはかなり難しいがの、「[@SWITCH([@SHEET(itemData,11000009,41)],[@COLOR(#fff3f3f3)],[@COLOR(#ffc0ffa0)],[@COLOR(#ff60c8ff)],[@COLOR(#ffb38cff)],[@COLOR(#ffffa666)],[@COLOR(#ffe5dd7e)])][@EDGECOLOR(#ff262626)][@SHEET(xtx/itemName,11000009,4)][@EDGECOLOR($EC)][@COLOR($EC)]」を作るとよかよか。","Mayhaps a few moons facin' the flames of a forge'll right ye. To put it plain-like, ye needs some practice─and what better way t' sharpen up the dullest o' skills than by craftin' [@SWITCH([@SHEET(itemData,11000009,41)],[@COLOR(#fff3f3f3)],[@COLOR(#ffc0ffa0)],[@COLOR(#ff60c8ff)],[@COLOR(#ffb38cff)],[@COLOR(#ffffa666)],[@COLOR(#ffe5dd7e)])][@EDGECOLOR(#ff262626)][@SHEETEN(xtx/itemName,1,11000009,1,1)][@EDGECOLOR($EC)][@COLOR($EC)]?","Da müssen wir wohl ganz klein anfangen. Warum machst du mir nicht erst mal ein paar [@SWITCH([@SHEET(itemData,11000009,41)],[@COLOR(#fff3f3f3)],[@COLOR(#ffc0ffa0)],[@COLOR(#ff60c8ff)],[@COLOR(#ffb38cff)],[@COLOR(#ffffa666)],[@COLOR(#ffe5dd7e)])][@EDGECOLOR(#ff262626)][@SHEETDE(xtx/itemName,5,11000009,2,1,1)][@EDGECOLOR($EC)][@COLOR($EC)], hm?","Tu dois encore progresser[@1D]! Tiens, pour t'entraîner, tu vas me fabriquer [@SWITCH([@SHEET(itemData,11000009,41)],[@COLOR(#fff3f3f3)],[@COLOR(#ffc0ffa0)],[@COLOR(#ff60c8ff)],[@COLOR(#ffb38cff)],[@COLOR(#ffffa666)],[@COLOR(#ffe5dd7e)])][@EDGECOLOR(#ff262626)][@SHEETFR(xtx/itemName,1,11000009,1,1)][@EDGECOLOR($EC)][@COLOR($EC)]. Ce n'est pas un travail aisé, mais tu apprendras sûrement beaucoup en t'y attelant.","这是为了有明显提高的修行。[@CR]去做制作起来非常困难的“[@SWITCH([@SHEET(itemData,11000009,41)],[@COLOR(#fff3f3f3)],[@COLOR(#ffc0ffa0)],[@COLOR(#ff60c8ff)],[@COLOR(#ffb38cff)],[@COLOR(#ffffa666)],[@COLOR(#ffe5dd7e)])][@EDGECOLOR(#ff262626)][@SHEET(xtx/itemName,11000009,131)][@EDGECOLOR($EC)][@COLOR($EC)]”。"
71,作り方は、慈悲深いトリ―ヌ先生に教えてもらうぞい。,"That sweet-legged Trinne'll have th' recipe handy, she will. Now scoot!",Frag Trinne wegen der Anleitung.,"Pour savoir comment faire, demande à Trinne.",制作方法去找慈爱的特里娜老师问问吧。
72,初心者のわりには、なかなかよくできたぞい。,"Eh? Who'd ye say ye was, again? 'Nother 'nitiate? [@STRING($EB(1))]? Can't say I heard the name before. Then again, I can't well recall what it was I broke me fast on, so... What? 'Nother 'nitiate? What'd ye bring me?","Du hast doch gerade erst hier angefangen, oder? Gar nicht mal schlecht!","Hum, ça n'est pas mal du tout pour [@IF($E9(4),une débutante,un débutant)].",作为新手来说做得很不错了。
73,"もう一歩、上達するためにちょっと難しい事に挑戦してもらうぞい。[@CR]「[@SWITCH([@SHEET(itemData,11000010,41)],[@COLOR(#fff3f3f3)],[@COLOR(#ffc0ffa0)],[@COLOR(#ff60c8ff)],[@COLOR(#ffb38cff)],[@COLOR(#ffffa666)],[@COLOR(#ffe5dd7e)])][@EDGECOLOR(#ff262626)][@SHEET(xtx/itemName,11000010,4)][@EDGECOLOR($EC)][@COLOR($EC)]」の作り方を、[@CR]忠実なるシングスミド先生に教えてもらうとよかよか。","Hm... It ain't half-bad, but I wouldn't go as far as callin' it half-good. Mayhaps ye require a challenge to properly test the temper o' yer skills. What say ye knock us out [@SWITCH([@SHEET(itemData,11000010,41)],[@COLOR(#fff3f3f3)],[@COLOR(#ffc0ffa0)],[@COLOR(#ff60c8ff)],[@COLOR(#ffb38cff)],[@COLOR(#ffffa666)],[@COLOR(#ffe5dd7e)])][@EDGECOLOR(#ff262626)][@SHEETEN(xtx/itemName,1,11000010,1,1)][@EDGECOLOR($EC)][@COLOR($EC)]? Syngsmyd Gianthammer'll learn ye the parts ye need.","Als nächsten Schritt in deiner Ausbildung werde ich dich etwas Schwierigeres herstellen lassen.[@CR]Frag Syngsmyd, wie man [@SWITCH([@SHEET(itemData,11000010,41)],[@COLOR(#fff3f3f3)],[@COLOR(#ffc0ffa0)],[@COLOR(#ff60c8ff)],[@COLOR(#ffb38cff)],[@COLOR(#ffffa666)],[@COLOR(#ffe5dd7e)])][@EDGECOLOR(#ff262626)][@SHEETDE(xtx/itemName,1,11000010,1,4,1)][@EDGECOLOR($EC)][@COLOR($EC)] anfertigt, und dann mach dich an die Arbeit!","Mais il te reste encore beaucoup à apprendre[@1D]! Et si tu essayais de con[@16]fec[@16]tion[@16]ner [@SWITCH([@SHEET(itemData,11000010,41)],[@COLOR(#fff3f3f3)],[@COLOR(#ffc0ffa0)],[@COLOR(#ff60c8ff)],[@COLOR(#ffb38cff)],[@COLOR(#ffffa666)],[@COLOR(#ffe5dd7e)])][@EDGECOLOR(#ff262626)][@SHEETFR(xtx/itemName,1,11000010,1,1)][@EDGECOLOR($EC)][@COLOR($EC)][@1D]? Je suis sûr que ça sera un exercice intéressant pour toi. Syngsmyd, dehors, te donnera les in[@16]struc[@16]tions nécessaires.","为了进一步提高能力让你挑战难一点的工作吧。[@CR]让忠诚的兴斯密德老师交给你“[@SWITCH([@SHEET(itemData,11000010,41)],[@COLOR(#fff3f3f3)],[@COLOR(#ffc0ffa0)],[@COLOR(#ff60c8ff)],[@COLOR(#ffb38cff)],[@COLOR(#ffffa666)],[@COLOR(#ffe5dd7e)])][@EDGECOLOR(#ff262626)][@SHEET(xtx/itemName,11000010,131)][@EDGECOLOR($EC)][@COLOR($EC)]”的制作方法吧"
74,これは、すごいぞい！[@CR]初心者でこれだけ良い物を作れるとはの、ミミドアたまげったじゃぞい！,"Eh? Where'd ye crawl in from? I don't recall sendin' for no 'nitiates. You another 'nitiate? Eh? [@STRING($EB(1))]? I once knew a [@SPLIT([@STRING($EB(1))], ,1)] back when I served on the [@1A(1)]Dolorous Dame[@1A(0)]. [@IF($E9(4),She was a sweet young lass with skin as soft as phoenix down,He was a lanky young lad with eyes as blue as the Indigo Deep)]. Ye ain't [@IF($E9(4),her,him)], though. Ears ain't quite right... And who do ye say ye are, again? Ah, ye got something fer me?","Da beißt mich doch die Zange! Eine solche Meisterleistung sieht man selten von jemandem, der noch mitten in der Ausbildung steckt.","Quelle surprise, c'est prodigieux[@1D]! Je ne crois pas avoir déjà vu un débutant capable d'un travail d'une aussi bonne qualité.",这真是太厉害了！[@CR]新手能够做出这么好的东西，我也吓了一跳呢！
75,"その才能を活かして[@CR]「[@SWITCH([@SHEET(itemData,11000011,41)],[@COLOR(#fff3f3f3)],[@COLOR(#ffc0ffa0)],[@COLOR(#ff60c8ff)],[@COLOR(#ffb38cff)],[@COLOR(#ffffa666)],[@COLOR(#ffe5dd7e)])][@EDGECOLOR(#ff262626)][@SHEET(xtx/itemName,11000011,4)][@EDGECOLOR($EC)][@COLOR($EC)]」を作ってほしいぞい。[@CR]実はあくどいヒヒネ先生に話しかけてみるとよかよか。","Hmmm... Fine work fer a 'nitiate... A little too fine... Buy this at the markets, did ye? Well, then it proves ye can tell gems from junk...which can't be said o' many. Mayhaps ye're ready t' try yer hand at [@SWITCH([@SHEET(itemData,11000011,41)],[@COLOR(#fff3f3f3)],[@COLOR(#ffc0ffa0)],[@COLOR(#ff60c8ff)],[@COLOR(#ffb38cff)],[@COLOR(#ffffa666)],[@COLOR(#ffe5dd7e)])][@EDGECOLOR(#ff262626)][@SHEETEN(xtx/itemName,1,11000011,1,1)][@EDGECOLOR($EC)][@COLOR($EC)]. Won't find more'n a handful o' 'nitiates in the forge who're up to the task, but Hihine can learn ye what needs learnin'.","Solch ein Talent muss natürlich gefördert werden. Ich möchte, dass du mir [@SWITCH([@SHEET(itemData,11000011,41)],[@COLOR(#fff3f3f3)],[@COLOR(#ffc0ffa0)],[@COLOR(#ff60c8ff)],[@COLOR(#ffb38cff)],[@COLOR(#ffffa666)],[@COLOR(#ffe5dd7e)])][@EDGECOLOR(#ff262626)][@SHEETDE(xtx/itemName,1,11000011,1,4,1)][@EDGECOLOR($EC)][@COLOR($EC)] machst. Hihine wird dir erklären, wie du das anstellst.","Es-tu capable de faire encore mieux[@1D]? Cette fois-ci, j'ai un défi à la hauteur de ton talent à te proposer. Tu vas devoir fabriquer [@SWITCH([@SHEET(itemData,11000011,41)],[@COLOR(#fff3f3f3)],[@COLOR(#ffc0ffa0)],[@COLOR(#ff60c8ff)],[@COLOR(#ffb38cff)],[@COLOR(#ffffa666)],[@COLOR(#ffe5dd7e)])][@EDGECOLOR(#ff262626)][@SHEETFR(xtx/itemName,1,11000011,1,1)][@EDGECOLOR($EC)][@COLOR($EC)], et crois-moi, ce n'est pas une mince affaire. Hihine saura t'apprendre la méthode.","好好利用你的才能去做[@CR]“[@SWITCH([@SHEET(itemData,11000011,41)],[@COLOR(#fff3f3f3)],[@COLOR(#ffc0ffa0)],[@COLOR(#ff60c8ff)],[@COLOR(#ffb38cff)],[@COLOR(#ffffa666)],[@COLOR(#ffe5dd7e)])][@EDGECOLOR(#ff262626)][@SHEET(xtx/itemName,11000011,131)][@EDGECOLOR($EC)][@COLOR($EC)]”吧。[@CR]你可以去问问阴险的希希奈老师。"
76,まだかのう。まだかのう。待ちくたびれるのう。,Eh? Ye done yet? I'm not gettin' any younger.,Du bist noch immer nicht fertig? Wie lange willst du einen Mann in meinem Alter denn noch warten lassen?,Tu n'as pas encore terminé[@1D]? Je commence à être fatigué d'attendre...,还没好吗？还没好吗？等得脖子都长了。
77,うふふ、あたしに師事できるなんて、鍛冶の道を選んで正解だったわね。,Praise the Builder he gave you the sense to become a smitty. Wouldn't have been another way to learn from Iofa Ironeye.,"Dass ich einmal unterrichten würde ...[@CR]Grobschmied zu werden, war eine gute Entscheidung! Hehehe.","Tu te rends compte la chance que tu as de m'avoir comme professeur[@1D]? Tu as bien fait de devenir [@IF($E9(4),forgeronne,forgeron)], hihi.",嘻嘻，你拜我为师走上锻铁的道路是正确的。
78,"「[@SWITCH([@SHEET(itemData,11000005,41)],[@COLOR(#fff3f3f3)],[@COLOR(#ffc0ffa0)],[@COLOR(#ff60c8ff)],[@COLOR(#ffb38cff)],[@COLOR(#ffffa666)],[@COLOR(#ffe5dd7e)])][@EDGECOLOR(#ff262626)][@SHEET(xtx/itemName,11000005,4)][@EDGECOLOR($EC)][@COLOR($EC)]」の作り方を教えてあげるから、頑張るのよ。[@CR]「[@SWITCH([@SHEET(itemData,10002011,41)],[@COLOR(#fff3f3f3)],[@COLOR(#ffc0ffa0)],[@COLOR(#ff60c8ff)],[@COLOR(#ffb38cff)],[@COLOR(#ffffa666)],[@COLOR(#ffe5dd7e)])][@EDGECOLOR(#ff262626)][@SHEET(xtx/itemName,10002011,4)][@EDGECOLOR($EC)][@COLOR($EC)]」を3つ用意してね。","Now, I can provide you the recipe for [@SWITCH([@SHEET(itemData,11000005,41)],[@COLOR(#fff3f3f3)],[@COLOR(#ffc0ffa0)],[@COLOR(#ff60c8ff)],[@COLOR(#ffb38cff)],[@COLOR(#ffffa666)],[@COLOR(#ffe5dd7e)])][@EDGECOLOR(#ff262626)][@SHEETEN(xtx/itemName,2,11000005,1,1)][@EDGECOLOR($EC)][@COLOR($EC)], but you're on your own finding the three [@SWITCH([@SHEET(itemData,10002011,41)],[@COLOR(#fff3f3f3)],[@COLOR(#ffc0ffa0)],[@COLOR(#ff60c8ff)],[@COLOR(#ffb38cff)],[@COLOR(#ffffa666)],[@COLOR(#ffe5dd7e)])][@EDGECOLOR(#ff262626)][@SHEETEN(xtx/itemName,1,10002011,3,1)][@EDGECOLOR($EC)][@COLOR($EC)] needed to make it. I'm ten parts metallurgist and no part philanthropist.","Wie du [@SWITCH([@SHEET(itemData,11000005,41)],[@COLOR(#fff3f3f3)],[@COLOR(#ffc0ffa0)],[@COLOR(#ff60c8ff)],[@COLOR(#ffb38cff)],[@COLOR(#ffffa666)],[@COLOR(#ffe5dd7e)])][@EDGECOLOR(#ff262626)][@SHEETDE(xtx/itemName,5,11000005,2,1,1)][@EDGECOLOR($EC)][@COLOR($EC)] herstellen kannst, werde ich dir verraten. Du solltest dir zuerst einmal drei [@SWITCH([@SHEET(itemData,10002011,41)],[@COLOR(#fff3f3f3)],[@COLOR(#ffc0ffa0)],[@COLOR(#ff60c8ff)],[@COLOR(#ffb38cff)],[@COLOR(#ffffa666)],[@COLOR(#ffe5dd7e)])][@EDGECOLOR(#ff262626)][@SHEETDE(xtx/itemName,5,10002011,2,4,1)][@EDGECOLOR($EC)][@COLOR($EC)] besorgen.","Je veux bien t'apprendre comment fabriquer [@SWITCH([@SHEET(itemData,11000005,41)],[@COLOR(#fff3f3f3)],[@COLOR(#ffc0ffa0)],[@COLOR(#ff60c8ff)],[@COLOR(#ffb38cff)],[@COLOR(#ffffa666)],[@COLOR(#ffe5dd7e)])][@EDGECOLOR(#ff262626)][@SHEETFR(xtx/itemName,1,11000005,1,1)][@EDGECOLOR($EC)][@COLOR($EC)]. Pour ça, tu auras besoin de trois [@SWITCH([@SHEET(itemData,10002011,41)],[@COLOR(#fff3f3f3)],[@COLOR(#ffc0ffa0)],[@COLOR(#ff60c8ff)],[@COLOR(#ffb38cff)],[@COLOR(#ffffa666)],[@COLOR(#ffe5dd7e)])][@EDGECOLOR(#ff262626)][@SHEETFR(xtx/itemName,12,10002011,2,1)][@EDGECOLOR($EC)][@COLOR($EC)]. Promets-moi de faire de ton mieux[@1D]!","我会教你“[@SWITCH([@SHEET(itemData,11000005,41)],[@COLOR(#fff3f3f3)],[@COLOR(#ffc0ffa0)],[@COLOR(#ff60c8ff)],[@COLOR(#ffb38cff)],[@COLOR(#ffffa666)],[@COLOR(#ffe5dd7e)])][@EDGECOLOR(#ff262626)][@SHEET(xtx/itemName,11000005,131)][@EDGECOLOR($EC)][@COLOR($EC)]”的制作方法，你可要加油啊。[@CR]准备3个“[@SWITCH([@SHEET(itemData,10002001,41)],[@COLOR(#fff3f3f3)],[@COLOR(#ffc0ffa0)],[@COLOR(#ff60c8ff)],[@COLOR(#ffb38cff)],[@COLOR(#ffffa666)],[@COLOR(#ffe5dd7e)])][@EDGECOLOR(#ff262626)][@SHEET(xtx/itemName,10002001,131)][@EDGECOLOR($EC)][@COLOR($EC)]”。"
79,"なんだ、新人。「[@SWITCH([@SHEET(itemData,11000006,41)],[@COLOR(#fff3f3f3)],[@COLOR(#ffc0ffa0)],[@COLOR(#ff60c8ff)],[@COLOR(#ffb38cff)],[@COLOR(#ffffa666)],[@COLOR(#ffe5dd7e)])][@EDGECOLOR(#ff262626)][@SHEET(xtx/itemName,11000006,4)][@EDGECOLOR($EC)][@COLOR($EC)]」を作りたいのか？","The halfman have you makin' [@SWITCH([@SHEET(itemData,11000006,41)],[@COLOR(#fff3f3f3)],[@COLOR(#ffc0ffa0)],[@COLOR(#ff60c8ff)],[@COLOR(#ffb38cff)],[@COLOR(#ffffa666)],[@COLOR(#ffe5dd7e)])][@EDGECOLOR(#ff262626)][@SHEETEN(xtx/itemName,1,11000006,1,1)][@EDGECOLOR($EC)][@COLOR($EC)]?","Oh, ein neues Gesicht. Hm?! Du möchtest [@SWITCH([@SHEET(itemData,11000006,41)],[@COLOR(#fff3f3f3)],[@COLOR(#ffc0ffa0)],[@COLOR(#ff60c8ff)],[@COLOR(#ffb38cff)],[@COLOR(#ffffa666)],[@COLOR(#ffe5dd7e)])][@EDGECOLOR(#ff262626)][@SHEETDE(xtx/itemName,1,11000006,1,4,1)][@EDGECOLOR($EC)][@COLOR($EC)] herstellen?","Tiens, [@IF($E9(4),la nouvelle,le nouveau)], comment ça va[@1D]? Ah, tu veux fabriquer [@SWITCH([@SHEET(itemData,11000006,41)],[@COLOR(#fff3f3f3)],[@COLOR(#ffc0ffa0)],[@COLOR(#ff60c8ff)],[@COLOR(#ffb38cff)],[@COLOR(#ffffa666)],[@COLOR(#ffe5dd7e)])][@EDGECOLOR(#ff262626)][@SHEETFR(xtx/itemName,1,11000006,1,1)][@EDGECOLOR($EC)][@COLOR($EC)][@1D]?","新人，你想做“[@SWITCH([@SHEET(itemData,11000006,41)],[@COLOR(#fff3f3f3)],[@COLOR(#ffc0ffa0)],[@COLOR(#ff60c8ff)],[@COLOR(#ffb38cff)],[@COLOR(#ffffa666)],[@COLOR(#ffe5dd7e)])][@EDGECOLOR(#ff262626)][@SHEET(xtx/itemName,11000006,131)][@EDGECOLOR($EC)][@COLOR($EC)]”吗？"
80,"いいよ、作り方は教えてやる。[@CR]「[@SWITCH([@SHEET(itemData,10002012,41)],[@COLOR(#fff3f3f3)],[@COLOR(#ffc0ffa0)],[@COLOR(#ff60c8ff)],[@COLOR(#ffb38cff)],[@COLOR(#ffffa666)],[@COLOR(#ffe5dd7e)])][@EDGECOLOR(#ff262626)][@SHEET(xtx/itemName,10002012,4)][@EDGECOLOR($EC)][@COLOR($EC)]」が2つ必要だぞ。[@CR]頑張って、いい鍛冶師になって見せろよ！？","Well, listen close, then. I can tell ye what t' do, and that you'll need two [@SWITCH([@SHEET(itemData,10002012,41)],[@COLOR(#fff3f3f3)],[@COLOR(#ffc0ffa0)],[@COLOR(#ff60c8ff)],[@COLOR(#ffb38cff)],[@COLOR(#ffffa666)],[@COLOR(#ffe5dd7e)])][@EDGECOLOR(#ff262626)][@SHEETEN(xtx/itemName,1,10002012,2,1)][@EDGECOLOR($EC)][@COLOR($EC)] t' do it, but that contraption'll have t' come from yer own hands. Anythin' less, an' Mimidoa'd have yer head, an' mine to boot!","Das ist die richtige Einstellung. Ich werde dir die Anleitung dazu verraten, wenn du versprichst, dich richtig doll anzustrengen. Also, was du brauchst, sind zwei [@SWITCH([@SHEET(itemData,10002012,41)],[@COLOR(#fff3f3f3)],[@COLOR(#ffc0ffa0)],[@COLOR(#ff60c8ff)],[@COLOR(#ffb38cff)],[@COLOR(#ffffa666)],[@COLOR(#ffe5dd7e)])][@EDGECOLOR(#ff262626)][@SHEETDE(xtx/itemName,5,10002012,2,4,1)][@EDGECOLOR($EC)][@COLOR($EC)].","Oui, pas de problème, je vais te communiquer les matériaux nécessaires. Tu auras besoin de deux [@SWITCH([@SHEET(itemData,10002012,41)],[@COLOR(#fff3f3f3)],[@COLOR(#ffc0ffa0)],[@COLOR(#ff60c8ff)],[@COLOR(#ffb38cff)],[@COLOR(#ffffa666)],[@COLOR(#ffe5dd7e)])][@EDGECOLOR(#ff262626)][@SHEETFR(xtx/itemName,12,10002012,2,1)][@EDGECOLOR($EC)][@COLOR($EC)]. J'espère bien que tu deviendras [@IF($E9(4),une forgeronne,un forgeron)] digne de ce nom[@1D]!","好，我来教你制作方法。[@CR]需要2个“[@SWITCH([@SHEET(itemData,10002001,41)],[@COLOR(#fff3f3f3)],[@COLOR(#ffc0ffa0)],[@COLOR(#ff60c8ff)],[@COLOR(#ffb38cff)],[@COLOR(#ffffa666)],[@COLOR(#ffe5dd7e)])][@EDGECOLOR(#ff262626)][@SHEET(xtx/itemName,10002001,131)][@EDGECOLOR($EC)][@COLOR($EC)]”。[@CR]努力成为优秀的锻铁匠让我看看吧！"
81,困ったわねぇ～。いい気になっちゃってるみたいだわね～。,"A crimson conflagration of confidence burns bright in the bosom of this budding blacksmith. But just because you coaxed mirthful Mimidoa into commending your craftsmanship, it does not mean you have mastered that which you have come here seeking to master.",Überschätzt sich da vielleicht jemand ein wenig?,"Dites-donc, je vous trouve bien enthousiaste...",真是头疼啊。你好像很有干劲啊。
82,"一回くらい成功しただけで、甘く見ちゃだめよ～。[@CR]「[@SWITCH([@SHEET(itemData,11000007,41)],[@COLOR(#fff3f3f3)],[@COLOR(#ffc0ffa0)],[@COLOR(#ff60c8ff)],[@COLOR(#ffb38cff)],[@COLOR(#ffffa666)],[@COLOR(#ffe5dd7e)])][@EDGECOLOR(#ff262626)][@SHEET(xtx/itemName,11000007,4)][@EDGECOLOR($EC)][@COLOR($EC)]」の作り方は、教えてあげちゃうけど～。[@CR]「[@SWITCH([@SHEET(itemData,10002012,41)],[@COLOR(#fff3f3f3)],[@COLOR(#ffc0ffa0)],[@COLOR(#ff60c8ff)],[@COLOR(#ffb38cff)],[@COLOR(#ffffa666)],[@COLOR(#ffe5dd7e)])][@EDGECOLOR(#ff262626)][@SHEET(xtx/itemName,10002012,4)][@EDGECOLOR($EC)][@COLOR($EC)]」が3つ必要よ～。","No matter how skilled a [@IF($E9(4),woman,man)] you truly are, no one will pay you a second glance until given good reason to do so. Now I most solemnly suggest you lend me your ear and listen while I leave you with this lesson on the mysteries of [@SWITCH([@SHEET(itemData,11000007,41)],[@COLOR(#fff3f3f3)],[@COLOR(#ffc0ffa0)],[@COLOR(#ff60c8ff)],[@COLOR(#ffb38cff)],[@COLOR(#ffffa666)],[@COLOR(#ffe5dd7e)])][@EDGECOLOR(#ff262626)][@SHEETEN(xtx/itemName,2,11000007,1,1)][@EDGECOLOR($EC)][@COLOR($EC)]. First, you must prepare three [@SWITCH([@SHEET(itemData,10002012,41)],[@COLOR(#fff3f3f3)],[@COLOR(#ffc0ffa0)],[@COLOR(#ff60c8ff)],[@COLOR(#ffb38cff)],[@COLOR(#ffffa666)],[@COLOR(#ffe5dd7e)])][@EDGECOLOR(#ff262626)][@SHEETEN(xtx/itemName,1,10002012,3,1)][@EDGECOLOR($EC)][@COLOR($EC)]...","Wie du [@SWITCH([@SHEET(itemData,11000007,41)],[@COLOR(#fff3f3f3)],[@COLOR(#ffc0ffa0)],[@COLOR(#ff60c8ff)],[@COLOR(#ffb38cff)],[@COLOR(#ffffa666)],[@COLOR(#ffe5dd7e)])][@EDGECOLOR(#ff262626)][@SHEETDE(xtx/itemName,1,11000007,1,4,1)][@EDGECOLOR($EC)][@COLOR($EC)] herstellst, kann ich dir gerne erklären, aber stell dir das bloß nicht so einfach vor.[@CR]Du brauchst dafür [@SWITCH([@SHEET(itemData,10002012,41)],[@COLOR(#fff3f3f3)],[@COLOR(#ffc0ffa0)],[@COLOR(#ff60c8ff)],[@COLOR(#ffb38cff)],[@COLOR(#ffffa666)],[@COLOR(#ffe5dd7e)])][@EDGECOLOR(#ff262626)][@SHEETDE(xtx/itemName,1,10002012,3,4,1)][@EDGECOLOR($EC)][@COLOR($EC)].","Vous avez peut-être im[@16]pres[@16]sion[@16]né Mimidoa, mais ne vous faites pas trop d'illusions, le chemin est encore long[@1D]! Nous allons voir si vous êtes capable de fabriquer [@SWITCH([@SHEET(itemData,11000007,41)],[@COLOR(#fff3f3f3)],[@COLOR(#ffc0ffa0)],[@COLOR(#ff60c8ff)],[@COLOR(#ffb38cff)],[@COLOR(#ffffa666)],[@COLOR(#ffe5dd7e)])][@EDGECOLOR(#ff262626)][@SHEETFR(xtx/itemName,1,11000007,1,1)][@EDGECOLOR($EC)][@COLOR($EC)]... Tenez, je suis bonne, je vous apprends les matériaux nécessaires. Alors, vous aurez besoin de trois [@SWITCH([@SHEET(itemData,10002012,41)],[@COLOR(#fff3f3f3)],[@COLOR(#ffc0ffa0)],[@COLOR(#ff60c8ff)],[@COLOR(#ffb38cff)],[@COLOR(#ffffa666)],[@COLOR(#ffe5dd7e)])][@EDGECOLOR(#ff262626)][@SHEETFR(xtx/itemName,12,10002012,2,1)][@EDGECOLOR($EC)][@COLOR($EC)].","只成功了一次，可不要得意啊。[@CR]我来告诉你“[@SWITCH([@SHEET(itemData,11000007,41)],[@COLOR(#fff3f3f3)],[@COLOR(#ffc0ffa0)],[@COLOR(#ff60c8ff)],[@COLOR(#ffb38cff)],[@COLOR(#ffffa666)],[@COLOR(#ffe5dd7e)])][@EDGECOLOR(#ff262626)][@SHEET(xtx/itemName,11000007,131)][@EDGECOLOR($EC)][@COLOR($EC)]”的制作方法。[@CR]需要2个“[@SWITCH([@SHEET(itemData,10002012,41)],[@COLOR(#fff3f3f3)],[@COLOR(#ffc0ffa0)],[@COLOR(#ff60c8ff)],[@COLOR(#ffb38cff)],[@COLOR(#ffffa666)],[@COLOR(#ffe5dd7e)])][@EDGECOLOR(#ff262626)][@SHEET(xtx/itemName,10002012,131)][@EDGECOLOR($EC)][@COLOR($EC)]”和“[@SWITCH([@SHEET(itemData,10002002,41)],[@COLOR(#fff3f3f3)],[@COLOR(#ffc0ffa0)],[@COLOR(#ff60c8ff)],[@COLOR(#ffb38cff)],[@COLOR(#ffffa666)],[@COLOR(#ffe5dd7e)])][@EDGECOLOR(#ff262626)][@SHEET(xtx/itemName,10002002,131)][@EDGECOLOR($EC)][@COLOR($EC)]”～。[@CR]"
83,甲冑師の作業は、思ったよりも難しいでしょう？[@CR]落ち込まないで、基礎からしっかり練習しなさいね。,"That's alright, friend. Don't worry overmuch on what the chief said. Ain't a man nor woman what don't start out small. Just like a lump o' steel, all ye needs is a sound round o' poundin' t' shape ye into somethin' big, like.","Dein Werdegang als Plattner gestaltet sich schwieriger, als du es erwartet hattest?[@CR]Deshalb brauchst du aber nicht gleich aufzugeben.","Alors, l'armurerie[@1D]? Est-ce plus difficile que vous ne le pensiez[@1D]? Ne vous en faites pas, vous avez tout le temps pour apprendre.",铸甲匠的工作比想象得要难吧？[@CR]不要灰心从基础开始好好练习吧。
84,"ええ、「[@SWITCH([@SHEET(itemData,11000009,41)],[@COLOR(#fff3f3f3)],[@COLOR(#ffc0ffa0)],[@COLOR(#ff60c8ff)],[@COLOR(#ffb38cff)],[@COLOR(#ffffa666)],[@COLOR(#ffe5dd7e)])][@EDGECOLOR(#ff262626)][@SHEET(xtx/itemName,11000009,4)][@EDGECOLOR($EC)][@COLOR($EC)]」の作り方を教えましょう。[@CR]「[@SWITCH([@SHEET(itemData,10002021,41)],[@COLOR(#fff3f3f3)],[@COLOR(#ffc0ffa0)],[@COLOR(#ff60c8ff)],[@COLOR(#ffb38cff)],[@COLOR(#ffffa666)],[@COLOR(#ffe5dd7e)])][@EDGECOLOR(#ff262626)][@SHEET(xtx/itemName,10002021,4)][@EDGECOLOR($EC)][@COLOR($EC)]」が2つ必要ですよ。[@CR]あなたにとって、とてもよい練習になると思います。","And ye can start by [@1A(1)]poundin'[@1A(0)] out [@SWITCH([@SHEET(itemData,11000009,41)],[@COLOR(#fff3f3f3)],[@COLOR(#ffc0ffa0)],[@COLOR(#ff60c8ff)],[@COLOR(#ffb38cff)],[@COLOR(#ffffa666)],[@COLOR(#ffe5dd7e)])][@EDGECOLOR(#ff262626)][@SHEETEN(xtx/itemName,1,11000009,1,1)][@EDGECOLOR($EC)][@COLOR($EC)]. Listen close now. Ye'll first need to find yerself two [@SWITCH([@SHEET(itemData,10002021,41)],[@COLOR(#fff3f3f3)],[@COLOR(#ffc0ffa0)],[@COLOR(#ff60c8ff)],[@COLOR(#ffb38cff)],[@COLOR(#ffffa666)],[@COLOR(#ffe5dd7e)])][@EDGECOLOR(#ff262626)][@SHEETEN(xtx/itemName,1,10002021,2,1)][@EDGECOLOR($EC)][@COLOR($EC)]...","Stattdessen solltest du lieber deine Fertigkeit aufpolieren und damit bei den Grundlagen anfangen. Ich erkläre dir, wie du [@SWITCH([@SHEET(itemData,11000009,41)],[@COLOR(#fff3f3f3)],[@COLOR(#ffc0ffa0)],[@COLOR(#ff60c8ff)],[@COLOR(#ffb38cff)],[@COLOR(#ffffa666)],[@COLOR(#ffe5dd7e)])][@EDGECOLOR(#ff262626)][@SHEETDE(xtx/itemName,1,11000009,1,4,1)][@EDGECOLOR($EC)][@COLOR($EC)] herstellen kannst. Das sollte eine gute Übung für dich sein. Alles, was du dafür brauchst, sind [@SWITCH([@SHEET(itemData,10002021,41)],[@COLOR(#fff3f3f3)],[@COLOR(#ffc0ffa0)],[@COLOR(#ff60c8ff)],[@COLOR(#ffb38cff)],[@COLOR(#ffffa666)],[@COLOR(#ffe5dd7e)])][@EDGECOLOR(#ff262626)][@SHEETDE(xtx/itemName,1,10002021,2,4,1)][@EDGECOLOR($EC)][@COLOR($EC)].","Vous désirez fabriquer [@SWITCH([@SHEET(itemData,11000009,41)],[@COLOR(#fff3f3f3)],[@COLOR(#ffc0ffa0)],[@COLOR(#ff60c8ff)],[@COLOR(#ffb38cff)],[@COLOR(#ffffa666)],[@COLOR(#ffe5dd7e)])][@EDGECOLOR(#ff262626)][@SHEETFR(xtx/itemName,1,11000009,1,1)][@EDGECOLOR($EC)][@COLOR($EC)][@1D]? Bien sûr que je vais vous expliquer comment faire. Vous aurez besoin de deux [@SWITCH([@SHEET(itemData,10002021,41)],[@COLOR(#fff3f3f3)],[@COLOR(#ffc0ffa0)],[@COLOR(#ff60c8ff)],[@COLOR(#ffb38cff)],[@COLOR(#ffffa666)],[@COLOR(#ffe5dd7e)])][@EDGECOLOR(#ff262626)][@SHEETFR(xtx/itemName,12,10002021,2,1)][@EDGECOLOR($EC)][@COLOR($EC)]. C'est un exercice parfait pour votre niveau, croyez-moi[@1D]!","嗯，我来告诉你“[@SWITCH([@SHEET(itemData,11000009,41)],[@COLOR(#fff3f3f3)],[@COLOR(#ffc0ffa0)],[@COLOR(#ff60c8ff)],[@COLOR(#ffb38cff)],[@COLOR(#ffffa666)],[@COLOR(#ffe5dd7e)])][@EDGECOLOR(#ff262626)][@SHEET(xtx/itemName,11000009,131)][@EDGECOLOR($EC)][@COLOR($EC)]”的制作方法。[@CR]需要3个“[@SWITCH([@SHEET(itemData,10003031,41)],[@COLOR(#fff3f3f3)],[@COLOR(#ffc0ffa0)],[@COLOR(#ff60c8ff)],[@COLOR(#ffb38cff)],[@COLOR(#ffffa666)],[@COLOR(#ffe5dd7e)])][@EDGECOLOR(#ff262626)][@SHEET(xtx/itemName,10003031,131)][@EDGECOLOR($EC)][@COLOR($EC)]”。[@CR]我想这对于你来说是个很好的练习。"
85,なかなか、いい腕を見せてくれたそうだな。[@CR]おまえも、甲冑師として食って行けるかもしれん。,"Hear you might have the makings of a fine shipwright. Only time will tell if you can forge a living from your talents, though.",Du scheinst den alten Mimidoa ja beeindruckt zu haben. Wirst dir wohl irgendwann als Plattner dein täglich Brot verdienen können.,"D'après Mimidoa, tu as du potentiel. Si tu persévères, tu te feras peut-être un nom dans l'armurerie, qui sait[@1D]?",让我见识到了不错的本领啊。[@CR]你也许可以吃铸甲匠这碗饭了。
86,"「[@SWITCH([@SHEET(itemData,11000010,41)],[@COLOR(#fff3f3f3)],[@COLOR(#ffc0ffa0)],[@COLOR(#ff60c8ff)],[@COLOR(#ffb38cff)],[@COLOR(#ffffa666)],[@COLOR(#ffe5dd7e)])][@EDGECOLOR(#ff262626)][@SHEET(xtx/itemName,11000010,4)][@EDGECOLOR($EC)][@COLOR($EC)]」の作り方を教えてやろう。[@CR]「[@SWITCH([@SHEET(itemData,10002012,41)],[@COLOR(#fff3f3f3)],[@COLOR(#ffc0ffa0)],[@COLOR(#ff60c8ff)],[@COLOR(#ffb38cff)],[@COLOR(#ffffa666)],[@COLOR(#ffe5dd7e)])][@EDGECOLOR(#ff262626)][@SHEET(xtx/itemName,10002012,4)][@EDGECOLOR($EC)][@COLOR($EC)]」が、2つ必要だ。[@CR][@SPLIT([@STRING($EB(1))], ,1)]ならいい物を作ってくれると信じているぞ。","You can start by trying your hand at [@SWITCH([@SHEET(itemData,11000010,41)],[@COLOR(#fff3f3f3)],[@COLOR(#ffc0ffa0)],[@COLOR(#ff60c8ff)],[@COLOR(#ffb38cff)],[@COLOR(#ffffa666)],[@COLOR(#ffe5dd7e)])][@EDGECOLOR(#ff262626)][@SHEETEN(xtx/itemName,1,11000010,1,1)][@EDGECOLOR($EC)][@COLOR($EC)]. I suppose it shouldn't be too difficult a task, if Master Mimidoa believes you can manage it. Two [@SWITCH([@SHEET(itemData,10002012,41)],[@COLOR(#fff3f3f3)],[@COLOR(#ffc0ffa0)],[@COLOR(#ff60c8ff)],[@COLOR(#ffb38cff)],[@COLOR(#ffffa666)],[@COLOR(#ffe5dd7e)])][@EDGECOLOR(#ff262626)][@SHEETEN(xtx/itemName,1,10002012,2,1)][@EDGECOLOR($EC)][@COLOR($EC)] and the right crystals are all you'll need.","Die Anleitung für [@SWITCH([@SHEET(itemData,11000010,41)],[@COLOR(#fff3f3f3)],[@COLOR(#ffc0ffa0)],[@COLOR(#ff60c8ff)],[@COLOR(#ffb38cff)],[@COLOR(#ffffa666)],[@COLOR(#ffe5dd7e)])][@EDGECOLOR(#ff262626)][@SHEETDE(xtx/itemName,1,11000010,1,4,1)][@EDGECOLOR($EC)][@COLOR($EC)] bekommst du von mir. Enttäusch mich aber nicht! Du benötigst [@SWITCH([@SHEET(itemData,10002012,41)],[@COLOR(#fff3f3f3)],[@COLOR(#ffc0ffa0)],[@COLOR(#ff60c8ff)],[@COLOR(#ffb38cff)],[@COLOR(#ffffa666)],[@COLOR(#ffe5dd7e)])][@EDGECOLOR(#ff262626)][@SHEETDE(xtx/itemName,1,10002012,2,4,1)][@EDGECOLOR($EC)][@COLOR($EC)].","Tiens, laisse-moi t'apprendre les matériaux nécessaires pour fabriquer [@SWITCH([@SHEET(itemData,11000010,41)],[@COLOR(#fff3f3f3)],[@COLOR(#ffc0ffa0)],[@COLOR(#ff60c8ff)],[@COLOR(#ffb38cff)],[@COLOR(#ffffa666)],[@COLOR(#ffe5dd7e)])][@EDGECOLOR(#ff262626)][@SHEETFR(xtx/itemName,1,11000010,1,1)][@EDGECOLOR($EC)][@COLOR($EC)]. C'est simple, il te faut deux [@SWITCH([@SHEET(itemData,10002012,41)],[@COLOR(#fff3f3f3)],[@COLOR(#ffc0ffa0)],[@COLOR(#ff60c8ff)],[@COLOR(#ffb38cff)],[@COLOR(#ffffa666)],[@COLOR(#ffe5dd7e)])][@EDGECOLOR(#ff262626)][@SHEETFR(xtx/itemName,12,10002012,2,1)][@EDGECOLOR($EC)][@COLOR($EC)]. J'ai hâte de voir comment tu vas t'en sortir[@1D]!","我来教你“[@SWITCH([@SHEET(itemData,11000010,41)],[@COLOR(#fff3f3f3)],[@COLOR(#ffc0ffa0)],[@COLOR(#ff60c8ff)],[@COLOR(#ffb38cff)],[@COLOR(#ffffa666)],[@COLOR(#ffe5dd7e)])][@EDGECOLOR(#ff262626)][@SHEET(xtx/itemName,11000010,131)][@EDGECOLOR($EC)][@COLOR($EC)]”的制作方法吧。[@CR]需要2个“[@SWITCH([@SHEET(itemData,10002041,41)],[@COLOR(#fff3f3f3)],[@COLOR(#ffc0ffa0)],[@COLOR(#ff60c8ff)],[@COLOR(#ffb38cff)],[@COLOR(#ffffa666)],[@COLOR(#ffe5dd7e)])][@EDGECOLOR(#ff262626)][@SHEET(xtx/itemName,10002041,131)][@EDGECOLOR($EC)][@COLOR($EC)]”。[@CR]我相信[@SPLIT([@STRING($EB(1))], ,1)]一定能够做出不错的东西来。"
87,"まったく困ったわねぇ～。[@CR]いい気になっちゃってる[@SPLIT([@STRING($EB(1))], ,1)]さんですね～？","Found solace in success now, have you? Allow this single step to prove your crowning achievement, will you?","Oh nein, schon wieder so ein Gernegroß, der auf den Boden der Tatsachen zurückgeholt werden muss?","Dites-donc, qu'est-ce que c'est que ce sourire béat[@1D]?","真是头疼啊。[@CR][@SPLIT([@STRING($EB(1))], ,1)]好像很有干劲啊。"
88,"これが「[@SWITCH([@SHEET(itemData,11000011,41)],[@COLOR(#fff3f3f3)],[@COLOR(#ffc0ffa0)],[@COLOR(#ff60c8ff)],[@COLOR(#ffb38cff)],[@COLOR(#ffffa666)],[@COLOR(#ffe5dd7e)])][@EDGECOLOR(#ff262626)][@SHEET(xtx/itemName,11000011,4)][@EDGECOLOR($EC)][@COLOR($EC)]」の作り方です～。[@CR]「[@SWITCH([@SHEET(itemData,10002022,41)],[@COLOR(#fff3f3f3)],[@COLOR(#ffc0ffa0)],[@COLOR(#ff60c8ff)],[@COLOR(#ffb38cff)],[@COLOR(#ffffa666)],[@COLOR(#ffe5dd7e)])][@EDGECOLOR(#ff262626)][@SHEET(xtx/itemName,10002022,4)][@EDGECOLOR($EC)][@COLOR($EC)]」が2つ、そして「[@SWITCH([@SHEET(itemData,10002072,41)],[@COLOR(#fff3f3f3)],[@COLOR(#ffc0ffa0)],[@COLOR(#ff60c8ff)],[@COLOR(#ffb38cff)],[@COLOR(#ffffa666)],[@COLOR(#ffe5dd7e)])][@EDGECOLOR(#ff262626)][@SHEET(xtx/itemName,10002072,4)][@EDGECOLOR($EC)][@COLOR($EC)]」も必要です～。[@CR]失敗しちゃったら恥ずかしいので気をつけて～。","I did not think so! But there are those who [@1A(1)]will[@1A(0)] think so, unless you can show them that it is [@1A(1)]not[@1A(0)] so. Craft [@SWITCH([@SHEET(itemData,11000011,41)],[@COLOR(#fff3f3f3)],[@COLOR(#ffc0ffa0)],[@COLOR(#ff60c8ff)],[@COLOR(#ffb38cff)],[@COLOR(#ffffa666)],[@COLOR(#ffe5dd7e)])][@EDGECOLOR(#ff262626)][@SHEETEN(xtx/itemName,1,11000011,1,1)][@EDGECOLOR($EC)][@COLOR($EC)] and it might go some way to allay their doubts. Ah, but you'll first need to find two [@SWITCH([@SHEET(itemData,10002022,41)],[@COLOR(#fff3f3f3)],[@COLOR(#ffc0ffa0)],[@COLOR(#ff60c8ff)],[@COLOR(#ffb38cff)],[@COLOR(#ffffa666)],[@COLOR(#ffe5dd7e)])][@EDGECOLOR(#ff262626)][@SHEETEN(xtx/itemName,1,10002022,2,1)][@EDGECOLOR($EC)][@COLOR($EC)] and [@SWITCH([@SHEET(itemData,10002072,41)],[@COLOR(#fff3f3f3)],[@COLOR(#ffc0ffa0)],[@COLOR(#ff60c8ff)],[@COLOR(#ffb38cff)],[@COLOR(#ffffa666)],[@COLOR(#ffe5dd7e)])][@EDGECOLOR(#ff262626)][@SHEETEN(xtx/itemName,1,10002072,1,1)][@EDGECOLOR($EC)][@COLOR($EC)]!","Hier. Die Anleitung, um [@SWITCH([@SHEET(itemData,11000011,41)],[@COLOR(#fff3f3f3)],[@COLOR(#ffc0ffa0)],[@COLOR(#ff60c8ff)],[@COLOR(#ffb38cff)],[@COLOR(#ffffa666)],[@COLOR(#ffe5dd7e)])][@EDGECOLOR(#ff262626)][@SHEETDE(xtx/itemName,1,11000011,1,4,1)][@EDGECOLOR($EC)][@COLOR($EC)] zu bauen. Brauchst dich nicht zu schämen, wenn du's verbockst. Du wärst nicht [@IF($E9(4),die,der)] Erste ...[@CR]Du benötigst [@SWITCH([@SHEET(itemData,10002022,41)],[@COLOR(#fff3f3f3)],[@COLOR(#ffc0ffa0)],[@COLOR(#ff60c8ff)],[@COLOR(#ffb38cff)],[@COLOR(#ffffa666)],[@COLOR(#ffe5dd7e)])][@EDGECOLOR(#ff262626)][@SHEETDE(xtx/itemName,1,10002022,2,4,1)][@EDGECOLOR($EC)][@COLOR($EC)] und [@SWITCH([@SHEET(itemData,10002072,41)],[@COLOR(#fff3f3f3)],[@COLOR(#ffc0ffa0)],[@COLOR(#ff60c8ff)],[@COLOR(#ffb38cff)],[@COLOR(#ffffa666)],[@COLOR(#ffe5dd7e)])][@EDGECOLOR(#ff262626)][@SHEETDE(xtx/itemName,1,10002072,1,4,1)][@EDGECOLOR($EC)][@COLOR($EC)].","Vous débutez tout juste dans l'armurerie, il est beaucoup trop tôt pour vous réjouir, voyez-vous[@1D]? Je vais vous confier quels sont les matériaux nécessaires pour fabriquer [@SWITCH([@SHEET(itemData,11000011,41)],[@COLOR(#fff3f3f3)],[@COLOR(#ffc0ffa0)],[@COLOR(#ff60c8ff)],[@COLOR(#ffb38cff)],[@COLOR(#ffffa666)],[@COLOR(#ffe5dd7e)])][@EDGECOLOR(#ff262626)][@SHEETFR(xtx/itemName,1,11000011,1,1)][@EDGECOLOR($EC)][@COLOR($EC)]. Il vous faudra [@SWITCH([@SHEET(itemData,10002072,41)],[@COLOR(#fff3f3f3)],[@COLOR(#ffc0ffa0)],[@COLOR(#ff60c8ff)],[@COLOR(#ffb38cff)],[@COLOR(#ffffa666)],[@COLOR(#ffe5dd7e)])][@EDGECOLOR(#ff262626)][@SHEETFR(xtx/itemName,1,10002072,1,1)][@EDGECOLOR($EC)][@COLOR($EC)] et deux [@SWITCH([@SHEET(itemData,10002022,41)],[@COLOR(#fff3f3f3)],[@COLOR(#ffc0ffa0)],[@COLOR(#ff60c8ff)],[@COLOR(#ffb38cff)],[@COLOR(#ffffa666)],[@COLOR(#ffe5dd7e)])][@EDGECOLOR(#ff262626)][@SHEETFR(xtx/itemName,12,10002022,2,1)][@EDGECOLOR($EC)][@COLOR($EC)]. Promettez-moi de vous appliquer[@1D]!","这是“[@SWITCH([@SHEET(itemData,11000011,41)],[@COLOR(#fff3f3f3)],[@COLOR(#ffc0ffa0)],[@COLOR(#ff60c8ff)],[@COLOR(#ffb38cff)],[@COLOR(#ffffa666)],[@COLOR(#ffe5dd7e)])][@EDGECOLOR(#ff262626)][@SHEET(xtx/itemName,11000011,131)][@EDGECOLOR($EC)][@COLOR($EC)]”的制作方法。[@CR]需要2个“[@SWITCH([@SHEET(itemData,10002022,41)],[@COLOR(#fff3f3f3)],[@COLOR(#ffc0ffa0)],[@COLOR(#ff60c8ff)],[@COLOR(#ffb38cff)],[@COLOR(#ffffa666)],[@COLOR(#ffe5dd7e)])][@EDGECOLOR(#ff262626)][@SHEET(xtx/itemName,10002022,131)][@EDGECOLOR($EC)][@COLOR($EC)]”，还有“[@SWITCH([@SHEET(itemData,10002072,41)],[@COLOR(#fff3f3f3)],[@COLOR(#ffc0ffa0)],[@COLOR(#ff60c8ff)],[@COLOR(#ffb38cff)],[@COLOR(#ffffa666)],[@COLOR(#ffe5dd7e)])][@EDGECOLOR(#ff262626)][@SHEET(xtx/itemName,10002072,131)][@EDGECOLOR($EC)][@COLOR($EC)]”。[@CR]失败了会很丢脸的，要注意啊。"
89,"足りないものがあったら、[@IF($E4($E8(1),1),スミドヘームルの店,ジョエローの店)]から買うといい。[@CR]金欠なら、冒険者ギルドでギルドリーヴってものがあるだろ。","Ye find yerself lackin' a little o' this or that, ye be sure t' speak with our own [@IF($E4($E8(1),1),Smydhaemr,Joellaut)]. Jus' don't forget yer coin, eh?","Wenn dir Materialien fehlen, kannst du sie bei [@IF($E4($E8(1),1),Smydhaemr,Joellaut)] im Laden kaufen. Wenn dir das Geld dazu fehlt, kannst du es dir mit Freibriefen der Aben[@16]teurer[@16]gil[@16]de verdienen.","S'il te manque des composants, demande à [@IF($E4($E8(1),1),Smydhaemr,Joellaut)], il aura cer[@16]tai[@16]ne[@16]ment ce dont tu as besoin en magasin. Et si tu n'as pas de quoi payer, quelques mandats de guilde et le tour est joué[@1D]!","如果材料不够的话，去[@IF($E4($E8(1),1),斯密德海穆尔的店,若约的店)]买就好。[@CR]如果钱不够的话，可以用冒险者行会的行会理符吧。"
