 ,0,1,2,3,4
 ,str,str,str,str,str
1,元気に働いているか？　そろそろ、おまえにも新しいことを覚えてもらおうと思ってな。「ナルディク＆メルー社」に来てくれ。,[en],"Alles noch frisch? Es ist für dich so langsam wieder an der Zeit, etwas Neues zu lernen. Komm deshalb bitte zur Naldiq & Vymelli-Werft.","Alors, tout se passe bien pour toi[@1D]? Si tu as le temps, tu devrais venir faire un tour à Naldiq et Vymelli. Il y a du travail pour toi.",[chs]
2,おっと、せっかく来てくれたのにすまない。さっき、サハギンとの戦いで軍船が沈んだってことで、大変なことになっているんだ。,[en],"Jetzt bist du extra den ganzen Weg hierher gekommen ... Entschuldige, die Sahagin haben ein Schiff der Marine versenkt und jetzt ist die Hölle los.","Oh, [@STRING($EB(1))], je suis vraiment désolé. J'ai peur que tu te sois [@IF($E9(4),déplacée,déplacé)] pour rien... Tout à l'heure, lors d'une bataille avec les Sahagins, un navire des chevaliers du barracuda a été coulé, et ici, c'est la confusion[@1D]!",[chs]
3,おまえを任せようと思ってた人は、緊急会議でドタバタして捕まらない。また出直して……,[en],"Die Person, die ich dir vorstellen wollte, rennt von einer Dringlich[@16]keits[@16]bespre[@16]chung in die nächste ... Wir müssen das wohl verschieben ...",La personne à qui je pensais te confier participe maintenant à une réunion d'urgence. Peut-être pourrais-tu revenir...,[chs]
4,ちょうどよかった、おまえはこの前の冒険者だな？,[en],"Du bist doch dieser Abenteurer von letztens, du kommst mir genau richtig.","Tiens, ça tombe bien. Tu es [@IF($E9(4),cette aventurière,cet aventurier)] de la dernière fois, n'est-ce pas[@1D]?",[chs]
5,こいつを貸してくれ。俺の作業に必要なんだ、問題ないだろ？,[en],"Du hast doch nichts dagegen, wenn ich mir den Typ mal ausborge, oder?","Confie-[@IF($E9(4),la,le)] moi, j'en ai besoin pour mes travaux. Ça ne pose pas de problème[@1D]?",[chs]
6,依頼を受ける？,[en],"Du hast doch nichts dagegen, wenn ich mir den Typ mal ausborge, oder?","Confie-[@IF($E9(4),la,le)] moi, j'en ai besoin pour mes travaux. Ça ne pose pas de problème[@1D]?",[chs]
7,はい,[en],"Du hast doch nichts dagegen, wenn ich mir den Typ mal ausborge, oder?","Confie-[@IF($E9(4),la,le)] moi, j'en ai besoin pour mes travaux. Ça ne pose pas de problème[@1D]?",[chs]
8,いいえ,[en],"Du hast doch nichts dagegen, wenn ich mir den Typ mal ausborge, oder?","Confie-[@IF($E9(4),la,le)] moi, j'en ai besoin pour mes travaux. Ça ne pose pas de problème[@1D]?",[chs]
9,これだから冒険者なんざは、役に立たないんだ。,[en],Ihr Abenteurer seid zu nichts nutze. Hab ich's doch gewusst ...,Je dis toujours que les aventuriers sont des bons à rien[@1D]!,[chs]
10,まぁ、ちょうど今、帰ってもらおうかと思っていたところなんで……,[en],Ich wollte sowieso gerade nach Hause gehen ...,"J'allais justement lui proposer de rentrer, donc je pense que non.",[chs]
11,よし、じゃあ、ちょっとこっちに来い。,[en],"Also gut, dann komm mal mit. Hier geht's lang.",Parfait[@1D]! Viens avec moi.,[chs]
12,聞いただろう、サハギンとサハギン海賊の戦いで軍船が沈まされた。これは大変なことなんだ。俺たちの船造りは、どんなにボロボロになっても、絶対に沈まない船を造ることなんだからな。,[en],"Du hast es gehört, oder? Die Sahagin und ihre Piraten, die plündernden Schlangen, haben es geschafft, ein Kriegsschiff der Marine zu versenken! Begreifst du überhaupt, wie furchtbar diese Nachricht für uns ist?! Unsere Schiffe galten immer als unsinkbar!","Tu dois être au courant pour le bateau des chevaliers du barracuda qui a été coulé pendant une bataille contre les Sahagins[@1D]? C'est très embêtant... Quels que soient les dangers qu'ils affrontent, les bateaux que nous con[@16]strui[@16]sons sont censés ne jamais couler[@1D]!",[chs]
13,それなのに沈まされたってことは、サハギンたちの攻撃力が俺たちが考えている以上に上がっているということだ。今までの船の造り方では、これから先の戦いに勝てない。,[en],"Das die Sahagin es geschafft haben, eines unserer Schiffe zu versenken, bedeutet, dass sie jetzt Waffen mit einer höheren Zer[@16]störungs[@16]kraft besitzen, als wir angenommen hatten. Wenn wir Kriegsschiffe also weiter wie bisher bauen, wird die Marine den Krieg verlieren.","Si malgré nos efforts c'est arrivé, cela veut dire que la puissance de feu des Sahagins est plus importante que ce que l'on pensait. Si on n'améliore pas nos bateaux, nous serons vaincus à nouveau.",[chs]
14,それだけ危機的状況だ。しかし俺たち船鍛冶師にとっては、この機会を待っていたともいえる。船と共に沈んだ騎士団たちには申し訳ないが、彼らの無念を晴らす力が俺たちにはある！,[en],"Es steht viel auf dem Spiel, aber auf eine Gelegenheit wie diese haben Schiffbauer gewartet! Es tut mir leid für die versunkenen Ritter, aber ihr Tot soll nicht umsonst gewesen sein!","La situation est vraiment critique, mais je dois t'avouer que nous autres forgerons de bateaux attendions ce moment avec impatience. Même si je suis vraiment désolé pour ceux qui ont sombré avec leur navire, cela va nous donner l'occasion de redonner espoir aux chevaliers du barracuda.",[chs]
15,俺たちが作っている新型船が切り札だ。完成させるために、おまえも手伝ってくれるな？,[en],"Der neue Schiffstyp, an dem wir seit Längerem arbeiten, ist unser Trumpf! Aber um ihn fertig[@16]zu[@16]stellen, benötigen wir deine Hilfe ...",Notre dernier atout est ce nouveau modèle de bateau que nous sommes en train de construire. Mais j'ai besoin de ton aide pour l'achever[@1D]!,[chs]
16,助かる！　今まで、俺が受け持っていた注文書を引き継いで欲しい。急いで、納めないとならない武器と防具が結構あるんだ。これを全部作っている暇が、俺にはない……。,[en],"Danke! Ich war bisher für diese Be[@16]stell[@16]for[@16]mulare zuständig. Ich möchte, dass du mir die Herstellung der bestellten Waffen und Rüstungen abnimmst. Ich habe einfach keine Zeit mehr, mich darum zu kümmern.","J'apprécie ton aide. En fait, j'aimerais que tu te charges de mes commandes. Il y a un bon paquet d'armes et de pièces d'équipements qu'il faut livrer en vitesse. Je n'ai vraiment pas le temps de fabriquer tous ces trucs...",[chs]
17,できあがったら、ウェルナーのところへ持っていってくれ。よろしく頼んだぞ。,[en],"Bring die Waren bitte zu Werner, wenn du fertig bist. Ich verlass mich auf dich.","Lorsque tu auras fini, apportes tout à monsieur Werner. Je compte sur toi[@1D]!",[chs]
18,ウェルナーさん、大変なことになったんだよ！　海賊たちに殴られてひどい怪我を負ったんだ！,[en],Die Piraten haben Werner aufgemischt! Er ist ziemlich schwer verletzt!,"Pauvre monsieur Werner, c'est terrible[@1D]! Des pirates l'ont pris à partie et lui ont infligé de graves blessures[@1D]!",[chs]
19,頼んだ武器が悪いとか、なかなかできあがらなかったとか……いろいろな不満がとうとう爆発しちゃったんだよ。ウェルナーさん、私たちをかばって怪我を……ううう……,[en],Sie waren sauer weil wir sie so lange haben warten lassen und wegen der schlechten Qualität ... Werner hat die ganze Schuld für uns auf sich geladen und ...,"""Les armes sont de mauvaise qualité"", ""Les délais sont trop longs""... C'est le résultat de tous les mé[@16]con[@16]ten[@16]te[@16]ments emmagasinés depuis trop longtemps[@1D]! Et monsieur Werner qui a été blessé alors qu'il essayait juste de nous protéger... Bouhouhouh...",[chs]
20,ウェルナーさんなら、お医者さんがつきそったまま、自宅の方へ運ばれていきましたわ。アップタウンの先にあるウェルナーさんの自宅ですわ。,[en],Er wurde von einem Arzt behandelt und nach Hause transportiert. Sein Haus liegt gleich am Eingang des Wohnviertels.,"Monsieur Werner a été transporté à son domicile, au-delà du quartier résidentiel, accompagné d'un médecin.",[chs]
21,ウェルナーさん！　大丈夫なのか！？,[en],Werner! Geht es dir gut?!,"Monsieur Werner, est-ce que ça va[@1D]?",[chs]
22,ああ、おふたりでしたか……目が覚めてしまいましたよ……,[en],"Ah, ihr beide seid es ... ich muss wohl gechlafen haben ...","Aaah, vous êtes là tous les deux... Vous m'avez réveillé/Je viens de me réveiller.",[chs]
23,……作りたくもない武器を作ることが、重荷になっているのはわかります。しかし、作るのでしたら、真剣に作ってくださらないと……,[en],"Ich weiß, dass es dir keine Freude bereitet, Waffen herzustellen. Aber trotzdem, wenn du welche anfertigst, dann tu es bitte ernsthaft ...","Je comprends que ce soit un fardeau pour toi de fabriquer ces armes alors que tu n'en as aucune envie... Mais si tu décides de t'en occuper malgré tout, tu dois le faire sé[@16]rieu[@16]se[@16]ment...",[chs]
24,……私と同じ目にあう人を、これ以上、増やさないためにも……,[en],"Ich will nicht, dass anderen Leuten das Gleiche passiert ...",Pour que plus personne n'ait à endurer la même peine que moi...,[chs]
25,海賊たちは派手に暴れたが、ウェルナーさんを本気で痛めつける気はなかったらしい。しかし……,[en],"Die Piraten haben ihm ganz schön zugesetzt, aber sie haben es nicht darauf angelegt, ihn ernsthaft zu verletzen. Allerdings ...","Les pirates sont allés trop loin. Apparemment ils n'avaient pas l'intention de blesser sé[@16]rieu[@16]se[@16]ment monsieur Werner, mais ça dégénéré...",[chs]
26,うひい、命ばかりはどうかお助けを～！,[en],Oh nein! Bitte lasst uns am Leben!,"Aaah, je vous en prie, ne me tuez pas[@1D]!",[chs]
27,リムサ・ロミンサの海賊のくせに、リムサ・ロミンサの商船を襲うのか！？,[en],Obwohl ihr Piraten aus Limsa Lominsa stammt greift ihr ein Handelsschiff aus Limsa Lominsa an!?,"Vous êtes des pirates de Limsa Lominsa, et vous attaquez des navires marchands de votre propre ville[@1D]?",[chs]
28,フン、じいさんたちが決めた法なんか関係ねぇな！,[en],"Die Regeln, die unsere Väter aufgestellt haben, interessieren uns einen feuchten Dreck!","Haha[@1D]! Papy, on s'en fout des lois que toi et tes petits copains avez décidées[@1D]!",[chs]
29,全員、皆殺しだ！,[en],"Los, tötet sie alle!",Tuez-les tous[@1D]!,[chs]
30,それは、俺の作った「○○」（武器アイテム名）……,[en],"Dieser （武器アイテム名）, den habe ich persönlich hergestellt ...","Ce[@1D]???, c'est moi qui l'ai fabriqué...",[chs]
31,おもしろい、俺の作った武器でやられるなら本望だ！,[en],"Was für eine Ironie, ich werde durch die Waffe sterben, die ich einst schmiedete!","Haha, quelle ironie, mourir sous les coups/la lame d'une arme que j'ai forgée de mes propres mains[@1D]!",[chs]
32,ウェルナーさん、海賊相手の客商売は、大変なことばっかりだ。ぞろぞろ押しかけてくる冒険者相手の先生になって、悠々自適に暮らした方がいいよ。,[en],"Werner, der Handel mit den Piraten bringt nur Ärger. Du solltest dich aus Geschäft zurückziehen, Lehrer von ein paar Abenteurern werden und ein geruhsames, zurück[@16]gezogenes Leben führen.","Monsieur Werner, faire du commerce avec les pirates, cela n'apporte que des problèmes. Pourquoi ne pas vous occuper de l'en[@16]sei[@16]gne[@16]ment des aventuriers apprentis-forgerons[@1D]? C'est beaucoup moins dangereux, vous savez.",[chs]
33,鍛冶ができない私が、鍛冶を教えることなんてできませんよ。実演もできないのに、どうやって教えると言うのです。,[en],"Ich bin kein gelernter Schmied, was soll ich den Abenteurern da schon beibringen?","Alors que moi-même je suis un mauvais forgeron, je ne peux pas me permettre d'enseigner. As-tu déjà vu un professeur incapable de faire une dé[@16]mon[@16]stra[@16]tion[@1D]?",[chs]
34,だが、ウェルナーさんが素晴らしい武器鍛冶師だったってことは変わらない。知識と経験が役に立つはずだ。,[en],Aber du warst einmal ein hervorragender Waffenschmied. Deine Erfahrung und deinen Wissensschatz solltest du unbedingt weitergeben.,Mais vous êtes un artisan forgeron d'exception[@1D]! Nous aimerions tous avoir votre expérience et votre savoir[@1D]!,[chs]
35,あのとき、私の作った武器でこの手を怪我させられたとき、武器鍛冶師の私も死んだのです。,[en],"Als ich damals durch die von mir selbst geschmiedete Waffe verletzt wurde, ist der Waffenschmied in mir gestorben.","A ce moment-là, quand ma main a été blessée par l'arme que j'ai moi-même forgée, c'est le forgeron en moi qui est décédé.",[chs]
36,あの海賊が私の武器を使いこなしていれば、私もひと思いに死んでやれた……,[en],"So wie ich gestorben wäre, wenn der Pirat diese Waffe richtig beherrscht hätte ...","Si ce pirate avait vraiment su utiliser son arme, je serais mort d'un coup.",[chs]
37,……！,[en],...!,Mais...,[chs]
38,今の仕事には、とても満足しています。,[en],"Ich bin rundum zufrieden mit der Arbeit, die ich jetzt mache.","Tu sais, je suis très heureux de mon travail actuel.",[chs]
39,武器を買う人に合ったものを選び、使いこなせるように助言を与える……。,[en],"Kunden Waffen anbieten, die meiner Meinung nach gut zu ihnen passen, ihnen Hinweise dazu geben, wie sie diese meistern ...","Choisir l'arme qui convient par[@16]fai[@16]te[@16]ment au client, le conseiller sur la meilleure manière de l'utiliser...",[chs]
40,死に損ないの武器鍛冶師だからこその、天職です。,[en],Als Ex-Waffenschmied fühle ich mich für diesen Job wie berufen.,C'est précisément parce que c'est ma vocation.,[chs]
41, ……ウェルナーさんの気持ちはわかっていたはずなのに、俺は武器作りを上手くやれなかった。俺は、天才船鍛冶師だって言われてるが、武器鍛冶師としては失格、まだまだ半人前なんだよ。,[en],"Werner ... ich konnte deine Einstellung genau nachvollzeiehen, aber dich nicht als Waffenschmied erstetzen. Man sagt mir zwar nach, ein genialer Schiffbauer zu sein, aber als Waffenschmied habe ich noch viel zu lernen.","Alors même que je connaissais le sentiment de monsieur Werner, je ne suis jamais parvenu à fabriquer une arme cor[@16]rec[@16]te[@16]ment. On dit de moi que je suis un artisan forgeron de génie, mais la vérité est que je suis incapable de con[@16]fec[@16]tion[@16]ner une arme digne de ce nom.",[chs]
42,おまえの方がまだ、俺よりも武器を扱い慣れているし、精通している。,[en],Du bist an den Umgang mit Waffen gewöhnt.,"Toi-même, tu connais mieux les armes que moi, tu es plus [@IF($E9(4),habituée,habitué)] à les utiliser.",[chs]
43,良い武器を作るために、協力してくれ。頼む。,[en],"Bitte hilf mir dabei, gute Waffen zu schmieden.","Je t'en prie, aide-moi à fabriquer des armes de bonne qualité[@1D]!",[chs]
44,ありがとう。新型船に使おうと思っていた材料を使って、武器を作ろう。ウェルナーさんたち、店の人たちが胸を張ってお勧めできる凄いやつをな。,[en],"Danke! Wir werden die Materialien, die für den neuen Schiffstyp gedacht waren, für Waffen verwenden. Wir werden daraus Waffen machen, die Werner den Kunden mit stolzer Brust empfehlen kann!","Merci. Avec ces matériaux que je destinais à la fabrication de mon nouveau modèle de bateau, nous allons forger des armes que Monsieur Werner et ses employés pourrons recommander à leurs clients sans rougir[@1D]!",[chs]
45,[play]、よくここまでの武器ができたな。俺にもわかる。これは良いものだ。,[en],"Eine hervorragende Waffe,play Das kann sogar ich erkennen.","[@STRING($EB(1))], nous avons bien travaillé. Même moi je peux le dire, ces armes sont magnifiques.",[chs]
46,ウェルナーさんにも見せてやろう。きっと、唸るぞ。,[en],"Wir sollten sie Werner zeigen, er sicher erstaunt sein.",Montrons-les à monsieur Werner. Les bras vont lui en tomber[@1D]!,[chs]
47,痛みで唸るのは、もうこりごりですよ。,[en],Diese Schmerzen ... ich halte das nicht mehr aus ...,"Mes bras vont très bien, merci. Qu'est-ce que vous manigancez encore[@1D]?",[chs]
48,ウェルナーさん！　もう大丈夫なのか！？,[en],Werner! Bist du in Ordnung!?,"Monsieur Werner, vous êtes déjà rétabli[@1D]?",[chs]
49,職業柄、海賊たちとの喧嘩には慣れてますから。……おや？,[en],"Ja, war ja nicht der erste Streit, die Arbeit hat mich har... Was ist denn das?",C'est pas quelques petites bleus qui vont m'arrêter... Oh[@1D]?,[chs]
50,この武器をおふたりで作ったのですか！　ああ、良い武器ですね。,[en],Habt ihr zwei etwa diese Waffen geschmiedet!? Sie sind wunderbar.,"Vous avez forgé ces armes tous les deux[@1D]? Oooh, mais c'est du très bon travail[@1D]!",[chs]
51,ありがとうございます。しかし……、やはり[play]さんの武器の方がいいものですね。,[en],Ich danke euch. Ich finde allerdings ... dass die Waffe von [play] weit besser gelungen ist.,"Je ne sais comment vous remercier. Par contre, j'ai beau regarder, les créations de [@STRING($EB(1))] sont de meilleure qualité.",[chs]
52,言われると思ったよ。だから武器鍛冶師にはなれないって言ってるんだ。,[en],"Hab mir schon gedacht, dass du darauf rumreiten würdest. Deshalb sag ich doch die ganze Zeit, ich will kein Waffenschied werden.",J'étais sûr que vous diriez ça[@1D]! Voilà pourquoi je vous dis que je ne peux pas me spécialiser dans les armes.,[chs]
53,報酬は[play]にやってくれ。じゃあな、頑張れよ。,[en],"Die Belohnung kannst du [play] geben. Also dann, streng dich weiter, ja?","Vous savez quoi[@1D]? Vous pouvez donner ma part de la paye à [@STRING($EB(1))], je n'en veux pas. Sur ce, à la prochaine[@1D]!",[chs]
