 ,0,1,2,3,4
 ,str,str,str,str,str
1,どうしますか？,What will you do?,Was möchtest du tun?,Que voulez-vous faire[@1D]?,要做什么？
2,なだめる,Calm the chocobo.,Beruhigen.,Apaiser le chocobo.,抚慰
3,エサを与える,Feed the chocobo.,Füttern.,Donner à manger au chocobo.,喂饲
4,呼び戻す,Call the chocobo back.,Zurückrufen.,Appeler le chocobo.,叫回
5,やめる,Nothing.,Abbrechen.,Rien.,放弃
6,何を与えますか？,What will you feed it?,Was gibst du dem Chocobo zu fressen?,Lui donner quoi[@1D]?,喂什么？
7,"「[@SWITCH([@SHEET(itemData,$E8(1),41)],[@COLOR(#fff3f3f3)],[@COLOR(#ffc0ffa0)],[@COLOR(#ff60c8ff)],[@COLOR(#ffb38cff)],[@COLOR(#ffffa666)],[@COLOR(#ffe5dd7e)])][@EDGECOLOR(#ff262626)][@SHEET(xtx/itemName,$E8(1),4)][@EDGECOLOR($EC)][@COLOR($EC)]」","[@2B([@SWITCH([@SHEET(itemData,$E8(1),41)],[@COLOR(#fff3f3f3)],[@COLOR(#ffc0ffa0)],[@COLOR(#ff60c8ff)],[@COLOR(#ffb38cff)],[@COLOR(#ffffa666)],[@COLOR(#ffe5dd7e)])][@EDGECOLOR(#ff262626)][@SHEETEN(xtx/itemName,1,$E8(1),1,1)][@EDGECOLOR($EC)][@COLOR($EC)])].","[@2B([@SWITCH([@SHEET(itemData,$E8(1),41)],[@COLOR(#fff3f3f3)],[@COLOR(#ffc0ffa0)],[@COLOR(#ff60c8ff)],[@COLOR(#ffb38cff)],[@COLOR(#ffffa666)],[@COLOR(#ffe5dd7e)])][@EDGECOLOR(#ff262626)][@SHEETDE(xtx/itemName,1,$E8(1),1,4,1)][@EDGECOLOR($EC)][@COLOR($EC)])].","[@2B([@SWITCH([@SHEET(itemData,$E8(1),41)],[@COLOR(#fff3f3f3)],[@COLOR(#ffc0ffa0)],[@COLOR(#ff60c8ff)],[@COLOR(#ffb38cff)],[@COLOR(#ffffa666)],[@COLOR(#ffe5dd7e)])][@EDGECOLOR(#ff262626)][@SHEETFR(xtx/itemName,1,$E8(1),1,1)][@EDGECOLOR($EC)][@COLOR($EC)])].","“[@SWITCH([@SHEET(itemData,$E8(1),41)],[@COLOR(#fff3f3f3)],[@COLOR(#ffc0ffa0)],[@COLOR(#ff60c8ff)],[@COLOR(#ffb38cff)],[@COLOR(#ffffa666)],[@COLOR(#ffe5dd7e)])][@EDGECOLOR(#ff262626)][@SHEET(xtx/itemName,$E8(1),131)][@EDGECOLOR($EC)][@COLOR($EC)]”"
8,"「[@SWITCH([@SHEET(itemData,$E8(1),41)],[@COLOR(#fff3f3f3)],[@COLOR(#ffc0ffa0)],[@COLOR(#ff60c8ff)],[@COLOR(#ffb38cff)],[@COLOR(#ffffa666)],[@COLOR(#ffe5dd7e)])][@EDGECOLOR(#ff262626)][@SHEET(xtx/itemName,$E8(1),4)][@EDGECOLOR($EC)][@COLOR($EC)]」","[@2B([@SWITCH([@SHEET(itemData,$E8(1),41)],[@COLOR(#fff3f3f3)],[@COLOR(#ffc0ffa0)],[@COLOR(#ff60c8ff)],[@COLOR(#ffb38cff)],[@COLOR(#ffffa666)],[@COLOR(#ffe5dd7e)])][@EDGECOLOR(#ff262626)][@SHEETEN(xtx/itemName,1,$E8(1),1,1)][@EDGECOLOR($EC)][@COLOR($EC)])].","[@2B([@SWITCH([@SHEET(itemData,$E8(1),41)],[@COLOR(#fff3f3f3)],[@COLOR(#ffc0ffa0)],[@COLOR(#ff60c8ff)],[@COLOR(#ffb38cff)],[@COLOR(#ffffa666)],[@COLOR(#ffe5dd7e)])][@EDGECOLOR(#ff262626)][@SHEETDE(xtx/itemName,1,$E8(1),1,4,1)][@EDGECOLOR($EC)][@COLOR($EC)])].","[@2B([@SWITCH([@SHEET(itemData,$E8(1),41)],[@COLOR(#fff3f3f3)],[@COLOR(#ffc0ffa0)],[@COLOR(#ff60c8ff)],[@COLOR(#ffb38cff)],[@COLOR(#ffffa666)],[@COLOR(#ffe5dd7e)])][@EDGECOLOR(#ff262626)][@SHEETFR(xtx/itemName,1,$E8(1),1,1)][@EDGECOLOR($EC)][@COLOR($EC)])].","“[@SWITCH([@SHEET(itemData,$E8(1),41)],[@COLOR(#fff3f3f3)],[@COLOR(#ffc0ffa0)],[@COLOR(#ff60c8ff)],[@COLOR(#ffb38cff)],[@COLOR(#ffffa666)],[@COLOR(#ffe5dd7e)])][@EDGECOLOR(#ff262626)][@SHEET(xtx/itemName,$E8(1),131)][@EDGECOLOR($EC)][@COLOR($EC)]”"
9,"「[@SWITCH([@SHEET(itemData,$E8(1),41)],[@COLOR(#fff3f3f3)],[@COLOR(#ffc0ffa0)],[@COLOR(#ff60c8ff)],[@COLOR(#ffb38cff)],[@COLOR(#ffffa666)],[@COLOR(#ffe5dd7e)])][@EDGECOLOR(#ff262626)][@SHEET(xtx/itemName,$E8(1),4)][@EDGECOLOR($EC)][@COLOR($EC)]」","[@2B([@SWITCH([@SHEET(itemData,$E8(1),41)],[@COLOR(#fff3f3f3)],[@COLOR(#ffc0ffa0)],[@COLOR(#ff60c8ff)],[@COLOR(#ffb38cff)],[@COLOR(#ffffa666)],[@COLOR(#ffe5dd7e)])][@EDGECOLOR(#ff262626)][@SHEETEN(xtx/itemName,1,$E8(1),1,1)][@EDGECOLOR($EC)][@COLOR($EC)])].","[@2B([@SWITCH([@SHEET(itemData,$E8(1),41)],[@COLOR(#fff3f3f3)],[@COLOR(#ffc0ffa0)],[@COLOR(#ff60c8ff)],[@COLOR(#ffb38cff)],[@COLOR(#ffffa666)],[@COLOR(#ffe5dd7e)])][@EDGECOLOR(#ff262626)][@SHEETDE(xtx/itemName,1,$E8(1),1,4,1)][@EDGECOLOR($EC)][@COLOR($EC)])].","[@2B([@SWITCH([@SHEET(itemData,$E8(1),41)],[@COLOR(#fff3f3f3)],[@COLOR(#ffc0ffa0)],[@COLOR(#ff60c8ff)],[@COLOR(#ffb38cff)],[@COLOR(#ffffa666)],[@COLOR(#ffe5dd7e)])][@EDGECOLOR(#ff262626)][@SHEETFR(xtx/itemName,1,$E8(1),1,1)][@EDGECOLOR($EC)][@COLOR($EC)])].","“[@SWITCH([@SHEET(itemData,$E8(1),41)],[@COLOR(#fff3f3f3)],[@COLOR(#ffc0ffa0)],[@COLOR(#ff60c8ff)],[@COLOR(#ffb38cff)],[@COLOR(#ffffa666)],[@COLOR(#ffe5dd7e)])][@EDGECOLOR(#ff262626)][@SHEET(xtx/itemName,$E8(1),131)][@EDGECOLOR($EC)][@COLOR($EC)]”"
10,やめる,Nevermind.,Gar nichts.,Rien.,放弃
11,"現在、キャラバンのチョコボ「[@SHEET(xtx/displayName,$E8(1),0)]」に話しかけることはできません。","You are currently unable to interact with [@SHEET(xtx/displayName,$E8(1),1)].","Du kannst den Karawanen-Chocobo „[@SHEET(xtx/displayName,$E8(1),6)]“ momentan nicht ansprechen.","Impossible d'interagir avec [@SHEET(xtx/displayName,$E8(1),13)] pour le moment.","现在无法与旅商队的陆行鸟“[@SHEET(xtx/displayName,$E8(1),19)]”说话。"
