 ,0,1,2,3,4
 ,str,str,str,str,str
2,幻術皇カヌ・エ・センナ様が、都市グリダニアへお戻りになり、[@CR]次々と重要な御神託が下っておりますが……,"I have news, [@SPLIT([@STRING($EB(1))], ,1)]. As you know, Elder Seedseer Kan[@1F]E[@1F]Senna has returned to us from the forest. She conducts her divinations tirelessly, granting us new wisdom each and every day.","Die Saatseherin Kan-E-Senna ist nach Gridania zurückgekehrt, und eine große Bürde hat sie damit übernommen! Sie hat bedeutungsschwere Visionen, Botschaften von den Gebietern ...","Notre Oracle Kan-E-Senna est rentrée et nous a éclairés de plusieurs visions, dont certaines assez in[@16]quié[@16]tan[@16]tes, hélas...",幻术皇嘉恩·艾·神纳大人回到了格里达尼亚市，[@CR]在不断地向我们传达重要的神谕……
3,そのうちのひとつ、「トトラクの千獄」の件が[@CR]鬼哭隊、神勇隊の勇士たちが出動する非常事態へと発展しております。,"By her word, it has been decided that a larger force of soldiers, this time from the Wood Wailers and Gods' Quiver both, shall brave the Thousand Maws of Toto[@1F]Rak in the South Shroud.",Auch von den „Tausend Löchern von Toto-Rak“. In dieser Angelegenheit ist das gesamte Klageregiment und Nophicas Schar in höchstem Alarmzustand.,"L'une d'elles, notamment, concerne les “Mille Gueules de Toto-Rak”, et exige une in[@16]ter[@16]ven[@16]tion. Les vigiles sombres et les flèches divines ont été envoyés sur place.",其中的“托托·拉克千狱”事件，现在已经[@CR]发展成紧急事态，鬼哭队、神勇队的勇士们都出动了。
4,南部森林にある「トトラクの千獄」は、かなり昔に閉鎖された地下牢。[@CR]しかしこの頃、何者かが侵入しているという証言があり、[@CR]鬼哭隊による調査が始まっていました。,"The Maws were closed off long ago, but recent reports suggest that someone─or something─had broken the seals and entered the accursed place. And so we sent a unit of Wood Wailers to investigate.","Toto-Rak liegt im Südwald - es ist ein unterirdischer Kerker, der schon vor langer Zeit geschlossen wurde.[@CR]Doch seit kurzem sind dort verdächtige Aktivitäten zu registrieren. Einige wollen dort Soldaten ein- und ausgehen gesehen haben. Das Klageregiment hat deshalb nachgesehen.","Le lieu dit “les Mille Gueules de Toto-Rak”, dans la forêt du sud, est une ancienne prison souterraine aujourd'hui interdite d'accès. Mais d'après certains témoignages, des individus suspects y effectuent des allées et venues ces derniers temps.",位于南部森林的“托托·拉克千狱”，在很久以前曾是一座紧闭的地牢。[@CR]然而最近有报导显示，那地方似乎有什么人入侵。[@CR]为此，鬼哭队展开了调查。
5,そして彼らは、驚くべき調査結果を持ち帰りました。[@CR]「トトラクの千獄」で彼らを待ち受けていたもの……[@CR]それは、千を超える数の狂暴な魔物たちだったのです。,"I am sorry to say that most never returned. From what we have since been able to gather, a legion of fiends was waiting for them in the depths─some scouters say their number was over nine thousand, but others say there is no way that could be right.",Und sie haben wahrhaft Erschütterndes gefunden. Im Kerker von Toto-Rak wurden sie bereits erwartet ... von unzähligen wahnsinnigen Höllenbestien!,"Les vigiles sombres étaient partis enquêter sur place, mais figurez-vous que des hordes de monstres assoiffés de sang les attendaient dans les Mille Gueules...",不久，他们带着惊人的调查结果回来了：[@CR]在“托托·拉克千狱”等待着他们的，[@CR]竟然是数以千计的狂暴的魔物。
6,幻術皇カヌ・エ・センナ様は、この現象について[@CR]「不浄な呼び声が、魔物を物狂わせている」と語っておられます。,"Ordinarily, I wouldn't give credence to such implausible claims, but Kan[@1F]E[@1F]Senna sensed the echoes of an impure voice resonating through those foul halls, calling out to beasts across the land and driving them into a blood frenzy...","Kan-E-Senna meint, dass irgendeine unheilige Stimme die Monster in Raserei versetzt habe.","D'après l'Oracle Kan-E-Senna, une voix impure rendrait fous ces monstres et les pousserait à agir de la sorte.",幻术皇嘉恩·艾·神纳大人说，发生这种现象[@CR]是因为“不净的呼声令魔物狂暴化”。
7,調査のために「トトラクの千獄」に派遣された者たちは[@CR]穢れに冒され、体調を崩す者も多く出ております。[@CR]そこで、新たに援軍を送ることになりました。,"Many lancers of the first expedition party were tainted with woodsin simply by virtue of being in that damned dungeon, and have since taken ill. The Thousand Maws are cursed indeed. Still, our task must be seen through to the end. Reinforcements must be sent!","Mehrere Mitglieder der Truppe, die zu Nach[@16]for[@16]schungen nach Toto-Rak entsandt wurde, sind von der spirituellen Unreinheit dort befallen und in miserablem körperlichen Zustand. Deshalb soll erneut eine Einheit geschickt werden.","Parmi celles de nos unités qui ont été envoyées aux Mille Gueules pour enquêter, beaucoup se sont heurtées à la “souillure” et sont tombées malades[@1D]; il a donc été décidé d'envoyer une nouvelle équipe.",为了调查而被派到“托托·拉克千狱”的那些人，[@CR]因为受到当地秽气的毒害，身体大多都垮掉了。[@CR]这样一来，我们就需要送去新的援军才行。
8,あなたのような冒険者たちにも、協力を仰ぎたく思います。[@CR]もしも、あなたが[@VALUE(2)]から[@VALUE(4)]名の勇士たちを集めることが可能ならば、[@CR]南部森林にある「トトラクの千獄」の調査に志願してくださいますか？,"Yet stretched though our resources are, I cannot in good conscience send you alone. It would be suicide. For your own safety, assemble a party of [@IF($E5(2,0),[@IF($E2(2,10),[@SWITCH(2,one,two,three,four,five,six,seven,eight,nine,ten)],[@VALUE(2)])],[@VALUE(2)])] to [@IF($E5(4,0),[@IF($E2(4,10),[@SWITCH(4,one,two,three,four,five,six,seven,eight,nine,ten)],[@VALUE(4)])],[@VALUE(4)])] members before heading to the Maws in the South Shroud. The dangers lurking within will permit no less. Will you do this?","Wenn sich Abenteurer wie du dazu bereit erklärten, wären wir natürlich sehr dankbar.[@CR]Denkst du, dass du einige Mitstreiter auftreiben kannst, sodass ihr als Gruppe von [@VALUE(2)] bis [@VALUE(4)] Abenteurern in den Südwald zu den Tausend Löchern von Toto-Rak aufbrechen könnt?","Nous aimerions que des aventuriers comme vous nous prêtent main-forte. Si vous pouvez réunir une équipe de [@VALUE(2)] à [@VALUE(4)] personnes, pourriez-vous aller enquêter aux Mille Gueules de Toto-Rak, dans la forêt du sud[@1D]?",我一直期待能有像您这样的冒险者前来协助我们。[@CR]如果您方便召集[@VALUE(2)]～[@VALUE(4)]名勇士的话，[@CR]可否前往南部森林的“托托·拉克千狱”进行调查呢？
9,仕方がありません。[@CR]「双蛇党」の志は高く、配属されし者の使命は重い。[@CR]あなたの使命を妨げることは、本意ではありません。,Far be it from me to question your decision. But know that this matter is of the utmost importance to the Order of the Twin Adder.,"Hm. Ich will dich nicht von deinen Besorgungen abhalten, aber bedenke, dass es momentan kaum etwas Dringlicheres gibt als diese Mission!",Je vois... les membres de l'Ordre ont de grands destins et des missions conséquentes. Loin de moi l'idée de faire obstacle à cette noble vocation.,那还真是遗憾。[@CR]双蛇党的人历来志向远、使命重。[@CR]抱歉打扰了有要事在身的您。
10,快諾していただけると感じていました。[@CR]では、勇士たちを集めた上で、しっかりと戦いの準備をしてください。[@CR]目的地は、南部森林にある「キャンプ・トランキル」の北……。,"Good. Gather what companions you will, and prepare yourselves for battle. Then travel to the Thousand Maws, north of Camp Tranquil in the South Shroud.","Ich wusste doch, dass du einwilligen würdest![@CR]Wenn du deine Mitstreiter versammelt hast, geh mit ihnen nach Camp Seelenruhe im Südwald und von dort aus nach Norden.","Je sentais que vous accepteriez. Bien[@1D]! Lorsque vous aurez constitué votre équipe, préparez-vous au combat.[@CR]Votre destination se trouve au nord du camp des Sentes tranquilles, dans la forêt du sud.",您答应得非常爽快。[@CR]那么，就请召集勇士，好好做一番战前准备吧。[@CR]目的地在南部森林的“恬静路营地”以北……
11,「トトラクの千獄」入口には、鬼哭隊の補給部隊が待機しています。[@CR]彼らがより詳しく、状況の説明をしてくれるでしょう。[@CR]さあ、出立しなさい。,"You will find a group of guards stationed near the dungeon's entrance. They will brief you on the situation. Go now, and may the gods go with you.",Am Eingang zum Kerker von Toto-Rak wartet die Verstärkungstruppe des Klageregiments. Von ihnen wirst du die Einzelheiten erfahren können.[@CR]Ich wünsche dir alles Glück dieser Welt!,Des unités des vigiles sombres seront en position à l'entrée des Mille Gueules de Toto-Rak et vous donneront des détails sur l'opération. Bon courage[@1D]!,鬼哭队的补给部队就在“托托·拉克千狱”入口处待命。[@CR]他们会向您说明一些更详细地情况的。[@CR]好了，准备出发吧。
12,「キャンプ・トランキル」の北にある「トトラクの千獄」は、[@CR]鬼哭隊の勇士たちをも蝕む、恐ろしい魔窟となっています。[@CR]十分に準備を整え、[@VALUE(2)]から[@VALUE(4)]名の勇士を集めた上で出立してください。,"Foul beasts have infested the Thousand Maws of Toto[@1F]Rak, and the Wood Wailers alone are not capable of putting them down, such are their numbers. Assemble a party of [@IF($E5(2,0),[@IF($E2(2,10),[@SWITCH(2,one,two,three,four,five,six,seven,eight,nine,ten)],[@VALUE(2)])],[@VALUE(2)])] to [@IF($E5(4,0),[@IF($E2(4,10),[@SWITCH(4,one,two,three,four,five,six,seven,eight,nine,ten)],[@VALUE(4)])],[@VALUE(4)])] members, [@SPLIT([@STRING($EB(1))], ,1)]. Travel north of Camp Tranquil in the South Shroud and aid in their effort.","Der Kerker von Toto-Rak hat sich in ein wimmelndes Dämonennest verwandelt, das sogar den harten Kämpfern vom Klageregiment zu viel ist. Versammle deine Gefährten um dich und eile ihnen als Gruppe von [@VALUE(2)] bis [@VALUE(4)] Abenteurern zu Hilfe!","Les Mille Gueules de Toto-Rak, au nord du camp des Sentes tranquilles, sont un endroit infesté de monstres prêts à sauter à la gorge des braves vigiles sombres. Usez donc de la plus grande prudence dans vos préparatifs. Il vous faut une équipe de [@VALUE(2)] à [@VALUE(4)] personnes.",“恬静路营地”以北的“托托·拉克千狱”，[@CR]变成了一座恐怖的魔窟，连鬼哭队的勇士们都不是对手。[@CR]请做好充分的准备，召集[@VALUE(2)]～[@VALUE(4)]名勇士前去调查。
13,「トトラクの千獄」入口に待機している補給部隊が[@CR]現地の情報をより詳しく、説明してくれるでしょう。[@CR]特殊な場所ですから、一言一句、聞き漏らさぬようお願いします。,"You will find a group of guards stationed near the dungeon's entrance. They will brief you on the situation. Go now, and may the gods go with you.",Die Verstärkungseinheit wartet am Eingang zum Kerker und kann dir sicher den neuesten Stand der Dinge berichten.,"Des unités des vigiles sombres seront sur place et vous donneront les détails de l'opération. Bon courage[@1D]! C'est un endroit très spécial, alors soyez très [@IF($E9(4),attentive,attentif)].",在“托托·拉克千狱”入口处待命的补给队，[@CR]会就现场的情况为您进行更详细的说明。[@CR]因为是非常特殊的地方，所以请您仔细听他说的每句话，一个字也不要漏掉。
14,……待っていたぞ、[@STRING($EB(1))]だな。[@CR]「双蛇党」の統合司令部より、連絡を受けている。[@CR]勇気ある援軍として、この任務に参加してくれると。,"Ah, you must be [@SPLIT([@STRING($EB(1))], ,1)]. We've been expecting you. Aye, the Nest sent word you'd be coming to help.",[@STRING($EB(1))]! Den Zwölf sei Dank! Ihr werdet uns also helfen? Die Bruderschaft hat euch schon angekündigt.,"Tu es [@STRING($EB(1))], n'est-ce pas[@1D]? Nous t'attendions. L'Ordre nous a prévenus de ton arrivée.","……我等你好久了，[@SPLIT([@STRING($EB(1))], ,1)]。[@CR]我们接到了蛇巢司令部发来的联络，[@CR]得知你自告奋勇作为援军前来参加此任务。"
16,ちょうどよいときに来てくれた。[@CR]ある危急の任が下され、鬼哭隊の主力部隊を中心として[@CR]神勇隊、幻術士様も急ぎ内部へ突入したところだ。,"But that was not all. We also received urgent orders to locate and extract a Padjal apparently at large in the Maws. To that end, an additional force of Wood Wailers has already entered, accompanied by archers of the Quiver and conjurers of the Fane.","Ihr kommt noch zur rechten Zeit.[@CR]Gerade ist ein Teil unserer Leute reingegangen, einige von Nophicas Schar und die Druiden aus der Grotte der versunkenen Gedanken.","Tu arrives au bon moment. On nous a confié une mission urgente, de la plus haute importance. Les flèches divines et les élé[@16]men[@16]ta[@16]lis[@16]tes ont pénétré à l'intérieur des Mille Gueules avec à leur tête les vigiles sombres, pour tenter de la mener à bien.",你来得正是时候。[@CR]现在刚好有个紧急任务，神勇队、幻术师们[@CR]正在鬼哭队主力的带领下，赶往事件现场。
17,その任とは、内部にて「角尊の少年」を捜すこと。[@CR]あの御方がどこから「トトラクの千獄」へお入りになったか[@CR]わからぬが、内部にてあの御方に助けられたという負傷兵がいてな。,"The first Wailer expedition into the Maws was a disaster. We can't say exactly what went on down there, but the party ended up being scattered. It's a miracle any survived. Yet some did, and among them many claimed to have been saved by a Padjal who brought them water and tended their wounds.","Einige von denen, die sich schwer verwundet herausretten konnten, wollen nämlich da drin einen Padjal gesehen haben, der sie zu schützen versuchte.[@CR]Ja, ich weiß - wir haben keine Ahnung, wie er hineingelangt sein soll. Aber wenn es stimmt, dann müssen wir alles daran setzen, dass ihm nichts passiert.","Notre tâche consiste à retrouver un jeune garçon padjal. Nous ne savons pas comment il s'est retrouvé à l'intérieur des Mille Gueules, mais il aurait sauvé l'un de nos soldats blessés.",任务内容是，到现场去寻找“角尊少年”。[@CR]他究竟是如何进入“托托·拉克千狱”的，我们不得而知，[@CR]但据说我们的负伤兵在里面时曾得到了他的救助。
18,これが、負傷兵の夢まぼろしとも言い切れん。[@CR]あの御方に禍いなきよう、総出でお迎えに向かわなくては……,"Of course, the guards swore that no such soul had entered the dungeon, and assumed the tale to be the delirious rambling of wounded men. But the sheer number of these reports is too great to ignore. If this Padjal [@1A(1)]is[@1A(0)] real, we must do all in our power to see him safely out of the Maws.","Es kann natürlich auch sein, dass sich die Verwundeten alles nur eingebildet haben ... [@CR]Doch es ist ein Padjal. Wir dürfen seine Gesundheit nicht riskieren.",Enfin... peut-être que le soldat a imaginé tout cela lors d'un délire. Nous devons malgré tout tous partir à sa recherche et nous assurer qu'il n'a rien.,但这到底不过是负伤兵在幻觉中说的话，[@CR]我们需要确认他的安全，全体出动前去恭迎他……
19,これから説明する故、しっかりと聞いていけ。まずは……[@CR]「トトラクの千獄」内部へ一度、足を踏み入れた者に対し[@CR]ある程度の時間を置かねば、再突入の許可は出せない。,"You must also keep the following in mind─once you set foot in the Maws, I cannot permit you to re-enter until your body has had time to rid itself of the noxious residues of woodsin and aether which permeate the place.","Und jetzt hört mir gut zu: Wer einmal seinen Fuß in die Hölle von Toto-Rak gesetzt hat, aber dann durch irgendwelche Umstände zum Rückzug gezwungen wird, kann sie nicht sofort wieder betreten. Die Stimme des Wahnsinns und die infernalischen Dämpfe da drin würden euren Geist zerstören.","Je vais t'expliquer, alors écoute bien. Tout d'abord, il faut savoir que tout individu qui pénètre dans les Mille Gueules de Toto-Rak doit laisser passer du temps avant d'être autorisé à y pénétrer de nouveau.",下面我开始说明，你得听仔细了。首先……[@CR]凡是踏入过“托托·拉克千狱”内部的人，[@CR]在一段时间内，是不允许再度进入的。
20,クエスト「トトラクの千獄」において、再突入の資格を得るためには[@CR]一定の期間を置かねばなりません。[@CR]再突入まで必要な時間は「メインメニュー」の「ステータス」から[@CR]「コンテンツ」を参照してください。,"After completing an expedition in the Thousand Maws of Toto[@1F]Rak, you will not be allowed to return immediately to the dungeon. To confirm how long you must wait before re-entering, view the Timers tab located under Attributes in the [@COLOR(#ff00cc22)]main menu[@COLOR($EC)].","Um erneut die Zutrittserlaubnis zu den „Tausend Löchern von Toto-Rak“ zu erhalten, muss erst eine bestimmte Zeit verstrichen sein. Die verbleibende Zeit ist unter Charakterprofil → Timer ersichtlich.","Vous devez attendre un certain temps avant de pouvoir entrer une nouvelle fois dans le cadre des quêtes des Mille Gueules de Toto-Rak. Pour connaître le délai d'attente, consultez l'onglet “Calendrier” dans la rubrique “Caractéristiques” du menu principal.",在任务“托托·拉克千狱”当中，如果从千狱离开，[@CR]则需要等上一段时间才有资格再度进入。[@CR]需要的等待时间可以在主菜单下“状态”一栏的[@CR]“任务计时”里确认。
21,また、万一の事態に備え……[@CR]突入してから一定時間が経過した後、強制的に発動する[@CR]魔法をかけておく。「トトラクの千獄」からの脱出魔法だ。,"As another measure to prevent the untimely loss of life to the beasts lurking below, I shall be performing a special incantation prepared by the Conjurers' Guild to draw you and your party out of the dungeon after a set amount of time has passed.","Und um dem Schlimmsten vorzubeugen, werde ich einen Zauber wirken, der euch automatisch zum Ausgang zurückholt, wenn eine bestimmte Zeit verstrichen ist. Eine magische Hintertreppe, nur zu eurer Sicherheit.","Sinon, pour la sécurité des troupes, nous faisons usage d'un sort qui les expulse au[@16]to[@16]ma[@16]ti[@16]que[@16]ment des Gueules passé un certain temps. Ce sort peut leur sauver la vie en cas de situation critique.",其次，为了确保平安，以防万一……[@CR]我会为你施加令你瞬间脱身，离开“托托·拉克千狱”的魔法。[@CR]在你进入千狱经过一段时间之后，它就会强行发动。
22,「トトラクの千獄」攻略には[@CR]「（地球時間）[@VALUE($E8(2))]分」の制限時間が存在します。,You can remain in the Thousand Maws of Toto[@1F]Rak for a maximum of [@VALUE($E8(2))] minutes (Earth time) per visit.,Für die Sicherung des Dungeons habt ihr [@VALUE($E8(2))] Minuten Zeit (Erdenzeit).,La conquête du donjon “les Mille Gueules de Toto-Rak” doit être terminée dans le temps imparti de [@VALUE($E8(2))] minutes (temps réel).,“托托·拉克千狱”有“[@VALUE($E8(2))]分钟（地球时间）”的时间限制。
23,その他の脱出方法としては、徒歩で入口へと戻る方法もある。[@CR]もしも、最奥にある「魔導トランスポーター」を使用したならば[@CR]直接、この場所へと出ることが可能だ。,"In addition to my spell, you may leave at any time by returning to the entrance on foot.","Ihr könnt euch natürlich auch selbst zum Ausgang zurückarbeiten.[@CR]Ach ja, unsere Leute haben eine Art magischen Teleporter ganz im Innersten gesehen, der euch direkt hierher zurückbringt. Einer hat es ausprobiert. Offenbar hat der Teleport seinen Gesundheitszustand nicht unmittelbar beeinträchtigt.","Bien sûr, on peut aussi sortir en retournant à l'entrée, tout bêtement... Il paraît qu'il y a également un “transporteur magitek” au fond du donjon qui permet de se téléporter directement à la sortie.",当然，自己走到入口处也可以离开千狱。[@CR]另外，如果使用最深处的“魔导传送装置”，[@CR]也能直接从那地方传送出来的。
24,ただし最奥には、危険極まりない魔物が巣食っている。[@CR]任を果たしたならば、すみやかに脱出することをお勧めする。,"There are also rumors of an imperial magitek device located in the farthest reaches of the dungeon. It is said the infernal machine can instantly return a man to this spot, but I am not sure I would trust anything constructed by the Empire. Who knows what sort of havoc the contraption might play on one's humours.","Ob ihr allerdings dieser garleischen Konstruktion vertrauen wollt, müsst ihr selbst wissen.[@CR]Vielleicht bleibt euch aber ohnehin keine Wahl - im Innersten des Kellers muss sich ein Monster eingenistet haben, das kaum zu bezwingen ist.","Mais il faut savoir que plus on s'enfonce dans les Mille Gueules et plus les monstres sont dangereux. Une fois ta mission remplie, je te conseille vivement de ne pas prendre de risques inutiles et de quitter les lieux sans tarder.",但最深处是极度危险的魔物巢穴，所以还是[@CR]建议你在完成任务后尽快离开。
25,また、力尽きたときは「デジョン」を用いよ。[@CR]「トトラクの千獄」内部、入口付近にて目覚めることだろう。,"Finally, if you find yourself knocked unconscious by one of the creatures, our scouts have confirmed that using a Return spell will transport you back to the dungeon's entrance, so you may continue your mission, if you so wish.","Wenn euch die Kräfte verlassen haben, müsst ihr ohnehin eine Rückführung wirken, dann werdet ihr in der Nähe des Ausgangs aus den Tausend Löchern von Toto-Rak wieder zu euch kommen.","Enfin, si tu te sens à bout de forces, utilise “Rapatriement” pour retourner près de l'entrée des Mille Gueules.",最后，如果不慎落败，你可以使用“返回”功能。[@CR]这样你就会在“托托·拉克千狱”内部的入口附近醒来。
26,……「トトラクの千獄」について、調査で判明していることは少ない。[@CR]我々も全力で支援する故、「角尊の少年」のこと、頼むぞ。[@CR]少年なぞと呼ぶことも恐れ多い御方だが……,"Until now, our best efforts to investigate the Maws have yielded little and less. Your help is sorely needed. I only hope this mysterious Padjal is found before it is too late.","Wir wissen nicht viel darüber, was da drin vorgeht, aber wir unterstützen euch nach besten Kräften. Rettet vor allem den Padjal! Wer weiß, um wen es sich dabei handelt ...",Nous connaissons encore très mal les Mille Gueules de Toto-Rak... je compte sur ton aide pour retrouver le jeune Padjal. Nous autres ferons aussi tout notre possible pour aider. Même si ce Padjal est lui aussi entouré de mystère...,……关于“托托·拉克千狱”，我们的调查成果还太少太少。[@CR]“角尊少年”就拜托你了，我们会全力支援你的。[@CR]虽然这位少年依然被谜团包围着……[@CR]
27,もしお会いすることができたならば、[@CR]くれぐれも礼を失することのないように。[@CR]では、万全の支度を整え、再び声をかけてくれ。,"Go now, and make what preparations you must. When you are ready, come and speak to me again.","Und falls ihr ihn findet, zeigt Demut und Respekt. Ihr wisst, dass die Padjal nicht einfache Kinder sind ...[@CR]So, trefft eure letzten Vorbereitungen!","Si tu le trouves, surtout, veille à ne pas lui manquer de respect. Reviens me voir quand toi et tes équipiers serez prêts à partir.",真见到他的话，[@CR]你可一定要注意礼节。[@CR]好，等你准备就绪了跟我说下。[@CR]
28,「トトラクの千獄」に突入しますか？,Enter the Thousand Maws of Toto[@1F]Rak?,„Die Tausend Löcher von Toto-Rak“ betreten?,Pénétrer dans les Mille Gueules de Toto-Rak[@1D]?,现在就进入“托托·拉克千狱”吗？
29,はい,Yes.,Ja.,Oui.,好的
30,いいえ,Not yet.,"Moment, noch nicht.",Non.,别
31,一早く、「トトラクの千獄」の穢れにあてられたか。[@CR]仕方あるまい、まずは、自らの臆病心と戦ってこい。,"I understand, and you need not be ashamed of your decision. One must first conquer one's own fears before one can conquer those which trouble others.","Bist du bereits von der Unreinheit verseucht, die von diesem Kerker ausgeht?[@CR]Angst zu haben ist keine Schande, aber besiege sie, bevor du dich äußeren Feinden stellst.","Tu as été touché[@IF($E9(4),e,)] par l'infâmie qui souille les Mille Gueules[@1D]? Tu me déçois... commence par vaincre tes propres monstres avant de te présenter de nouveau sous mes yeux.",这么快就败给“托托·拉克千狱”的秽气了么？[@CR]真没办法，你还是先战胜自己心中的恐惧再回来吧。
33,ナんだ　テめエ,Why are you heeere? Begone!,"was ist, unwÜRDIGe[@CR]WAS",Qui est là[@1D]!?,来者 何人
34,……んんんんん。,"Why, hello there, friend. Are you injured? Lost?",[@1A(1)]...hnnnnnnn[@1A(0)],... Hmmm...,……嗯嗯嗯嗯嗯。
35,きみは、だれ？[@CR]ぼくを、捜してる？　捜してるのは、だれ？,"No? What brings you here, then? You're looking for someone? For me?",Wer bist du?[@CR]Suchst du ... mich?,Qui es-tu[@1D]? Tu me cherches[@1D]? Qui me cherche[@1D]?,你是，哪位？[@CR]是在，找我吗？在找我的，是谁？
36,……んんんんん。[@CR]こっそり来たんだけどな。おっきい姉さまに怒られちゃう……,"How did I get in? Why, through the entrance, of course. But please, don't tell anyone. It would only injure the guards' pride─and my sister would be furious besides.","Retten?[@CR]Das ist sehr lobenswert, aber ich komme schon zurecht.[@CR]Das heißt, bis auf die Unreinheit hier, die die Luft bleischwer macht und jedem sensiblen Wesen den Atem raubt ...",... Hmmmmm... Je suis venu sans rien dire à personne... Ma grande sœur va sûrement me gronder...,……嗯嗯嗯嗯嗯。[@CR]我是悄悄来这里的啊，被姐姐大人发现了会挨骂的……
37,ぼくね、モーグリたちを、助けにきたの。[@CR]呼び声を聞いてしまって、呼び声にまねかれちゃって。,"I sensed the moogles were in great danger, you see, and hurried here to save them. It was rash of me, I know, but there was no time to call a council, nor to appeal to the Order of the Twin Adder.","Ich bin hierher gekommen, um die Mogrys zu retten.[@CR]Ich weiß, das war etwas voreilig, aber die Lage erlaubte keine Sekunde des Zögerns. Sie haben mich gerufen, und ich bin dem Hilferuf gefolgt ... So habe ich auch den zweiten Eingang entdeckt.","Je suis venu aider les Mogs, mais j'ai entendu une “voix” qui m'a attiré.",我啊，是为了帮助莫古力而来的。[@CR]然后我听到了叫声，并受到了那叫声的指引。
38,ここ、クリスタルの声が、すごく強いんだ。[@CR]大地の底から、びりびりと叫んでいるんだ。,"The voices of the crystals are strong here. And of late, I have heard them screaming out in terror from deep below the earth.","Hier ist die Stimme der Kristalle unglaublich stark! Vom Erdboden her schreien sie, vibrierend, ohrenbetäubend knisternd, fühlst du es?","La voix du cristal est très forte, ici. Son hurlement déchirant s'échappe des tréfonds de la terre...",这里，水晶的叫声，非常强劲。[@CR]那撕心裂肺的叫声，从大地的底部传来。
39,生き物たちはみんな、クリスタルの力を有している。[@CR]だから、みんな、このびりびりと一緒に叫び出したくなる。,"All living things are imbued with the power of crystals, and so their screams echo within us all. That is why so many lesser creatures are now crazed and restless. The screams have them in untold agony, driving them to madness.","Alle Lebewesen sind mit der Kraft der Kristalle beseelt, deswegen müssen sie alle in dieses Brummen und Knistern einstimmen. Die Vibration überträgt sich auf ihre Seele ...","Tous les êtres vivants possèdent le pouvoir du cristal. Alors, tous ressentent l'envie de crier à l'unisson avec lui...",世间生物皆有着水晶的力量，[@CR]所以大家，都响应这叫声，一起撕心裂肺地叫了起来。
40,ケダモノどモは集まっテ　スベてを殺メ始めるノサ,Gather heeere... Kiiill... Kill them allllll...,die MonsTER haben sich VERSAmmelt[@CR]beginNEN zu TöteN[@CR]alles,Les créatures sont là... Elles vont commencer à tuer...,兽群 在此 集结　　投身 无尽的 杀戮
41,……んんんんん。,"The moogles are fine, incidentally.",... Dieses Vibrieren ...[@CR]Wir müssen hier weg.,... Hmmmmm...,……嗯嗯嗯嗯嗯。
42,モーグリたちは、もう、だいじょうぶ。[@CR]ちょっとお休みしたら、一緒に里へと帰るから。[@CR]ぼくを捜してるだれかたちにも、風の言の葉で伝えておくね。,"I will leave this place together with them. But for now, I must rest. I am so...weary. I will send word to the Adders' Nest when I can. It was never my intention to trouble them.","Die Mogrys sind nun außer Gefahr, der Weg ist frei. Nach einer kleinen Pause kehren wir gemeinsam heim. Ich richte es auch denen aus, die mich suchen - mit den Worten des Windes.",Les Mogs sont sains et saufs. Je vais me reposer un peu et rentrer avec eux au village. Je préviendrai aussi ceux qui me cherchent par les voix du vent.,莫古力它们，已经没事了。[@CR]稍事休息之后，我就带它们一起回去。[@CR]找我的那些人，我会让风声传话给他们。
43,あと、きみにこれを、お願いするね。[@CR]そこの魔導のからくりから、モーグリたちが外してくれた。[@CR]でも、ぼくには痛いもので、運んでいけないから……。,"Oh, and here─you can have this. The moogles removed it from that magitek device there. I'd take it back with me, but it...it is so...[@1A(1)]heavy[@1A(0)]. I feel it weighs me down...somehow. Take it, please. I cannot carry it a moment more.","Ich habe eine Bitte. Das hier haben die Mogrys aus der magischen Apparatur herausgeschraubt. Aber ich kann es nicht tragen, ohne von Schmerzen gequält zu werden - nimm es!","Ah, je vais vous confier ça. Les Mogs l'ont retiré d'un engin magitek, là-bas. Mais il me fait mal, je ne veux pas le transporter...",然后，这个，就拜托你了。[@CR]它是莫古力们从那边的魔导装置上取下来的。[@CR]然而这东西令我感到痛苦，所以我无法携带它……
44,これ、ふしぎなものなの。[@CR]精霊の声が聞こえないのに、精霊の声を聞こうとしているよ。[@CR]ぼくと同じこと、これを置いただれかさんも気づいているみたい。,This is a strange thing indeed. The elementals tell me that it is attempting to measure the flow of aether through the Maws─though I cannot fathom why a magitek user should deem the stuff sufficiently interesting to warrant such an invention...,"Ein seltsames Gerät. Es versucht, die Stimmen der Gebieter in sich aufzunehmen, obwohl sie nicht zu hören sind. Diejenigen, die es hier zurückgelassen haben, haben das wohl auch bemerkt - oder beabsichtigt.",C'est un drôle d'objet. Il ne peut pas entendre la voix des esprits et pourtant il essaye de capter leur voix... La personne qui l'a laissé ici avait dû le remarquer aussi.,它是个不可思议的东西。[@CR]精灵的声音本是听不见的，而这东西却在试着聆听。[@CR]把它放在这里的人，似乎和我一样明白这一点。
45,じゃあね。[@CR]モーグリたちの言葉がわかるなら、話を聞いてみるといいよ。[@CR]これで少しは、おっきい姉さまのおやくに立てればいいな。,"You would do well to speak to the moogles, should you know their words. Mayhap there is something to be learned from all of this─some knowledge that may serve my sisters.","Wenn du die Sprache der Mogrys verstehst, kannst du ja mit ihnen reden.[@CR]Vielleicht bringt dich das weiter ...","Bon, je vais y aller. Si vous comprenez la langue des Mogs, vous devriez les interroger. Ces in[@16]for[@16]ma[@16]tions pourraient servir à ma sœur.",再见啦。[@CR]如果懂得莫古力的语言，可一定要听听他们在说什么。[@CR]虽然帮助不大，但对姐姐大人而言总会有用的吧。
46,ちょっとお休みしたら、みんなで里へと帰るから。[@CR]ぼくを捜してるだれかたちにも、風の言の葉で伝えておくね。,"I'll rest here just a little longer, but I promise to return with the moogles, and to make all known to the Adders' Nest. It was never my intention to trouble them so.","Wenn wir wieder etwas zu Kräften gekommen sind, kehren wir nach Hause zurück. Ich richte es auch denen aus, die mich suchen - mit den Worten des Windes.",Je vais me reposer un peu et rentrer avec eux au village. Je préviendrai aussi ceux qui me cherchent par les voix du vent.,稍事休息之后，我就带它们一起回去。[@CR]找我的那些人，我会让风声传话给他们。
47,……んんんんん。[@CR]ひさしぶりに、お話したら疲れちゃった……。,<yawn> So tiiired...,Ich bin so müde ...,... Hmmm... Cela faisait longtemps que je n'avais pas discuté avec quelqu'un... je suis fatigué...,……嗯嗯嗯嗯嗯。[@CR]好久没说话了，还挺累的……
48,クポクポ……クククポポポポ……,Kupo!,Kupo kupo! Kupopo.,Kupo kupo... Kukukupopopo...,库啵库啵……库库库啵啵啵啵……
49,なんだか見覚えのある冒険者クポ……[@CR]こんなところを見られちゃうなんて、恥ずかしいクポ。,"Goodness gracious me, how embarrassing! To be seen in a place such as this! Wait... You look almost exactly like an adventurer I once met, adventurer.","Oh, [@IF($E9(4),diese Abenteurerin,dieser Abenteurer)] kommt mir bekannt vor, kupo! Wie peinlich, dass du uns nun so gesehen hast, kupo ...","(Je crois avoir déjà vu [@IF($E9(4),cette,cet)] aventuri[@IF($E9(4),ère,er)] quelque part. Oh[@1D]! J'ai honte qu'on me voie comme ça, kupo.)",咦我是不是见过这位冒险者库啵……[@CR]啊呀竟然在这种地方被你看到，羞死了库啵。
50,冒険者が話しかけてるクポ……[@CR]この冒険者も、モーグリの言葉がわかるのクポ……？,Y-you can understand me!? Are you hearing more than just incomprehensible kupo noises right now?,"[@IF($E9(4),Diese Abenteurerin,Dieser Abenteurer)]... spricht uns an![@CR]Verstehst du etwa unsere Worte, kupo?","(Ah... [@IF($E9(4),Elle,Il)] nous parle, kupo... Est-ce que par hasard, [@IF($E9(4),elle,il)] comprendrait notre langue, kupo[@1D]?)",我在跟冒险者说话诶库啵……[@CR]这位冒险者也懂莫古力的语言吗库啵？
51,聞いてほしいクポ。[@CR]モーグリ、ア・ルンに助けてもらったクポ。[@CR]お花畑で踊っていたら、いつの間にかここに来てたクポ。,"That's wonderful, kupo! Then I can tell you what happened! A[@1F]Ruhn saved us. I don't know what happened, but one moment we were dancing in our flower fields, and the next we were here.","Dann hör gut zu, kupo.[@CR]A-Ruhn hat uns Mogrys gerettet. Wir tanzten gerade in den Blumenwiesen, und plötzlich waren wir ... hier! Kupo.","Ecoutez[@1D]! Nous sommes des Mogs et nous avons été sauvés par A-Ruhn-Senna. Nous dansions dans un champ de fleurs quand nous nous sommes retrouvés ici sans savoir ce qui nous était arrivé, kupo.",太好啦我正希望有人听我说话呢库啵。[@CR]莫古力得到了阿·卢恩的帮助库啵。[@CR]我们本来在花园里跳着舞呢，不知怎么就到这里来了库啵。
52,この変な装置のせいクポ、と思ったクポ。[@CR]動かせないから、外れそうなとこを外したクポ。[@CR]でも、ブルブルする気持ちはおさまらないクポ……。,"I think it must have been this strange device. It's too large to move, but I levered off what parts I could. Kupooo...the mere sight of it sends shivers down my spine.","Diese seltsame Apparatur, sie hat uns hierher gezogen![@CR]Sie war keinen Millimalm zu bewegen, also haben wir alles abmontiert, was wir konnten, kupo.[@CR]Aber dieses Zittern, die Unruhe geht nicht weg ...","C'est à cause de cet étrange objet, kupo... comme il ne bouge pas, j'ai fait en sorte de détacher ce que je pouvais. Mais j'ai encore des frissons dans le corps...",一定是这个奇怪的装置搞的鬼库啵，我猜库啵。[@CR]我弄不动它，于是就卸下了它的零件库啵。[@CR]但毛骨悚然的感觉还是停不下来库啵……
53,クポクポ……クククポポポポ……[@CR]とっても不安クポ……ア・ルンが来なかったら、どうなっていたクポ……？,Shudder to think what might have happened if A[@1F]Ruhn hadn't come along! I may have uttered my last kupo!,"Kupokupopo ...[@CR]Wirklich furchterregend, kupo! Wenn A-Ruhn nicht gekommen wäre, was wäre nur aus uns geworden? Kupo ...",Kupo kupo... Kukukupopopo... Toute cette histoire fait vraiment froid dans le dos... Qu'est-ce qu'on serait devenus si A-Ruhn n'était pas venu à notre secours[@1D]?,库啵库啵……库库库啵啵啵啵……[@CR]想起来都后怕库啵……要是阿·卢恩没来的话，简直不知道会怎样库啵……
54,モーグリ、助かったクポ！[@CR]ア・ルンに助けてもらったクポ！,"A[@1F]Ruhn saved us, kupo!","Er hat uns Mogrys gerettet, kupo! Was für ein Glück!","A-Ruhn nous a sauvés, kupo[@1D]!",莫古力，得救啦库啵！[@CR]被阿·卢恩救啦库啵！
55,このごろ、モーグリ、いなくなっちゃうクポ！[@CR]ア・ルンが来てくれてよかったクポ！,"If he hadn't come, we'd be in bloody little chunks for sure, kupo!","Sonst wären wir Monsterfutter gewesen, kuuupooo ... [@1A(1)]schnief[@1A(0)]","Ces derniers temps, les Mogs dis[@16]pa[@16]rais[@16]sent, kupo[@1D]! Heu[@16]reu[@16]se[@16]ment qu'A-Ruhn est venu à notre secours.",这个时候呀，莫古力都没掉了库啵！[@CR]还好阿·卢恩来了，真是太好了库啵！
56,ラヤ・オだったら、このあと、ねっちりお説教クポ！[@CR]まんなか姉さん、大人ぶってるクポ！,"I do hope his sister won't be too hard on him when she finds out. Raya[@1F]O is constantly scolding him for his impetuousness, but it was a brave thing he did.","Hoffentlich wird Raya-O-Senna Verständnis haben, dass ihr Bruder auf eigene Faust gehandelt hat. Aber kupo, es war wirklich ernst!","Raya-O-Senna va sûrement lui passer un savon, après ça, kupo[@1D]! La cadette des sœurs Senna aime bien jouer les grandes sœurs...",只是待会儿啊，拉雅·奥肯定又要说教了库啵！[@CR]他那姐姐就喜欢装大人库啵！
57,"[@SPLIT([@STRING($EB(1))], ,1)]、よくぞあの御方を捜し当ててくれた！[@CR]グランドカンパニー「双蛇党」の統合司令部より、連絡を受けている。[@CR]あの御方はモーグリ族と共に、「トトラクの千獄」を後にしたとのこと。","A job well done, [@SPLIT([@STRING($EB(1))], ,1)]. Word arrived from the Adders' Nest. It seems you found our Padjal within the Maws. To think it was none other than Seedseer A[@1F]Ruhn[@1F]Senna! I should add that he and the moogles have since departed.","[@STRING($EB(1))], ich danke dir. Du hast den Padjal gefunden, und es war A-Ruhn-Senna! Wir haben von der Bruderschaft Bescheid bekommen, dass er und die Mogrys aus den Löchern von Toto-Rak nach Hause zurückgekehrt sind.[@CR]Den zweiten Zugang sollten wir wohl besser auch überwachen ... Sonst erfahren wir nur über die Bruderschaft, was alles vor unserer Nase passiert.","[@SPLIT([@STRING($EB(1))], ,1)][@1D]! Tu as secouru le Padjal, merci[@1D]! L'Ordre des deux vipères nous a prévenus. Il a quitté les Mille Gueules en emmenant les Mogs.","[@SPLIT([@STRING($EB(1))], ,1)]，你真的找到那位大人了！[@CR]大国防联军“双蛇党”的蛇巢司令部发来了联络。[@CR]那位大人带着莫古力族一起，离开了“托托·拉克千狱”。"
58,森の加護厚き御方を、禍いから護る任務。[@CR]見事に成功と言えよう。冒険者よ、謝礼は厚いぞ。,"It's a relief to know he's no longer in harm's way. This mission has been a success, thanks to you.","A-Ruhn-Senna gerettet! Das ist keine Kleinigkeit. Du hast deine Aufgabe, den Beschützer des Waldes zu schützen, mit Bravour erfüllt.","Tu as sauvé du péril un être béni par la forêt. Cette mission est un succès[@1D]! Tu seras remercié[@IF($E9(4),e,)] comme il se doit, aventuri[@IF($E9(4),ère,er)].",干得非常漂亮！你帮助了那位一直守护着森林的大人，[@CR]令他免受灾祸。冒险者啊，我们得重谢你才行。
59,救出のために派遣されていた部隊も、グリダニアへ呼び戻された。[@CR]「トトラクの千獄」に設置されている、奇っ怪な青燐機関について[@CR]通達があるそうだ。,"The forces deployed to find him have returned to Gridania, as well. First Serpent Lieutenant Fulke spoke of a strange magitek device within the Maws.","Auch die Truppe, die zur Rettung hierher geschickt worden war, ist nach Gridania zurückberufen worden.[@CR]Sie wollten eine Nachricht über eine seltsame Erdseim-Maschine überbringen, die in den Löchern von Toto-Rak abgestellt sein soll.[@CR]Ob das nicht nur eine Halluzination war ...?",L'escadron qui avait été appelé en renfort est reparti à Gridania. Ils ont quelque chose à te dire au sujet de l'étrange dispositif céruléen trouvé dans les Mille Gueules.,之前派来的救援部队，已经被召回格里达尼亚了。[@CR]他们似乎提到，“托托·拉克千狱”内被设置了[@CR]奇怪的青燐机关。
60,おお、おまえも、その機械を目にしたのか？[@CR]穢れが強く、我等はそれに近づくことができなかったのだが……,"You saw it, too? The conjurers within warned the others not to go near it. They said it gave off a vile, foreboding air.","Was? Du hast die Maschine selbst gesehen? Jeder weiß hier mehr als ich.[@CR]Aber die Unreinheit wäre sicher ohnehin zu abstoßend, um sich ihr zu nähern ...","Ah, toi aussi tu as vu cette curieuse machine[@1D]? Elle émet une forte aura de souillure, et nous n'avons pas pu nous en approcher...",噢，你也看到那机器了吗？[@CR]那东西的秽气非常重，我们的人简直没法靠近……
61,"……ほう、「[@SWITCH([@SHEET(itemData,11000260,41)],[@COLOR(#fff3f3f3)],[@COLOR(#ffc0ffa0)],[@COLOR(#ff60c8ff)],[@COLOR(#ffb38cff)],[@COLOR(#ffffa666)],[@COLOR(#ffe5dd7e)])][@EDGECOLOR(#ff262626)][@SHEET(xtx/itemName,11000260,4)][@EDGECOLOR($EC)][@COLOR($EC)]」を託されたというか！[@CR]それは急ぎ、統合司令部へ報告する必要があるぞ。[@CR]シーロ中牙士は、今回の活躍をお喜びになるだろう。","This [@SWITCH([@SHEET(itemData,11000260,41)],[@COLOR(#fff3f3f3)],[@COLOR(#ffc0ffa0)],[@COLOR(#ff60c8ff)],[@COLOR(#ffb38cff)],[@COLOR(#ffffa666)],[@COLOR(#ffe5dd7e)])][@EDGECOLOR(#ff262626)][@SHEETEN(xtx/itemName,3,11000260,1,1)][@EDGECOLOR($EC)][@COLOR($EC)] is from the device!? You must take it to the Adders' Nest at once! I daresay First Serpent Lieutenant Fulke will be eager to have it properly examined.","... Was? Angefasst auch?! Und du hast [@SWITCH([@SHEET(itemData,11000260,41)],[@COLOR(#fff3f3f3)],[@COLOR(#ffc0ffa0)],[@COLOR(#ff60c8ff)],[@COLOR(#ffb38cff)],[@COLOR(#ffffa666)],[@COLOR(#ffe5dd7e)])][@EDGECOLOR(#ff262626)][@SHEETDE(xtx/itemName,1,11000260,1,4,1)][@EDGECOLOR($EC)][@COLOR($EC)]?[@CR]Den musst du schnellst[@16]möglich im Abaton abliefern! Schlangenpriester Fulke wird sehr interessiert daran sein. Genauso wie an deinem Bericht.","Oh, il t'a donné [@SWITCH([@SHEET(itemData,11000260,41)],[@COLOR(#fff3f3f3)],[@COLOR(#ffc0ffa0)],[@COLOR(#ff60c8ff)],[@COLOR(#ffb38cff)],[@COLOR(#ffffa666)],[@COLOR(#ffe5dd7e)])][@EDGECOLOR(#ff262626)][@SHEETFR(xtx/itemName,1,11000260,1,1)][@EDGECOLOR($EC)][@COLOR($EC)][@1D]! Tu devrais aller [@IF([@SHEET(xtx/itemName,11000260,23)],la,le)] remettre au plus vite au quartier général de l'Ordre. Fulke a sûrement hâte de connaître tes derniers exploits.","……什么，这个“[@SWITCH([@SHEET(itemData,11000260,41)],[@COLOR(#fff3f3f3)],[@COLOR(#ffc0ffa0)],[@COLOR(#ff60c8ff)],[@COLOR(#ffb38cff)],[@COLOR(#ffffa666)],[@COLOR(#ffe5dd7e)])][@EDGECOLOR(#ff262626)][@SHEET(xtx/itemName,11000260,131)][@EDGECOLOR($EC)][@COLOR($EC)]”就是来自那机关的么！[@CR]那得赶紧，我们必须向蛇巢司令部报告此事。[@CR]希洛副牙尉一定会为这次的成功感到振奋！"
62,任務の達成、ごくろうさまでした。[@CR]「トトラクの千獄」にて展開された危急の任。[@CR]その働きは見事なものだったと報告を受けています。,"Yet another job well done, [@SPLIT([@STRING($EB(1))], ,1)].",Vielen Dank für deine Mithilfe.[@CR]Also ist deine Mission in Toto-Rak gut ausgegangen.,Bravo pour vos efforts dans cette mission. Nous avons été prévenus que l'opération a été un succès remarquable.,任务顺利完成，辛苦您了。[@CR]我已经接到了报告，在这次围绕“托托·拉克千狱”[@CR]展开的紧急任务当中，您的表现非常卓越。
63,あなたが見つけ出し、皆の心配を伝えてくれた御相手……[@CR]「角尊の少年」については、おいおいご説明しましょう。[@CR]今はただ、やんごとなき御方だと伝えるに留めます。,"No doubt you realize by now, but the Padjal you found was none other than Seedseer A[@1F]Ruhn[@1F]Senna, youngest of the three siblings, and brother to Kan[@1F]E and Raya[@1F]O. Gridania is the better for having him back. It was a great thing you did, braving the Maws and convincing him to return.","Ich werde dir später ein paar Dinge über den Padjal erklären, den du dankenswerterweise aus dem Verlies gerettet hast.[@CR]Fürs Erste sollst du nur wissen, dass er eine erlauchte Person ist.","Je vous donnerai en temps voulu quelques ex[@16]pli[@16]ca[@16]tions sur le jeune Padjal que vous avez trouvé, et au sujet duquel nous étions très inquiets. Sachez simplement qu'il s'agit d'une personne de naissance noble.",关于您见到的那位牵动我们所有人神经的大人物……[@CR]“角尊少年”，我会逐渐说明的。[@CR]目前您只需要知道他是一位高贵的大人。
64,今回の働きは、幻術皇カヌ・エ・センナ様の耳にも届くことでしょう。[@CR]喜ばしいことに、「トトラクの千獄」における穢れについても[@CR]調査が進んだという報告もございます。,Elder Seedseer Kan[@1F]E[@1F]Senna herself has been informed of your exploits. I can also report that we have made progress in our investigation of the woodsin permeating the Thousand Maws.,"Was geschehen ist, wird auch an das Ohr der obersten Saatseherin Kan-E-Senna dringen. Übrigens wissen wir nun auch genauer, was diese „Unreinheit“ im Verlies von Toto-Rak ist.","Je suis sûr que Kan-E-Senna aura vent de vos exploits. En plus, nous avons également appris que les recherches sur la souillure des Mille Gueules de Toto-Rak ont progressé.",这次的行动，大概会传到幻术皇嘉恩·艾·神纳大人耳边去吧。[@CR]值得庆贺的是，有报导称，关于“托托·拉克千狱”的秽气，[@CR]我们的调查已经取得了实质上的进展。
65,あの場所に設置されている青燐機関は、ガレマール帝国製のもの。[@CR]精霊たちの監視がある中、どのようにしてガレマール帝国兵が[@CR]「トトラクの千獄」へ潜入したかという謎はありますが……,The device installed there is of Garlean making. And so the question that concerns us most now is this─how did imperials manage to infiltrate the Twelveswood [@1A(1)]and[@1A(0)] the Maws with such an unwieldy contraption? And all while the elementals looked on! A troubling thought indeed...,"Und die Maschine, die du dort gesehen hast, ist eine garleische Konstruktion.[@CR]Ein Rätsel bleibt: wie sich die Garlear unbemerkt von den wachsamen Augen der Gebieter in die Löcher von Toto-Rak einschmuggeln konnten ...",Le dispositif céruléen qui s'y trouve provient de l'empire de Garlemald. Nous ignorons cependant comment ils ont pu le placer en plein cœur d'un endroit sous la sur[@16]veil[@16]lan[@16]ce des esprits...,那地方设下的青燐机关，乃是加雷马帝国的东西。[@CR]加雷马帝国兵是怎么在精灵们的监视下潜入“托托·拉克千狱”的，[@CR]这一点到现在还是个谜……
66,驚くべきは、幻術士様方が気の流れを読んだ結果、[@CR]あの機関は「穢れ」を調査するために設置されたというのです。,"Our uncertainty only grew when we were informed of the conjurers' findings. By attuning to the forces within the Maws, they discerned that the device's purpose was to measure the flow of aether in the area. But why should the Empire, with all their infernal technologies, take an interest in that?","Aber jetzt halt dich fest: Der Druide konnte die Kraftströme wahrnehmen und sah etwas Verblüffendes! Die Maschine war dort abgestellt, um damit die Unreinheit zu untersuchen! Sie hat sie also nicht [@1A(1)]hervorgebracht[@1A(0)], sondern [@1A(1)]aufgezeichnet[@1A(0)]!","Ce qui est encore plus surprenant, c'est que d'après la lecture de notre Oracle, cette machine servirait à étudier la souillure...",幻术师们通过解读气的流动，得出了惊人的结论：[@CR]那机关竟是为了调查“秽气”而设置的。
67,その青燐機関の一部だけでも慎重に運び出し、[@CR]技術者集団「ガーロンド・アイアンワークス」に[@CR]調査を依頼する運びになるでしょう。,If only we could take it─or just a piece of it─to the Garlond Ironworks. Surely the engineers there would be able to glean something useful from it.,"Das bedeutet, dass wir zumindest einen Teil der Erdseim-Maschine vorsichtig aus dem Keller herausbringen müssen, um die Techniker von den Gar[@16]lond-Me[@16]tall[@16]wer[@16]ken dazu zu konsultieren.","Si quelqu'un pouvait nous rapporter ne serait-ce qu'un fragment de cet objet, nous pourrions le faire analyser par les techniciens des Forges de Garlond...",那青燐机关，哪怕只是一部分也好，[@CR]只要能小心地带出来，交给技术集团“加隆德炼铁厂”，[@CR]就可以委托他们进一步调查了。
68,……おお？　既に、その一部を運び出したと！？[@CR]ア・ルン・センナ様があなたに託されたというのですか！？,You have a piece of the device!? Where did you get it?,... Was? Du hast allen Ernstes ein Bauteil der Maschine mitgebracht?![@CR]A-Ruhn-Senna hat es dir mitgegeben?!,Quoi[@1D]? Vous avez déjà ramené un morceau de la machine[@1D]!? Vous dites qu'A-Ruhn-Senna vous l'a remis[@1D]?,……什么？你已经带了它的部件出来？！[@CR]是阿·卢恩·神纳大人交给您的？！
69,さすがは、ア・ルン・センナ様。[@CR]グリダニアを勝利へと導いてくださるのですね……。,"From the hands of a moogle to Seedseer A[@1F]Ruhn[@1F]Senna, thence to you, from you to the Order of the Twin Adder, and from us to the Garlond Ironworks! Well, this is no mere coincidence. I do believe our fortunes in this war are changing!","Du verblüffst mich immer wieder, [@STRING($EB(1))]. Das ist ja hervorragend![@CR]Wirklich weitblickend!",Je reconnais bien là la finesse d'esprit de sire A-Ruhn-Senna... Je suis certain qu'il mènera Gridania à la victoire.,真不愧是阿·卢恩·神纳大人，[@CR]必将引领我们格里达尼亚走向胜利……
70,あなたの働きには、驚かされるばかりです。[@CR]さあ、「軍票」をお配りしましょう。,"Your deeds continue to astound, [@SPLIT([@STRING($EB(1))], ,1)]. The Order of the Twin Adder thanks you. Here is your reward.","Das wird am Ende zum Sieg von Gridania führen ...[@CR]Hier, diese Taler können nur unvollkommen ausdrücken, wie viel wir dir verdanken.","Vos exploits ne manquent décidément pas de me surprendre. Tenez, voici des sceaux de compagnie.",您的行动实在是让我惊喜。[@CR]来，请收下这份军票。
71,「トトラクの千獄」に入るためには、ファイターかソーサラーの[@CR]レベル[@VALUE($E8(4))]以上のプレイヤーが[@VALUE(2)]～[@VALUE(4)]名、必要です。,"Only parties consisting of between [@IF($E5(2,0),[@IF($E2(2,10),[@SWITCH(2,one,two,three,four,five,six,seven,eight,nine,ten)],[@VALUE(2)])],[@VALUE(2)])] and [@IF($E5(4,0),[@IF($E2(4,10),[@SWITCH(4,one,two,three,four,five,six,seven,eight,nine,ten)],[@VALUE(4)])],[@VALUE(4)])] Disciples of War or Magic with a level of [@VALUE($E8(4))] or above will be granted entry to the dungeon.","Um die „Tausend Löcher von Toto-Rak“ zu betreten, müsst ihr [@VALUE(2)] bis [@VALUE(4)] Abenteurer in einer Kämpfer- oder Magierklasse mindestens auf Stufe [@VALUE($E8(4))] sein.",Votre groupe devra être composé de disciples de la guerre ou de la magie. Seule une équipe de [@VALUE(2)] à [@VALUE(4)] personnes de niveau [@VALUE($E8(4))] ou plus peut être autorisée à pénétrer dans les Mille Gueules de Toto-Rak pour cette mission.,队伍中必须要有[@VALUE(2)]～[@VALUE(4)]名等级达到[@VALUE($E8(4))]级以上的[@CR]战斗精英或魔法导师，才能进入“托托·拉克千狱”。
72,クエスト「トトラクの千獄」における参加資格が満たされていません。[@CR]ファイターかソーサラーのレベル[@VALUE($E8(4))]以上のプレイヤー[@VALUE(2)]～[@VALUE(4)]名で[@CR]パーティを組んでください。,"Your party does not meet the requirements to enter the Thousand Maws of Toto[@1F]Rak. Please return with a party of between [@IF($E5(2,0),[@IF($E2(2,10),[@SWITCH(2,one,two,three,four,five,six,seven,eight,nine,ten)],[@VALUE(2)])],[@VALUE(2)])] and [@IF($E5(4,0),[@IF($E2(4,10),[@SWITCH(4,one,two,three,four,five,six,seven,eight,nine,ten)],[@VALUE(4)])],[@VALUE(4)])] Disciples of War or Magic, all level [@VALUE($E8(4))] or above.",Die Bedingungen zum Übernehmen der Mission „Der Kerker von Toto-Rak“ sind nicht erfüllt. Erforderlich ist eine Gruppe von [@VALUE(2)] bis [@VALUE(4)] Kriegern oder Magiern auf einer Mindeststufe von [@VALUE($E8(4))].,"Vous ne remplissez pas les conditions nécessaires pour participer à la quête des “Mille Gueules de Toto-Rak”.[@CR]Vous devez former un groupe de [@VALUE(2)] à [@VALUE(4)] personnes de niveau [@VALUE($E8(4))] ou plus, composé de disciples de la guerre ou de la magie.",您还未满足参加任务“托托·拉克千狱”所需的条件。[@CR]请确认队伍中有[@VALUE(2)]～[@VALUE(4)]名等级达到[@VALUE($E8(4))]级以上的战斗精英或魔法导师。
73,支度が整ったようだな。[@CR]それでは、健闘を祈っているぞ。,"It seems you are as ready as you will ever be. Very well. Enter now, and may the Twelve watch over you.",Ihr seid bereit und habt mit allem abgeschlossen?,Vous avez terminé vos préparatifs[@1D]? Je prierai pour votre succès.,看来你已经准备得很充分了呢。[@CR]那么，愿你此行顺利。
74,ぜひとも全力で、この任にあたってほしい。[@CR]だが、この奥は「不浄な呼び声が、魔物を物狂わせている」[@CR]との御神託があった場所。特別な警戒令もしかれているぞ。,"Aid the others within, I beseech you. But do not forget the words of the Elder Seedseer. There is a vile voice sounding in those depths, driving those beasts into a murderous rage. You must remain ever vigilant.","Bitte setzt alle Kräfte ein, die ihr habt![@CR]Bedenkt, dass eine unheilige Stimme diese Keller durchhallt, die die Monster noch mehr in Raserei versetzt, als sie es ohnehin schon sind.","J'aimerais que tu nous aides de toutes tes forces à le trouver. Attention tout de même, l'Oracle a révélé que dans ce souterrain “une voix impure rend les monstres fous”. Il faudra se montrer plus prudent encore que d'habitude.",我希望你认真对待这项任务，拿出你的全部实力来。[@CR]注意，这深处便是神谕“不净的呼声令魔物狂暴化”[@CR]所指的地方，需要特别警惕。
75,戦利品が残っている状態で「トトラクの千獄」から出ると[@CR]自動的に、戦利品目録にあるすべてのアイテムを入手します。[@CR]入手できなかったアイテムは破棄されますので、ご注意ください。,All items in a player's loot list will automatically be transferred to that player's inventory upon leaving the dungeon. Items unable to be obtained will be lost.,"Alle Gegenstände im Beutegut eines Spielers werden beim Verlassen des Dungeons in dessen Inventar transferiert. Gegenstände, die der Spieler zu diesem Zeitpunkt nicht aufnehmen kann, werden zerstört.","S'il reste des objets dans le butin en sortant des Mille Gueules de Toto-Rak, ils seront distribués au[@16]to[@16]ma[@16]ti[@16]que[@16]ment. Les objets ne pouvant pas l'être seront alors perdus.",注意，离开“托托·拉克千狱”时，[@CR]会自动取得战利品目录上剩下的所有物品；[@CR]但其中若有无法取得的物品，则会强制遗弃。
76,急ぎ、統合司令部へ報告せよ。[@CR]シーロ中牙士は、今回の活躍をお喜びになるだろう。,Hurry back to the Adders' Nest at once! First Serpent Lieutenant Fulke will be eager to hear of all that has transpired.,"Beeil dich und erstatte im Abaton der Bruderschaft Bericht. Schlangenpriester Fulke wird sicherlich hoch erfreut sein, wenn er von deinen Taten hört.",Retourne vite faire ton rapport à Fulke au quartier général de l'Ordre. Il a sûrement hâte de connaître tes derniers exploits.,快向蛇巢司令部报告吧。[@CR]希洛·富尔克副牙尉会对这次的表现很满意吧。
