 ,0,1,2,3,4
 ,str,str,str,str,str
2,驚いたな。[@CR]ずいぶんと早く「竜の力」を手懐けたものだ。[@CR]エスティニアンと同じか、あるいは……,"It is pleasing to see how readily the dragon stirs within you. You show great potential, [@SPLIT([@STRING($EB(1))], ,1)]─a potential that may well prove the difference between victory and defeat.",Erstaunlich. Du bist schon hier? Du lernst schnell. Wie Estinien ...,"Quelle surprise[@1D]! Je ne pensais pas vous revoir si vite. Vous êtes aussi doué[@IF($E9(4),e,)] qu'Estinien, si ce n'est plus encore.",
3,……代々の「蒼の竜騎士」の中でも[@CR]エスティニアンは、特に優れた「竜の力」の使い手だった。[@CR]初代「蒼の竜騎士」征龍将ハルドラスの再来と言われるほどにな。,"Estinien is no ordinary dragoon, this you well know. Even among the lauded ranks of the Azures, however, the man is considered peerless. Such is his prowess, in fact, the day he was chosen by the Eye, it was proclaimed that Haldrath the Dragonseye had been reborn.",Auch unter den Azur-Drachenreitern ist Estinien ein außer[@16]ge[@16]wöhn[@16]liches Talent. Kaum einer ging je mit solcher Leichtigkeit mit der Kraft des Drachen um ... als ob in ihm der erste Azur-Ritter wiedererstanden wäre - Ritter Haldrath.,"Estinien est sans doute le plus puissant Dragon céleste de tous les temps, jamais personne n'a contrôlé la force des dragons comme lui. Beaucoup le considèrent comme la réincarnation du tout premier Dragon céleste, Haldrath le draconicide.",
4,エスティニアンを追うための試練の前に、君にも話しておかねばなるまい。[@CR]我らと竜との戦いの始まりは、今からおよそ1000年前……[@CR]皇都イシュガルド勃興の時に遡る。,"As promised, I shall train you in the way of the dragoon, that you might face Estinien as an equal. Before we commence, however, it is only fitting that you are edified regarding our origins. It all began a millennium past, when our forebears resided in the southern plains in humble circumstances.","Weißt du von unserem endlosen Kampf gegen die Drachen? Zuerst sollst du unsere Geschichte kennen, bevor du Estinien begegnest. Der Krieg begann vor etwa 1000 Jahren ... zu einer Zeit, als die heilige Stadt Ishgard blühte und pulsierte.","Avant de vous apprendre la technique suivante, je dois vous parler de la guerre qui oppose humains et dragons. Les faits remontent aux origines de la fondation d'Ishgard, il y a environ mille ans.",
5,このニーズヘッグの「眼球」こそ、イシュガルドの宝珠「竜の眼」。[@CR]ドラゴン族の力の源であるこれは、強大な力を宿し、[@CR]意思の弱き者が触れれば、たちまち竜に魅入られるという。,"Ishgard's priceless relic is none other than the eye taken from Nidhogg that day. It is a veritable wellspring of dragon power─even so removed from its owner, it can exert control over the hearts of men.","Genau dieses Auge ist heute Ishgards wertvollster Staatsschatz, das „Auge des Drachen“, das Nidhogg damals verlor. Wenn jemand von mangelnder Seelenstärke es berührt, wird er unmittelbar von der unheimlichen Kraft des Drachen durchzuckt, die ihn zu beherrschen versucht.","Comme vous l'avez deviné, l'œil de Nidhogg et le joyau d'Ishgard sont une seule et même chose. Sa puissance est si grande qu'il suffit de l'effleurer pour tomber im[@16]mé[@16]dia[@16]te[@16]ment sous son emprise.",
6,本来「竜の力」は忌むべきもの。……だが、征龍将ハルドラスは言った。[@CR]皇都イシュガルドに捧げる「正義の心」ある限り、「蒼の竜騎士」は[@CR]己を見失うことはないと。,"Being derived from our foe, the power of the dragon is a thing to be loathed. But as Haldrath proved to us all, so long as our hearts burn with justice, we need not fear being taken in its thrall.","Ich weiß, du denkst, man müsste die Kraft des Drachen verdammen und verabscheuen. Ja - aber Haldrath sagte: Solange wir die Recht[@16]schaffen[@16]heit hochhalten, der die heilige Stadt Ishgard sich von nun an weihen soll, so wird auch der Azur-Drachenreiter nicht gegen die gefährliche Kraft des Drachen verlieren.","Même si elle profite aux Ishgardais, cette force demeure une énergie maléfique. Dans une allocution mémorable à son peuple, Haldrath affirma cependant que “les Dragons célestes ne perdront jamais la raison tant qu'ils se dévoueront corps et âme à la sainte Cité”.",
7,何、難しく考える必要はない。[@CR]皇都に捧ぐ正義とは、我らイシュガルドの竜騎士の信念。[@CR]冒険者である君は、君自身の正義を貫けばよかろう。,"Ah, but what is justice, precisely? Justice assumes many shapes and forms, [@SPLIT([@STRING($EB(1))], ,1)], and none can say that one is greater than another. So long as you hold fast to your beliefs and stay true to yourself, you leave no room for the power of the dragon to master you.","Du blickst konsterniert? Denk nicht zu viel. Die „Recht[@16]schaffen[@16]heit“ ist das zentrale Glaubenskonzept der Ritter von Ishgard. Du bist [@IF($E9(4),eine Abenteurerin,ein Abenteurer)], also sorge du für [@1A(1)]deine[@1A(0)] Art der Gerechtigkeit.","Les chevaliers d'Ishgard croient en la justice[@1D]; c'est leur unique raison d'être, ce pour quoi ils se battent depuis toujours. J'imagine qu'il en va de même pour vous et que vous défendez les causes qui vous tiennent à cœur avec noblesse et courage.",
8,さて……近頃、ドラゴン族の動きが以前に比べ、活発になっている。[@CR]かつて撃退され、眠りについていたドラゴン族にも[@CR]目覚めの気配が窺えるという。,"But enough of history─let us return our attention to the present. For reasons yet undetermined, the dragons have been stirring of late, those that had lain in deep slumber rousing themselves to wakefulness.","In letzter Zeit ist die Aktivität der Drachen stärker geworden. Es scheint, als ob sie langsam wieder ihr hässliches Haupt erheben würden, nachdem sie vor so langer Zeit zurückgedrängt und befriedet worden waren ...","On observe un regain d'activité chez les dragons ces temps-ci. Beaucoup suggèrent qu'ils commenceraient à sortir de leur léthargie. L'attaque récente d'un dragon dans la Noscea semblerait d'ailleurs confirmer cette théorie. Celui-ci a fait d'importants dégâts mais aucune victime, heureusement.",
9,先日は、ラノシアの地にまで襲撃があった。[@CR]幸い大きな被害はなかったというが、ドラゴン族の気配に[@CR]当てられた魔物が騒ぎ、民や冒険者を脅かしていると聞く。,"But a few days past, word arrived that a dragon had been sighted over La Noscea, a region well outside the creatures' habitual range. While no casualties were reported, the scent of a dragon has agitated the local fauna.","Gerade erst hat es in La Noscea einen Überfall gegeben. Zum Glück entstand kein großer Schaden, aber von dem Chaos, das die Drachen verursachten, wurden auch andere Monster aufgeschreckt, und nun bedrohen sie Bürger und Abenteurer.",Il semblerait que les monstres soient de plus en plus agressifs depuis quelque temps. Encore une indication que l'éveil des dragons est proche. Le temps presse...,
10,君の腕と心の強さを確かめさせてもらおう。[@CR]この試練を越えられなければ、「竜の眼」を持つ[@CR]エスティニアンには、到底、敵うまい。,"As part of your training, I would have you put down one such creature: the bomb baron. The monster inhabits Cassiopeia Hollow, a short distance east of Camp Bloodshore in eastern La Noscea.","Lass mich sicherstellen, dass deine seelische Stärke und dein Geschick mit der Waffe ausreicht, um Estinien gegenüberzutreten.","[@SPLIT([@STRING($EB(1))], ,1)], vous allez devoir faire preuve de courage et de détermination pour passer le test suivant[@1D]: allez dans la caverne des Néréides près du camp des Rives sanglantes dans la Noscea orientale et venez à bout du bombo baron.",
11,「ボムバロン」を仕留めるほどの強さを示し、[@CR]真摯なる君の心が「竜騎士の証」と共鳴したとき……[@CR]君の内なる「竜の力」が、新たな力を授けるだろう。,"The experience will surely help to stir the dragon within, and you will be one step closer to standing upon even ground with Estinien.","Der Kampf wird in deinem Herzen, das durch den Drachenreiter-Kristall bereits in Schwingung versetzt wurde, sicherlich neue Kräfte erwecken.","Si votre cœur est pur, le cristal réveillera la force des dragons qui sommeille en vous.",
12,その槍を、誰がために振るうかは君が決めることだ。[@CR]だが、求めぬ者には、その「竜騎士の証」も応えはしない。,None but you can decide for whom you wield your lance. Yet know that the Soul of the Dragoon answers not the call of the unworthy.,"Für wen du diese Lanze führst, obliegt allein dir. Doch wenn du dieses außer[@16]ordent[@16]liche Geschenk verschmähst, das die Drachenkraft ist, wird sie dir nie mehr antworten.","Libre à vous de refuser, cela va de soi. Sachez simplement que le cristal des chevaliers dragon ne guide que ceux qui le méritent.",
13,曇りなき、よい眼だ。[@CR]君が務めを成し遂げた頃、私から連絡を入れよう。[@CR]そのためにも、このリンクパールを受け取ってくれ。,"The set of your face attests to your resolve. Let us speak again once your task is accomplished. Take here this linkpearl, and may the Fury grant you strength.","Dein Blick ist rein und ungetrübt. Hier, nimm diese Kontaktperle und wirf ab und zu einen Blick darauf. Ich melde mich wieder.",Votre détermination me plaît. Prenez cette linkperle. Je vous contacterai lorsque vous aurez vaincu cet adversaire.,
14,東ラノシア、「キャンプ・ブラッドショア」にほど近い[@CR]「浮海月の巌穴」に潜む魔物「ボムバロン」。[@CR]これを鎮めにいけ。,"As part of your training, I would have you put down a monster called the bomb baron. The creature inhabits Cassiopeia Hollow, a short distance east of Camp Bloodshore in eastern La Noscea.","Im östlichen La Noscea, in Cassiopeias Zuflucht in der Nähe von Camp Rotgischt, wurde ein Bomber-Baron gesichtet. Bring ihn zur Vernunft und prüfe dadurch, ob du schon stark genug bist für die Begegnung mit Estinien.","[@SPLIT([@STRING($EB(1))], ,1)], vous allez devoir faire preuve de courage et de détermination pour passer le test suivant[@1D]: allez dans la caverne des Néréides près du camp des Rives sanglantes dans la Noscea orientale et venez à bout du bombo baron.",
15,1,No text to see here.,[@1D],"[@SPLIT([@STRING($EB(1))], ,1)], vous allez devoir faire preuve de courage et de détermination pour passer le test suivant[@1D]: allez dans la caverne des Néréides près du camp des Rives sanglantes dans la Noscea orientale et venez à bout du bombo baron.",
16,「ボムバロン」を仕留めるほどの強さを示し、[@CR]真摯なる君の心が「竜騎士の証」と共鳴したとき……[@CR]君の内なる「竜の力」が、新たな力を授けるだろう。,"Not only will vanquishing the menace serve to hone your lance arm, it will also prove a great boon to the region's residents. And you may be assured that the experience will serve to stir the dragon within.","In deinem Herz, das durch den Drachenreiter-Kristall in Schwingung versetzt wurde, werden dadurch sicherlich neue Kräfte erwachen.","Si votre cœur est pur, le cristal réveillera la force des dragons qui sommeille en vous.",
17,「蒼の竜騎士」エスティニアンを[@CR]追うことができるのは、同じ力を持つ君だけだ。[@CR]奴を追うためには、君に宿る「竜の力」を完全に御さねばならない。,"None can challenge the Azure Dragoon and conceivably prevail save for another Azure Dragoon. In order to bring Estinien to justice and reclaim the Eye, you must needs wake the dragon within.",Nur ein ebenbürtiger Kämpfer kann sich Estinien mit einiger Aussicht auf Erfolg ent[@16]gegen[@16]stellen. Du musst deine Drachenkraft vollständig kontrollieren können.,"L'Œil du dragon vous a choisi[@IF($E9(4),e,)], cela veut dire que vous êtes [@IF($E9(4),la seule,le seul)] à pouvoir rivaliser avec Estinien. Mais avant de partir à sa poursuite, vous allez devoir apprendre à contrôler la force des dragons.",
18,長く厳しい戦いが待つかもしれん。[@CR]それでも力を貸すと、その槍に誓ってくれるならば[@CR]君に目覚めた「竜の力」が身体に馴染んだ頃、私のもとを訪れてくれ。,"That a perilous road lies ahead of you, I shall not deny. Knowing this, if you would still lend me your lance, I will teach you to harness the power that has chosen you.","Es wird hart werden, aber falls du es auf dich nimmst, so musst du dich zuerst an deine neuen Fähigkeiten gewöhnen. Komm dann wieder zu mir.","L'homme est coriace et ne se laissera pas capturer sans combattre. Je ne peux pas garantir que vous en reviendrez vivant[@IF($E9(4),e,)]. Si vous acceptez malgré tout de m'aider, revenez me voir quand vous aurez apprivoisé cette force qui s'éveille en vous.",
19,"異邦に生まれし、新たなる竜騎士[@SPLIT([@STRING($EB(1))], ,1)]。[@CR]……待っているぞ。","Go forth, my young dragoon, and rouse the dragon within. I look forward to your return.",Enttäusche mich nicht.,"Je vous attendrai ici-même, chevalier dragon.",
20,竜騎士のレベルが35以上になると、アルベリクから[@CR]竜騎士クエスト「戦神の槍」を受注することができます。,The next dragoon quest will be available from Alberic upon reaching level 35.,"Sobald du Er[@16]fah[@16]rungs[@16]stufe 35 in der Charakterklasse Pikenier erreicht hast, kannst du von Alberic den Dragoon-Auftrag „Lanzenlegenden“ erhalten.","Alberic propose la quête suivante, “La lance du destin”, aux chevaliers dragon de niveau 35.",
21,はるか昔、南の平地に暮らしていた我らの祖先は[@CR]戦神ハルオーネの天啓を受けた「トールダン」という男に率いられ、[@CR]約束の地……ここ、クルザス中央高地を目指し、故郷を発った。,"The Fury, impressed by the spirit of our ancestors, decided it was meet that She make them Her own. So did She appear before Haldrath's sire, a man of courage and integrity named Thordan, and bade him lead Her people to the Promised Land─to what would become the great nation of Ishgard.","Unsere Vorfahren, die früher in den Ebenen im Süden lebten, brachen unter der Führung des tatkräftigen Thordan, der in der Gunst der Kriegsgöttin Halone stand, zum gelobten Land auf. Hierher, ins zentrale Hochland von Coerthas ...","Un jour, Thordan reçut une révélation de la déesse Halone. Le chef dévot de la tribu de nos ancêtres annonça qu'ils devaient quitter les plaines du sud pour partir à la recherche de la Terre promise et y bâtir une sainte Cité. Après de longues pérégrinations, ils finirent par atteindre les hautes terres du Coerthas central.",
22,旅の途中、彼らは深く険しい谷に突き当たった。[@CR]トールダンは、これを越えるために橋を架けようとしたのだが、[@CR]そこへ襲いかかってきたのが「ニーズヘッグ」という名の竜だった。,"Their journey brought them to a wide chasm, whereupon Thordan and his people set to building a bridge. It was then that a dark shadow descended upon them─the great wyrm Nidhogg. Heedless of his own safety, Thordan fearlessly charged at the colossal beast. Alas, he was pushed into the chasm by one of his own, a man seduced by the wyrm, and fell to his death.","Aber unterwegs gelangten sie zu einer tiefen Schlucht, und Thordan befahl, eine Brücke darüber zu spannen. Plötzlich griff ein Drache an - der gefürchtete Nidhogg.","Mal[@16]heu[@16]reu[@16]se[@16]ment, un ravin les empêchait d'achever leur périple. Le contourner aurait demandé des journées de marche, aussi Thordan décida d'installer un pont de corde pour le franchir. Alors que tous s'affairaient à le mettre en place, un dragon nommé Nidhogg fit irruption.",
23,トールダンは、竜と、竜に唆された者により谷へ突き落とされ死んでしまう。[@CR]しかし、彼の息子「ハルドラス」が槍をとり、ニーズヘッグに果敢に挑んだ。[@CR]そしてついに、ニーズヘッグの「眼球」をくり抜き、退けたのだ。,"Taking up his slain sire's lance, Haldrath hurled himself at Nidhogg, even as tears streamed down his face. The confrontation ended when the young man, his hand guided by Halone, landed a mighty thrust that prized out Nidhogg's eye. With a terrible roar of pain, the great wyrm took wing and fled, while jubilation reigned below.","Thordan wurde von dem Drachen und den von ihm in Bann geschlagenen Leuten in den Abgrund geschleudert und starb. Da nahm sein Sohn Haldrath den Speer und griff den übermächtigen Drachen an. Und wie durch ein Wunder gelang es ihm, dem Untier ein Auge auszustechen und es in die Flucht zu schlagen.","La créature maléfique avait déjà décidé de clamer l'endroit comme sien. Elle se précipita sur Thordan et ses compagnons et les projeta au fond du gouffre. Fou de rage, Haldrath, le fils de Thordan, se saisit de sa lance et la planta violemment dans l'œil de la bête. Nidhogg se débattit mais le jeune garçon tint bon et réussit à le déloger de son orbite. Le dragon poussa un cri qui résonna dans tout le continent et s'enfuit sans demander son reste.",
24,ハルドラスもニーズヘッグの「竜の眼」に触れ、己を失いかけるが、[@CR]「正義の心」をもって打ち勝ち、その身に「竜の力」を宿した。[@CR]……これが「蒼の竜騎士」の始まりだ。,"Haldrath himself felt its malign influence, but his love of justice brooked no corruption, and he prevailed over the power, claiming it for his own. And so it was that the first Azure Dragoon was born.","Auch als Haldrath das schauerliche Objekt berührte, drohte er einen Augenblick, sich selbst zu verlieren. Doch seine Recht[@16]schaffen[@16]heit behielt die Oberhand und er konnte die Kraft des Drachen in sich aufnehmen. Das war der Beginn der Azur-Drachenreiter.","Contaminé par ce pouvoir, Haldrath faillit perdre la raison. Heu[@16]reu[@16]se[@16]ment, le fils de Thordan était une âme pieuse. Il reprit le dessus in extremis et conquit la force des dragons. C'est ainsi que naquit le premier Dragon céleste.",
25,東ラノシア、「キャンプ・ブラッドショア」にほど近い[@CR]「浮海月の巌穴」に出没する魔物「ボムバロン」。[@CR]これを鎮めにいけ。,"Not only will vanquishing the menace serve to hone your lance arm, it will be a great boon to the region's residents.","Versuch, im östlichen La Noscea, in Cassiopeias Zuflucht in der Nähe von Camp Rotgischt, eine von der Drachenkraft angestachelte Kreatur zu besiegen, einen Bomber-Baron. Schaffst du das, dann dürftest du bereit sein.","Ce monstre est relativement puissant, mais ce n'est rien comparé à l'incroyable force que possède Estinien.",
