 ,0,1,2,3,4
 ,str,str,str,str,str
1,"おい、[@SPLIT([@STRING($EB(1))], ,1)]。[@CR]やっと一人前の冒険者になってきたところで、ひとつ心配なことがある。",[en],[de],[fr],[chs]
2,ちゃんと装備品の手入れはしているかい？[@CR]まさかと思うが、最初の一着を着っぱなし……なんて[@CR]素人くさい臭いを発してたりしないだろうな。,[en],[de],[fr],[chs]
3,へい、らっしゃい。[@CR]ここは冒険者ギルドも兼ねてる酒場、「溺れた海豚亭」だぜ。,[en],[de],[fr],[chs]
4,おっと、グリダニアから来た冒険者か？[@CR]一人前の冒険者のようだが、ちゃんと装備品の手入れはしているかい？,[en],[de],[fr],[chs]
5,へい、らっしゃい。[@CR]ここは冒険者ギルドも兼ねてる酒場、「溺れた海豚亭」だぜ。,[en],[de],[fr],[chs]
6,おっと、ウルダハから来た冒険者か？[@CR]一人前の冒険者のようだが、ちゃんと装備品の手入れはしているかい？,[en],[de],[fr],[chs]
7,冒険を長く続けていると、装備品が傷むんだ。[@CR]俺のお気に入りの靴も、かなりヘタって来ててな。[@CR]修理人のところへ持っていかないと、商売に響きそうだ。,[en],[de],[fr],[chs]
8,……そうだ、おまえに修理人の居場所を教えてやろう。[@CR]だから、ついでに、俺の靴も届けてくれないか？,[en],[de],[fr],[chs]
9,これだから、最近の冒険者は困る。[@CR]いつも世話になっている、バデロン様の頼みが聞けねぇってのか。,[en],[de],[fr],[chs]
10,そんなに遠くないから、おまえならひとっ走りで済むだろうよ。,[en],[de],[fr],[chs]
11,修理屋「ブレートニュー」は、「東国際街商通り」で商売してるぜ。[@CR]あいつを探して、大事な大事な、この一品を渡してくれ。,[en],[de],[fr],[chs]
12,修理屋「ブレートニュー」は、「東国際街商通り」で商売してるぜ。[@CR]前に俺が見かけたときは、結構、繁盛しやがってたな。,[en],[de],[fr],[chs]
13,"あいつにちゃんと、「[@SWITCH([@SHEET(itemData,11000125,41)],[@COLOR(#fff3f3f3)],[@COLOR(#ffc0ffa0)],[@COLOR(#ff60c8ff)],[@COLOR(#ffb38cff)],[@COLOR(#ffffa666)],[@COLOR(#ffe5dd7e)])][@EDGECOLOR(#ff262626)][@SHEET(xtx/itemName,11000125,4)][@EDGECOLOR($EC)][@COLOR($EC)]」を渡してくれ。[@CR]おまえを信じて預けたんだから、なくしたりしたら、殺すぞ。",[en],[de],[fr],[chs]
14,私はブレートニュー。よろず職人請負代行会社を生業としております。[@CR]む……その卵が腐ったような強烈な臭い……,[en],[de],[fr],[chs]
15,"ああ、やはり！[@CR]「[@SWITCH([@SHEET(itemData,11000125,41)],[@COLOR(#fff3f3f3)],[@COLOR(#ffc0ffa0)],[@COLOR(#ff60c8ff)],[@COLOR(#ffb38cff)],[@COLOR(#ffffa666)],[@COLOR(#ffe5dd7e)])][@EDGECOLOR(#ff262626)][@SHEET(xtx/itemName,11000125,4)][@EDGECOLOR($EC)][@COLOR($EC)]」をお持ちですね！？[@CR]なんということ、またも弊社の設備が汚される！！",[en],[de],[fr],[chs]
16,……いえ、わかっております。[@CR]冒険者たちは私どものお得意さま。[@CR]冒険者ギルドは、その冒険者たちの拠り所。,[en],[de],[fr],[chs]
17,ですから、バデロン氏の頼みを断るわけにはまいりません。[@CR]しかし、そのかわりに、他でもない。あなたにお願いがあります。,[en],[de],[fr],[chs]
18,"お見受けしたところ、あなたは[@SWITCH($E8(1),鍛冶師,甲冑師,木工師,革細工師,彫金師,裁縫師,錬金術師)]の心得がある様子。[@CR]弊社の契約職人のかわりに、ある品を修理してほしいのです。",[en],[de],[fr],[chs]
19,特別な方から、厳重注意とともに預けられた仕事道具でして、[@CR]その仕事には細心の注意が必要……バデロン氏の強烈な臭いを[@CR]移すわけにはまいりません。,[en],[de],[fr],[chs]
20,修理の仕方がわからなくなったなら、私にお尋ねください。,[en],[de],[fr],[chs]
21,"では、弊社の契約職人は、これより、[@CR]あなたに託された「[@SWITCH([@SHEET(itemData,11000125,41)],[@COLOR(#fff3f3f3)],[@COLOR(#ffc0ffa0)],[@COLOR(#ff60c8ff)],[@COLOR(#ffb38cff)],[@COLOR(#ffffa666)],[@COLOR(#ffe5dd7e)])][@EDGECOLOR(#ff262626)][@SHEET(xtx/itemName,11000125,4)][@EDGECOLOR($EC)][@COLOR($EC)]」の修理に、命をかけて取り組みます。",[en],[de],[fr],[chs]
22,特別な修理を頼まれたこの品を、かわりに修理するできる方を探してほしいのです。[@CR]ちまたには、弊社の契約職人と同等の腕を持つ、さすらいの修理人が多くいるとか。,[en],[de],[fr],[chs]
23,特に、冒険を嗜む方面に、そういった方が多いと聞いています。[@CR]あなたのような、一人前の立派な冒険者ならば、修理依頼をすることも可能でしょう。,[en],[de],[fr],[chs]
24,お渡しした品は、特別な方から厳重注意とともに[@CR]預けられた仕事道具でして、その仕事には細心の注意が必要……[@CR]バデロン氏の強烈な臭いを移すわけにはまいりません。,[en],[de],[fr],[chs]
25,ぜひ、手先が器用な修理人に依頼してください。[@CR]修理依頼の仕方がわからくなったならば、また、私にお尋ねください。,[en],[de],[fr],[chs]
26,特別な修理を頼まれた、[@CR]修理の仕方がわからなければ、私にお尋ねください。,[en],[de],[fr],[chs]
27,修理の説明を聞く？,[en],[de],[fr],[chs]
28,はい,[en],[de],[fr],[chs]
29,いいえ,[en],[de],[fr],[chs]
30,では、どうぞ、よろしくお願いいたします。,[en],[de],[fr],[chs]
31,では、どうぞ、よろしくお願いいたします。,[en],[de],[fr],[chs]
32,あなたに託したその品を、かわりに修理するできる方を探してください。[@CR]ちまたには、弊社の契約職人と同等の腕を持つ、さすらいの修理人が多くいるとか。,[en],[de],[fr],[chs]
33,修理依頼の説明を聞く？,[en],[de],[fr],[chs]
34,はい,[en],[de],[fr],[chs]
35,いいえ,[en],[de],[fr],[chs]
36,では、どうぞ、よろしくお願いいたします。,[en],[de],[fr],[chs]
37,では、どうぞ、よろしくお願いいたします。,[en],[de],[fr],[chs]
38,修理が終わりましたか！[@CR]助かりました、どうもありがとうございます！,[en],[de],[fr],[chs]
39,これで、あのお方の怒りを買わずに済みます。[@CR]あの装備品が臭っていると、見張りの騎士たちに[@CR]見つかってしまうでしょうし……,[en],[de],[fr],[chs]
40,あ、いえ、今のはただの独り言です。すみやかにお忘れください。,[en],[de],[fr],[chs]
41,"そうそう、修理依頼の品「[@SWITCH([@SHEET(itemData,11000125,41)],[@COLOR(#fff3f3f3)],[@COLOR(#ffc0ffa0)],[@COLOR(#ff60c8ff)],[@COLOR(#ffb38cff)],[@COLOR(#ffffa666)],[@COLOR(#ffe5dd7e)])][@EDGECOLOR(#ff262626)][@SHEET(xtx/itemName,11000125,4)][@EDGECOLOR($EC)][@COLOR($EC)]」をお返ししますよ。[@CR]さっさとバデロン氏へ届けてください。少しは臭いを落とせましたが、[@CR]バデロン氏と似て頑固な臭いでして。",[en],[de],[fr],[chs]
42,バデロン氏には、私どもの修理を手伝ってくださった礼金の請求もどうぞ。[@CR]アスタリシア号がらみの装備品を修理したと言えば、伝わるでしょう。,[en],[de],[fr],[chs]
43,今回のことで、他の冒険者たちにも、特別な装備品の修理を頼んであるのです。[@CR]他の冒険者たちも、あなたのようにうまく修理してくださるといいのですが。,[en],[de],[fr],[chs]
44,そうそう、バデロン氏には、[@CR]私どもの修理を手伝ってくださった礼金も請求してください。[@CR]アスタリシア号がらみの装備品を修理したと言えば、伝わるでしょう。,[en],[de],[fr],[chs]
45,よお、俺様の靴、きちんと修理してもらってきたようだな！,[en],[de],[fr],[chs]
46,……なんだって？　かわりに別の品を修理させられたって？[@CR]アスタリシア号がらみの装備品……,[en],[de],[fr],[chs]
47,なるほどな、バラクーダ騎士団の牢破りをするんなら、[@CR]俺様のかぐわしい香りを漂わせるわけにはいかないってわけか。,[en],[de],[fr],[chs]
48,しかし、アスタリシア号の海賊たちをお縄にかけるたあ、[@CR]騎士団殿も勇気がおありだぜ。リムサ・ロミンサを綺麗にするって[@CR]豪語してるが、先に綺麗に消されちまうんじゃないかねえ。,[en],[de],[fr],[chs]
49,ともかく、これは礼だ！[@CR]この金を使って、おまえの装備も、綺麗に修理してもらうといい。,[en],[de],[fr],[chs]
