 ,0,1,2,3,4
 ,str,str,str,str,str
1,グリダニア防衛の最前線、それがここ「キャンプ・ベントブランチ」だ。,[en],[de],[fr],[chs]
2,冒険者だな。[@CR]そこで青く光を放っている「エーテライト」には触れたか？,[en],[de],[fr],[chs]
3,「キャンプ・ベントブランチ」のエーテライトに触れたか？,[en],[de],[fr],[chs]
4,はい,[en],[de],[fr],[chs]
5,いいえ,[en],[de],[fr],[chs]
6,そのようなことでは、おまえを「冒険者」と呼ぶこともできん。[@CR]「エーテライト」に触れ、大地の精霊と絆を結んだ者こそ、[@CR]ここ「キャンプ・ベントブランチ」を利用する意義がある。,[en],[de],[fr],[chs]
7,それならば、よし。[@CR]では、森林都市「グリダニア」まで気をつけて行くがいい。[@CR]都市の西にある「エーテライト」に触れるまで、気を抜くのではないぞ。,[en],[de],[fr],[chs]
8,それならば、よし。[@CR]そのエーテライトは、「シャーレアン」の学者たちが[@CR]エオルゼアにもたらした奇跡の石だ。,[en],[de],[fr],[chs]
9,一度でも触れたことがあるエーテライトには、[@CR]特別な場所でない限り、どこからでも一瞬で移動することができるぞ。[@CR]一人のみならず、数人で移動することも可能だ。,[en],[de],[fr],[chs]
10,ただ、何度も繰り返し移動していると、[@CR]大事な力が抜けていく感覚がある。エーテライトでの移動のカラクリ、[@CR]大地の精霊の力を借りているが故ではないか……と思うのだが。,[en],[de],[fr],[chs]
11,グリダニアの幻術士様は、真実を御存じに違いない。[@CR]おまえは余計なことを考えず、まずは「エーテライト」への[@CR]移動を体験してみよ。,[en],[de],[fr],[chs]
12,大事な力を失いたくないというか。動かざること山の如し。,[en],[de],[fr],[chs]
13,よし。[@CR]何事も身をもって経験し、己の糧とすることが大事だ。,[en],[de],[fr],[chs]
14,では、我等の里……[@CR]森林都市「グリダニア」のエーテライトまで、一瞬で移動してみよ。[@CR]基本だが「グリダニア」は、「黒衣森」の中にあることを忘れるな。,[en],[de],[fr],[chs]
15,グリダニアのエーテライトでは、[@CR]我が師「オワイン」が警備にあたっている。[@CR]おまえを信頼し、これを彼の人に届ける役目も託そう。頼んだぞ。,[en],[de],[fr],[chs]
16,森林都市「グリダニア」のエーテライトまで、一瞬で移動してみよ。[@CR]地理に疎い冒険者は少ないだろうが、一応、教えておく。[@CR]「グリダニア」は、「黒衣森」の中にあるぞ。,[en],[de],[fr],[chs]
17,そして、グリダニアのエーテライトに辿り着いたならば、[@CR]我が師「オワイン」を探せ。長い間、エーテライトの警備を[@CR]任されている誉れ高い鬼哭隊員だ。,[en],[de],[fr],[chs]
18,おい、ここで足を止めるんじゃない。[@CR]異変が起きたときに備えるワシらの邪魔をするな。,[en],[de],[fr],[chs]
19,ん？　ワシに託し物だと？[@CR]ほう。「キャンプ・ベントブランチ」護りし、我が誇りの弟子マニヌからか。[@CR]つまりは、エーテライトの説明を受けたということだな。,[en],[de],[fr],[chs]
20,「エーテライト」は便利なものだろう？[@CR]利用しすぎると力が抜けてしまうようだが、これにはコツがある。[@CR]最後に触れたエーテライトへは、軽い力で移動できるようだぞ。,[en],[de],[fr],[chs]
21,それにしても、[@CR]この移動のカラクリとしては、風の精霊の力でも[@CR]借りているのではないかと思うのだが……,[en],[de],[fr],[chs]
22,もしそうだとすれば、[@CR]今や、風の力を味方としているイクサル族が[@CR]いつ何時、エーテライトを通じて現れるかわからぬ。,[en],[de],[fr],[chs]
23,オヌシのような冒険者たちが[@CR]エーテライトを利用することで、イクサル族の[@CR]侵攻を食い止めるに一役買うことを望む次第だ。,[en],[de],[fr],[chs]
24,そのために、マニヌはオヌシを遣わせた。[@CR]さあ、褒美を取らせよう。グリダニアのために、その力を使うがよい。,[en],[de],[fr],[chs]
