 ,0,1,2,3,4
 ,str,str,str,str,str
1,"ねえ、[@SPLIT([@STRING($EB(1))], ,1)]。[@CR]冒険者ギルドからもらった支度金の使い方は、ちゃんと考えたかしら？",[en],[de],[fr],[chs]
2,いらっしゃいませ。[@CR]ここはラウンジ「クイックサンド」。,[en],[de],[fr],[chs]
3,あら、リムサ・ロミンサから来た冒険者さん？[@CR]冒険者ギルドから支度金はもらっているかしら？[@CR]もしそうなら、このわたしが、ウルダハでのお金の使い方を教えてあげるわね。,[en],[de],[fr],[chs]
4,がっつり増やすコネがないからって、ずっと貯めててもタカが知れてるわよ？[@CR]冒険者らしいお金の使い方をして、自分からのし上がる機会を掴むのよ！,[en],[de],[fr],[chs]
5,一番、簡単な話としては、装備品やら消耗品やら揃えてみたらどうかしら。[@CR]ついでに、わたしの用事も片付けてもらえると嬉しいわ。,[en],[de],[fr],[chs]
6,あら、なにか考えていることがあるのね？[@CR]それなら、お邪魔しないように気をつけるわ。[@CR]ちょっと一口乗りたい気もしちゃってるけど、我慢、我慢……,[en],[de],[fr],[chs]
7,それなら、これを持って「ルディウス」ってお店へ行ってみて。[@CR]ここから、大通を西へ向かってぐるっと進めばわかるはずよ。,[en],[de],[fr],[chs]
8,わたしの用事はついでなんだから、あなたの用事を先に済ませてね。[@CR]いいものがあったら買い物してあげるのよ？,[en],[de],[fr],[chs]
9,頼んだもの、ちゃんと「ルディウス」のお店に行って、[@CR]店主「ザギルスヴェルド」に渡してちょうだいね。,[en],[de],[fr],[chs]
10,それから、お店の商品も覗いてみてね。いい装備を見繕うといいわ。,[en],[de],[fr],[chs]
11,剣闘士の店「ルディウス」へようこそ！　……ん、なんだい、モモディから？,[en],[de],[fr],[chs]
12,ああ、冒険者を紹介したから、その紹介料を払えという話か。[@CR]冒険者ギルドから紹介してもらえるようになり、売り上げは上がったのだが……,[en],[de],[fr],[chs]
13,また税金が上がるって話もあるから、参ったものだ。[@CR]まったく、商人という人種はガメつくていけない。,[en],[de],[fr],[chs]
14,さあ、そんな暗い話は忘れよう。[@CR]せっかくのご来店だ、冒険者さんにお勧め品の説明をしようか。,[en],[de],[fr],[chs]
15,"お客さんは「[@SWITCH($E8(1),調理師,鍛冶師,甲冑師,木工師,革細工師,彫金師,裁縫師,錬金術師,漁師,園芸師,採掘師)]」のようだな。ザナラーンの地で[@CR]魔物狩りをしたいのならば、「[@SWITCH([@SHEET(itemData,11000004,41)],[@COLOR(#fff3f3f3)],[@COLOR(#ffc0ffa0)],[@COLOR(#ff60c8ff)],[@COLOR(#ffb38cff)],[@COLOR(#ffffa666)],[@COLOR(#ffe5dd7e)])][@EDGECOLOR(#ff262626)][@SHEET(xtx/itemName,11000004,4)][@EDGECOLOR($EC)][@COLOR($EC)]」か[@CR]「[@SWITCH([@SHEET(itemData,11000049,41)],[@COLOR(#fff3f3f3)],[@COLOR(#ffc0ffa0)],[@COLOR(#ff60c8ff)],[@COLOR(#ffb38cff)],[@COLOR(#ffffa666)],[@COLOR(#ffe5dd7e)])][@EDGECOLOR(#ff262626)][@SHEET(xtx/itemName,11000049,4)][@EDGECOLOR($EC)][@COLOR($EC)]」を買って装備するといい。",[en],[de],[fr],[chs]
16,"お客さんは「[@SWITCH($E8(1),斧術士,槍術士,弓術士,幻術士,呪術士)]」のようだが、[@CR]新しい事に挑戦してみたいのならば、[@CR]「[@SWITCH([@SHEET(itemData,11000049,41)],[@COLOR(#fff3f3f3)],[@COLOR(#ffc0ffa0)],[@COLOR(#ff60c8ff)],[@COLOR(#ffb38cff)],[@COLOR(#ffffa666)],[@COLOR(#ffe5dd7e)])][@EDGECOLOR(#ff262626)][@SHEET(xtx/itemName,11000049,4)][@EDGECOLOR($EC)][@COLOR($EC)]」を買って試してみるといい。",[en],[de],[fr],[chs]
17,ウルダハは、新しいことに貪欲な者が勝利する都市だ。[@CR]そのためには、この店で買い物するのが正しい一歩だぞ。,[en],[de],[fr],[chs]
18,しかし、戦いばかりが能ではない。[@CR]他の品が見たければ、「サファイアアベニュー国際市場」へ向かってみるんだ。[@CR]隅の方に「ロロジャル」という商人がいるから、訪ねてみてはどうだろうか。,[en],[de],[fr],[chs]
19,あら、グリダニアから来た冒険者さん？[@CR]冒険者ギルドから支度金はもらっているかしら？[@CR]もしそうなら、このわたしが、ウルダハでのお金の使い方を教えてあげるわね。,[en],[de],[fr],[chs]
20,いらっしゃいませ。[@CR]ここはラウンジ「クイックサンド」。,[en],[de],[fr],[chs]
21,"お客さんは「[@SWITCH($E8(1),剣術士,格闘士)]」のようだが、[@CR]新しい事に挑戦してみたいのならば、[@CR]「[@SWITCH([@SHEET(itemData,11000049,41)],[@COLOR(#fff3f3f3)],[@COLOR(#ffc0ffa0)],[@COLOR(#ff60c8ff)],[@COLOR(#ffb38cff)],[@COLOR(#ffffa666)],[@COLOR(#ffe5dd7e)])][@EDGECOLOR(#ff262626)][@SHEET(xtx/itemName,11000049,4)][@EDGECOLOR($EC)][@COLOR($EC)]」を買って試してみるといい。",[en],[de],[fr],[chs]
22,使いこなしているうちに、すぐに戦士と呼ばれるようになるだろう。,[en],[de],[fr],[chs]
