 ,0,1,2,3,4
 ,str,str,str,str,str
1,冒険者のよしみで、ちょっと相談にのってくれないかしら。[@CR]この頃、とても困ったことが起きるのです。夜中に誰かが、[@CR]私の部屋の扉を叩くのです。,"Would you be so kind as to lend me your ear, adventurer? I am in a state of great distress! Someone, or [@1A(1)]something[@1A(0)], has been pounding on the door to my chambers in the dead of night!","[@IF($E9(4),Liebe Aben[@16]teurer[@16]freundin,Lieber Aben[@16]teurer[@16]freund)]! Du bist sicher gewillt, mir in dieser Stunde der größten Not zu helfen.[@CR]Ich will dir anvertrauen, was mir so große Sorgen bereitet: Es pocht des Nachts an meiner Türe!","Ah, [@IF($E9(4),une aventurière,un aventurier)][@1D]! J'ai de la chance dans mon malheur. Pourriez-vous m'aider[@1D]? Je ne dors plus, chaque nuit quelqu'un frappe à ma porte sans que je sache qui c'est, ou quoi.",好心的冒险者啊，能帮帮我么。[@CR]最近这段日子以来，我遇到了大麻烦啊。[@CR]总是有人每天晚上敲我房间的门。
2,どうも嫌な気配がするので[@CR]お偉い呪術士先生でも雇って、調べてもらおうかと思うのですが……[@CR]順番待ちだと言われ、追い返されてしまいまして。,"The mere thought of it sends chills down my spine! I mean to have one of the Ossuary's more notable thaumaturges look into the matter, yet his services are in high demand, and I've been informed that I must wait. But I simply cannot stand it any longer!","Da ich immer mit dem Schlimmsten rechne, habe ich mich bereits Hilfe suchend an die Gilde der Thaumaturgen gewandt.[@CR]Ich wollte, dass sie mir einen ihrer fähigsten Nestoren schicken, der der Sache auf den Grund geht, doch man hat mich einfach nur auf eine Warteliste gesetzt!","Je suis allée à l'Ossuaire pour employer un occultiste renommé afin qu'il découvre l'origine du bruit, mais on s'est contenté de me mettre sur une liste en me disant d'attendre mon tour[@1D]!",太让人害怕了……[@CR]于是我想雇一位大牌咒术师调查一下是怎么回事……[@CR]但人家让我去排号，然后就把我赶出来了。
3,しかし、賄賂を送れば、[@CR]順番を早めてもらえるそうなんです。,"I was told that if I sent the proper [@1A(1)]consideration[@1A(0)] in advance, my place on the waiting list might be improved, but...","Man hat sogar die Frechheit besessen, mir mitzuteilen, dass ich die Wartezeit durch ein angemessenes Bestechungsgeschenk beschleunigen könne ...[@CR]Wenn ich an Thals Pforte trete, würde mir eine solche „Spende“ an das Ossarium sogar zum Vorteil gereichen!","Heu[@16]reu[@16]se[@16]ment, on m'a aussi fait savoir qu'un pot-de-vin me placerait en tête de la liste.",不过，听说只要贿赂一下，[@CR]就能优先处理我的委托了。
4,"そこで、何を送るべきか調べてみたところ、[@CR]お偉い呪術士先生にとって「[@SWITCH([@SHEET(itemData,11000153,41)],[@COLOR(#fff3f3f3)],[@COLOR(#ffc0ffa0)],[@COLOR(#ff60c8ff)],[@COLOR(#ffb38cff)],[@COLOR(#ffffa666)],[@COLOR(#ffe5dd7e)])][@EDGECOLOR(#ff262626)][@SHEET(xtx/itemName,11000153,4)][@EDGECOLOR($EC)][@COLOR($EC)]」は[@CR]とても魅力的な品だとのこと。ただ、大変珍しい品でもあります。","Well, I asked several persons with experience in such matters what best to send, and it seems that most leading thaumaturges have a penchant for [@SWITCH([@SHEET(itemData,11000153,41)],[@COLOR(#fff3f3f3)],[@COLOR(#ffc0ffa0)],[@COLOR(#ff60c8ff)],[@COLOR(#ffb38cff)],[@COLOR(#ffffa666)],[@COLOR(#ffe5dd7e)])][@EDGECOLOR(#ff262626)][@SHEETEN(xtx/itemName,3,11000153,2,1)][@EDGECOLOR($EC)][@COLOR($EC)]. The trouble is, they are nigh on impossible to find.","Was blieb mir also anderes übrig, als mich nach einem geeigneten Geschenk zu erkundigen?[@CR]Ich habe in Erfahrung gebracht, dass viele Nestoren seltene Foki beim Wirken komplizierter thau[@16]ma[@16]to[@16]lo[@16]gi[@16]scher Formeln verwenden. [@2B([@SWITCH([@SHEET(itemData,11000153,41)],[@COLOR(#fff3f3f3)],[@COLOR(#ffc0ffa0)],[@COLOR(#ff60c8ff)],[@COLOR(#ffb38cff)],[@COLOR(#ffffa666)],[@COLOR(#ffe5dd7e)])][@EDGECOLOR(#ff262626)][@SHEETDE(xtx/itemName,1,11000153,1,1,1)][@EDGECOLOR($EC)][@COLOR($EC)])] sei beispielsweise vielseitig verwendbar und daher als Spende gern gesehen.","J'ai donc demandé à droite à gauche, et on m'a raconté que cet occultiste apprécie par[@16]ti[@16]cu[@16]liè[@16]rement les [@SWITCH([@SHEET(itemData,11000153,41)],[@COLOR(#fff3f3f3)],[@COLOR(#ffc0ffa0)],[@COLOR(#ff60c8ff)],[@COLOR(#ffb38cff)],[@COLOR(#ffffa666)],[@COLOR(#ffe5dd7e)])][@EDGECOLOR(#ff262626)][@SHEETFR(xtx/itemName,12,11000153,2,1)][@EDGECOLOR($EC)][@COLOR($EC)]. Seulement, [@IF([@SHEET(xtx/itemName,11000153,23)],elles,ils)] sont assez rares.","然后我就打听了一下送什么才行，[@CR]那位大牌咒术师竟然喜欢“[@SWITCH([@SHEET(itemData,11000153,41)],[@COLOR(#fff3f3f3)],[@COLOR(#ffc0ffa0)],[@COLOR(#ff60c8ff)],[@COLOR(#ffb38cff)],[@COLOR(#ffffa666)],[@COLOR(#ffe5dd7e)])][@EDGECOLOR(#ff262626)][@SHEET(xtx/itemName,11000153,131)][@EDGECOLOR($EC)][@COLOR($EC)]”啊。[@CR]那可是非常稀有的东西啊。"
5,ですから、なかなか見つからないのです。中央ザナラーンにある[@CR]「ナナワ銀山」の「カースドアイ」が、持っているそうなのですが。[@CR]もし貴方が見つけたら、[@VALUE($E8(5))]個ほど、私にくださいませんか？,"And that is the dilemma that plagues me now.[@CR]I have heard that the Nanawa Mines of central Thanalan are home to cursed eyes. Some of them may have the quality of lens that I require. Do you think you could gather me a few─[@IF($E5($E8(5),0),[@IF($E2($E8(5),10),[@SWITCH($E8(5),one,two,three,four,five,six,seven,eight,nine,ten)],[@VALUE($E8(5))])],[@VALUE($E8(5))])], shall we say?","Pass gut auf: Eine der wenigen Möglichkeiten, an eine solche Linse zu gelangen, soll darin bestehen, dass man sie direkt aus einem „Triefauge“ genannten Monster herausschneidet. Diese findet man beispielsweise bei der Nanawa-Mine.[@CR]Wenn du mir - das Wie sei dir dabei vollkommen freigestellt - [@VALUE($E8(5))] solche Linsen besorgen kannst, dann werde ich sie dir abkaufen. Was meinst du dazu?","On m'a dit qu'on peut en obtenir des yeux maudits des Mines de Nanawa, dans le Thanalan central, mais j'ai beau en tuer, je rentre toujours les mains vides. Si jamais vous aviez plus de chance, pourriez-vous m'en vendre[@1D]? [@VALUE($E8(5))] devraient suffire.",所以一直都无法得到啊。[@CR]听说在中萨纳兰“七羽银山”里栖息的“诅咒之眼”身上有那东西。[@CR]如果您找到的话，可以给我[@VALUE($E8(5))]个吗？
6,貴方にも不幸が起きて、私と同じくらい絶望することを願いますわ……。,"It would be somewhat [@1A(1)]dangerous[@1A(0)], of course... But that is what we adventurers crave, is it not!?","Dann verzeih bitte, dass ich dich in meiner Notlage belästigt habe. Verzeih mir auch - denn das ist sonst nicht meine Art - dass ich dir jegliches Unheil dieser Welt an den Hals wünsche.",J'espère qu'il vous arrivera un jour la même chose et que personne ne vous aidera...,愿上天让您遇到不幸，体验一下和我一样的绝望感啊……
7,ありがとうございます、恩に着ます！[@CR]早くしないと、よくないことが起きそうな予感がしてならないのです。,"Oh, gods bless you! But please, you must hurry. The knocking sounds grow louder as of late. I fear something awful may happen soon...",Ich stehe bereits in deiner Schuld.[@CR]Doch bitte ich: Beeile dich! Sonst wird mir mit Sicherheit etwas Schlimmes widerfahren.,"Merci[@1D]! J'espère que vous en trouverez vite, car j'ai peur que ces bruits présagent quelque chose de bien plus sinistre.",太谢谢您的大恩大德了！[@CR]不快点解决的话，总感觉要发生什么不好的事。
9,お偉い呪術士先生に、早く調査してもらわなくては。[@CR]あの、ゆっくりと扉を叩く音……あれが気になって眠れないのです。,"Please, you must hurry. The knocking sounds grow louder as of late. Without the help of the Ossuary, I fear something awful may happen soon...","Dieses langsame, rhythmische Klopfen an meiner Türe macht mich noch wahnsinnig. Vor Kummer kann ich kaum schlafen.[@CR]Wenn mir nicht bald ein Nestor aus dem Ossarium hilft, ich fürchte, dann werde ich den Verstand verlieren ...",Je tombe de sommeil... Je ne dors plus avec ces coups à ma porte toutes les nuits.,得尽快让大牌咒术师先生开始调查啊。[@CR]那种……慢慢地敲门的声音……啊啊，让我在意得无法入睡啊。
10,"「[@SWITCH([@SHEET(itemData,11000153,41)],[@COLOR(#fff3f3f3)],[@COLOR(#ffc0ffa0)],[@COLOR(#ff60c8ff)],[@COLOR(#ffb38cff)],[@COLOR(#ffffa666)],[@COLOR(#ffe5dd7e)])][@EDGECOLOR(#ff262626)][@SHEET(xtx/itemName,11000153,4)][@EDGECOLOR($EC)][@COLOR($EC)]」を[@VALUE($E8(5))]個、お願いします。[@CR]「ナナワ銀山」の「カースドアイ」が持っているのですが、[@CR]私の力だけでは、いつまで経っても集まりそうもありません。","What is a lone Midlander lass like myself to do? It would take me a lifetime to procure [@IF($E5($E8(5),0),[@IF($E2($E8(5),10),[@SWITCH($E8(5),one,two,three,four,five,six,seven,eight,nine,ten)],[@VALUE($E8(5))])],[@VALUE($E8(5))])] [@SWITCH([@SHEET(itemData,11000153,41)],[@COLOR(#fff3f3f3)],[@COLOR(#ffc0ffa0)],[@COLOR(#ff60c8ff)],[@COLOR(#ffb38cff)],[@COLOR(#ffffa666)],[@COLOR(#ffe5dd7e)])][@EDGECOLOR(#ff262626)][@SHEETEN(xtx/itemName,3,11000153,$E8(5),1)][@EDGECOLOR($EC)][@COLOR($EC)], and that at great personal risk! Please, kill cursed eyes within the Nanawa Mines and bring me the lenses I require.","Bring mir [@SWITCH([@SHEET(itemData,11000153,41)],[@COLOR(#fff3f3f3)],[@COLOR(#ffc0ffa0)],[@COLOR(#ff60c8ff)],[@COLOR(#ffb38cff)],[@COLOR(#ffffa666)],[@COLOR(#ffe5dd7e)])][@EDGECOLOR(#ff262626)][@SHEETDE(xtx/itemName,1,11000153,[@VALUE($E8(5))],4,1)][@EDGECOLOR($EC)][@COLOR($EC)], sobald du sie ergattert hast! Ich bin zu schwach, um zur Nanawa-Mine zu reisen und sie mir aus eigener Kraft zu besorgen. Zumal das nächtliche Pochen noch weiter an meinen Kräften zehrt ...","Ramenez-moi vite [@VALUE($E8(5))] [@SWITCH([@SHEET(itemData,11000153,41)],[@COLOR(#fff3f3f3)],[@COLOR(#ffc0ffa0)],[@COLOR(#ff60c8ff)],[@COLOR(#ffb38cff)],[@COLOR(#ffffa666)],[@COLOR(#ffe5dd7e)])][@EDGECOLOR(#ff262626)][@SHEETFR(xtx/itemName,12,11000153,5,1)][@EDGECOLOR($EC)][@COLOR($EC)] pour que je puisse enfin obtenir de l'aide de l'Ossuaire. Vous pouvez en obtenir des yeux maudits dans les Mines de Nanawa. J'essaie bien d'en tuer de mon côté, mais je ne suis guère habile et cela prend du temps.","[@VALUE($E8(5))]个“[@SWITCH([@SHEET(itemData,11000153,41)],[@COLOR(#fff3f3f3)],[@COLOR(#ffc0ffa0)],[@COLOR(#ff60c8ff)],[@COLOR(#ffb38cff)],[@COLOR(#ffffa666)],[@COLOR(#ffe5dd7e)])][@EDGECOLOR(#ff262626)][@SHEET(xtx/itemName,11000153,131)][@EDGECOLOR($EC)][@COLOR($EC)]”，拜托您了。[@CR]“七羽银山”里栖息的“诅咒之眼”身上有那东西，[@CR]但就凭我的能力，一辈子都凑不齐啊。"
11,"ああ、「[@SWITCH([@SHEET(itemData,11000153,41)],[@COLOR(#fff3f3f3)],[@COLOR(#ffc0ffa0)],[@COLOR(#ff60c8ff)],[@COLOR(#ffb38cff)],[@COLOR(#ffffa666)],[@COLOR(#ffe5dd7e)])][@EDGECOLOR(#ff262626)][@SHEET(xtx/itemName,11000153,4)][@EDGECOLOR($EC)][@COLOR($EC)]」を手に入れてくれたのですか！？[@CR]これで、私の部屋を訪れる怪異の謎が解けるかもしれません！","The [@SWITCH([@SHEET(itemData,11000153,41)],[@COLOR(#fff3f3f3)],[@COLOR(#ffc0ffa0)],[@COLOR(#ff60c8ff)],[@COLOR(#ffb38cff)],[@COLOR(#ffffa666)],[@COLOR(#ffe5dd7e)])][@EDGECOLOR(#ff262626)][@SHEETEN(xtx/itemName,3,11000153,2,1)][@EDGECOLOR($EC)][@COLOR($EC)]! You've brought them! These will surely have the thaumaturge come running to tell me what sort of spirit is lurking about my home.","Oho, du hast mir tatsächlich [@SWITCH([@SHEET(itemData,11000153,41)],[@COLOR(#fff3f3f3)],[@COLOR(#ffc0ffa0)],[@COLOR(#ff60c8ff)],[@COLOR(#ffb38cff)],[@COLOR(#ffffa666)],[@COLOR(#ffe5dd7e)])][@EDGECOLOR(#ff262626)][@SHEETDE(xtx/itemName,2,11000153,2,4,1)][@EDGECOLOR($EC)][@COLOR($EC)] gebracht!?[@CR]Dann wird das Mysterium um das Wesen, das Nacht für Nacht mein Zimmer heimsucht, alsbald gelöst schon sein!","Ah, vous avez les [@SWITCH([@SHEET(itemData,11000153,41)],[@COLOR(#fff3f3f3)],[@COLOR(#ffc0ffa0)],[@COLOR(#ff60c8ff)],[@COLOR(#ffb38cff)],[@COLOR(#ffffa666)],[@COLOR(#ffe5dd7e)])][@EDGECOLOR(#ff262626)][@SHEETFR(xtx/itemName,12,11000153,5,1)][@EDGECOLOR($EC)][@COLOR($EC)][@1D]! Mon calvaire touche à sa fin.","啊，真的可以给我“[@SWITCH([@SHEET(itemData,11000153,41)],[@COLOR(#fff3f3f3)],[@COLOR(#ffc0ffa0)],[@COLOR(#ff60c8ff)],[@COLOR(#ffb38cff)],[@COLOR(#ffffa666)],[@COLOR(#ffe5dd7e)])][@EDGECOLOR(#ff262626)][@SHEET(xtx/itemName,11000153,131)][@EDGECOLOR($EC)][@COLOR($EC)]”吗？！[@CR]这下子，我房间发生的怪事说不定就能解决了呢！"
12,さっそく、お偉い呪術士先生に渡るよう手配して、[@CR]依頼の順番を繰り上げてもらうことにします。[@CR]早く、ぐっすりと眠りたいですから。,I shall deliver them forthwith! This haunting nonsense ends today! Gods know I need a decent night's rest...,"Ich werde sofort Kontakt zu den Thaumaturgen aufnehmen, dann wird man mir trotz Warteliste den Vorzug geben, und bald schon kann ich wieder ruhig schlafen ... ♪","Je vais aller de ce pas demander qu'on me mette en tête de la liste d'attente. Dormir, enfin[@1D]!",马上准备交给那位大牌咒术师先生，[@CR]让他优先解决我的委托。[@CR]好想早点还我一个能安心睡下的环境啊。
13,そうでした、こちらはお礼になります。[@CR]私も「ナナワ銀山」で魔物を倒していましたら、小金が貯まりまして。[@CR]貴方の冒険に役立ててください。それと……,"Oh, before I forget─here, this is for you. I made a bit of coin killing eyes within the mines myself. Bought a little something at the Eshtaime shop that I'd like you to have─for all that you've done.","Aber wo blieben denn meine Manieren, wenn ich dich nicht für deine Dienste entlohnen würde? Hier.[@CR]Dieser Schatz wird dir auf deinen Abenteuern sicherlich von Nutzen sein.","Je me suis moi-même fait un peu d'argent en tuant des yeux maudits, et je tiens à vous donner mes gains comme récompense. J'espère que cela vous servira dans vos aventures.",那么，这些就给您当作酬劳吧。[@CR]我也靠打倒“七羽银山”里那些魔物存了些小钱呢。[@CR]希望能对您的旅途有帮助。再就是……
14,貴方も、気をつけた方がいいですよ。[@CR]ウルダハには、何か、よくないものがいるに違いありません。[@CR]そんな話で血が騒ぐのが、冒険者のあるべき姿なのかもしれませんけれど。,"Take care here in Ul'dah, friend. There is no shortage of evils in these lands. Then again, we adventurers crave such excitement, do we not?","Lass mich dir noch einen guten Rat mit auf den Weg geben: Irgendetwas Böses geht in Ul'dah um. Ich bin nicht die Einzige, die von Geräuschen und schlimmen Vorahnungen um den Schlaf gebracht wird. Sei auf der Hut!","Au revoir, et faites bien attention à vous. Il y a des choses pires à Ul'dah que les voleurs, croyez-moi.",您也要多加小心呢。[@CR]这乌尔达哈肯定被什么危险的东西混进来了。[@CR]不过听到这种消息后，兴奋起来才是冒险者应有的表现也说不定哦。
