 ,0,1,2,3,4
 ,str,str,str,str,str
2,まったく、あの、うつけ者が……,A tragedy... An utter tragedy.,"[@1A(1)]stöhn[@1A(0)] Hach, was für ein Wink des Schicksals ...",Il ne manquait plus que ça...,真是的，那个笨蛋……
3,彼女の名は「セーダ」。[@CR]稀にみる俊才で、いずれは呪術士ギルドを背負って立つ逸材だと[@CR]周囲の期待を集めていたのだが……まさか、このようなことになろうとは。,"Her name was...[@1A(1)]is[@1A(0)] Theda, and she has a gift for our ways such as none before her. We truly expected...[@1A(1)]expect[@1A(0)] great things from young Theda. Great things. But for her to meet with such a tragic end as this...","Ihr Name ist Theda. Sie ist ein hochbegabter Kopf, Mitglieder mit so viel Talent findet man nur selten.[@CR]Hach, warum musste es ausgerechnet sie treffen?","Elle s'appelle Theda, et c'est un des membres les plus brillants de l'Ossuaire. Son don pour les arts occultes est ex[@16]cep[@16]tion[@16]nel, et tout le monde ici avait de grands espoirs pour elle. Quelle pitié.",那位同伴的名字叫做“赛达”。[@CR]她有着难得的才华，大家都认为她早晚会挑起咒术师工会的大梁。[@CR]我们对她寄予如此厚望，没想到竟然会发生这种事。
4,アマルジャ族の祈祷師は、拉致した呪術士から術を聞き出すと言われている。[@CR]これが事実なら、彼女の高い能力が、逆にウルダハを脅かす毒牙となろう。,"As to their motives─if motives can be ascribed to such savages─who can say? Perhaps the Amalj'aa shamans mean to prize the secrets of our art from poor Theda through duress. If so, we may confidently assume that her power will soon be brought to bear against Ul'dah.","Wir gehen davon aus, dass die Medizinmänner der Amalj'aa versuchen werden, ihr Geheimnisse der Thaumatologie zu entlocken. Wenn sich diese Befürchtung bestätigen sollte, könnten die Amalj'aa womöglich Thedas profunde Kenntnisse gegen Ul'dah einsetzen.","Mais maintenant qu'elle est captive, nous craignons que ses talents, qui devaient servir Ul'dah, ne deviennent au contraire une menace pour la Cité. Il est notoire que les Amalj'aa ont pour habitude d'exploiter les prisonniers versés dans la magie pour apprendre leurs techniques. S'ils la forcent à montrer certains de nos secrets, nous sommes perdus.",据说蜥蜴族的祈祷师，想从我们那被绑架的咒术师那里打听出了咒术的秘密。[@CR] 如果这是事实的话，那么她强大的能力，反而会成为威胁乌尔达哈的毒牙的。
5,"見たところ、貴方は冒険者。[@CR]いまだ傷の癒えぬ我らに代わり、彼女が現場に残しただろう[@CR]「[@SWITCH([@SHEET(itemData,11000165,41)],[@COLOR(#fff3f3f3)],[@COLOR(#ffc0ffa0)],[@COLOR(#ff60c8ff)],[@COLOR(#ffb38cff)],[@COLOR(#ffffa666)],[@COLOR(#ffe5dd7e)])][@EDGECOLOR(#ff262626)][@SHEET(xtx/itemName,11000165,4)][@EDGECOLOR($EC)][@COLOR($EC)]」を探してきてはもらえぬか？","It must not come to that. Yet too many in our party suffered wounds in combat, and we haven't the manpower to spare for a search without some sort of hard evidence. Aid us, friend. Travel to the scene of the battle, and search for [@SWITCH([@SHEET(itemData,11000165,41)],[@COLOR(#fff3f3f3)],[@COLOR(#ffc0ffa0)],[@COLOR(#ff60c8ff)],[@COLOR(#ffb38cff)],[@COLOR(#ffffa666)],[@COLOR(#ffe5dd7e)])][@EDGECOLOR(#ff262626)][@SHEETEN(xtx/itemName,1,11000165,1,1)][@EDGECOLOR($EC)][@COLOR($EC)] left by Theda. All within the Order are taught to imbue their clasps with a message in times of distress.","Du siehst aus wie [@IF($E9(4),eine Abenteurerin,ein Abenteurer)]. Viele von uns sind verletzt, weshalb ich dich darum bitten möchte, nach [@SWITCH([@SHEET(itemData,11000165,41)],[@COLOR(#fff3f3f3)],[@COLOR(#ffc0ffa0)],[@COLOR(#ff60c8ff)],[@COLOR(#ffb38cff)],[@COLOR(#ffffa666)],[@COLOR(#ffe5dd7e)])][@EDGECOLOR(#ff262626)][@SHEETDE(xtx/itemName,1,11000165,1,3,1)][@EDGECOLOR($EC)][@COLOR($EC)] zu suchen, das sie womöglich - oder besser gesagt hoffentlich - am Kampf[@16]schau[@16]platz zurückgelassen hat.","Vous m'avez l'air d'[@IF($E9(4),une aventurière courageuse,un aventurier courageux)]. Pourriez-vous vous rendre sur les lieux du combat pour chercher [@SWITCH([@SHEET(itemData,11000165,41)],[@COLOR(#fff3f3f3)],[@COLOR(#ffc0ffa0)],[@COLOR(#ff60c8ff)],[@COLOR(#ffb38cff)],[@COLOR(#ffffa666)],[@COLOR(#ffe5dd7e)])][@EDGECOLOR(#ff262626)][@SHEETFR(xtx/itemName,5,11000165,1,1)][@EDGECOLOR($EC)][@COLOR($EC)][@1D]?","看上去，你似乎是个冒险者吧。[@CR]因为我们现在身上还都有伤，所以能否请你帮忙寻找她留在现场的[@CR]“[@SWITCH([@SHEET(itemData,11000165,41)],[@COLOR(#fff3f3f3)],[@COLOR(#ffc0ffa0)],[@COLOR(#ff60c8ff)],[@COLOR(#ffb38cff)],[@COLOR(#ffffa666)],[@COLOR(#ffe5dd7e)])][@EDGECOLOR(#ff262626)][@SHEET(xtx/itemName,11000165,131)][@EDGECOLOR($EC)][@COLOR($EC)]”呢？"
6,この報酬で不満とは……貴方は、ナル神の信仰者か。[@CR]ならば仕方ない。他をあたるとしよう。,"You would refuse to do the work of Thal? Then may he shun you, as you have him.","So, so. Eine hohe Belohnung kann ich dir trotzdem nicht anbieten. Da musst du dir einen Auftrag bei der Milvaneth-Kapelle besorgen ...","Vous refusez une occasion de gagner quelque chose et de servir Thal[@1D]? Vous êtes bien [@IF($E9(4),sotte,sot)].",竟然对我开的报酬不满……你是纳尔神的信徒么。[@CR]那就没办法了，我只能另请高明。
7,感謝する。[@CR]同朋が恐怖と苦痛に屈してしまう前に、なんとしても助け出したい。,"Your deeds will not go unrewarded─by the Order, nor by Thal himself. Now please, hurry. We must help Theda. I only pray it is not too late.","Ich danke dir. Wir müssen etwas tun, bevor unsere Schwester unsägliche Schmerzen erleidet.",Merci. J'espère que nous pourrons porter secours à Theda avant qu'elle ne cède.,非常感谢。[@CR]请你无论如何也要在我的同伴屈服于恐惧与痛苦之前解救她。
8,"セーダを拉致したアマルジャ族の部隊は、[@CR]東ザナラーン中央の「ハラタリ」付近でよく目撃されている。[@CR]奴らを倒し、セーダが残した「[@SWITCH([@SHEET(itemData,11000165,41)],[@COLOR(#fff3f3f3)],[@COLOR(#ffc0ffa0)],[@COLOR(#ff60c8ff)],[@COLOR(#ffb38cff)],[@COLOR(#ffffa666)],[@COLOR(#ffe5dd7e)])][@EDGECOLOR(#ff262626)][@SHEET(xtx/itemName,11000165,4)][@EDGECOLOR($EC)][@COLOR($EC)]」を探してほしい。","The Amalj'aa warband which attacked us is often spotted near Halatali in eastern Thanalan. Travel there and slay the fiends. Then search for Theda's [@SWITCH([@SHEET(itemData,11000165,41)],[@COLOR(#fff3f3f3)],[@COLOR(#ffc0ffa0)],[@COLOR(#ff60c8ff)],[@COLOR(#ffb38cff)],[@COLOR(#ffffa666)],[@COLOR(#ffe5dd7e)])][@EDGECOLOR(#ff262626)][@SHEETEN(xtx/itemName,3,11000165,1,1)][@EDGECOLOR($EC)][@COLOR($EC)].","Eine Nachhut der Amalj'aa soll sich noch immer in Halatali, inmitten des östlichen Thanalan, aufhalten.[@CR]Besiege sie, und mit ein bisschen Glück gelangen wir so an [@SWITCH([@SHEET(itemData,11000165,41)],[@COLOR(#fff3f3f3)],[@COLOR(#ffc0ffa0)],[@COLOR(#ff60c8ff)],[@COLOR(#ffb38cff)],[@COLOR(#ffffa666)],[@COLOR(#ffe5dd7e)])][@EDGECOLOR(#ff262626)][@SHEETDE(xtx/itemName,2,11000165,1,4,1)][@EDGECOLOR($EC)][@COLOR($EC)].","Allez chercher [@SWITCH([@SHEET(itemData,11000165,41)],[@COLOR(#fff3f3f3)],[@COLOR(#ffc0ffa0)],[@COLOR(#ff60c8ff)],[@COLOR(#ffb38cff)],[@COLOR(#ffffa666)],[@COLOR(#ffe5dd7e)])][@EDGECOLOR(#ff262626)][@SHEETFR(xtx/itemName,1,11000165,1,1)][@EDGECOLOR($EC)][@COLOR($EC)] près d'Halatali dans le Thanalan central. Il ne fait aucun doute qu'une occultiste de la trempe de Theda a trouvé le moyen d'en laisser [@IF([@SHEET(xtx/itemName,11000165,23)],une,un)] derrière elle. Faites attention, les Amalj'aa pa[@16]trouil[@16]lent fréquemment dans le coin, vous devrez cer[@16]tai[@16]ne[@16]ment combattre.","绑架了“赛达”的蜥蜴人族部队，[@CR]被人目击到出现在东萨纳兰中央的“哈拉塔利”附近。[@CR]希望你击败他们，寻找“赛达”留下来的“[@SWITCH([@SHEET(itemData,11000165,41)],[@COLOR(#fff3f3f3)],[@COLOR(#ffc0ffa0)],[@COLOR(#ff60c8ff)],[@COLOR(#ffb38cff)],[@COLOR(#ffffa666)],[@COLOR(#ffe5dd7e)])][@EDGECOLOR(#ff262626)][@SHEET(xtx/itemName,11000165,131)][@EDGECOLOR($EC)][@COLOR($EC)]”。"
9,同朋が恐怖と苦痛に屈してしまう前に、なんとしても助け出したい。[@CR]よろしく頼んだぞ。,"Now please, hurry. We must help Theda. I only pray it is not too late.","Wir müssen sie retten, bevor sie ihr unsägliche Schmerzen zufügen. Ich verlasse mich auf dich!",J'espère vraiment que nous pourrons ensuite porter secours à Theda avant qu'elle ne cède.,请你无论如何也要在我的同伴屈服于恐惧与痛苦之前解救她。[@CR]拜托了。
10,"よくぞ戻った。[@CR]どれ、その「[@SWITCH([@SHEET(itemData,11000165,41)],[@COLOR(#fff3f3f3)],[@COLOR(#ffc0ffa0)],[@COLOR(#ff60c8ff)],[@COLOR(#ffb38cff)],[@COLOR(#ffffa666)],[@COLOR(#ffe5dd7e)])][@EDGECOLOR(#ff262626)][@SHEET(xtx/itemName,11000165,4)][@EDGECOLOR($EC)][@COLOR($EC)]」を見てみよう。",Not idly do the clasps of the Order fall... It is as I thought.,"Nald'thal sei Dank, du bist unversehrt zurückgekommen.[@CR]Lass mich einen Blick auf [@SWITCH([@SHEET(itemData,11000165,41)],[@COLOR(#fff3f3f3)],[@COLOR(#ffc0ffa0)],[@COLOR(#ff60c8ff)],[@COLOR(#ffb38cff)],[@COLOR(#ffffa666)],[@COLOR(#ffe5dd7e)])][@EDGECOLOR(#ff262626)][@SHEETDE(xtx/itemName,2,11000165,1,4,1)][@EDGECOLOR($EC)][@COLOR($EC)] werfen.","Ah, vous êtes de retour. Vous avez bien trouvé [@SWITCH([@SHEET(itemData,11000165,41)],[@COLOR(#fff3f3f3)],[@COLOR(#ffc0ffa0)],[@COLOR(#ff60c8ff)],[@COLOR(#ffb38cff)],[@COLOR(#ffffa666)],[@COLOR(#ffe5dd7e)])][@EDGECOLOR(#ff262626)][@SHEETFR(xtx/itemName,1,11000165,1,1)][@EDGECOLOR($EC)][@COLOR($EC)], n'est-ce pas[@1D]? Montrez-[@IF([@SHEET(xtx/itemName,11000165,23)],la,le)]-moi.","欢迎归来。[@CR]快点快给我看看“[@SWITCH([@SHEET(itemData,11000165,41)],[@COLOR(#fff3f3f3)],[@COLOR(#ffc0ffa0)],[@COLOR(#ff60c8ff)],[@COLOR(#ffb38cff)],[@COLOR(#ffffa666)],[@COLOR(#ffe5dd7e)])][@EDGECOLOR(#ff262626)][@SHEET(xtx/itemName,11000165,131)][@EDGECOLOR($EC)][@COLOR($EC)]”吧。"
11,おかげで、救助隊を派遣できる。さあ、約束の報酬だ。[@CR]うまくいけば、セーダからアマルジャ族の秘密も聞き出せるだろう。,"You have served us well, [@SPLIT([@STRING($EB(1))], ,1)]. With evidence as certain as this, the Order will surely move to rescue her. As promised, here is your reward. When she is returned safely to us, gods willing, perhaps it will be [@1A(1)]we[@1A(0)] who learn of the [@1A(1)]Amalj'aa's[@1A(0)] secrets!","Ich werde sofort veranlassen, dass ein Rettungstrupp entsandt wird. Danach können wir nur noch auf das Beste hoffen.[@CR]Hier ist deine versprochene Belohnung. Wenn alles gut läuft, kann uns Theda vielleicht sogar etwas über die Amalj'aa berichten.","Nous allons pouvoir envoyer une expédition de secours. Avec un peu de chance, c'est nous qui apprendrons des secrets amalj'aa au lieu du contraire. Tenez, vous avez bien mérité votre récompense.",多亏了你，我们可以派遣援救队了。请收下我这谢礼吧。[@CR]若接下来顺利的话，没准还能从“赛达”那里获知蜥蜴人族的秘密呢。
12,……おや、失礼。[@CR]先のアマルジャ族との交戦で、我らの同朋が連れ去られてな。,"What is it, you ask? Certainly the worst news of recent days. A band of Amalj'aa set upon our convoy─members of the Order, all. Though none lost their lives, one of our thaumaturges was taken captive.","Oh! Wie unhöflich von mir.[@CR]Bei unserem letzten Gefecht gegen die Amalj'aa ist es diesen grobschlächtigen Bestien gelungen, eine unserer Schwestern zu entführen.","Ah, [@IF($E3($E9(11),12),[@IF($E3($E9(11),4),bonsoir,bonjour)],[@IF($E3($E9(11),17),bonjour,bonsoir)])]. Enfin, si l'on peut dire. Je n'ai jamais eu de pire journée. Un groupe d'occultistes a été pris par surprise dans une embuscade des Amalj'aa. Ils ont réussi à les repousser, mais une disciple a été enlevée.",诶呀，失礼了。[@CR]刚才，在与蜥蜴人族的交战中，我们的同伴被带走了。
13,あのとき戦ったアマルジャ族の部隊は、[@CR]東ザナラーン中央「ハラタリ」付近でよく目撃されているという。[@CR]そこにいるアマルジャ族を倒せば、目的の物は見つかるはずだ。,I have learned that the Amalj'aa warband which attacked us has been sighted on a number of occasions in the vicinity of Halatali in eastern Thanalan. Travel there and slay the fiends. Then search for Theda's clasp.,"Der Kampf fand in der Nähe von Halatali, im Zentrum des östlichen Thanalan, statt. Dort wirst du bestimmt auf Trupps der Amalj'aa treffen. Da der Gegenstand, nach dem wir suchen, wie pures Gold funkelt, haben sie ihn sicherlich gefunden.[@CR]Es besteht allerdings die Chance, dass du ihn einem der Amalj'aa dort abnehmen kannst, wenn du sie besiegst ... Ich weiß, aber im Moment ist das die einzige Chance, die wir haben, sie wiederzufinden.","L'embuscade a eu lieu près d'Halatali dans le Thanalan central. Nous sommes entraînés à laisser des objets destinés aux autres occultistes si nous sommes faits prisonniers. Vous serez bien sûr [@IF($E9(4),récompensée,récompensé)] si vous nous aidez.",当时与我们交手的蜥蜴人族部队，[@CR]有人看到它们在东萨纳兰中央的“哈拉塔利”附近出没。[@CR]击败那些蜥蜴人，应该就可以找到那东西了。
14,……うむ、やはり。[@CR]セーダは、これに監禁場所を記していたか。[@CR]我々には、非常時に連絡を取り合う秘伝の術があるのだ。,"The Order possesses a magic which can reveal the messages imbued in the clasps of its members. And Theda has told us precisely where the Amalj'aa planned to take her after the battle─though what foolishness prompted her captors to disclose the location, and how she came to understand them, I am at a loss to surmise.","[@1A(1)]grummel[@1A(0)] Wie zu erwarten war ...[@CR]Sie hat darauf mithilfe eines Zaubers beschrieben, wo man sie festhält. Viele Thaumaturgen bedienen sich in Notsituationen dieser geheimen Technik, um Kontakt zu den anderen zu halten.","Eh bien, qui l'eût cru. Theda a entendu les Amalj'aa parler de l'endroit où elle allait être emmenée et a laissé un code sur cet objet pour nous le faire savoir.",嗯，不出所料。[@CR]“赛达”果然在上面记下了监禁所的地点。[@CR]我们是有在非常时期相互联络的秘传之术的。
