 ,0,1,2,3,4
 ,str,str,str,str,str
1,ゆゆしきことだ。[@CR]冒険者よ、グリダニアから続く道すがら[@CR]「守灯籠（もりどうろう）」があることはご存じか。,"Please be so kind as to hear me out. Something terrible has happened! Tell me, adventurer, do you know of the Watchers─stone sentinels with hearts of flame that light our forest paths?","Wer schreitet so spät durch Nacht und Wind? Ah, [@IF($E9(4),eine auf abenteuerlichen Pfaden Wandelnde,ein auf abenteuerlichen Pfaden Wandelnder)]!","Hum, nous voici face à un problème d'importance... [@IF($E9(4),Aventurière,Aventurier)], je suppose que vous avez déjà remarqué les lanternes gardiennes disposées le long des chemins autour de Gridania[@1D]?",太可怕了！[@CR]冒险者，你知道格里达尼亚的路上是有路灯的吧。[@CR]
2,そこに、誰かが妙な油を注いだのだ。[@CR]その油によって、炎は激しく燃え上がった。[@CR]炎に宿りし「火の精霊」は、その興奮冷めやらん状態だ。,"Well, it seems a number of them have been doused with some sort of strange...oil. It has caused the flames of the fire elementals within to burn violently, and we are powerless to soothe them.","Du hast die Steinlaternen gesehen, die die hohle Gasse hierher säumen? Die Flammen lodern heller als jemals zuvor! Die Feuerelementare, die in diesem Höllenöl wohnen, lecken gierig am Granit, ganz außer Rand und Band!","Eh bien quelqu'un s'est amusé à y verser une huile on ne peut plus étrange... Depuis, les flammes de ces lanternes sont très intenses. Trop même, car les esprits qui les habitent sont pris d'une rare frénésie.",但不知道谁往那里注入了奇怪的油。[@CR]导致火焰燃烧过旺。[@CR]而寄宿在火焰中的“火之元灵”，也一直都处于兴奋状态。
3,仕方なく、彼らをひとりずつ[@CR]この壺に封じ込めて、落ち着くのを待っているのだが……,"I was able to seal one of the elementals within this vessel. I have been waiting for the flames to subside, but they continue to burn as fiercely as when I first found them.","Deswegen musste es sein. Wir haben sie einzeln in Urnen gebannt und diese versiegelt, bis sich die Wildgewordenen beruhigen. Aber ...","J'ai donc décidé d'emprisonner chacun d'entre eux dans des jarres en attendant qu'ils s'apaisent, mais ça ne semble pas fonctionner...",所以我只得将它们封入到这个壶中，[@CR]等着它们慢慢冷静下来……
4,ふむ、そなたは幻術士の端くれか。[@CR]ならば、火の精霊を御することも可能かもしれんな。[@CR]彼らの力を発散させるため、消えている「たき火」を巡ってほしい。,"I see that you are a conjurer. Please, you must aid me. Make your way to the extinguished hearths throughout the forest. The elemental will exert itself to light them. No doubt that will help to diminish the flames.","Du blickst auf? Kaum dass du die einfachsten Prinzipien des Animismus begriffen hast, traust du dir zu, tobende Feuergeister zu zügeln? Nun gut. Ich möchte, dass du, um ihre Macht zu dispergieren, einen Rundgang zu bestimmten erloschenen Feuerstellen machst.","Entre [@IF($E9(4),frère et sœur,frères)] élé[@16]men[@16]ta[@16]lis[@16]tes, j'aimerais vous demander un service. Pour permettre à ces esprits de libérer leur excès d'énergie, j'aimerais que vous cherchiez des feux éteints à travers la Sylve.",咦，你是个刚出道的幻术师呀。[@CR]那或许你可以驾驭火之元灵。[@CR]为了消耗它们的力量，希望你能去燃尽的篝火附近走一圈。
5,そなた、それだけの力があるならば、[@CR]グリダニアの森を闊歩すること可能だろう。[@CR]彼らの力を発散させるため、消えている「たき火」を巡ってほしい。,"I have no doubt an adventurer like you can find [@IF($E9(4),her,his)] way around the forest. Please visit each of the extinguished hearths. The elemental will exert itself to light them. That should hopefully serve to calm its flames.","Du blickst auf? Du, [@IF($E9(4),Verehrteste,mein Freund)], bist [@IF($E9(4),keine Druidin,kein Druide)], das sieht ein Blinder an deiner Aura. Doch wenn du meinst, genug Mut zu besitzen ... du sollst, um die Macht der Feuerelementare zu dispergieren, einen Rundgang zu bestimmten erloschenen Feuerstellen machen.","Vous qui avez l'habitude des aventures, vous devriez pouvoir me venir en aide. Pour permettre à ces esprits de libérer leur excès d'énergie, j'aimerais que vous cherchiez des feux éteints à travers la Sylve.",我看你好像也挺有本事的，[@CR]相信你在格里达尼亚的森林中穿梭应该不成问题吧。[@CR]为了消耗它们的力量，我希望你能到燃尽的篝火附近走一圈。
6,幻術士の務めを忘れたか……。,Very well. But know that you bring shame to all at Stillglade Fane.,Ich fasse es nicht. Du bist eine Schande für die Gemeinschaft der Druiden.,"[@IF($E9(4),Sœur,Frère)], ceci fait pourtant partie de votre ap[@16]pren[@16]tis[@16]sage. Auriez-vous déjà oublié les en[@16]sei[@16]gne[@16]ments fondamentaux de l'élémentalisme[@1D]?",你忘了幻术师的职责了吗……
7,断るのか。妙な油を注いだ者、そなたではあるまいな？,"I doubt even the misguided souls responsible for these acts of vandalism would refuse such a request, if they only knew the damage they'd done...but I'm sure [@1A(1)]you[@1A(0)] have your reasons.","Du lehnst ab. Doch sag mir, [@IF($E9(4),Verantwortungslose,Verantwortungsloser)], warst es nicht etwa du, [@IF($E9(4),die,der)] die Laternen mit dem seltsamen Öl gefüllt hat? Leugnen ist zwecklos, [@IF($E9(4),Verehrte,mein Freund)].",Ce n'est pourtant pas une tâche difficile... Ne me dites pas que vous êtes de mèche avec l'individu qui a versé cette huile étrange sur nos lanternes gardiennes[@1D]?,你居然会拒绝？难不成注入了那个奇怪的油的人就是你？
8,"よし。では、そなたに「[@SWITCH([@SHEET(itemData,11000141,41)],[@COLOR(#fff3f3f3)],[@COLOR(#ffc0ffa0)],[@COLOR(#ff60c8ff)],[@COLOR(#ffb38cff)],[@COLOR(#ffffa666)],[@COLOR(#ffe5dd7e)])][@EDGECOLOR(#ff262626)][@SHEET(xtx/itemName,11000141,4)][@EDGECOLOR($EC)][@COLOR($EC)]」をひとつ持たせよう。[@CR]この壺の中には、火の精霊がひとり入っておる。","Then take this [@SWITCH([@SHEET(itemData,11000141,41)],[@COLOR(#fff3f3f3)],[@COLOR(#ffc0ffa0)],[@COLOR(#ff60c8ff)],[@COLOR(#ffb38cff)],[@COLOR(#ffffa666)],[@COLOR(#ffe5dd7e)])][@EDGECOLOR(#ff262626)][@SHEETEN(xtx/itemName,3,11000141,1,1)][@EDGECOLOR($EC)][@COLOR($EC)]. The fire elemental burns within.","Exzellent. Hier, nimm [@SWITCH([@SHEET(itemData,11000141,41)],[@COLOR(#fff3f3f3)],[@COLOR(#ffc0ffa0)],[@COLOR(#ff60c8ff)],[@COLOR(#ffb38cff)],[@COLOR(#ffffa666)],[@COLOR(#ffe5dd7e)])][@EDGECOLOR(#ff262626)][@SHEETDE(xtx/itemName,2,11000141,1,4,1)][@EDGECOLOR($EC)][@COLOR($EC)] von mir. Darin ist ein Feuerelementar eingesperrt.","Très bien. Laissez-moi vous remettre une de ces [@SWITCH([@SHEET(itemData,11000141,41)],[@COLOR(#fff3f3f3)],[@COLOR(#ffc0ffa0)],[@COLOR(#ff60c8ff)],[@COLOR(#ffb38cff)],[@COLOR(#ffffa666)],[@COLOR(#ffe5dd7e)])][@EDGECOLOR(#ff262626)][@SHEETFR(xtx/itemName,12,11000141,2,1)][@EDGECOLOR($EC)][@COLOR($EC)]. Maniez-la avec précaution, il y a un esprit de feu enfermé à l'intérieur.","很好，那给你带上一个“[@SWITCH([@SHEET(itemData,11000141,41)],[@COLOR(#fff3f3f3)],[@COLOR(#ffc0ffa0)],[@COLOR(#ff60c8ff)],[@COLOR(#ffb38cff)],[@COLOR(#ffffa666)],[@COLOR(#ffe5dd7e)])][@EDGECOLOR(#ff262626)][@SHEET(xtx/itemName,11000141,131)][@EDGECOLOR($EC)][@COLOR($EC)]”吧。[@CR]在这个壶中封有一只火之元灵。"
9,彼の力を発散させるためには、何かを燃やさせればよい。[@CR]そうだな、火の消えてしまっているたき火をおこせば、[@CR]皆のためにもなろう。,"Take it to the extinguished hearths, and let the elemental exert itself setting the timber there ablaze. Please, you will be doing all of Gridania a service.","Um seine Macht zu zerstreuen, musst du ihm etwas geben, worauf er seine Energie richten, was er in Brand setzen kann. Und zwar bieten sich hier die erloschenen Feuerstellen an. An diesen kann er sich gefahrlos abreagieren.","Pour lui permettre de libérer son énergie, vous devez brûler quelque chose. Tenez, vous trouverez cer[@16]tai[@16]ne[@16]ment quelques feux éteints à raviver en forêt.",想要消耗它们的力量，只要让它们燃烧一些东西就好了。[@CR]比如说……把已经熄灭的篝火点燃什么的，[@CR]这样做也帮助了其他人，一举两得。
10,黒衣森の各地には[@CR]魔物を寄せ付けぬように、たき火が焚いてある。[@CR]冒険者なら気付いておろう。たき火を巡り、壺を使うがよい。,"When lit, the flames of the forest hearths fend off all manner of fiend and beast. Wandering while they are extinguished is... Oh, do take care!","An verschiedenen Orten im Wald der Einkehr sind diese Feuerstellen angelegt, um die im Dickicht lauernden Monster fernzuhalten. Du bist sicher schon einige Male an diesen Lagerfeuern vorbeigekommen. Geh von einer Stelle zur anderen und lass den Feuerelementar auf die kalten Aschen los!",Nous utilisons ces feux pour repousser les monstres indésirables qui tentent de s'introduire dans la Sylve. Vous les avez peut-être déjà aperçus[@1D]? Je vais mettre des marques sur votre carte pour vous aider.,在黑衣森林的许多地方[@CR]都燃有篝火以防魔物靠近。[@CR]冒险者应该都注意到了吧。到篝火附近走走，然后使用那个壶就行了。
11,そうだな……[@VALUE($E8(5))]箇所ほど、たき火をおこせば十分か。[@CR]地図に印をつけておくぞ。,"Setting [@IF($E5($E8(5),0),[@IF($E2($E8(5),10),[@SWITCH($E8(5),one,two,three,four,five,six,seven,eight,nine,ten)],[@VALUE($E8(5))])],[@VALUE($E8(5))])] of the hearths ablaze will suffice. I will mark their locations on your map.","Ich denke, wenn du [@VALUE($E8(5))] Stellen gefunden und dort Lagerfeuer entfacht hast, wird der Elementar hinreichend geschwächt sein. Ich markiere dir auf der Karte, wo sich die Stellen nach meiner Erinnerung befinden.","Utilisez cette jarre en [@VALUE($E8(5))] endroits différents, cela devrait suffire à apaiser l'esprit qui s'y trouve.",唔嗯……我觉得你点燃[@VALUE($E8(5))]个左右的篝火就差不多了。[@CR]我在地图上把位置给你标记出来了。
12,黒衣森の各地にある「火が消えているたき火」に、その壺を使うがよい。[@CR]そうすれば、火の精霊の力が発散される。,Release the elemental within the heated gallipot near the extinguished hearths. It will light the kindling of its own accord. It is its nature to do so.,"An einigen Orten im Wald der Einkehr wirst du auf erloschene Feuerstellen stoßen, und dort kannst du die Feuertöpfe, die ich dir gegeben habe, öffnen. Der Feuerelementar wird seine Kraft darauf verwenden und sich dadurch beruhigen.",Trouvez des feux éteints dans la Sylve et utilisez votre jarre. L'esprit que j'y ai enfermé pourra ainsi libérer son excès d'énergie.,在黑衣森林中“熄灭的篝火”处使用那个壶。[@CR]火之元灵的力量就会得到消耗了。
13,[@VALUE($E8(5))]箇所ほど、たき火をおこせば十分だ。[@CR]地図につけておいた印を見ながら、巡るとよい。,"Setting [@IF($E5($E8(5),0),[@IF($E2($E8(5),10),[@SWITCH($E8(5),one,two,three,four,five,six,seven,eight,nine,ten)],[@VALUE($E8(5))])],[@VALUE($E8(5))])] of the hearths ablaze will suffice. I will mark their locations on your map.","Meiner Einschätzung nach wird es ausreichen, [@VALUE($E8(5))] Stellen zu besuchen. Auf der Karte habe ich dir das markiert, wohin du gehen sollst.","Si vous le faites en [@VALUE($E8(5))] endroits différents, cela devrait suffire à l'apaiser pour de bon. Et faites usage de votre carte si vous ne trouvez plus de feux éteints[@1D]!",你点燃[@VALUE($E8(5))]个左右的篝火就差不多了。[@CR]你参照着地图上的标记寻找就行了。
14,おお、戻ったか。[@CR]火の精霊の様子を見せてくれ。,"You have returned! Come, show me the elemental!","Du bist ja immer noch da? Oh, verzeih mir, du bist schon zurück. Lass mich mal sehen, wie der Elementar in dem Feuertopf sich gebärdet.","Oh, vous revoilà[@1D]! Montrez-moi un peu comment se porte l'esprit dont je vous ai confié la garde.",啊，你回来啦。[@CR]让我看看火之元灵的状态。
15,……よくやった、冒険者よ。[@CR]この精霊、すっかり大人しくなっておる。[@CR]我が言葉も届くようだ。さっそく壺から解き放とう。,"You have done well, friend. The elemental has grown calm enough to hear our calls again. It is time to free it from this vessel.","Hervorragend! Ich bin beeindruckt! Die elementare Macht ist in ihre Bahnen zurück gelenkt, der Feuergeist gehorcht! Wir können das Siegel öffnen.","C'est une grande réussite[@1D]! Regardez son aura, il est de nouveau serein. Je pense que nous pouvons le laisser quitter cette jarre, maintenant.",……干得不错，冒险者。[@CR]这个精灵已经老实很多了。[@CR]它也能够再次听到我的声音了。赶快把它从壶中放出来吧。
16,そして、鎮守の森に、火の恵みが戻ったことを祝おうではないか。[@CR]なんと喜ばしいことだろうか。,"Let us pray that with this, the gift and strength of fire has returned to the Twelveswood.","Im Wald der Einkehr herrscht wieder Harmonie, der Segen des gezähmten Feuers ist mit uns. Lass uns das feiern, [@IF($E9(4),beherzte Helferin,Abenteurer)]!","[@SPLIT([@STRING($EB(1))], ,1)], je ne sais comment vous remercier. Grâce à vous, la Sylve des Douze brille à nouveau de mille feux[@1D]!",让我们来庆祝一下火之恩惠再次回到镇守之森吧。[@CR]这是件多么令人高兴的事呀。
17,すでに精霊の力が宿っている。,The power of the fire elemental has already been released here.,Mehr elementare Macht kann dieses Feuer nicht aufnehmen.,L'énergie d'un esprit du feu a déjà été libérée ici.,此处已经寄宿有元灵的力量。
