 ,0,1,2,3,4
 ,str,str,str,str,str
1,おいしい野菜、おいしい野菜っとにゃ。,"Oh, such delectable vegetables!","Gemüse! Köstliches, knackfrisches Gemüse! ♪","Hmmm, de délicieux légumes, frais et crrroquants[@1D]!",新鲜美味的蔬菜喵~可口诱人的蔬菜喵。
2,んー、冒険者さんは、野菜だいすきッコかにゃ？,"You, there, adventurer. Tell me, do you have a penchant for fine vegetables?","Oh, [@IF($E9(4),eine starke Abenteurerin,ein mutiger Abenteurer)]! Du bist [@IF($E9(4),Vegetarierin,Vegetarier)], ich sehe es an deiner zartgrünen Nase!","Vous aussi vous adorez les légumes, je parie[@1D]!",唔……冒险者你是喜欢蔬菜的孩子吗喵？
3,野菜好き？,"Do you enjoy eating leaf, stem, and root?",Wie stehst du zu Gemüse?,Aimez-vous les légumes[@1D]?,喜欢蔬菜吗？
4,はい,Indeed I do.,"Aaah, unsere grünen Freunde! Ich [@1A(1)]liebe[@1A(0)] sie!","Oui, c'est bon pour la santé.",是
5,いいえ,"<snort> No, I eat real food─meat.","Pah. Nö danke, das kann mir gestohlen bleiben.","Non, quelle horreur[@1D]!",否
6,サンドレも、冒険者さんを見習えばいいのにゃ。アホなのにゃ。,But of course you do! That fool Sandre could stand to learn a few things from you.,"Na eben! Du sagst es! Sandre kann noch viel von dir lernen, [@IF($E9(4),meine gesundheitsbewusste Freundin,mein sanfter Held)].",Si seulement Sandre pouvait prrrendre exemple sur vous... Quel idiot celui-là[@1D]!,桑德雷要是也像冒险者一样喜欢蔬菜就好了喵~那个大笨蛋喵！
7,そこの建物の入口にいるサンドレってのが、[@CR]冒険者さんと同じで野菜嫌いなのにゃ。,"You and that fool Sandre both! Look at him over there by that door... Probably daydreaming of meat right now, the heathen!","Was? Das ist nicht dein Ernst. Gemüse ist doch [@1A(1)]so gesund[@1A(0)]! Vegetarier leben länger und zufriedener. Und genau deswegen sieht es schlecht aus für Sandre. Das ist der da drüben, siehst du ihn? Er spricht mit den Blumen, aber hasst Gemüse. Verrückt, nicht?","Vraiment[@1D]? Sandre, là-bas près de l'entrée, est exactement comme vous. Il déteste ça[@1D]!",站在那栋房子的入口处的桑德雷呀，[@CR]和冒险者一样都不喜欢蔬菜呢喵。
8,それで、身体を壊しちゃってるのにゃ。[@CR]野菜を食べないと、身体はおかしくなっちゃうのにゃ。,Well it certainly hasn't done him a mite of good. How can he expect to keep his strength up on a diet void of vegetables? I shudder to think what deficiencies are sapping his vitality even as we speak!,Da ist sicher was in seiner Kindheit passiert ... das will ich gar nicht so genau wissen.,"Inutile de se demander pourquoi il a la santé si frrragile. Quand on ne mange pas assez de légumes, notre corps nous le fait comprendre, miaou.",就是因为不爱吃蔬菜，他的身体才被搞坏的喵。[@CR]不吃蔬菜的话，身体会出现许多奇怪状况的喵。
9,だから、おいしい野菜を探してるわけにゃのにゃ。[@CR]野菜嫌いの冒険者さんでも食べられるくらいの、[@CR]おいしい野菜を探してるわけにゃのにゃー。,And so I have taken it upon myself to find the most delicious of vegetables! Something savory enough to make omnivores out of imbecilic carnivores such as you and he.,"Jedenfalls suche ich schon seit längerer Zeit nach einer neuen Feldfrucht, die über alle Maßen köstlich ist. Eine, die auch bei vehementen Gemüsegegnern Anklang findet, und du weißt ja - die meisten Abenteurer würden am liebsten nur von bluttriefenden Dodosteaks leben.","C'est pourquoi je suis à la recherche de légumes délicieux. Des légumes si bons que même quelqu'un comme vous, qui déteste ça, pourrait les apprécier. De cette façon, Sandre accepterait de les manger[@1D]!",所以我才到处寻找好吃的蔬菜的喵。[@CR]我要找到那种让讨厌吃蔬菜的冒险者也会爱上的，[@CR]非常非常美味可口的蔬菜喵！
10,……にゅふふ。[@CR]野菜嫌いの冒険者さんに、探してもらえば確実なのにゃ？[@CR][@VALUE($E8(5))]個もあれば、サンドレも元気になるのにゃ。,"It may be best to have a finicky eater such as yourself conduct the search. Bring me [@IF($E5($E8(5),0),[@IF($E2($E8(5),10),[@SWITCH($E8(5),one,two,three,four,five,six,seven,eight,nine,ten)],[@VALUE($E8(5))])],[@VALUE($E8(5))])] of the most delicious vegetables you can find, would you? If not for me, do it for Sandre. I fear he is not long for this world if he continues in his barbaric ways.","Also wenn wir so ein Gemüse auftreiben könnten, würden wir die Lebensqualität von unzähligen ungesunden Abenteurern heben, und zuerst testen wir die Köstlichkeit am stursten aller Gemüseverweigerer: Sandre.[@CR]Kannst du vielleicht eine ... oder nein, [@VALUE($E8(5))] der phänomenalen Pflanzen beschaffen?","Hihihi. C'est une bonne idée n'est-ce pas[@1D]? Si vous me rapportez [@VALUE($E8(5))] légumes, Sandre devrait retrouver la santé, miaou. Ah, vous ferrriez peut-être bien de demander conseil à Mestonnaux avant de vous mettre en route...",……咪哼哼。[@CR]所以让讨厌吃蔬菜的冒险者来找的话，是最靠谱的方法了吧？[@CR]有[@VALUE($E8(5))]个左右应该就足以让桑德雷恢复精神了吧喵。
11,にゃーーーー！！！[@CR]めんどくさがり冒険者にゃーーーー！！！,I see all that meat you consume has made you slothful. Every element of your being disgusts me.,"Och, du bist vielleicht faul! [@1A(1)]schmoll[@1A(0)][@CR]Daran ist bestimmt dein hoher Cholesterinspiegel schuld!","Hein[@1D]? Mais pourrrquoi[@1D]? [@IF($E9(4),Méchante aventurière,Méchant aventurier)], [@IF($E9(4),méchante,méchant)][@1D]!",咪呀————！！！！[@CR]你这个见死不救的冒险者咪————！！！
12,ありがとなのにゃ。冒険者さんなら、きっと[@CR]いちばんすごい野菜を見つけ出してくれるはずなのにゃ。,"Forgive me my imposition, but who better than a well-traveled and well-fed adventurer to find the perfect vegetables? I have the utmost faith in you, despite the fact that you reek of meat.","Oh, vielen, vielen Dank! Ich weiß, dass du ein gutes Auge fürs Agrikulturelle hast.",Merrrci beaucoup[@1D]! Je compte sur vous pour dénicher les plus succulents légumes qui soient[@1D]!,谢谢你喵。如果是冒险者的话，[@CR]相信一定可以替我找到最美味可口的蔬菜的喵！[@CR]
13,1,This isn't the text you're looking for...,masked,1,1
14,まずは、メストノに尋ねてみるといいのにゃ。[@CR]メストノのおじいさんメモが役立つかもしれないにゃ。[@CR]さあ、野菜の勇者よ、旅立つのにゃー！,Best go and speak to Mestonnaux first. His years of notes and memorandums may prrrove useful. Return to me with only the most superb vegetables from the bosom of this Eorzea!,"Mach dich auf die Suche, [@IF($E9(4),Heldin,Held)] der Gemüse![@CR]Frag mal Mestonnaux, der kann dir sicher wertvolle Hinweise geben. Sein Großvater hat alle möglichen Herbarien und Aufzeichnungen geführt.","Ah, vous ferrriez peut-être bien de demander conseil à Mestonnaux, il garde en permanence sur lui ce petit calepin qu'il tient de son grand-père... Après ça, mettez-vous en route[@1D]!",你先去找梅斯托诺问问好了喵。[@CR]我想梅斯托诺的祖父的笔记会派上用场的喵。[@CR]好了，我的蔬菜勇士，请你快点出发吧喵！
15,冒険者さんなら、きっと、[@CR]いちばんすごい野菜を見つけ出してくれるはずなのにゃ。[@CR],None is more capable than you of finding what it is I seek─the most delicious vegetables in the realm.,"Toffel, Weizen, Gerste - du bist da [@IF($E9(4),die,der)] Erste!","Je compte sur vous pour découvrir les meilleurs légumes qui soient, miaou.",冒险者的话，[@CR]一定会替我找到最棒的蔬菜的喵！[@CR]
16,きっと、メモ魔のメストノの[@CR]おじいさんメモが役立つはずなのにゃ。尋ねてみるといいのにゃ。,"Perhaps you could make use of the sage Mestonnaux's memorandums. You can find him right over there, next to the Growery.","Frag mal Mestonnaux, der kann dir sicher wertvolle Hinweise geben. Sein Großvater hat alle möglichen Herbarien und Aufzeichnungen geführt.","Vous ferrriez peut-être bien de demander conseil à Mestonnaux. Il prend toujours des notes sur tout, celui-là. Et il garde en permanence sur lui ce petit calepin qu'il tient de son grand-père...",我想，笔记大师梅斯托诺的祖父的笔记一定会帮到你的喵。[@CR]你可以去问问看的喵。
17,おや？　なんですか……ヴァ・ナビヤノが？,"Why, hello there. You look like an inquisitive soul. Come, what would you ask of Mestonnaux?","Welch eine Überraschung, V'nabyano braucht etwas von mir?","[@IF($E3($E9(11),12),[@IF($E3($E9(11),4),Bonsoir,Bonjour)],[@IF($E3($E9(11),17),Bonjour,Bonsoir)])], que puis-je pour vous[@1D]? Oh, c'est V'nabyano qui vous a conseillé de vous adresser à moi[@1D]?",唔？有什么事吗……是瓦·纳毕雅诺让你来找我的？
18,私の祖父の知識を借りたいとおっしゃるんですね。[@CR]野菜嫌いのサンドレのため……という理由ならば、調べてさしあげましょう。,"The knowledge that I keep belonged to my father's father, and his father before him. Still, if Sandre's health is at stake, I suppose I could unfold my secrets to you.","Du willst die Hinweise meines weisen Großvaters hören? Haha, vielleicht war er gar nicht weise, sondern nur sonderbar? [@1A(1)]zwinker[@1A(0)][@CR]Aber dass ihr ausgerechnet Sandre zum Gemüse bekehren wollt, ist köstlich. Ich sag dir, der ist ein harter Fall!","Vous voulez faire appel au savoir de mon grand-père... Très bien. Si c'est pour le bien de Sandre et l'aider à manger des légumes, j'accepte de vous aider.",哦……想要借用我祖父的知识呀。[@CR]是为了讨厌吃蔬菜的桑德雷吗……要是这样的话，我就给你查查看吧。
19,1,This isn't the text you're looking for...,masked,1,1
20,1,This isn't the text you're looking for...,masked,1,1
21,1,This isn't the text you're looking for...,masked,1,1
22,"ふむ、確かに、「キャンプ・トランキル」の北には「[@SWITCH([@SHEET(itemData,11000142,41)],[@COLOR(#fff3f3f3)],[@COLOR(#ffc0ffa0)],[@COLOR(#ff60c8ff)],[@COLOR(#ffb38cff)],[@COLOR(#ffffa666)],[@COLOR(#ffe5dd7e)])][@EDGECOLOR(#ff262626)][@SHEET(xtx/itemName,11000142,4)][@EDGECOLOR($EC)][@COLOR($EC)]」という[@CR]美味優秀な野菜が群生していた、というメモがありますね。","My forebears write that north of Camp Tranquil, [@SWITCH([@SHEET(itemData,11000142,41)],[@COLOR(#fff3f3f3)],[@COLOR(#ffc0ffa0)],[@COLOR(#ff60c8ff)],[@COLOR(#ffb38cff)],[@COLOR(#ffffa666)],[@COLOR(#ffe5dd7e)])][@EDGECOLOR(#ff262626)][@SHEETEN(xtx/itemName,2,11000142,1,1)][@EDGECOLOR($EC)][@COLOR($EC)] grows nigh unchecked. They claim its flavor is unmatched in the vegetable kingdom.","Jedenfalls hab ich hier eine interessante Notiz, der zufolge ein ganz außer[@16]ge[@16]wöhn[@16]liches Gewächs, [@SWITCH([@SHEET(itemData,11000142,41)],[@COLOR(#fff3f3f3)],[@COLOR(#ffc0ffa0)],[@COLOR(#ff60c8ff)],[@COLOR(#ffb38cff)],[@COLOR(#ffffa666)],[@COLOR(#ffe5dd7e)])][@EDGECOLOR(#ff262626)][@SHEETDE(xtx/itemName,2,11000142,1,1,1)][@EDGECOLOR($EC)][@COLOR($EC)], nördlich von Camp Seelenruhe zu finden sein soll.","D'après le calepin, [@SWITCH([@SHEET(itemData,11000142,41)],[@COLOR(#fff3f3f3)],[@COLOR(#ffc0ffa0)],[@COLOR(#ff60c8ff)],[@COLOR(#ffb38cff)],[@COLOR(#ffffa666)],[@COLOR(#ffe5dd7e)])][@EDGECOLOR(#ff262626)][@SHEETFR(xtx/itemName,2,11000142,1,1)][@EDGECOLOR($EC)][@COLOR($EC)], un légume délicieux et ex[@16]cep[@16]tion[@16]nellement riche en vitamines, pousserait au nord du camp des Sentes tranquilles...","哦哦，我祖父的笔记里写着，在“恬静路营地”的北边，[@CR]生长着一片名为[@SWITCH([@SHEET(itemData,11000142,41)],[@COLOR(#fff3f3f3)],[@COLOR(#ffc0ffa0)],[@COLOR(#ff60c8ff)],[@COLOR(#ffb38cff)],[@COLOR(#ffffa666)],[@COLOR(#ffe5dd7e)])][@EDGECOLOR(#ff262626)][@SHEET(xtx/itemName,11000142,131)][@EDGECOLOR($EC)][@COLOR($EC)]的蔬菜。"
23,"そして、この野菜は、「ポポト・オポオポ」の好物とも書いてあります。[@CR]ポポト・オポオポは、増えて問題になることも多い魔物です。となると、[@CR]「[@SWITCH([@SHEET(itemData,11000142,41)],[@COLOR(#fff3f3f3)],[@COLOR(#ffc0ffa0)],[@COLOR(#ff60c8ff)],[@COLOR(#ffb38cff)],[@COLOR(#ffffa666)],[@COLOR(#ffe5dd7e)])][@EDGECOLOR(#ff262626)][@SHEET(xtx/itemName,11000142,4)][@EDGECOLOR($EC)][@COLOR($EC)]」は食いつくされている可能性がありますね。","They also write that it is a favorite of the region's popoto-opotos. Bloody prolific creatures, and filthy. They have proven a bother more than once in the past. I'd not be at all surprised if they'd eaten [@SWITCH([@SHEET(itemData,11000142,41)],[@COLOR(#fff3f3f3)],[@COLOR(#ffc0ffa0)],[@COLOR(#ff60c8ff)],[@COLOR(#ffb38cff)],[@COLOR(#ffffa666)],[@COLOR(#ffe5dd7e)])][@EDGECOLOR(#ff262626)][@SHEETEN(xtx/itemName,2,11000142,1,1)][@EDGECOLOR($EC)][@COLOR($EC)] to extinction!","Aha, hier ist auch der sozusagen „natürliche Feind“ der Pflanze vermerkt: Die Toffel-Opos haben sie offenbar zum Fressen gern. Wenn sich diese Schädlinge zu sehr vermehren, ist der Bestand [@SWITCH([@SHEET(itemData,11000142,41)],[@COLOR(#fff3f3f3)],[@COLOR(#ffc0ffa0)],[@COLOR(#ff60c8ff)],[@COLOR(#ffb38cff)],[@COLOR(#ffffa666)],[@COLOR(#ffe5dd7e)])][@EDGECOLOR(#ff262626)][@SHEETDE(xtx/itemName,2,11000142,2,2,1)][@EDGECOLOR($EC)][@COLOR($EC)] ernsthaft in Gefahr.","Il y est aussi écrit que ce légume est le péché mignon des popo-opoto. Ces monstres pullulent et causent fréquemment des problèmes... Je crains qu'il soit difficile de trouver [@SWITCH([@SHEET(itemData,11000142,41)],[@COLOR(#fff3f3f3)],[@COLOR(#ffc0ffa0)],[@COLOR(#ff60c8ff)],[@COLOR(#ffb38cff)],[@COLOR(#ffffa666)],[@COLOR(#ffe5dd7e)])][@EDGECOLOR(#ff262626)][@SHEETFR(xtx/itemName,1,11000142,2,1)][@EDGECOLOR($EC)][@COLOR($EC)].","还说有种被称为“新薯小贼”的奥猴特别喜欢这种蔬菜。[@CR]而它们的数量一增多便会引发很多问题。[@CR]最可怕的是，它们可能会把[@SWITCH([@SHEET(itemData,11000142,41)],[@COLOR(#fff3f3f3)],[@COLOR(#ffc0ffa0)],[@COLOR(#ff60c8ff)],[@COLOR(#ffb38cff)],[@COLOR(#ffffa666)],[@COLOR(#ffe5dd7e)])][@EDGECOLOR(#ff262626)][@SHEET(xtx/itemName,11000142,131)][@EDGECOLOR($EC)][@COLOR($EC)]全都吃光。"
24,"ただ、もしかしたら、巣に持ち帰るために「[@SWITCH([@SHEET(itemData,11000142,41)],[@COLOR(#fff3f3f3)],[@COLOR(#ffc0ffa0)],[@COLOR(#ff60c8ff)],[@COLOR(#ffb38cff)],[@COLOR(#ffffa666)],[@COLOR(#ffe5dd7e)])][@EDGECOLOR(#ff262626)][@SHEET(xtx/itemName,11000142,4)][@EDGECOLOR($EC)][@COLOR($EC)]」を[@CR]運んでいるオスがいるかもしれません。「キャンプ・トランキル」[@CR]の北にて、ポポト・オポオポを倒してみる意味はあるかと。","Still, males of the species are known to carry food back to their nests... If you were to slay some of the vile beasts, you might be lucky enough to find a few of the tubers you seek─and thin the blighters' numbers at the same time! You can find them north of Camp Tranquil. Best of luck, friend.","Aber vielleicht siehst du ja, wie ein Toffel-Opo-Männchen [@SWITCH([@SHEET(itemData,11000142,41)],[@COLOR(#fff3f3f3)],[@COLOR(#ffc0ffa0)],[@COLOR(#ff60c8ff)],[@COLOR(#ffb38cff)],[@COLOR(#ffffa666)],[@COLOR(#ffe5dd7e)])][@EDGECOLOR(#ff262626)][@SHEETDE(xtx/itemName,5,11000142,2,4,1)][@EDGECOLOR($EC)][@COLOR($EC)] in sein Nest schleppen will. So kannst du die Opos aufspüren und möglichst viele davon beseitigen.[@CR]Ja, ich weiß, aber man muss Prioritäten setzen. Opos oder Toffeln. Nördlich von Camp Seelenruhe halten sie sich auf.","Mais on ne sait jamais, vous pourriez rencontrer un mâle en train d'en rapporter à sa cachette. C'est votre meilleure chance[@1D]! Chassez les popo-opoto au nord du camp des Sentes tranquilles et vous mettrez peut-être la main sur ce fameux légume.","不过，有些雄性的新薯小贼为了囤积食物，[@CR]会把大量的[@SWITCH([@SHEET(itemData,11000142,41)],[@COLOR(#fff3f3f3)],[@COLOR(#ffc0ffa0)],[@COLOR(#ff60c8ff)],[@COLOR(#ffb38cff)],[@COLOR(#ffffa666)],[@COLOR(#ffe5dd7e)])][@EDGECOLOR(#ff262626)][@SHEET(xtx/itemName,11000142,131)][@EDGECOLOR($EC)][@COLOR($EC)]搬运回巢穴。[@CR]所以“恬静路营地”的北侧应该是打倒它们的好地方。"
25,1,This isn't the text you're looking for...,masked,1,1
26,1,This isn't the text you're looking for...,masked,1,1
27,"祖父が残したメモを調べるに、「[@SWITCH([@SHEET(itemData,11000142,41)],[@COLOR(#fff3f3f3)],[@COLOR(#ffc0ffa0)],[@COLOR(#ff60c8ff)],[@COLOR(#ffb38cff)],[@COLOR(#ffffa666)],[@COLOR(#ffe5dd7e)])][@EDGECOLOR(#ff262626)][@SHEET(xtx/itemName,11000142,4)][@EDGECOLOR($EC)][@COLOR($EC)]」は[@CR]「キャンプ・トランキル」の北に群生していたようですね。","My forebears write that north of Camp Tranquil, [@SWITCH([@SHEET(itemData,11000142,41)],[@COLOR(#fff3f3f3)],[@COLOR(#ffc0ffa0)],[@COLOR(#ff60c8ff)],[@COLOR(#ffb38cff)],[@COLOR(#ffffa666)],[@COLOR(#ffe5dd7e)])][@EDGECOLOR(#ff262626)][@SHEETEN(xtx/itemName,2,11000142,1,1)][@EDGECOLOR($EC)][@COLOR($EC)] grows nigh unchecked. They claim its flavor is unmatched in the vegetable kingdom.","Wenn ich mir diese Notiz ansehe, die mein Großvater hinterlassen hat, dann scheint es [@SWITCH([@SHEET(itemData,11000142,41)],[@COLOR(#fff3f3f3)],[@COLOR(#ffc0ffa0)],[@COLOR(#ff60c8ff)],[@COLOR(#ffb38cff)],[@COLOR(#ffffa666)],[@COLOR(#ffe5dd7e)])][@EDGECOLOR(#ff262626)][@SHEETDE(xtx/itemName,5,11000142,2,4,1)][@EDGECOLOR($EC)][@COLOR($EC)] nördlich von Camp Seelenruhe in großen Mengen zu geben.","D'après le précieux calepin que je tiens de mon grand-père, on peut trouver [@SWITCH([@SHEET(itemData,11000142,41)],[@COLOR(#fff3f3f3)],[@COLOR(#ffc0ffa0)],[@COLOR(#ff60c8ff)],[@COLOR(#ffb38cff)],[@COLOR(#ffffa666)],[@COLOR(#ffe5dd7e)])][@EDGECOLOR(#ff262626)][@SHEETFR(xtx/itemName,1,11000142,2,1)][@EDGECOLOR($EC)][@COLOR($EC)] au nord du camp des Sentes tranquilles.","查看了祖父留下来的笔记，[@CR]得知在“恬静路营地”的北面生长着[@SWITCH([@SHEET(itemData,11000142,41)],[@COLOR(#fff3f3f3)],[@COLOR(#ffc0ffa0)],[@COLOR(#ff60c8ff)],[@COLOR(#ffb38cff)],[@COLOR(#ffffa666)],[@COLOR(#ffe5dd7e)])][@EDGECOLOR(#ff262626)][@SHEET(xtx/itemName,11000142,131)][@EDGECOLOR($EC)][@COLOR($EC)]。"
28,"ただ、「ポポト・オポオポ」の好物とも書いてあります。[@CR]「[@SWITCH([@SHEET(itemData,11000142,41)],[@COLOR(#fff3f3f3)],[@COLOR(#ffc0ffa0)],[@COLOR(#ff60c8ff)],[@COLOR(#ffb38cff)],[@COLOR(#ffffa666)],[@COLOR(#ffe5dd7e)])][@EDGECOLOR(#ff262626)][@SHEET(xtx/itemName,11000142,4)][@EDGECOLOR($EC)][@COLOR($EC)]」が食いつくされている可能性もありますが[@CR]ポポト・オポオポを倒してみる意味はあるかと。","They also write that it is a favorite of the region's popoto-opotos. I'd not be at all surprised if they'd eaten [@SWITCH([@SHEET(itemData,11000142,41)],[@COLOR(#fff3f3f3)],[@COLOR(#ffc0ffa0)],[@COLOR(#ff60c8ff)],[@COLOR(#ffb38cff)],[@COLOR(#ffffa666)],[@COLOR(#ffe5dd7e)])][@EDGECOLOR(#ff262626)][@SHEETEN(xtx/itemName,3,11000142,2,1)][@EDGECOLOR($EC)][@COLOR($EC)] to extinction! Perhaps by felling some of the vile beasts, you might be so lucky as to find a few of the tubers you seek.","„Mit wahrem Genusse pflegen sich gefräßige Toffel-Opos die edlen Gewächse mit Stumpf und Stängel einzuverleiben“, steht hier! Wenn wir [@SWITCH([@SHEET(itemData,11000142,41)],[@COLOR(#fff3f3f3)],[@COLOR(#ffc0ffa0)],[@COLOR(#ff60c8ff)],[@COLOR(#ffb38cff)],[@COLOR(#ffffa666)],[@COLOR(#ffe5dd7e)])][@EDGECOLOR(#ff262626)][@SHEETDE(xtx/itemName,2,11000142,2,4,1)][@EDGECOLOR($EC)][@COLOR($EC)] schützen wollen, müssen wir die Toffel-Opos in Schach halten. Be[@16]ziehungs[@16]weise eliminieren ...","Seulement, il est probable qu'ils soient dévorés aussitôt arrivés à maturité par les popo-opoto qui vivent là-bas. Votre seule chance de trouver un légume encore intact est d'en terrasser un retournant à sa cachette pour faire des réserves.","但笔记中也写到，这种蔬菜是一种叫做新薯小贼的奥猴最喜欢的食物。[@CR][@SWITCH([@SHEET(itemData,11000142,41)],[@COLOR(#fff3f3f3)],[@COLOR(#ffc0ffa0)],[@COLOR(#ff60c8ff)],[@COLOR(#ffb38cff)],[@COLOR(#ffffa666)],[@COLOR(#ffe5dd7e)])][@EDGECOLOR(#ff262626)][@SHEET(xtx/itemName,11000142,131)][@EDGECOLOR($EC)][@COLOR($EC)]有可能会被它们吃光。[@CR]看来要将它们消灭才行。"
29,メストノに尋ねてみたのにゃ？[@CR]おじいさんメモは、期待通りのお役立ちメモだったかにゃ？,Were you able to speak with Mestonnaux? Did his memorandums reveal anything of use?,"Und, hast du Mestonnaux gefragt? War in den Schriften seines Großvaters was Interessantes zu finden?","Ça y est, vous avez parlé à Mestonnaux[@1D]? Alors, qu'avez-vous découvert dans ce fameux calepin[@1D]?",你询问过梅斯托诺了吗喵？[@CR]他祖父的那份笔记帮到你了吗喵？
30,……さすがなのにゃ！[@CR]なら、野菜の勇者よ、旅立つのにゃー！,"I knew that they would! You must hurry, friend. Sandre's humours could solidify at any moment!","Wie schön, ich hab's doch gewusst! Dann geht es los!","Vrrraiment[@1D]? C'est une excellente nouvelle, miaou[@1D]! Eh bien à vous de jouer, [@IF($E9(4),chasseuse,chasseur)] de légumes[@1D]!",……好厉害啊！[@CR]那么，蔬菜勇士啊~踏上你的旅程吧喵！
31,……大人になった今、このメモを読み返すと[@CR]いろいろなことがわかります。園芸に関わっている[@CR]部分以外は読み飛ばしていたこと、反省しきりです。,Reading over my ancestors' memorandums at this stage in my life has proven most enlightening. I truly regret having read naught but those dealing with botany up until now.,"Jetzt, wenn ich die Notizen als Erwachsener noch mal lese, wird mir vieles klar ... Alles, was nichts mit dem Gartenbau zu tun hatte, habe ich früher einfach überlesen ...","En relisant ce calepin, je découvre tellement de choses in[@16]té[@16]res[@16]santes[@1D]! Je me rends compte maintenant, je ne l'ai toujours parcouru qu'en travers, me concentrant sur la botanique et délaissant tous les autres conseils précieux qui s'y trouvent.",……现在我长大了，再回过头去读这些笔记[@CR]发现我明白了许多，我之前只读了有关园艺的那一部分[@CR]真是应该好好反省啊。
32,私の祖父は、若い頃に各地を旅していたとは[@CR]聞いていましたが、どうやら破天荒な傭兵だったようで。[@CR]どうも、私にはその血が、流れているとは思えませんが……,I had always been told that the men of my house spent their youth wandering the realm. But I know now that they were fierce and mighty warriors all. Never had I thought that such blood flowed through my veins.,"Ich wusste ja schon, dass mein Großvater in seiner Jugend aller Herren Länder bereist hat. Aber dass er ein mustergültiger Soldat war!? Dieses Blut muss also auch in meinen Adern fließen ...","Je savais que mon grand-père avait beaucoup voyagé, mais je viens de découvrir qu'il était en fait un célèbre mercenaire auteur de nombreux exploits. Cela dit, je pense n'avoir hérité d'aucun de ses talents...",我倒是听说过我祖父在年轻时经常去各地旅行[@CR]但没想到他竟然是个佣兵。[@CR]我简直无法想象自己继承了他的血脉。
33,おかえりなのにゃ。[@CR]……なんかヘトヘトな顔してるのにゃ。,"And so you've returned! I must say, you look absolutely exhausted.","Willkommen zurück! Oh, du siehst ziemlich geschafft aus.","Oh, vous voilà de retour[@1D]! Vous m'avez l'air [@IF($E9(4),épuisée,épuisé)], miaou.",欢迎回来喵！[@CR]……你看起来好疲惫哦喵。
34,手に入れるのが大変だったのにゃ？[@CR]そいつあーかわいそうなのにゃ！　ちょっと待つにゃ！,Did finding delicious vegetables pose so great a challenge? I know just what you need. Wait right there. I'll only be a moment.,"War es denn so schwer? Du [@IF($E9(4),Ärmste,Ärmster)]! Warte mal kurz.","Ça n'a pas été de tout repos, je suppose. Voyons voir ce que vous rapportez... Mais ces légumes sont tout bonnement magnifiques, miaou[@1D]! Laissez-moi leur refaire une petite beauté.",寻找美味的蔬菜很辛苦吧喵？[@CR]我知道你现在需要什么喵！请等我一下下喵！
35,綺麗に洗ってあげたのにゃ。[@CR]さあ、これをカプっと一口食べるのにゃ！,"Here, I've washed them. Go on, treat yourself to a bite. You've more than earned it!","So, ich hab's dir ganz schön gewaschen! Sag aaaah! Einen Happs für Mama ...","Voilà, ils sont bien propres maintenant. Bon, le grrrand moment est venu. Vous allez en manger une bouchée[@1D]!",来，洗干净了喵！[@CR]把这个一口吞下去吧喵！
36,……どうにゃ、おいしかったかにゃ？,"Well, what say you? Delicious, is it not?","Und? Schmeckt doch absolut bombastisch, hab ich recht?","Alors, alors[@1D]? Comment trouvez-vous ce légume[@1D]?",……怎么样？好吃吗喵？
37,おいしかった？,Is the Tinolqa popoto delicious?,Dieses Gericht war ...,Avez-vous aimé[@1D]?,好吃吗？
38,はい,It is a veritable flavor [@1A(1)]explosion[@1A(0)].,... unvergleichlich lecker.,"Oui, c'était délicieux.",是
39,いいえ,<retch> Can I have some meat to wash this down?,... zum Kotzen.,"Non, comment peut-on manger une horreur pareille[@1D]?",否
40,おかしいにゃ……これは偽物なのかにゃ……？[@CR]もう一度、冒険者さんに採ってきてもらわないとならないのにゃ……？[@CR]本当の本当は、おいしかったのにゃ？,"That's odd, it looks appetizing enough. I suppose I could have you go off in search of something else... Is it [@1A(1)]really[@1A(0)] so foul?","Im Ernst? Zum Kotzen?? Na, du drückst dich aber nicht gerade vornehm aus ... Vielleicht war es gar nicht die gesuchte Pflanze? Muss ich dich noch einmal losschicken?[@CR]Jetzt sag doch mal ehrlich, du nimmst mich auf den Arm. War es wirklich [@1A(1)]so[@1A(0)] grässlich?","C'est étrange, miaou. Peut-être que ce ne sont pas de véritables [@SWITCH([@SHEET(itemData,11000142,41)],[@COLOR(#fff3f3f3)],[@COLOR(#ffc0ffa0)],[@COLOR(#ff60c8ff)],[@COLOR(#ffb38cff)],[@COLOR(#ffffa666)],[@COLOR(#ffe5dd7e)])][@EDGECOLOR(#ff262626)][@SHEETFR(xtx/itemName,12,11000142,2,1)][@EDGECOLOR($EC)][@COLOR($EC)][@1D]? Dans ce cas, vous allez devoir repartir pour en chercher d'autres... Etes-vous bien [@IF($E9(4),sûre,sûr)] que ça ne vous a pas plu[@1D]?",好奇怪哦……这是假的吗喵……？[@CR]看来得让冒险者重新去采集一次呢喵……[@CR]你说实话，是不是真那么难吃啊喵？
41,よかったにゃー！[@CR]これで、サンドレも野菜を食べるにゃ！[@CR]野菜嫌いは、まったくけしからんことなのにゃ！,"Excellent! If it agrees with your palate, surely Sandre will enjoy it as well. The only thing not long for this world now is his hatred of vegetables!","Juhu! Wenn [@1A(1)]du[@1A(0)] es gut findest, wird auch Sandre zu überzeugen sein. Und dann ist wieder einer auf den rechten Pfad der Pflanzenkost bekehrt!","Je le savais[@1D]! Si vous avez aimé, il n'y a aucune raison que Sandre ne change pas d'avis lui aussi. Je me demande bien comment on peut vivrrre sans manger de légumes...",太棒了！！[@CR]这样桑德雷也会吃蔬菜了喵！[@CR]不爱吃蔬菜的孩子都不是乖孩子喵！！
42,野菜をちゃんと食べてないから、[@CR]サンドレは、夜になると鳥さんみたいに、なんも見えなくなるのにゃ。[@CR]これ食べまくったらにゃ、きっと、目も良くなるにちがいないのにゃー！,"Sandre's been grumbling again. Hardly a night goes by that he doesn't bump into some Watcher or other. He blames the anger of the elementals, of course. According to him, it is they who are responsible for making the nights so unseasonably dark─but I know the truth of the matter.","Weil Sandre nicht genug Gemüse isst, kann er nämlich in der Nacht rein gar nichts sehen. Vitamin A und so, weißt du? Karotten und Toffeln sind gut für die Augen. Wenn er genug davon isst, wird er bald wie eine Eule durch das Dunkel spähen.",Ça ne m'étonne pas que sa vue soit si mauvaise et qu'il ait autant de mal à distinguer les chemins une fois la nuit tombée. Ça lui fera grrrand bien de manger un peu de légumes[@1D]!,就是因为他不好好吃蔬菜，[@CR]到了夜里就会变得和鸟一样什么都看不见喵。[@CR]吃很多这个的话，眼睛也一定会好起来的喵！
43,そしたら、守灯篭にぶつかって怪我することも減るはずにゃ！[@CR]これはお礼なのですにゃん！,"Vitamin deficiencies causing temporary loss of vision─nothing more! And I'll soon remedy that! Please, take this. It is the least I can do. I thank you, friend. And so will Sandre!",Dann läuft er auch nicht mehr ständig gegen Weglichter und Wurzelgehölz. Und das ist dein verdienter Lohn: Sandre ein schrammenfreies Leben ermöglicht zu haben! Freust du dich?,"Et puis comme ça, il arrêtera de se prendre les pieds dans les racines et de se cogner contre ces pauvres lanternes gardiennes, hihihi. Tenez, voici une petite prime en échange de vos services. Merci beaucoup, miaou[@1D]!",这样他就不会再磕碰到路灯而受伤了喵！[@CR]这个是谢礼哦喵！
