 ,0,1,2,3,4
 ,str,str,str,str,str
2,単刀直入に言おう。冒険者よ、お前の手を借りたい。[@CR]黒衣森に侵入したイクサル族に、運悪く神勇隊の新入りが出くわした。,"I've neither the time nor the stomach to bandy words, so I'll say this straight─I need your help, adventurer. One of the Quiver's new recruits came across a band of Ixal that had stolen into the Twelveswood.","He, [@IF($E9(4),Abenteurerin,Abenteurer)]. Ich bin kein Freund vieler Worte, also will ich gleich zur Sache kommen: Ich brauche deine Hilfe.[@CR]Im Wald ist ausgerechnet die Patrouille von Nophicas Schar, die fast nur aus Neulingen bestand, auf Eindringlinge der Ixal gestoßen.","[@IF($E9(4),Aventurière,Aventurier)], j'ai besoin d'aide, et vite. Une nouvelle recrrrue des flèches divines pa[@16]trouil[@16]lait la Sylve et a eu le malheur de tomber sur une troupe d'Ixali.",我就开门见山的和你说吧。冒险者，我需要你的力量。[@CR]神勇队的新兵蛋子运气太差，在森林中碰上了入侵的鸟人族。
3,その隊員は大怪我を負い、イクサル族は森の奥へと逃げた。[@CR]鬼哭隊と共に森狩りをしているが、人手が足りぬようだ。[@CR]一刻も早く討伐せねば、新たな怪我人が出るだろう。,"They clawed the poor bastard to within an ilm of his life before they were chased off. We and the Wailers are scouring the wood for them now, but we don't have the numbers to be everywhere at once. These fiends must be put down before another of our own meets the same fate...or worse.","Viele der Neulinge wurden lebens[@16]ge[@16]fähr[@16]lich verletzt![@CR]Eine andere Patrouille hat die Ixal aufgerieben, nur ein paar von ihnen ist die Flucht tiefer in den Wald gelungen. Das Klageregiment veranstaltet gerade eine Treibjagd, aber das Gebiet ist riesig und es fehlt an Leuten.","Le soldat est dans un état critique et ces maudits barbares se sont enfoncés encore plus pro[@16]fon[@16]dé[@16]ment dans la forêt. Un de nos bataillons est parti im[@16]mé[@16]dia[@16]te[@16]ment à leur poursuite, et les vigiles sombres nous ont envoyé des renforts, mais nous ne pouvons pas laisser Gridania sans défense. Nous pourrions donc utiliser des bras sup[@16]plé[@16]men[@16]tai[@16]res.",那支新兵部队损伤严重，而鸟人族则后来逃往森林深处了。[@CR]虽然我们正在和鬼哭队一同搜索森林，但是人手实在是不够。[@CR]不赶快把它们都解决的话，恐怕还会有人受伤。
4,そこで、お前の出番だ。[@CR]逃亡中のイクサル族を探し出し、やつらの息の根をとめてくれ。[@CR]やつらは、ハムレット「クォーリーミル」付近に潜んでいると思われる。,"I need a brave soul to hunt down these damned vultures, and end their days of preying upon forestfolk. Our scouts tracked them as far as Quarrymill before losing the trail. They're like to be somewhere near there still.","[@IF($E9(4),Abenteurerin,Abenteurer)], dies ist deine Chance, bei Nophica, den Gebietern und allen Gridaniern zu punkten![@CR]Finde das geflüchtete Federvieh und mache kurzen Prozess mit ihnen! Wir gehen davon aus, dass sie sich in der Nähe des Weilers Mühlenbruch versteckt haben.",Nous engageons des aventuriers pour nous prrrêter main-forte. Pensez-vous pouvoir participer aux recherches et tuer les Ixali si vous les trouvez[@1D]? Nous sommes à peu près sûrs qu'ils se cachent aux alentours du Moulin de la carrière.,所以，现在是你出场的时刻了！[@CR]你去把那帮逃亡中的鸟人族找出来，并且将它们根除掉！[@CR]它们现在应该在石场水车附近潜伏着。
5,イクサル族を恐れ、森の精霊を恐れぬとは。[@CR]外から来た者の考えは、よくわからぬな……。,You would risk the wrath of the elementals before that of the Ixal? I'll never understand you outsiders.,Du fürchtest die Ixal mehr als den Willen der Gebieter?[@CR]Euch Abenteurer kann ich einfach nicht verstehen ...,"Vous n'avez pas peur de vous prrromener dans la Sylve, mais vous craignez d'affronter quelques Ixali[@1D]? Les étrangers sont vraiment incom[@16]pré[@16]hen[@16]si[@16]bles...",你竟然不了解鸟人族的恐怖，还有森林元灵的恐怖。[@CR]真不知道你们这样的外来者都是怎么想的……
6,恩に着る。[@CR]しっかりと支度をしてから、向かってくれ。,Then make what preparations you must and be off. There is no time to waste.,"Ich stehe in deiner Schuld![@CR]Brich sofort auf, sobald deine Vorbereitungen abgeschlossen sind.","Vous êtes [@IF($E9(4),une,un)] brrrave. Préparez-vous soigneusement, les Ixali sont des sauvages et ne vous montreront aucune pitié.",我会记你一份恩情的。[@CR]好好准备一下然后出发吧。
7,黒衣森の南、ハムレット「クォーリーミル」付近へと向かってくれ。[@CR]逃亡中のイクサル族を探し出し、やつらの息の根をとめるのだ。,"Our scouts tracked the Ixal as far as Quarrymill before losing the trail. They're like to be somewhere near there still. Find those damned vultures, and end their days of preying upon forestfolk.","Begib dich zum Weiler Mühlenbruch im Süden des Waldes der Einkehr. Wir vermuten, dass sich die entkommenen Ixal dort versteckt halten.[@CR]Finde sie und sorge dafür, dass sie bekommen, was sie verdienen!","Nous sommes à peu près sûrs que les Ixali se cachent aux alentours du Moulin de la carrière. Recherchez-les là-bas et tuez-les si vous les trouvez. Soyez sans merci, ces barbares ne méritent aucune pitié.",请前往黑衣森林的南面，石场水车的附近。[@CR]把那帮逃亡中的鸟人族找出来，并且将它们根除掉！
8,逃亡中のイクサル族を、仕留めてくれたそうだな。[@CR]よくやった。これで精霊たちの怒りも、鎮まるだろう。,"Words travel fast in the wood, friend─faster than you by far. Our scouts found the corpses of the Ixal you sent to meet their maker. Let us pray it is enough to quench the vengeance of the elementals.",Du hast die Ixal getötet?[@CR]Gut gemacht. Dann wird der Wald schon bald wieder zur Ruhe kommen.,"Les nouvelles vont vite, j'ai apprrris que vous vous étiez [@IF($E9(4),occupée,occupé)] des Ixali. C'est du travail remarquable, et grâce à vous, la colère des esprits va cer[@16]tai[@16]ne[@16]ment s'adoucir.",看来你已经将逃亡中的鸟人族斩草除根了呢。[@CR]干得漂亮！这样森林元灵的愤怒也会平息了吧。
9,精霊の怒りは、みなに等しく降り注ぐ。[@CR]森を荒らす者だけではなく、森を守れぬ我らへも。,"When their fury is on them, there is no safety to be had in the wood─not even for those of us who fight to protect it.","Der Zorn der Gebieter trifft alle von uns in gleichem Maße. Nicht nur die, die den Wald verwüsten, sondern auch die, die nicht im Stande dazu waren, ihn zu schützen ...","Ils ne se soucient pas de déterminer les res[@16]pon[@16]sa[@16]bi[@16]li[@16]tés. A leurs yeux, ceux qui ne protègent pas la Sylve sont aussi coupables que ceux qui la détruisent. C'est pour ça que les exactions des Ixali ou des Impériaux sont si dangereuses. Nous encourons la fureur de la forêt tout autant qu'eux.",元灵的愤怒，是会降临到每个人的头上的。[@CR]不管是破坏森林的人，还是像我们这样保护森林的人。
10,よって、イクサル族と理解し合おう、助けあおうなどという考えは不要だ。[@CR]我らは決して、相容れぬ存在。森を騒がすイクサル族を許せば、[@CR]森は我らを許さぬだろう。,"The beast tribes are as different from us as night from day─plain and simple. There's no sense trying to understand them, much less live side by side.","Wenn du mich fragst, braucht man gar nicht darüber nachdenken, ob der Versuch sinnvoll wäre, die wilden Stämme verstehen zu lernen. Selbst wenn wir den Ixal zu vergeben lernen, der Wald vergibt uns niemals.","Voilà pourquoi il n'est pas question d'écouter les naïfs qui pensent que l'on devrait s'entendrrre avec les barbares. Il n'y a pas de réconciliation possible car ils ne respectent pas la Sylve. Si nous leur pardonnons, elle ne nous pardonnera pas.",所以，不要有那种和蛮族相互理解，相互帮助的幼稚想法。[@CR]我们是水火不相容的，如果你原谅了破坏森林的鸟人族，[@CR]那森林是不会原谅你的。
11,それを知ってなお、逆らう者は、グリダニアを追放されたよ。[@CR]かつて、傷ついたイクサル族を助けた医師がいたのだが……[@CR]彼はいつ、道を違えたのだろうな。,"And a swift exile from Gridania awaits any who hold otherwise. Aye, we had a healer years ago who found that out to his cost. Seemed a good enough sort...until the day he tended to the wounds of an injured bloody Ixal, citing “the healers' oath” or some such nonsense. What could possibly bring a man to take pity on that filth? <spit>","Wer sich nicht an unsere Regeln hält, wird aus Gridania verbannt. So erging es zum Beispiel einst einem Druiden, der einen verletzten Ixal gesund pflegte.","Mais il y a toujours des rêveurs pour croire que c'est possible et qui n'hésitent pas à fraterniser avec l'ennemi. Evidemment, ils sont chassés de Gridania sur-le-champ s'ils sont découverts. Je me souviens d'un médecin qui avait porté secours à un Ixal blessé... Il a été exilé et n'est jamais revenu. Je me demande ce qui l'a poussé à un acte aussi absurde et inconsidéré.",而如果发现明知故犯的叛徒，我们就会把那个人逐出格里达尼亚。[@CR]曾经……就有个医生……救助了受了伤的鸟人族……他到底是何时，步入歧途了呢……
12,……つまらぬ話をした、忘れてくれ。[@CR]さあ、これは礼だ。怪我をした隊員からの、感謝の念もこめられている。,"But I've kept you long enough. No doubt you are eagerly awaiting your reward. Very well, here you are. Continue to fight the good fight, friend.","Aber warum erzähl ich dir das überhaupt ...[@CR]Hier, an deiner Belohnung bist du bestimmt viel mehr interessiert.","Mais écoutez-moi, je radote comme une vieille femme... Parlons de choses plus agréables. Le soldat blessé a repris con[@16]nais[@16]san[@16]ce et devrait se remettre de ses blessures. Il a tenu à vous remercier de l'avoir vengé. Tenez, c'est de sa part.",……不过都是些陈芝麻烂谷子的旧事了，你也别放心上。[@CR]来，这是谢礼，这份礼物中也包含了受伤的战士们的感谢之情。
