 ,0,1,2,3,4
 ,str,str,str,str,str
1,君が、我が友レレヨより紹介された冒険者だな。[@CR]厳しい状況下における協力と支援の申し出、まことに感謝する。,"Ah yes, you must be the one Leleyo spoke of over the aether. It was good of you to volunteer your blade.","Ah ja, du musst [@IF($E9(4),diejenige,derjenige)] sein, von [@IF($E9(4),der,dem)] Leleyo gesprochen hat. Wir sind sehr dankbar für deine Hilfe.","Vous êtes cer[@16]tai[@16]ne[@16]ment l'[@IF($E9(4),aventurière,aventurier)] dont Leleyo m'a parlé. Je vous attendais. C'est fort aimable à vous d'avoir accepté de nous aider malgré les dangers que comporte cette mission.",
2,改めて説明しよう。[@CR]イシュガルドの高名な歴史神学者が、ガレマール帝国兵によって[@CR]この先の洞窟……「オーラムヴェイル」へ連れ去られた。,"Now let me be brief, for there is little time to lose.","Ich erkläre dir kurz, worum es hier geht. Wir haben nicht viel Zeit.",Permettez-moi de vous expliquer brièvement la situation. Les soldats de l'Empire ont capturé un théologien ishgardais et ils le retiennent prisonnier à l'intérieur de cette grotte.,
3,救出活動は難航している。[@CR]「オーラムヴェイル」内部には、既に多数の帝国兵が[@CR]侵入しており、捜索部隊へ絶え間なく攻撃を仕掛けている。,"The man we seek is somewhere in the Vale, but the knights we have sent in after him have been unable to ascertain his whereabouts, mainly due to the resistance they face by imperial soldiers.","Der Mann, den wir suchen, ein hoher Theologe übrigens, ist irgendwo in der Klamm. Aber die Ritter, die wir ihm nachgeschickt haben, konnten ihn noch nicht lokalisieren - die imperialen Soldaten sind uns einfach überlegen.","Pour l'instant, toutes nos tentatives de sauvetage ont été rendues vaines par la présence de nombreux Impériaux et les émanations de gaz toxique.",
4,そこで、君たち冒険者の機動性に期待したい。[@CR]洞窟内部に潜むガレマール帝国部隊……[@CR]その指揮を執っている部隊長を倒し、指揮系統を撹乱してほしいのだ。,"To help alleviate the pressure on our knights, we need a small party to go in undetected and locate the commander of the imperial cohort─the primus ordinarius─and assassinate him. Without their leader, the remaining soldiers will fall into a state of disarray, allowing us the opportunity to overwhelm their ranks.","Deswegen brauchen wir eine kleine Gruppe, die sich unentdeckt hineinschleicht und den Kommandanten der kaiserlichen Legion - den garleischen Primus - findet und beseitigt. Ohne Anführer sind die Garlear ziemlich orientierungslos, und das gibt uns die Gelegenheit für einen gezielten Schlag.","Camarade [@IF($E9(4),aventurière,aventurier)], vous êtes notre dernier espoir. Je voudrais que vous vous faufiliez à l'intérieur de la caverne pour y assassiner le commandant des troupes impériales. Coupez la tête de ce serpent que mes hommes puissent en venir à bout[@1D]!",
5,先に突入した捜索部隊より、この部隊長の傍らに[@CR]歴史神学者らしき人物の姿が見られたという報告を受けている。[@CR]君たちが引き起こす混乱に乗じて、これを救出しようという目論見だ。,"It also may be that the primus ordinarius knows where our man is being held captive, meaning that the commander's defeat would most likely lead us to locating the theologian.","Es kann auch sein, dass der Primus den Ort kennt, wo der Theologe ist. Kriegen wir den Primus, dann kriegen wir sicher auch seinen Gefangenen.",L'équipe de sauvetage qui vous a précédé dans la grotte m'a informé que notre concitoyen était sous la garde personnelle du commandant. Elle compte profiter de la panique causée par son assassinat pour secourir l'érudit.,
6,部隊長の居場所は割り出せた。[@CR]「徴税人の金庫」と呼ばれる部屋を抜けた先、「帝国軍保管庫」だ。,"After the [@1A(1)]extensive[@1A(0)] questioning of a soldier we took captive earlier today, we have learned that the primus ordinarius has set up his headquarters in a small supply cache just off a larger room known as the Coincounter's Chest.","Nach einer sehr eingehenden Befragung eines Soldaten, den wir glück[@16]licher[@16]weise gefangen nehmen konnten, haben wir herausbekommen, wo der Primus ist. Er hat sein Hauptquartier in einem kleinen Versorgungsschuppen hinter dem etwas größeren Raum namens „Geizkragens Truhe“ aufgeschlagen.","Toujours selon les in[@16]for[@16]ma[@16]tions de l'escouade de chevaliers, les Impériaux le gardent prisonnier dans une cache d'approvisionnement, non loin de la pièce appelée le “coffre-fort du trésorier”.",
7,……わかっている。[@CR]危険な任務を、君たち冒険者に託す不甲斐なさ……少し前に[@CR]ドラゴン族どもから痛手を受けていなければ、こうはならなかった。,"I have marked the location on your map. Use it as a guide, but do not let it fall into enemy hands, lest they discover our intentions.","Ich habe den Ort auf deiner Karte markiert. Halte dich daran und sieh zu, dass du nicht auch in die Hände des Feindes fällst.","Croyez bien que ce n'est pas de gaieté de cœur que je vous envoie dans ce bourbier... Sans les récentes attaques de ces funestes dragons, ce n'est pas une poignée d'aventuriers mais bien des centaines de chevaliers que j'aurais envoyés occire ces scélérats.",
8,突入にあたっての留意事項は、「オーラムヴェイル」入口にて[@CR]「トリストシャンベル」より説明を受けてくれ。[@CR]諸君の健闘を祈る。,"Ah, and one final thing. Before you enter, I must ask that you speak with Sir Tristechambel so that he may cast the proper teleportation magicks upon you. That is all. Good luck, and may the Fury give you strength.","Ach, und noch ein letzter Punkt. Bevor ihr euch hineinwagt, müsst ihr mit Tristechambel sprechen, damit er euch mit dem absolut unverzichtbaren Teleport-Zauber versieht. Das wäre alles. Viel Glück, und möge die Furie mit euch sein.","Parlez à mon ami Tristechambel lorsque vous serez prêt[@IF($E9(4),e,)], il se chargera de vous donner vos dernières in[@16]struc[@16]tions et de vous téléporter à l'intérieur du donjon. Je vous souhaite bon courage.",
9,君たち冒険者には、洞窟内部にて部隊の指揮を執っている[@CR]ガレマール帝国部隊の部隊長を退けてもらいたい。[@CR]奴らの指揮系統を撹乱するためだ。,"Lead your party through the Vale, past the Coincounter's Chest and into a small chamber being used as an imperial storage cache.","Führe deine Gruppe durch die Klamm, vorbei an Geizkragens Truhe und in die kleine Kammer, die den Garlearn als Lagerraum dient.",Laissez-moi vous rappeler brièvement votre mission[@1D]: Je voudrais que vous vous faufiliez à l'intérieur de la caverne pour y assassiner le commandant des troupes impériales.,
10,「徴税人の金庫」と呼ばれる部屋を抜け……「帝国軍保管庫」を目指せ。[@CR]「オーラムヴェイル」内部は、極めて厳しい環境となっている。[@CR]信頼のおける仲間と隊を組み、万全を期して挑むように。,"There you are to slay the primus ordinarius and rescue the kidnapped theologian, if it turns out that he is being held there.","Dort müsst ihr den Primus erledigen und den entführten Theologen befreien, falls er sich wirklich dort befindet.","Vous le trouverez en train de garder le théologien ishgardais dans une cache d'approvisionnement près de la pièce appelée le “coffre-fort du trésorier”. N'oubliez pas que ce donjon est extrêmement dangereux, vous ne pourrez jamais atteindre votre objectif sans aide.",
11,突入にあたっての留意事項は、洞窟入口にて[@CR]「トリストシャンベル」より説明を受けてくれ。諸君の健闘を祈る。,"Finally, be sure to speak with Sir Tristechambel before you enter the Vale so that he may cast the proper teleportation magicks upon you. That is all. Good luck, and may the Fury give you strength.","Und vergiss nicht, mit Tristechambel zu sprechen, bevor ihr die Klamm betretet. Er wird einen Teleport-Zauber auf euch wirken, damit ihr sicher zurückkehren könnt. Viel Glück, und möge die Furie mit euch sein.","Parlez à mon ami Tristechambel lorsque vous serez prêt[@IF($E9(4),e,)], il se chargera de vous donner vos dernières in[@16]struc[@16]tions et de vous téléporter à l'intérieur du donjon. Tâchez de revenir en un seul morceau[@1D]!",
12,ご苦労！[@CR]見事に、部隊長を退けてくれた。[@CR]捜索部隊は、君たちよりも一足早く帰還している。,"Welcome back, adventurer. Word of your success was brought to me earlier by a second party. Congratulations.","Willkommen zurück, [@IF($E9(4),Abenteurerin,Abenteurer)]! Ich habe schon von deinem Erfolg gehört. Gratuliere.","Je suis heureux de vous revoir sain[@IF($E9(4),e,)] et sau[@IF($E9(4),ve,f)]. Les membres de l'équipe de sauvetage m'ont dit que vous aviez accompli votre part de la mission avec brio. Mes félicitations[@1D]!",
13,しかし……結果から言うと[@CR]探していた歴史神学者の姿を見つけることはできなかった。[@CR]できうる限りの捜索を行ったそうだが、おそらく彼は、もう……,"While it is unfortunate that you were not able to locate the missing theologian, you should not let it detract from your victory over the imperial commander.","Es ist zwar sehr beklagenswert, dass ihr den Theologen nicht finden konntet, aber das schmälert nicht den Ruhm eures Sieges über den garleischen Kommandanten.","Mais en dépit de leurs efforts, mes hommes n'ont trouvé aucune trace du théologien enlevé... Je crains qu'il ne soit plus de ce monde...",
14,気に病むことはない。これは、我々の失態だ。[@CR]君たちの活躍は、見事なものだった。感謝の一言に尽きる。,"Yes, we have other parties still in the Vale searching, but I fear that we must expect the worst.","Ja, es sind noch andere Gruppen in der Klamm, um den Theologen zu finden, aber wir müssen das Schlimmste befürchten.","Ne vous inquiétez pas, vous n'avez rien à vous reprocher[@1D]; vous avez fait un travail remarquable. J'assume pleinement la res[@16]pon[@16]sa[@16]bi[@16]li[@16]té de cet échec.",
15,ん？　君が持っているそれは……[@CR]部隊長を退けたときに手に入れたと？　よく見せてくれ。,Hm? You say you found this on the body of the primus ordinarius?,Hm? Das hast du bei dem garleischen Primus gefunden?,"Dites-moi, qu'est-ce que vous tenez là[@1D]? Puis-je y jeter un œil[@1D]?",
16,"この「[@SWITCH([@SHEET(itemData,11000225,41)],[@COLOR(#fff3f3f3)],[@COLOR(#ffc0ffa0)],[@COLOR(#ff60c8ff)],[@COLOR(#ffb38cff)],[@COLOR(#ffffa666)],[@COLOR(#ffe5dd7e)])][@EDGECOLOR(#ff262626)][@SHEET(xtx/itemName,11000225,4)][@EDGECOLOR($EC)][@COLOR($EC)]」は、さらわれた歴史神学者の著作だ。[@CR]イシュガルドとドラゴン族との長き戦いの歴史について記されている。[@CR]なぜ、こんなものを帝国の部隊長が……？",[@1A(1)]Divine Impetus[@1A(0)]!? These are the writings of the missing theologian! They chronicle his study of the ancient war between the Fury and the dragons. But what interest would the Empire have in such matters?,Das ist die Handschrift des vermissten Theologen! Die Papiere handeln von dem alten Krieg zwischen der Furie und den Drachen. Aber warum sollten sich die Garlear für gelehrte Schriften interessieren?,Mais ce sont les Chroniques de la guerre du Coerthas[@1D]! C'est le mémoire du théologien qui a été kidnappé[@1D]! Ce livre raconte l'histoire du conflit qui oppose les Ishgardais et les dragons.,
17,ドラゴン族の研究者に、洞窟の道案内をさせるでもあるまい……。[@CR]いったいガレマール帝国は、あの学者に何をさせようとしていたのだ？,"Is there something in these pages that motivated the Garleans to kidnap the theologian? But if so, why bring him here, and not back to their encampments in Mor Dhona?","Kannst du irgendwas in den Schriften finden, das die Motive der Garlear erklärt? Warum sollten sie ihn gefangen nehmen? Und warum hierher bringen und nicht in ihre Camps in Mor Dhona?","Et donc vous dites avoir trouvé cet ouvrage dans les possessions du commandant des Impériaux[@1D]? Y aurait-il quelque chose à l'intérieur de ces pages qui aurait motivé les Garlemaldais à capturer notre homme[@1D]? Mais dans ce cas, pourquoi l'avoir emmené au Val d'Aurum et pas à Mor Dhona[@1D]?",
18,奴らの目的が「クリスタルの鉱脈」の探索だということは明らかだ。[@CR]「ゼーメル要塞」、「オーラムヴェイル」共に、地脈にほど近い場所に[@CR]観測器のような装置が、数多く設置されていたからな。,"By observing their actions in Dzemael Darkhold and here in the Aurum Vale, we know that one of the Empire's aims is to gain control of the aetheric energy that flows beneath the realm.","Hmm ... Wenn wir ihre vergangenen Aktivitäten in der Feste Dzemael und nun in der Goldklamm betrachten, so ist zumindest klar, dass es eines ihrer wichtigsten Ziele ist, die Kontrolle über die Ätherenergieflüsse zu gewinnen, die unter uns fließen.",C'est forcément lié à l'énergie éthérée... Nous avions retrouvé des dizaines d'appareils de mesure à proximité des réseaux éthériques de la Forteresse de Dzemael. Je serais prêt à parier qu'ils en ont également installé ici.,
19,ガレマール帝国は「蛮神」討伐の方法を求め、奔走していると聞く。[@CR]故に、蛮神をおびき出すエサとなるクリスタルが豊富な地を調べていると。,We also know that the Empire wishes to control the energy so they can use it against the primals.,"Und wir wissen, dass sie die Energie kontrollieren wollen, um sie gegen die Primae einzusetzen.","Je ne vois pas d'autre explication, d'autant plus que nous savons que l'Empire cherche à contrôler cette énergie pour l'utiliser contre les Primordiaux.",
20,しかし、それと学者にいったい何の関係が……,But where does a theologian studying ancient history fall into all of this?,Aber was hat ein Theologe und Historiker mit alledem zu tun?,"Cependant, je ne vois pas le rapport avec un spécialiste de l'histoire des dragons...",
21,……いや、待てよ。[@CR]確か以前、この書をめぐって騒動があったな。[@CR]ドラゴン族を統べる「神」の存在を示唆し、教皇庁と対立しかけたのだったか。,"Unless... Now I remember where I have seen this tome before! When it was published, the theories it presented caused a great deal of commotion within the church, ultimately creating a rift between two of the inner sects.","Aber ... jetzt erinnere ich mich! Ich habe diese Schriften schon einmal gesehen! Als er sie veröffentlichte, gab es einen Riesenskandal unter den Gelehrten und er fiel schließlich von der orthodoxen Lehre ab, um eine eigene Glaubensfraktion zu gründen.","A moins que... Oui, je me souviens maintenant[@1D]! Ce livre a provoqué un tollé lors de sa publication. En effet, ce théologien soutenait que les dragons sont gouvernés par un dieu.",
22,ドラゴン族の「神」……帝国が執心する「蛮神」……[@CR]……まさか……！,"The theologian claimed that he had found proof that the dragons believed themselves ruled by a higher being...by a god. Now, if the Garleans were to accept this theory, then they might also come to the conclusion that this god is not unlike the primals worshipped by the lesser beast tribes.","Der Theologe stellte die These auf, die Drachen seien von einem höheren Wesen geleitet, einem ... Gott. Vielleicht glauben die Garlear diese Theorie und fürchten, die Drachen seien ähnlich wie die wilden Stämme ...","Bien entendu, cette thèse a été vivement contestée par notre Eglise. Mais l'Empire, lui, semble y croire.",
23,ドラゴン族までもが、荒神を呼んだのか……！？[@CR]だとしたら、こうしてはおれんぞ！[@CR]我らも、速やかに策を講じなければ……。,"Meaning that the dragons, should it be their desire, could summon this being and─",Und ihr Gott wäre so etwas wie ein Primae! Vielleicht würden die Drachen dieses höhere Wesen irgendwann beschwören und ...!,"Imaginez que cela soit vrai... Cela signifierait que les dragons pourraient eux aussi invoquer leur dieu à tout moment[@1D]! Que cela soit le cas ou non, nous devons parer à toute éventualité et mettre au point une stratégie pour le battre.",
24,冒険者よ、この度はご苦労だった。[@CR]イシュガルドにとって、大きな貢献をしてくれた。[@CR]……さあ、心ばかりの礼を、受け取ってくれ。,"No, that would be preposterous. If there were any merit to the theologian's theories, the Archbishop would have begun taking steps to prepare the Holy See long ago. The fact that he has not serves to prove that we have naught to fear...I hope...","Nein, das kann nicht sein. Wenn die Thesen des Theologen auch nur ansatzweise stimmten, hätte der Erzbischof bereits etwas unternommen, um die Ritter Ishgards zu warnen. Dass er das nicht gemacht hat, bedeutet, dass wir sicher sind ... hoffe ich.[@CR]Hier. Für dich.","Merci encore, [@IF($E9(4),chère aventurière,cher aventurier)]. Vous avez rendu un fier service à la Cité d'Ishgard. Veuillez accepter cette récompense en signe de ma gratitude.",
25,あなた、「ゼーメル要塞」の帝国兵と戦ってくれた冒険者よね。[@CR]ね、ちょっと話を聞いてほしいのだけれど。,"If I am not mistaken, you are one of the brave souls who has recently lent their services in the liberation of Dzemael Darkhold. Might I have a moment of your time?","Wenn ich mich nicht irre, bist du einer der tapferen Kämpfer, die uns vor kurzem bei der Befreiung der Feste Dzemael geholfen haben. Darf ich deine Zeit kurz beanspruchen?","Oh, je vous reconnais[@1D]! Vous êtes l'un des courageux aventuriers qui ont combattu les soldats impériaux dans la Forteresse de Dzemael, n'est-ce pas[@1D]?",
26,実は、「キャンプ・エバーレイクス」の南西にある[@CR]「オーラムヴェイル」という洞窟で、厄介な事件が起きているの。,"Earlier this morning, there was word from Ishgard that a high-standing theologian on an expedition in Twinpools to study the holy site known as the Fury's Gaze was taken captive by a unit of imperial troopers and led back through Ever Lakes to an abandoned mythril mine called the Aurum Vale.","Heute Morgen hat uns Nachricht aus Ishgard erreicht: Ein hochangesehener Theologe wurde auf einer Expedition zur Doppelten Grube gefangen genommen! Er wollte einen geweihten Ort untersuchen, den man den „Blick der Furie“ nennt. Kaiserliche Truppen haben ihn überwältigt und in eine verlassene Grube jenseits von Camp Ewige Seenplatte geschleppt - in die Goldklamm.",C'est une vraie chance que de vous voir ici[@1D]! Figurez-vous qu'une chose terrible vient de se produire.,
27,都市「イシュガルド」の高名な歴史神学者が[@CR]ガレマール帝国の兵士に連れ去られてしまって……[@CR]「オーラムヴェイル」の洞窟に拘束されている様子でね。,"A party of knights has already been dispatched to the area, but word has it that they are meeting fierce resistance by the Garlean units stationed in the mines.","Ein Trupp von Kriegern wurde schon losgeschickt, aber wir hören, dass sie am massiven Widerstand der Garlear scheitern, die in den Minen stationiert sind.","Les soldats de l'Empire ont enlevé un éminent théologien ishgardais et le retiennent prisonnier au Val d'Aurum. Une escouade de chevaliers a été envoyée sur place, mais l'opération de sauvetage s'avère plus compliquée que prévu.",
28,もちろん、すぐさま救出部隊が向かったわ。[@CR]けれど「オーラムヴェイル」内部には、既に相当数の帝国兵が[@CR]侵入していて、救出どころか捜索もままならない状態だったのよ。,"And then, there is the problem of the Goldbile...",Und dann ist da noch das Problem der Goldgalle ...,"A cela deux raisons[@1D]: d'une part, la caverne grouille d'Impériaux[@1D]; d'autre part, l'air en est saturé de vapeurs sulfureuses toxiques.",
29,加えて、もうひとつ。[@CR]「オーラムヴェイル」には、気軽に出入りできない理由があるの。,"Contrary to popular belief, the Aurum Vale did not earn its name from the gold mined from its walls. In fact, mythril is the only precious ore ever discovered there.","Entgegen dem verbreiteten Glauben ist die Goldklamm nämlich nicht so benannt, weil man da etwa Gold finden könnte. Das einzige, was dort früher abgebaut wurde, ist Mithril.","“Val d'Aurum” signifie la “vallée dorée”. Mais il faut savoir que cette grotte n'est pas du tout une mine d'or, bien au contraire[@1D]!",
30,オーラムヴェイル……それは、「黄金の谷」という意味。[@CR]その名を冠する理由は、洞窟で採れる金銀財宝……[@CR]ではなくて、内部に点在する金色の毒の沼にあるのよ。[@CR],"No, the Aurum Vale is called such because of its lakes filled with a powerful corrosive known as Goldbile.","Der Name kommt vielmehr von den Seen dort, in denen eine aggressive Substanz vorkommt, die als „Goldgalle“ bekannt ist.",Son nom vient plutôt des nappes d'eau bilieuse qui inondent le sol. Le gaz jaunâtre qui s'en dégage provoque des crises de toux extrêmement douloureuses et peut vous tuer après une exposition prolongée[@1D]! Vous comprenez maintenant pourquoi nos troupes peinent à accomplir leur mission.,
31,そこから立ち昇る「黄毒霧」を吸い続ければ、呼吸困難に陥り……。[@CR]そんな理由もあって、救出活動は難航しているの。[@CR]命知らずの冒険者の力が必要なほどにね。,"In addition to being deadly to the touch, the liquid also emits a harmful gas that when inhaled causes Gold Lung─a terrible ailment that renders its victims unable to take a single breath without excruciating pain...","Sie ist letal bei Hautkontakt, aber man braucht sie nicht einmal zu berühren: Die Flüssigkeit verdampft zu einem hochgiftigen Gas, das die sogenannte Goldlunge verursacht - eine furchtbare Vergiftung, durch die man keinen Atemzug mehr tun kann, ohne unerträgliche Schmerzen zu leiden.","Mes compagnons et moi serions bien allés leur prêter main-forte, mais les dragons sont tellement agités ces temps-ci que l'on ne peut pas se permettre de s'éloigner ne serait-ce qu'un seul instant de la Cité.",
32,状況が理解できたようなら、手伝ってくれないかしら？[@CR]詳しいことは、「オーラムヴェイル」の入口にいる[@CR]騎士「クルトゥネ」が話してくれるわ。,"Between the bile and the imperials, the knights find themselves unable to make any progress in locating the missing theologian...which is why the Holy See has already authorized the hiring of adventurers to assist in the rescue.","Eingeschlossen zwischen der Goldgalle und den Garlearn können unsere Kämpfer nun weder vor noch zurück, geschweige denn den Theologen befreien. Und deswegen hat Ishgard uns ermächtigt, Abenteurer in die Sache zu involvieren.","[@IF($E9(4),Aventurière,Aventurier)], pourriez-vous aider nos chevaliers à sauver ce pauvre homme[@1D]?",
33,あら、そう。私の見間違いだったかしら。[@CR]とっても勇ましくて、凛々しい冒険者だった気がしたのだけど。,Your response saddens me... I took you for one who placed more value in the lives of others...,"Du lässt mich so lange erklären, und dann eine Absage? Ich dachte, du würdest dem Leben von Bedrängten größeren Wert beimessen.","Et moi qui pensais que vous étiez de ceux qui n'hésitent pas à mettre leur vie en péril pour sauver celle des autres, je suis déçue...",
34,ありがとう。[@CR]正直に言うと、ドラゴン族の対処だけで手一杯なのに[@CR]ガレマール帝国まで相手にしてる余裕はなくってね。,"It is not oft the Holy See looks to outsiders to overcome its own hardships; however, recent trouble with the dragons of Dravania has put a terrible strain on our city-state's resources.","Vielen Dank! Es kommt nicht oft vor, dass sich Ishgard von Fremden helfen lassen muss. Aber die Unruhen mit den Drachen von Dravania haben uns in eine Zwangslage gebracht.","Merci[@1D]! Vous avez déjà prouvé par le passé que vous étiez [@IF($E9(4),une combattante,un combattant)] intrépide, je suis sûre que vous ne ferez qu'une bouchée de ces maudits Impériaux[@1D]!",
35,それに、私たちの都市「イシュガルド」は門戸を閉ざしてるでしょ？[@CR]こんなときにだけ他都市を頼るのも気が引けて、困ってたのよ。[@CR]その点、都市の事情に縛られない冒険者って、心強いわね。,"Still, a plea to our rival nations would be a sign of weakness, which is why the call for aid is directed solely towards adventurers such as yourself. Ah, but I have already spoken too much. Now you must make haste. Coultenet, knight of House Dzemael, awaits your arrival at the entrance of the Aurum Vale to the southwest of here.","Würden wir uns allerdings an die anderen Stadtstaaten wenden, wäre das ein Eingeständnis unserer Schwäche. Deswegen bitten wir direkt [@IF($E9(4),Aben[@16]teu[@16]re[@16]rin[@16]nen,Abenteurer)] wie dich um Hilfe. Aber nun geh - Coultenet, Ritter von Dzemael, erwartet dich bereits am Eingang zur Goldklamm südwestlich von hier.","Partez retrouver mon compagnon Coultenet devant l'entrée du Val d'Aurum, au sud-ouest du camp des lacs pérennes. Il vous dira ce qu'il attend de vous.",
36,ガレマール帝国兵にさらわれた歴史神学者の救出に、力を貸してちょうだい。[@CR]詳細は、ここから南西にある「オーラムヴェイル」の[@CR]入口にいる騎士「クルトゥネ」が話してくれるわ。,"Coultenet, knight of House Dzemael, awaits your arrival at the entrance of the Aurum Vale in the southwest corner of Ever Lakes.",Beeil dich! Coultenet Dzemael wartet bereits mit Ungeduld auf deine Ankunft in der Goldklamm im Südwesten der Ewigen Seenplatte.,"Un illustre théologien ishgardais a récemment été capturé par des soldats de l'Empire. Malgré nos efforts, toutes les opérations de sauvetage menées jusqu'ici ont échoué. Mes compagnons ont vraiment besoin de votre aide[@1D]!",
37,正直に言うと、ドラゴン族の対処だけで手一杯なのに[@CR]ガレマール帝国まで相手にしてる余裕はなくってね。[@CR]その点、都市の事情に縛られない冒険者って、本当に心強いわね。,"But please, make haste, for once the Garleans realize it is the theologian we are after, they may make a move to execute him in order to prevent him speaking of his interrogation.","Handle schnell, denn sobald die Garlear bemerken, dass wir den Theologen befreien wollen, werden sie ihn exekutieren, damit er nichts verraten kann!","Rendez-vous au Val d'Aurum, au sud-ouest du camp des lacs pérennes, et parlez à Coultenet. Ce dernier se chargera de vous expliquer ce qu'il attend de vous.",
38,「オーラムヴェイル」に入るためには、ファイターかソーサラーの[@CR]レベル[@VALUE($E8(2))]以上のプレイヤーが[@VALUE(4)]名～[@VALUE(8)]名、必要です。,"To ensure the safety of those who brave the caverns of the Aurum Vale, the Holy See of Ishgard has limited entry to parties of [@VALUE(4)] to [@VALUE(8)] Disciples of War and Magic level [@VALUE($E8(2))] and above.","Um ihrer eigenen Sicherheit willen werden wir nur Gruppen von [@VALUE(4)] bis [@VALUE(8)] Kriegern oder Magiern den Zutritt gewähren, die mindestens auf Stufe [@VALUE($E8(2))] sind.",Vous devez rassembler une équipe de [@VALUE(4)] à [@VALUE(8)] disciples de la guerre ou de la magie de niveau [@VALUE($E8(2))] ou plus avant de partir à l'assaut du Val d'Aurum.,
39,「オーラムヴェイル」に入るためには、ファイターかソーサラーの[@CR]レベル[@VALUE($E8(2))]以上のプレイヤーが[@VALUE(4)]名～[@VALUE(8)]名、必要です。,Entry to the Aurum Vale is limited to parties of [@VALUE(4)] to [@VALUE(8)] Disciples of War and Magic level [@VALUE($E8(2))] and above.,"Der Zutritt zur Goldklamm ist auf Gruppen von [@VALUE(4)] bis [@VALUE(8)] Kriegern oder Magiern beschränkt, die mindestens auf Stufe [@VALUE($E8(2))] sind.",Vous devez rassembler une équipe de [@VALUE(4)] à [@VALUE(8)] disciples de la guerre ou de la magie de niveau [@VALUE($E8(2))] ou plus avant de partir à l'assaut du Val d'Aurum.,
40,ともかく[@CR]君がいくら勇敢な冒険者とはいっても、油断はするなよ。[@CR]信頼のおける仲間と隊を組み、万全を期して挑むように。,"This mission on which you are about to embark will not prove a simple one, but Leleyo speaks highly of you and your companions, so I shall withhold my reservations for the nonce.","Die Mission, zu der du aufbrichst, wird keine einfache sein. Aber ich will dir vertrauen, denn Leleyo hat eine hohe Meinung von dir und deinen Gefährten.","Même si Leleyo m'a vanté vos talents au combat, vous ne pourrez jamais réussir une mission aussi périlleuse sans l'aide de vos fidèles compagnons.",
