 ,0,1,2,3,4
 ,str,str,str,str,str
1,,,,,[chs]
2,にゃー、たまらんにゃー。[@CR]採掘師になれば宝石ざっくざく、お金もざっくざくって聞いてたにゃ。,"I became a miner with dreams of striking it rich, but the only thing I've gotten for all my toiling is a crooked back.","Hach, es ist doch zum Fell ausrrraufen.[@CR]Minenarbeiter hätten ein volles Inventar, das vor Edelsteinen nur so scheppert, hat man mir in der Aben[@16]teurer[@16]gil[@16]de gesagt ...",Devenez mineur qu'ils disaient[@1D]! Vous deviendrez riches en un rien de temps qu'ils disaient[@1D]!,[chs]
3,でもでも、現実は腰がぎっくぎく、お財布はかっらから。[@CR]かわいそうなあたいは、今日も明日も[@CR]豆だけのスープしか飲めないにゃ。,"Hells, there's more dust in my purse than coin. It's a shame the former won't pay for a [@1A(1)]delightful[@1A(0)] supper of pease porridge washed down with lukewarm water... <sigh>",Alles leere Versprechungen. In meinem Gilbeutel und in meinem Magen herrscht seit mehreren Monden gähnende Leere!,"Quelle blague[@1D]! Tout ce que j'ai gagné en cherchant du minerai, ce sont des tours de reins. J'ai à peine de quoi me payer mon pain quotidien.",[chs]
4,それで、ずーっと悩んでたんだけど……[@CR]ついに今朝、「ダラガブ」のおかげでピカーっと来たんだにゃ！[@CR]題して「掘れにゃいなら育てればいいんじゃにゃい」大作戦！！,"Ah, but there is still hope! A splendid idea came to me earlier today, you see, as I was gazing up at Dalamud: what if I [@1A(1)]grew[@1A(0)] ore rather than digging the stuff up?","Jede Nacht habe ich hungrig im Bett gesessen und mir mein hübsches Köpfchen darüber zerbrochen, wie ich doch noch ein Vermögen machen kann ...[@CR]Und dann kam mir endlich die errrlösende Idee: Lässt sich das Erz nicht abbauen, muss man es eben anbauen! ♪","Mais il m'est venu une idée de génie ce matin alors que je regardais Dalamud. Ce que je ne peux pas trouver en creusant, je peux le faire pousser[@1D]!",[chs]
5,冒険者さんは「コブラン」って魔物をご存じにゃ？[@CR]あいつは背中に、いっぱい鉱石を背負ってるのにゃ。,"You're familiar with coblyns, I trust? Aye, the beasties that bear a burden of ore upon their backs.","[@IF($E9(4),Abenteurerin,Abenteurer)], hast du schon mal von sogenannten Kobalossen gehört? Auf den Rücken dieser Monster sollen Erze, Kristalle, Mineralien und was sonst nicht noch alles wachsen.","J'imagine qu'un[@IF($E9(4),e,)] aventuri[@IF($E9(4),ère,er)] comme vous a déjà vu des coblyns[@1D]? Vous avez dû remarrrquer que du minerai leur poussait sur le dos[@1D]?",[chs]
6,そのコブランの中でも……[@CR]アイアンコブランをいっぱい養殖すれば、鉱石がいっぱい！[@CR]鉱石をいっぱい売れば、あたいのお財布が夢いっぱいにゃ！,"Well, if I could breed the creatures and cultivate them for their ore, I daresay it would not be long before I had enough gil to buy myself a seat in the Syndicate!","Würde man ganz viele Eisen-Kobalosse züchten, dann hätte man ganz viel Eisenerz! Würde man ganz viel Eisenerz verkaufen, dann müsste man nicht mehr hungern ... [@1A(1)]schnief[@1A(0)]","Eh bien, j'ai l'intention d'élever des coblyns de fer et de récolter leur minerai[@1D]! Simple et génial, non[@1D]? Pour être frrranche, je suis surprise que personne n'ait encore pensé à faire ça.",[chs]
7,でもでも！[@CR]大作戦は第一歩から、いきなり壁にぶち当たったのにゃ！,"...Alas, putting my idea into practice is proving trickier than I had first reckoned.","Genial, oder? Nur leider bin ich sofort auf ein Problem gestoßen.","Il me faut juste régler un petit détail, et je serai riche en un rien de temps[@1D]!",[chs]
8,"冒険者さん、あたいのかわりに[@CR]「ナナワ銀山」の中にいる「アイアンコブラン」を倒して[@CR]「[@SWITCH([@SHEET(itemData,11000226,41)],[@COLOR(#fff3f3f3)],[@COLOR(#ffc0ffa0)],[@COLOR(#ff60c8ff)],[@COLOR(#ffb38cff)],[@COLOR(#ffffa666)],[@COLOR(#ffe5dd7e)])][@EDGECOLOR(#ff262626)][@SHEET(xtx/itemName,11000226,4)][@EDGECOLOR($EC)][@COLOR($EC)]」を[@VALUE(10)]匹、集めてくれないかにゃあ？","As you can see, I'm just a humble miner─I'd rather not chip away at things that chip back. That's why I need an adventurer who knows [@IF($E9(4),her,his)] way around a battlefield─someone like you─to go to the Nanawa Mines in my stead and gather...say, [@IF($E5(10,0),[@IF($E2(10,10),[@SWITCH(10,one,two,three,four,five,six,seven,eight,nine,ten)],[@VALUE(10)])],[@VALUE(10)])] of [@SWITCH([@SHEET(itemData,11000226,41)],[@COLOR(#fff3f3f3)],[@COLOR(#ffc0ffa0)],[@COLOR(#ff60c8ff)],[@COLOR(#ffb38cff)],[@COLOR(#ffffa666)],[@COLOR(#ffe5dd7e)])][@EDGECOLOR(#ff262626)][@SHEETEN(xtx/itemName,2,11000226,2,1)][@EDGECOLOR($EC)][@COLOR($EC)]. Will you do me this favor, friend?","Genau deshalb möchte ich dich bitten, mir zu helfen. Könntest du in der Nanawa-Mine für mich Eisen-Kobalosse jagen gehen und mir [@VALUE(10)] [@SWITCH([@SHEET(itemData,11000226,41)],[@COLOR(#fff3f3f3)],[@COLOR(#ffc0ffa0)],[@COLOR(#ff60c8ff)],[@COLOR(#ffb38cff)],[@COLOR(#ffffa666)],[@COLOR(#ffe5dd7e)])][@EDGECOLOR(#ff262626)][@SHEETDE(xtx/itemName,5,11000226,2,4,1)][@EDGECOLOR($EC)][@COLOR($EC)] besorrrgen?","Comme vous le voyez, je ne suis qu'une pauvrrre mineuse sans défense. C'est une tâche impossible pour moi, mais pas pour vous. Aidez-moi à faire fortune et je vous aiderai à faire la vôtre[@1D]! Tout ce que vous avez à faire, c'est de tuer les coblyns de fer aux Mines de Nanawa et d'extraire de leur corps [@VALUE(10)] [@SWITCH([@SHEET(itemData,11000226,41)],[@COLOR(#fff3f3f3)],[@COLOR(#ffc0ffa0)],[@COLOR(#ff60c8ff)],[@COLOR(#ffb38cff)],[@COLOR(#ffffa666)],[@COLOR(#ffe5dd7e)])][@EDGECOLOR(#ff262626)][@SHEETFR(xtx/itemName,12,11000226,[@VALUE(10)],1)][@EDGECOLOR($EC)][@COLOR($EC)].",[chs]
9,にゃうー！[@CR]冒険者さんも、豆のスープを[@CR]明日もあさっても食べるがいいにゃ！,Hmph! I hope you get naught but pease porridge to eat for the next moon!,"Pah! Bilde dir ja nicht ein, ich würde dir irgendwann mal helfen, wenn du hungrig zu mir kommst und mich um Hilfe bittest!","Tant pis pour vous alors, je trrrouverai bien un aventurier prêt à s'enrichir en me rendant ce service[@1D]!",[chs]
10,"「[@SWITCH([@SHEET(itemData,11000226,41)],[@COLOR(#fff3f3f3)],[@COLOR(#ffc0ffa0)],[@COLOR(#ff60c8ff)],[@COLOR(#ffb38cff)],[@COLOR(#ffffa666)],[@COLOR(#ffe5dd7e)])][@EDGECOLOR(#ff262626)][@SHEET(xtx/itemName,11000226,4)][@EDGECOLOR($EC)][@COLOR($EC)]」が手に入れば、あたいのお財布はズッシズシにゃ。[@CR]「第七霊災」がきても、お金の力で乗り切れるのにゃ。[@CR]報酬を期待しにゃがら頑張ってにゃーっ！","With [@SWITCH([@SHEET(itemData,11000226,41)],[@COLOR(#fff3f3f3)],[@COLOR(#ffc0ffa0)],[@COLOR(#ff60c8ff)],[@COLOR(#ffb38cff)],[@COLOR(#ffffa666)],[@COLOR(#ffe5dd7e)])][@EDGECOLOR(#ff262626)][@SHEETEN(xtx/itemName,2,11000226,2,1)][@EDGECOLOR($EC)][@COLOR($EC)] in my possession, I will change the face of the mining industry and grow so fabulously rich, not even the Seventh Umbral Era would make a dint in my coffers! Now, off you go to procure what I need─I promise to reward you handsomely for your troubles!","Ich danke dir, [@IF($E9(4),Abenteurerin,Abenteurer)].[@CR]Wer von uns will schon am Hungertuch nagen, wenn die Siebte Katastrophe über uns hereinbricht ... Denke auf der Jagd an die tolle Belohnung, die du von mir erhalten wirst. ♪","Yahou[@1D]! A moi les gils à gogo[@1D]! On peut tout acheter avec l'argent, même sa propre surrrvie[@1D]! Le septième fléau peut venir maintenant[@1D]!",[chs]
11,"「ナナワ銀山」の中にいる「アイアンコブラン」を倒して、[@CR]「[@SWITCH([@SHEET(itemData,11000226,41)],[@COLOR(#fff3f3f3)],[@COLOR(#ffc0ffa0)],[@COLOR(#ff60c8ff)],[@COLOR(#ffb38cff)],[@COLOR(#ffffa666)],[@COLOR(#ffe5dd7e)])][@EDGECOLOR(#ff262626)][@SHEET(xtx/itemName,11000226,4)][@EDGECOLOR($EC)][@COLOR($EC)]」を[@VALUE(10)]匹集めてきてほしいにゃ。[@CR]報酬はズッシズッシ、期待してくれていいからにゃーっ！","In case you've forgotten, I need you to go to the Nanawa Mines and gather [@IF($E5(10,0),[@IF($E2(10,10),[@SWITCH(10,one,two,three,four,five,six,seven,eight,nine,ten)],[@VALUE(10)])],[@VALUE(10)])] [@SWITCH([@SHEET(itemData,11000226,41)],[@COLOR(#fff3f3f3)],[@COLOR(#ffc0ffa0)],[@COLOR(#ff60c8ff)],[@COLOR(#ffb38cff)],[@COLOR(#ffffa666)],[@COLOR(#ffe5dd7e)])][@EDGECOLOR(#ff262626)][@SHEETEN(xtx/itemName,3,11000226,2,1)][@EDGECOLOR($EC)][@COLOR($EC)] from iron coblyns. Bring me what I need, and I'll see to it you're handsomely rewarded for your troubles.","Besiege bitte in der Nanawa-Mine Eisen-Kobalosse für mich, um an ihre [@SWITCH([@SHEET(itemData,11000226,41)],[@COLOR(#fff3f3f3)],[@COLOR(#ffc0ffa0)],[@COLOR(#ff60c8ff)],[@COLOR(#ffb38cff)],[@COLOR(#ffffa666)],[@COLOR(#ffe5dd7e)])][@EDGECOLOR(#ff262626)][@SHEETDE(xtx/itemName,5,11000226,2,4,1)][@EDGECOLOR($EC)][@COLOR($EC)] zu gelangen. Ich brauche insgesamt [@VALUE(10)] Stück, ja?","Aidez-moi à faire fortune et je ferai la vôtre[@1D]! Tout ce que vous avez à faire, c'est de tuer les coblyns de fer aux Mines de Nanawa et d'extraire de leur corps [@VALUE(10)] [@SWITCH([@SHEET(itemData,11000226,41)],[@COLOR(#fff3f3f3)],[@COLOR(#ffc0ffa0)],[@COLOR(#ff60c8ff)],[@COLOR(#ffb38cff)],[@COLOR(#ffffa666)],[@COLOR(#ffe5dd7e)])][@EDGECOLOR(#ff262626)][@SHEETFR(xtx/itemName,12,11000226,[@VALUE(10)],1)][@EDGECOLOR($EC)][@COLOR($EC)].",[chs]
12,"うにゃー！　「[@SWITCH([@SHEET(itemData,11000226,41)],[@COLOR(#fff3f3f3)],[@COLOR(#ffc0ffa0)],[@COLOR(#ff60c8ff)],[@COLOR(#ffb38cff)],[@COLOR(#ffffa666)],[@COLOR(#ffe5dd7e)])][@EDGECOLOR(#ff262626)][@SHEET(xtx/itemName,11000226,4)][@EDGECOLOR($EC)][@COLOR($EC)]」って気持ち悪いにゃ！[@CR]足がわっさわさの、うっぞうぞだにゃ！","Ah, back with my [@SWITCH([@SHEET(itemData,11000226,41)],[@COLOR(#fff3f3f3)],[@COLOR(#ffc0ffa0)],[@COLOR(#ff60c8ff)],[@COLOR(#ffb38cff)],[@COLOR(#ffffa666)],[@COLOR(#ffe5dd7e)])][@EDGECOLOR(#ff262626)][@SHEETEN(xtx/itemName,3,11000226,2,1)][@EDGECOLOR($EC)][@COLOR($EC)], I see! Here, let me take them off your─[@CR]Eeeuuurgh! These things are... <gag> [@1A(1)]Disgusting[@1A(0)]! They almost fetched up my pease porridge...not that it would have tasted much different the second time.",Igitt! Sind die ekelig! Wie sie sich anfühlen ... [@1A(1)]würg[@1A(0)],"Berk, c'est dégoûtant, ces [@SWITCH([@SHEET(itemData,11000226,41)],[@COLOR(#fff3f3f3)],[@COLOR(#ffc0ffa0)],[@COLOR(#ff60c8ff)],[@COLOR(#ffb38cff)],[@COLOR(#ffffa666)],[@COLOR(#ffe5dd7e)])][@EDGECOLOR(#ff262626)][@SHEETFR(xtx/itemName,12,11000226,2,1)][@EDGECOLOR($EC)][@COLOR($EC)][@1D]! Leurs pattes bougent dans tous les sens[@1D]! Ce qu'il faut pas faire pour s'enrichir...",[chs]
13,冒険者さん、ありがとにゃ。[@CR]報酬はたっぷり支払うからちょっと待つ…………あにゃ？[@CR]何か忘れてるようにゃ、忘れてないようにゃ……にゃにゃにゃ？,"<sigh> The things we do for coin... Anyway, I suppose I ought to thank you. Permit me a moment to tend to these repulsive things, and I'll give you your rewa─ <gasp>","Trrrotzdem bin ich dir sehr dankbar. Wirklich.[@CR]Die Bezahlung erhältst du, sobald ... Moment mal!","Merci pour tout, [@IF($E9(4),aventurière,aventurier)][@1D]! Dès que mon élevage aura porté ses frrruits, je vous donnerai l'argent prom... Hmm[@1D]? J'ai l'impression d'avoir oublié quelque chose d'important...",[chs]
14,にゃーっ！　すっかり忘れてたにゃ！[@CR]コブランは、鉱石を食べないと育たないんだにゃ！,Egads! How could I forget such a crucial detail? Coblyns need ore to [@1A(1)]grow[@1A(0)]!,"Ach du meine Güte! Ich habe etwas ganz Wichtiges vergessen![@CR]Kobalosse müssen doch Erze essen, um zu wachsen!","... Aaaaah[@1D]! Mais bien sûr[@1D]! Pour élever des coblyns, il faut les nourrir... avec du minerai[@1D]!",[chs]
15,つまり、コブランを育てるには鉱石が必要で、[@CR]鉱石を集めるにはコブランを育てなきゃで、そのためには鉱石が……,"The creatures yield ore, to be sure, but not an onze more than they consume. Which leaves me with exactly nothing...besides pease bloody porridge and these...things! <shudder>","Ich brauche also Eisenerz, um die Monster zu züchten, von denen ich Eisenerz erhalte ...","Ce que je vais gagner d'un côté, je le perrrdrai de l'autre...",[chs]
16,うっうっう……でも、めげないにゃ！[@CR]儲ける道は、きっとどこかにあるはずにゃ！[@CR]今日からそれを考えたらいいのにゃ！　やるにゃ！　頑張るにゃ！,"But I will not lose heart. There [@1A(1)]must[@1A(0)] be a shortcut to wealth, power, and fine dining. I just need time to fathom what it is!","Nein, nein, nein! Ich darrrf jetzt nicht den Mut verlieren.[@CR]Es muss noch andere, bessere Ideen geben, an Gil und warme Mahlzeiten zu gelangen!",... Hors de question d'abandonner mes rêves de fortune. Il doit bien y avoir un moyen de gagner de l'argent vite sans faire trop d'efforts[@1D]!,[chs]
17,「第七霊災」なんかに負けないにゃ！[@CR]採掘師の明日は、いつでもきっらきら、明るいのにゃ！,"The Seventh Umbral Era may loom, but this miner's ambition will never die! I'll become rich and famous yet─see if I don't!","Minenarbeiter zu werden, war die richtige Entscheidung. Das werde ich allen Zweiflern beweisen!",Je trouverai bien quelque chose avant l'arrivée du septième fléau[@1D]!,[chs]
18,"養殖には「[@SWITCH([@SHEET(itemData,11000226,41)],[@COLOR(#fff3f3f3)],[@COLOR(#ffc0ffa0)],[@COLOR(#ff60c8ff)],[@COLOR(#ffb38cff)],[@COLOR(#ffffa666)],[@COLOR(#ffe5dd7e)])][@EDGECOLOR(#ff262626)][@SHEET(xtx/itemName,11000226,4)][@EDGECOLOR($EC)][@COLOR($EC)]」が絶対、必要にゃ。[@CR]それにゃのに……あたいは、非力なヘロヘロ採掘師。[@CR]コブランから幼生体を引っぺがすなんて、ムリムリにゃ。","To start this business venture, I need [@SWITCH([@SHEET(itemData,11000226,41)],[@COLOR(#fff3f3f3)],[@COLOR(#ffc0ffa0)],[@COLOR(#ff60c8ff)],[@COLOR(#ffb38cff)],[@COLOR(#ffffa666)],[@COLOR(#ffe5dd7e)])][@EDGECOLOR(#ff262626)][@SHEETEN(xtx/itemName,3,11000226,2,1)][@EDGECOLOR($EC)][@COLOR($EC)]. But the only way to come by the infernal things is to prize them off the bodies of slain iron coblyns.","Für eine Zucht sind [@SWITCH([@SHEET(itemData,11000226,41)],[@COLOR(#fff3f3f3)],[@COLOR(#ffc0ffa0)],[@COLOR(#ff60c8ff)],[@COLOR(#ffb38cff)],[@COLOR(#ffffa666)],[@COLOR(#ffe5dd7e)])][@EDGECOLOR(#ff262626)][@SHEETDE(xtx/itemName,5,11000226,2,1,1)][@EDGECOLOR($EC)][@COLOR($EC)] unbedingt notwendig, doch wie soll eine schwache Sammlerin wie ich an die Larven von solch gefährlichen Biestern kommen?","J'ai besoin [@SWITCH([@SHEET(itemData,11000226,41)],[@COLOR(#fff3f3f3)],[@COLOR(#ffc0ffa0)],[@COLOR(#ff60c8ff)],[@COLOR(#ffb38cff)],[@COLOR(#ffffa666)],[@COLOR(#ffe5dd7e)])][@EDGECOLOR(#ff262626)][@SHEETFR(xtx/itemName,8,11000226,2,1)][@EDGECOLOR($EC)][@COLOR($EC)] pour commencer l'élevage. Mais la seule façon de les obtenir, c'est en les arrachant du corps des coblyns.",[chs]
19,にゃんてこったいにゃ！[@CR]これじゃ、あたいのお財布は絶対に重くなんないにゃっ！！,<sigh> So much for my dreams of striking it rich...,Verdammt noch mal![@CR]Wieso ist mir dieses Problem nicht vorher aufgefallen ...,Encore un bon plan qui tombe à l'eau[@1D]!!,[chs]
