 ,0,1,2,3,4
 ,str,str,str,str,str
2,ひいいい……。[@CR]ぼ、僕は門番になったことを[@CR]いまだかつて、これほど後悔したことはない……。,"I knew I shouldn't have accepted this post. I knew it, I knew it, I knew it...","Uiuiuiuiui, jetzt wird's wirklich brenzlig! Noch nie hab ich es so bereut, dass ich mich als Wache gemeldet hab.","Je savais que je n'aurais pas dû accepter ce poste, je le savais.",呜呜——[@CR]当上门卫以来，我，我还从来没有[@CR]像现在这么后悔过呢……
3,き、君も見ただろう！　外の魔物たちを！[@CR]あ、あいつら……いったい何を食って、あんなに大きくなったんだ……！？,"Gods, have you seen the [@1A(1)]size[@1A(0)] of some of the beasts out there!? What the hells are those things eating!?",D-Du hast sie doch auch gesehen! D-Die Monster da draußen! Sie sind überall![@CR]Sie sind [@1A(1)]riiiiiesig[@1A(0)]!!!!,"Par les Dieux, tu as vu la taille de certains monstres[@1D]!? Qu'est-ce qui s'est passé pour qu'ils deviennent aussi énormes[@1D]?",您，您也看见外面的那些魔物们了吧！[@CR]它，它们……到底是吃了些什么，才变成那么大的啊？！
4,も、もし、あいつらが街に入り込んできたら……[@CR]ああ、ただでさえ背の低い僕は、どうしたらいいんだ！！,"And just what am I supposed to do if one of them takes it into its head to have a difference of opinion with the city gate here? I'm a [@1A(1)]Lalafell[@1A(0)]! Look at me. Some of those things drop turds bigger than me! We haven't seen so much as a carrier chocobo for days. And we're expecting word from our outlying camp, which should have arrived by now. Information far too sensitive to be spoken into a linkpearl, of course.","Wenn sie in die Stadt einfallen, dann gnade uns jeder Einzelne der Zwölf!","Qu'est-ce que je suis censé faire, moi, s'ils décident d'attaquer ici[@1D]? Je suis un [@1A(1)]Lalafell[@1A(0)], par Thal[@1D]! Regarde-moi. Certaines de ces horreurs font des crottes plus grosses que moi[@1D]! Et maintenant, nos chocobos messagers n'arrivent plus. Nous nous servons d'eux pour porter des nouvelles des camps lorsqu'elles sont trop importantes pour être discutées sur une linkperle.","如，如果，那些家伙闯入大街的话……[@CR]唉，对身高都没自信的我,该怎么办哪！"
5,……でも、もっと心配なのは伝令のチョコボなんだ。[@CR]キャンプから伝令が来るはずなんだけど、魔物たちがあんなに[@CR]大きいんじゃ、チョコボも怖がって立ち往生しちゃうだろうな……。,"But with these monstrosities roaming about, no doubt the chocobos are galloping in the other direction! Coblyns, I grant you, but spriggans and even [@1A(1)]dodos[@1A(0)] attacking our birds? Have you ever [@1A(1)]heard[@1A(0)] of anything so ridiculous? There is an ill wind blowing across Eorzea─ill indeed, just as the rumors say.","Aber was mir [@1A(1)]noch[@1A(0)] mehr Angst macht, ist die Sicherheit der Chocobo-Boten. Vom Camp sollte uns ein Dokument mit offiziellen Anordnungen überbracht werden, aber bei den [@1A(1)]riesigen Megamonstern[@1A(0)] da draußen! Gute Nacht! Da wird der ruhigste Chocobo durchbrennen.","Mais avec tous ces monstres pris de frénésie qui rôdent, je crains qu'ils n'aient pris peur et soient en train de galoper dans tous les sens. On a rapporté des attaques de coblyns, de spriggans et de dodos. Les coblyns et les spriggans, passe encore, mais les dodos[@1D]!? Il se passe quelque chose de funeste en Eorzéa, je te le dis.",但是，更让人担心的还是传令的陆行鸟。[@CR]它们应该会从营地过来传令，但魔物那么巨大，[@CR]陆行鸟会因为害怕，耽搁在半道儿吧……
6,き、君。[@CR]ちょっとザナラーンの「キャンプ・ホライズン」[@CR]付近に行って、魔物を一掃してきてくれないか？,"But you adventurers live for this sort of thing, don't you? Would you be so brave as to go out and fell some of the beasts near Camp Horizon? The way must be made clear for our carrier chocobos, lest secure communication with the camp be lost.","Du! Schau nicht so unbeteiligt! Das ist [@1A(1)]deine[@1A(0)] Aufgabe, oder bist du vielleicht [@IF($E9(4),keine Abenteurerin,kein Abenteurer)]?! Tu doch was, oder wie willst du deine Existenz sonst rechtfertigen?","Vous les aventuriers, vous vivez, euh... d'aventures, n'est-ce pas[@1D]? Tu es cer[@16]tai[@16]ne[@16]ment assez brave pour nous débarrasser de certains de ces monstres aux alentours du camp Horizon, non[@1D]? Suffisamment en tout cas pour rendre le chemin entre ici et nos camps plus sûr[@1D]?",所，所以我想请您帮个忙。[@CR]可不可以到萨纳兰的“地平营地”附近[@CR]去一趟，将魔物清除干净呢？
7,や、やっぱり、君も怖いよな。[@CR]ああ、錬金術師たちが、魔物を小さくする薬を開発してくれたらなあ！,"So you are as terrified as I. Gods, look at us... What a pathetic pair of craven milksops we are!","Das dacht ich mir doch, du bist feige![@CR]Ach, die Alchemisten sollten schon längst etwas erfunden haben, das die Monster wieder schrumpfen lässt.","Tu es aussi [@IF($E9(4),terrifiée,terrifié)] que moi, hein[@1D]? Je ne voudrais pas avoir l'air de me mêler de ce qui ne me regarde pas, mais peut-être devrais-tu penser à changer de métier[@1D]?",果，果然，您也害怕呀。[@CR]唉，要是炼金术师们开发出将魔物缩小的药物就好了！
8,き、君って、なんだかカッコいいな！[@CR]何かあっても責任は取れないけど……、よろしく頼むよ！,You adventurers are a true inspiration! But just so we're clear─I'll not be responsible for anything that happens to you. Now off you go!,"Wow, jetzt bin ich aber schwer beeindruckt. Ehrlich gesagt, [@1A(1)]mir[@1A(0)] wäre die Sache zu heiß. Viel Glück, [@IF($E9(4),arglose Todgeweihte,mein todgeweihter Freund)]!","Ah, les aventuriers comme toi sont une véritable inspiration[@1D]! Mais soyons clairs, je ne prends aucune res[@16]pon[@16]sa[@16]bi[@16]li[@16]té s'il t'arrive quelque chose. Bon courage[@1D]!","您，您实在太帅了！[@CR]虽然出了事我也付不了责,但眼下只有拜托您了！"
9,キャンプから伝令のチョコボが来るっていうのに、[@CR]魔物たちがあんなに大きいんじゃ、立ち往生しちゃうだろうな……。,"We've been expecting word from our outlying camp─information far too sensitive to be spoken into a linkpearl. But with these ravenous beasts roaming about, no doubt our carrier chocobos are galloping in the other direction!","Wenn die Chocobos die ungeheuerlichen Monster sehen, werden sie auf ihre Reiter und die Botschaft pfeifen und im Stand kehrt machen!","Nos chocobos messagers n'arrivent plus. Nous nous servons d'eux pour porter des nouvelles des camps lorsqu'elles sont trop importantes pour être discutées sur une linkperle. Mais avec tous ces monstres qui rôdent, je crains qu'ils n'aient pris peur et soient en train de galoper dans tous les sens.",虽然陆行鸟会从营地过来传令，[@CR]但魔物那么大的话，会耽搁在半道儿吧。
10,ザナラーンの「キャンプ・ホライズン」付近に行って、[@CR]カッコよく魔物を一掃してきてよ。よろしく頼んだよ。,"Travel to the outskirts of Camp Horizon in Thanalan, and kill any beast that poses a threat to our brave birds!","Beseitige die Monster bei Camp Horizont, ich bitte dich darum!","Si tu pouvais tuer les horreurs qui errent aux alentours du camp Horizon, nos chocobos nous reviendront peut-être.",请到萨纳兰的“地平营地”附近去，[@CR]利落的将魔物清除干净吧，拜托了。
11,わわわわ……。[@CR]き、君、よく無事だったな！　おかげで、伝令がちゃんと届いたよ！,"You've returned! And all in one piece, I see. Thank the Twelve for that. You'll be glad to hear we've had a carrier chocobo.",Du bist am Leben?! Ein Glück![@CR]So viel Widerstandskraft hätte ich dir niemals zugetraut. Dank dir haben wir die Dokumente aus dem Camp erhalten.,"Tu es de retour, et en un seul morceau en plus[@1D]! Les Douze soient loués[@1D]! Tu seras [@IF($E9(4),ravie,ravi)] d'apprendre que nos chocobos sont rentrés.",哇——[@CR]您，您没事啊，太好了！多亏了您，传令送达了呢！
12,な、なんでも、各地に「賢者」とか名乗る者が現れて[@CR]「第七霊災」がどうとか、不吉な預言をしているらしい。,"But sadly, it bore grim news. It seems bold souls claiming to be the Archons of legend have begun appearing across the realm. And what's worse, they claim to herald the coming of the Seventh Umbral Era.","Weißt du, anscheinend tauchen jetzt überall Weise auf, die sich selbst „Saliah“ nennen und von einer „Siebten Katastrophe“ künden.","Mal[@16]heu[@16]reu[@16]se[@16]ment, ils nous ont rapporté de mauvaises nouvelles. Il semblerait que des individus louches prétendant être les Preux des légendes font courir un peu partout le bruit que nous sommes sur le point d'entrer dans la 7e ère ombrale.",似，似乎吧，各地都出现了自称什么“贤者”的人，[@CR]预言着“第七灵炎”之类的不吉利的东西。
13,確か、「第七霊災」については、[@CR]「アルダネス聖櫃堂」の本に書いてあったような気がするけど……,"Come to think, I once read a prophecy about the Seventh Umbral Era in one of the tomes at Arrzaneth Ossuary─though years of youthful excess have left my memory in far too sorry a state to recall all the details.","Über eine siebte Katastrophe steht auch in den Folianten des Arr[@16]za[@16]neth-Os[@16]sari[@16]ums einiges geschrieben, aber na ja ... [@CR]Das Leben war schon immer voller schrecklicher Tragödien, von denen die meisten niemals eingetreten sind. Bisher habe ich versucht, solche Untergangsvisionen zu ignorieren.","Je crois avoir lu quelque chose au sujet de la 7e ère ombrale dans un livre à l'Ossuaire d'Arrzaneth, mais j'étais trop ivre à ce moment-là pour me rappeler les détails...",好像“第七灵炎”这个词，[@CR]我曾经在“阿达内斯圣柜堂”的书里见过……
14,「12神の神託を伝えるべきとき、賢者が現れる」って言い伝えも[@CR]聞いたことがある。もし、各地に現れているのが、その賢者だと[@CR]したらどうしよう！,"Anyway, there isn't a soul south of the Bloodbrine who hasn't heard tales and songs of the Archons coming to Eorzea, imparting to all the will of the Twelve. Never thought I'd see it in my own lifetime, though!","Aber es wird ja auch überliefert, dass genau solche weisen Boten auftreten würden, um das Inferno vorherzusagen. Wenn also die Saliah wirklich echte Weise sind und nicht nur Scharlatane, dann ... dann ...[@CR]Ich will gar nicht daran denken!","Par contre, il y a quantité de légendes sur les “douze Preux”, les incarnations des Douze sur terre qui ap[@16]pa[@16]rais[@16]sent lorsqu'Eorzéa est en danger. Maintenant que j'y pense, les monstres qui grossissent, l'Empire qui nous attaque...",“12神神谕该被传达之时，贤者就会现身”这种说法，我也有所耳闻。[@CR]若那些在各地出现的贤者就是传言中那些人的话，[@CR]可该如何是好啊！
15,とにかく、君も伝令も無事で何よりだったよ。[@CR]君に何かあったら、罪の意識で眠れなくなるところだったし。[@CR]ささ、これはお礼だ。カッコよく受け取ってくれ！,"Forget I said it. Worrying will do us no good. For now, I am simply glad that you and the carrier chocobos are safe. Here you are, then─payment in full.","Auf jeden Fall vielen Dank, dass du den Weg für die Boten freigemacht hast. Wenn dir was zugestoßen wäre, hätte ich mir das nie verzeihen können.[@CR]Hier, nimm deinen verdienten Lohn!","Non, je préfère ne pas y penser. Les chocobos sont rentrés, et tu nous as débarrassés de pas mal de monstres, c'est tout ce qui compte. Tiens, voilà ta récompense.",总之，您平安，传令顺利，这最好不过了。[@CR]您要是出了点什么事的话，我会自责的睡不着觉的。[@CR]请收下，这是谢礼，麻利的收下吧。
16,この頃、魔物が大きくなったことと、何か関係があるのかも？[@CR]このことは、上層部にも伝えておこう！,Do you think this might have something to do with the beasts growing larger in recent days?,"Aber ja! Jetzt fügt sich alles zu einem Ganzen![@CR]Dass die Monster plötzlich viel größer geworden sind, ist sicher schon das erste Anzeichen! Wir müssen unsere Befürchtung sofort der Führung mitteilen.",Et si nous étions vraiment sur le point d'entrer dans une 7e ère ombrale[@1D]!?,没准这件事与近日来的魔物巨大化着某种关系呢。[@CR]我还是将这件事报告给上层部门吧！
