 ,0,1,2,3,4
 ,str,str,str,str,str
2,"いいところに来た、[@STRING($EB(1))][@IF($E1($E9(52),0),[@IF($E3($E9(52),127),[@SHEET(xtx/gcRank,$E9(52),3)],)],)][@IF($E1($E9(53),0),[@IF($E3($E9(53),127),[@SHEET(xtx/gcRank,$E9(53),4)],)],)][@IF($E1($E9(54),0),[@IF($E3($E9(54),127),[@SHEET(xtx/gcRank,$E9(54),5)],)],)]！[@CR]ちょうど、お主を探していたのだ！","[@IF($E1($E9(52),0),[@IF($E3($E9(52),127),[@SHEET(xtx/gcRank,$E9(52),12)],)],)] [@SPLIT([@STRING($EB(1))], ,2)]! I must say, it never ceases to amaze me how you adventurers just happen to pass by the moment we have need of your services. Either you are guided by the hand of the Twelve, or we have a serious security problem... I jest, of course! Ahem.","Du kommst genau richtig, [@IF($E3($E9(52),127),[@IF($E1($E9(52),0),[@IF($E4($E9(52),127),Aspirant,[@SHEET(xtx/gcRank,$E9(52),15)])],)],[@IF($E3($E9(53),127),[@IF($E1($E9(53),0),[@IF($E4($E9(53),127),Aspirant,[@SHEET(xtx/gcRank,$E9(53),16)])],)],[@IF($E3($E9(54),127),[@IF($E1($E9(54),0),[@IF($E4($E9(54),127),Aspirant,[@SHEET(xtx/gcRank,$E9(54),17)])],)],)])])] [@SPLIT([@STRING($EB(1))], ,2)]! Ich wollte dich gerade suchen gehen.","Ah, [@IF($E3($E9(52),127),[@IF($E1($E9(52),0),[@IF($E4($E9(4),0),[@SHEET(xtx/gcRank,$E9(52),21)],[@SHEET(xtx/gcRank,$E9(52),22)])],)],[@IF($E3($E9(53),127),[@IF($E1($E9(53),0),[@IF($E4($E9(4),0),[@SHEET(xtx/gcRank,$E9(53),23)],[@SHEET(xtx/gcRank,$E9(53),24)])],)],[@IF($E3($E9(54),127),[@IF($E1($E9(54),0),[@IF($E4($E9(4),0),[@SHEET(xtx/gcRank,$E9(54),25)],[@SHEET(xtx/gcRank,$E9(54),26)])],)],)])])] [@SPLIT([@STRING($EB(1))], ,2)][@1D]! Tu tombes à pic, j'étais justement sur le point de te convoquer.",
3,我らのリムサ・ロミンサが[@CR]ついに、大いなる一歩を踏み出すことになったのである！,"Great change is upon us, and there is much we must do to prepare, lest we come to grief in the coming storm.","Limsa Lominsa steht im Begriff, einen großen Schritt nach vorn zu wagen!",Limsa Lominsa est à l'aube d'un grand changement[@1D]!,
4,それに関して、メルウィブ提督からお主に話があるという。[@CR]提督がお主のような兵に、直々にお会いになる理由はわからんが……,"The Admiral and her high council have met every evening for the past fortnight to deliberate over Limsa's course, and it seems they have finally reached a consensus. She has called an assembly to announce the Maelstrom's next move...and has requested that you attend, [@1A(1)]by name[@1A(0)].","Darüber möchte Admiral Merlwyb persönlich mit dir reden.[@CR]Mir ist zwar nicht klar, was sie von [@IF($E9(4),einer Abenteurerin,einem Abenteurer)] wie dir wollen könnte, aber auf jeden Fall ist eine Audienz bei ihr eine große Ehre.",L'Amirale m'a fait savoir qu'elle aimerait s'entretenir avec toi à ce sujet. J'ignore cependant pourquoi elle a insisté pour te rencontrer en personne...,
5,おそらくは、貴重な情報をシドと共に[@CR]黒渦団へもたらした一件が、お耳に入ったのであろう。,"Now, why she would want to meet with a member of the rank and file, I cannot say...though it may have something to do with your recent success in dealings with Master Garlond of the Ironworks.","Wahrscheinlich ist ihr zu Ohren gekommen, was du und Cid für den Mahlstrom getan habt.","Sans doute la colonelle R'ashaht Rhiki lui a-t-elle parlé du rôle essentiel que tu as joué dans la mission de sauvetage de maître Cid et d'Ebrelnaux[@1D]? Grâce à toi, nous sommes entrés en possession d'in[@16]for[@16]ma[@16]tions capitales.",
6,メルウィブ提督は「コーラルタワー」にてお待ちだ。[@CR]さあ行け、これ以上、提督を待たせてはならんぞ！,"Whatever the case, it would not be wise to keep the Admiral waiting. Make haste to the Coral Tower.","Auf alle Fälle solltest du den Admiral nicht länger warten lassen. Geduld ist nicht gerade ihre größte Tugend.[@CR]Du findest den Admiral im Korallenturm. Na los, beeil dich!","Va la voir au plus vite. Tu la trouveras dans ses quartiers, à la tour de Corail.",
7,"提督の話を……どうでもいいだとっ！？[@CR]そこになおれ、[@STRING($EB(1))][@IF($E1($E9(52),0),[@IF($E3($E9(52),127),[@SHEET(xtx/gcRank,$E9(52),3)],)],)][@IF($E1($E9(53),0),[@IF($E3($E9(53),127),[@SHEET(xtx/gcRank,$E9(53),4)],)],)][@IF($E1($E9(54),0),[@IF($E3($E9(54),127),[@SHEET(xtx/gcRank,$E9(54),5)],)],)]！！[@CR]お主の根性、我がこの手で叩きなおしてくれるっ！！","Gods, [@IF($E9(4),woman,man)]! Do you realize what you are doing by ignoring an official summons from the Admiral!? At best, you will be dishonorably discharged and ejected from the city-state. At worst, you'll be tried for treason, keelhauled, and beheaded! We are at war, [@SPLIT([@STRING($EB(1))], ,2)]! I strongly suggest you reconsider your answer [@1A(1)]at once[@1A(0)]. If you tarry, I shall have no option but to report you.","Wie bitte?! Dich interessiert es nicht, was der Admiral zu sagen hat?![@CR]Da hol mich doch der Klabauter! Dir muss wohl mal jemand den Kopf zurechtrücken, [@IF($E3($E9(52),127),[@IF($E1($E9(52),0),[@IF($E4($E9(52),127),Aspirant,[@SHEET(xtx/gcRank,$E9(52),15)])],)],[@IF($E3($E9(53),127),[@IF($E1($E9(53),0),[@IF($E4($E9(53),127),Aspirant,[@SHEET(xtx/gcRank,$E9(53),16)])],)],[@IF($E3($E9(54),127),[@IF($E1($E9(54),0),[@IF($E4($E9(54),127),Aspirant,[@SHEET(xtx/gcRank,$E9(54),17)])],)],)])])] [@SPLIT([@STRING($EB(1))], ,2)]!","Comment[@1D]!? Tu refuses de parler à l'Amirale[@1D]!? Une telle impertinence est intolérable[@1D]! Je te conseille de revoir ton jugement, et vite, si tu ne veux pas que je me fâche[@1D]!",
8,うむ、いつもながら良い返事であるぞ。[@CR]お主のそのようなところを、提督も気に入られたのかもしれんな。,Very good. Perhaps it is this undying loyalty to the Maelstrom that has won you the Admiral's regard. Now hurry along.,Gute Antwort! Von dir hätte ich auch nichts anderes erwartet.[@CR]Vielleicht schätzt auch der Admiral deine Entschlusskraft.,Je n'en attendais pas moins de toi. C'est cer[@16]tai[@16]ne[@16]ment cette attitude audacieuse qui a plu à l'Amirale.,
9,「コーラルタワー」にいらっしゃる、メルウィブ提督のもとへ急ぐのだ！[@CR]なお、提督はリムサ・ロミンサの艦長であらせられる。[@CR]くれぐれも粗相のないよう、気をつけるのだぞ。,"Why are you still here, [@IF($E1($E9(52),0),[@IF($E3($E9(52),127),[@SHEET(xtx/gcRank,$E9(52),12)],)],)] [@SPLIT([@STRING($EB(1))], ,2)]? The Admiral awaits your arrival in the Coral Tower. She is a busy woman, and will not be pleased if she is made to wait at the whim of an errant adventurer.","Geh so schnell wie möglich zu Admiral Merlwyb im Korallenturm![@CR]Und denke daran, dass du ihr den nötigen Respekt erweist! Schließlich hält sie das Steuer von Limsa Lominsa in der Hand.","Dépêche-toi d'aller retrouver l'Amirale à la tour de Corail. N'oublie pas qu'il s'agit de la personne la plus importante de la Cité, mesure bien tes paroles quand tu t'adresses à elle.",
11,"ご苦労、[@STRING($EB(1))][@IF($E1($E9(52),0),[@IF($E3($E9(52),127),[@SHEET(xtx/gcRank,$E9(52),3)],)],)][@IF($E1($E9(53),0),[@IF($E3($E9(53),127),[@SHEET(xtx/gcRank,$E9(53),4)],)],)][@IF($E1($E9(54),0),[@IF($E3($E9(54),127),[@SHEET(xtx/gcRank,$E9(54),5)],)],)]。[@CR]先日の「東ラノシア」の一件では、世話になった。[@CR]ふむ……前に会ったときよりも、成長しているようだな。","At ease, [@IF($E1($E9(52),0),[@IF($E3($E9(52),127),[@SHEET(xtx/gcRank,$E9(52),12)],)],)]. You are wondering why I summoned you. Wonder no more. After witnessing your skills firsthand, I was left in no doubt that you were different from the rest─that I could trust you.","Sei gegrüßt, [@IF($E3($E9(52),127),[@IF($E1($E9(52),0),[@IF($E4($E9(52),127),Aspirant,[@SHEET(xtx/gcRank,$E9(52),15)])],)],[@IF($E3($E9(53),127),[@IF($E1($E9(53),0),[@IF($E4($E9(53),127),Aspirant,[@SHEET(xtx/gcRank,$E9(53),16)])],)],[@IF($E3($E9(54),127),[@IF($E1($E9(54),0),[@IF($E4($E9(54),127),Aspirant,[@SHEET(xtx/gcRank,$E9(54),17)])],)],)])])] [@SPLIT([@STRING($EB(1))], ,2)].[@CR]Neulich hast du uns im östlichen La Noscea einen großen Dienst erwiesen, wofür dir mein Dank gebührt. Und wie mir scheint, bist du seit unserem letzten Treffen noch stärker geworden.","[@IF($E3($E9(11),12),[@IF($E3($E9(11),4),Bonsoir,Bonjour)],[@IF($E3($E9(11),17),Bonjour,Bonsoir)])] [@IF($E3($E9(52),127),[@IF($E1($E9(52),0),[@IF($E4($E9(4),0),[@SHEET(xtx/gcRank,$E9(52),21)],[@SHEET(xtx/gcRank,$E9(52),22)])],)],[@IF($E3($E9(53),127),[@IF($E1($E9(53),0),[@IF($E4($E9(4),0),[@SHEET(xtx/gcRank,$E9(53),23)],[@SHEET(xtx/gcRank,$E9(53),24)])],)],[@IF($E3($E9(54),127),[@IF($E1($E9(54),0),[@IF($E4($E9(4),0),[@SHEET(xtx/gcRank,$E9(54),25)],[@SHEET(xtx/gcRank,$E9(54),26)])],)],)])])] [@SPLIT([@STRING($EB(1))], ,2)]. A te voir, je sens que tu as fait de grands progrès depuis la dernière fois... Je tenais à te remercier pour ton aide lors de la mission de sauvetage des spé[@16]cial[@16]istes des Forges de Garlond, l'autre jour. Tu as fait du bon travail.",
12,わざわざ足を運ばせることになり、申し訳ない。[@CR]話というのは「ガラディオン協定調印式」についてだ。,It is for this reason that I would have you present at the signing of the Galadion Accord.,"Umso mehr freut es mich, dass du uns mit deiner Anwesenheit beehrst. Wir haben wichtige Dinge zu besprechen.[@CR]Es geht um die Unterzeichnung des Galadion-Abkommens.",Mais ce n'est pas pour cette raison que je t'ai fait venir jusqu'ici. J'aimerais te parler de la cérémonie de signature de l'Accord Galadion.,
13,ふふ、戸惑った顔をしているな。,"Ah, it seems Lieutenant Guincum was neglectful in his briefing. This has been duly noted.","Hm, deinem verwirrten Ge[@16]sichts[@16]aus[@16]druck entnehme ich, dass du keine Ahnung hast, wovon ich spreche, nicht wahr?","Héhé[@1D]! A voir ta tête, j'imagine que tu n'as jamais entendu parler de cet accord, je me trompe[@1D]?",
14,過去にリムサ・ロミンサ、グリダニア、ウルダハの[@CR]3都市間で結ばれた「エオルゼア都市軍事同盟」ならともかく、[@CR]「ガラディオン協定」など聞いたこともない、といったところか？,"The Galadion Accord is not unlike the pact recently made 'twixt the Grand Companies, yet though its scale is comparatively modest, I have no doubt that it will prove to be of greater benefit to our city-state than the hollow promises exchanged by the signatories of the Eorzean Alliance.","Du hast also von dem Militärbündnis zwischen Limsa Lominsa, Gridania und Ul'dah gehört, aber noch nicht von dem Galadion-Abkommen? Dann will ich dich mal aufklären.","Sans doute es-tu plus famili[@IF($E9(4),ère,er)] avec l'Alliance Eorzéenne, l'alliance militaire conclue entre les grandes cités-Etats pour faire face à la menace de l'Empire après la chute d'Ala Mhigo.",
15,我がリムサ・ロミンサは、ガレマール帝国打倒に向けて、[@CR]いよいよ大きな一歩を踏み出すことになったのだ。,"With the signing of the Accord, Limsa Lominsa takes its final step in preparing for war with the Empire.","Es ist an der Zeit, dass Limsa Lominsa sich endlich vereint dem Garleischen Kaiserreich entgegenstellt.","Ici, à Limsa Lominsa, nous avons décidé que le moment était venu de prendre le taureau par les cornes, et d'organiser nos forces en vue de l'af[@16]fron[@16]te[@16]ment inévitable avec les armées de l'empire garlemaldais.",
16,紹介しよう。[@CR]そちらにいるのがバラクーダ騎士団長「レイナー」、[@CR]黒渦団軍令部の総長「エインザル・スラフィルシン大甲将」。,"As you can see, I have summoned others to this meeting─Commodore Reyner of the Knights of the Barracuda, Grand Storm Marshal Eynzahr Slafyrsyn...","Darf ich dir die anwesenden Herrschaften vorstellen?[@CR]Das sind Kommandant Reyner, Befehlshaber der Barrakuda-Ritter, und Konteradmiral Eynzahr Slafyrsyn, Chef des Marinegeneralstabs des Mahlstroms.","Mais avant d'aller plus loin, laisse-moi te présenter mes convives[@1D]: à ma droite sont, respectivement, le commandant Reyner, chef des chevaliers du barracuda, et le maréchal Eynzahr Slafyrsyn, directeur du quartier général du Maelstrom.",
17,そして、こちらにいるのが「断罪党」の首領である「ヒルフィル」、[@CR]リムサ・ロミンサの海賊諸派に強い影響力を持つ人物だ。[@CR]彼と私は、ひそかに協議を重ね……ついに……,"...and finally, Hyllfyr, Captain of the Bloody Executioners, and voice of Limsa Lominsa's pirates.","Das ist Kapitän Hyllfyr, der die Henkershorde anführt und somit großen Einfluss auf die Piraten von Limsa Lominsa hat.[@CR]Gemeinsam sind wir nach zähen Geheimverhandlungen endlich zu einer Übereinkunft gekommen.","Et pour finir, le grand gaillard à ma gauche, c'est Hyllfyr, le capitaine des Bourreaux. Cet homme a une grande influence sur les différents équipages de pirates de la Cité. Lui et moi avons multiplié les réunions secrètes, pour finalement arriver à une solution profitant à toutes les parties concernées.",
18,リムサ・ロミンサを根城とする、すべての海賊と[@CR]黒渦団、バラクーダ騎士団が手を結ぶことで基本合意に至った。,"After several days and nights of deliberation, we have at long last reached a concord stating that for the duration of our conflict with the Empire, the myriad independent pirate crews of Vylbrand and beyond will gather under the crimson standard and follow us into the flames of battle.","Wir haben beschlossen, dass wir alle Piraten von Limsa Lominsa, den Mahlstrom und die Barrakuda-Ritter unter einem Banner vereinen wollen.","Les pirates de Limsa Lominsa, le Maelstrom, ainsi que les chevaliers du barracuda se sont mis d'accord pour coopérer dans la lutte contre les armées de l'Empire.",
19,これこそが「ガラディオン協定」だ。,That is the Galadion Accord.,Dieses Bündnis nennen wir das Galadion-Abkommen.,C'est ce que nous appelons l'Accord Galadion[@1D]!,
20,奴らを全員、殺す気ですか！？,You cannot truly believe we stand a chance against that [@1A(1)]thing[@1A(0)]!,"Willst du, dass sie alle sterben?",Vous les condamnez tous à une mort certaine[@1D]!,
21,ああ、君は……[@CR]その兵器を倒すことができたとは……,It would appear you have dispatched the machina.,Du hast die Kriegsmaschine besiegt ...,C'est toi qui nous a débarrassés de cette machine infernale[@1D]?,
23,そうか……ご苦労だった……,Very good.,Das haben wir dir zu verdanken.,Tu as fait du bon travail.,
24,それに引き換え……,"Still, it should never have come to this.",Trotzdem ist das eine Katastrophe ...,"Moi, par contre...",
25,なんだ、この惨状はっ！？,To what end was the blood of our comrades spilled this day!?,Wie konnte es dazu kommen?!,Regardez-moi ce carnage[@1D]!,
26,わかっている！,"I am well aware of that, Marshal!",Das ist mir auch klar!,Je sais.,
27,だが、何故だ！[@CR]海賊と我らが手を結べば、ガレマール帝国など敵ではないと……,I do not ask [@1A(1)]what[@1A(0)] happened─I ask [@1A(1)]why[@1A(0)]!,Aber warum?! Wollten sich die Piraten nicht mit uns gegen das Garleische Kaiserreich verbünden?!,"Ce qui m'échappe, c'est le pourquoi de tout ça. Avec les pirates à nos côtés, nous ne ferions qu'une bouchée de l'Empire...",
29,我らがひとつの意志のもとに結束すれば、[@CR]ネール・ヴァン・ダーナスの野望をくじくことはもちろん、[@CR]いずれはエオルゼアから、すべての帝国兵をたたき出すこともできよう。,"With our city-state thus united, we need no longer let the Empire ravage our homeland for lack of strength to oppose them. We need no longer cower behind our city gates because our allies would sooner rain taunts upon one another than cannon-shot upon their oppressors.","Wenn wir alle an einem Strang ziehen, können wir Nael van Darnus' Pläne durchkreuzen und alle Invasoren aus Eorzea vertreiben.","Maintenant que nous sommes soudés par une même volonté, la grande Limsa Lominsa peut larguer les amarres et voguer vers l'horizon où s'embrase un ciel de feu. Rien ne pourra nous arrêter, pas même les tempêtes les plus déchaînées.",
30,我らリムサ・ロミンサは、一丸となって帝国に対抗する！,"If it is a fight the Empire wants, they shall have one! Once the Accord is signed, we will announce our intentions to the realm with a chorus of blood and fire!",Alle Bewohner von Limsa Lominsa werden dem Garleischen Kaiserreich vereint die Stirn bieten!,Nous allons déjouer les plans de Nael van Darnus et bouter les Garlemaldais hors d'Eorzéa[@1D]!,
31,その意思を内外に知らしめるべく、[@CR]海賊諸派の影響力が強い、ハムレット「エールポート」で[@CR]「ガラディオン協定調印式」を催す予定だ。,"As not to flaunt my command and prick the pride of those pirates who have but recently warmed to the idea of the Maelstrom, I have chosen the neutral location of Aleport for the signing.","Um dieses Ereignis gebührend zu würdigen und für die nötige Aufmerksamkeit zu sorgen, wollen wir das Galadion-Abkommen in dem bei den Piraten sehr beliebten Weiler Bierhafen unterzeichnen.",Nous avons décidé d'organiser la cérémonie de signature à Port-aux-ales. Le choix de cet emplacement n'est pas anodin[@1D]: ce lieu est le point de rencontre des différents équipages de pirates. Nous comptons sur eux pour répandre la nouvelle aux quatre coins d'Eorzéa.,
32,君には、黒渦団に所属する冒険者の代表として、[@CR]その「ガラディオン協定調印式」に参列してもらいたい。,And I would have you attend as representative of the Foreign Levy.,"Und da kommst du ins Spiel. Ich möchte, dass du das Galadion-Abkommen als Vertreter der Abenteurer, die dem Mahlstrom angehören, unterzeichnest.","J'en arrive à la raison de ta présence ici[@1D]: j'aimerais que tu assistes à la cérémonie en tant que re[@16]pré[@16]sen[@16]tant[@IF($E9(4),e,)] des aventuriers enrôlés au Maelstrom.",
33,黒渦団の任務における君の活躍は、グインカムから聞いている。[@CR]リムサ・ロミンサ単独で、ガレマール帝国と相対するとなれば[@CR]君のような冒険者の存在も、ますます重要となろう。,"In these past moons, you have proven yourself time and again an invaluable asset to the Maelstrom. You were cast in the mold of great [@IF($E9(4),women,men)], [@IF($E1($E9(52),0),[@IF($E3($E9(52),127),[@SHEET(xtx/gcRank,$E9(52),12)],)],)]. You are the standard against which heroes are measured, a shining example to those yet in the dark.","Guincum hat mir berichtet, was du alles für den Mahlstrom geleistet hast, und genau solche Leute wie dich braucht Limsa Lominsa, um gegen das Garleische Kaiserreich zu bestehen.","Guincum m'a parlé de tes faits d'armes. Si Limsa Lominsa devait affronter seule les Garlemaldais, les aventuriers de ta trempe seraient de précieux atouts.",
34,そう、君のような志ある者にこそ、私は見てほしいのだ。[@CR]巨艦「リムサ・ロミンサ」の真なる威容。[@CR]凱歌を約束する、その勇ましき姿を。,"[@1A(1)]You[@1A(0)] are the Maelstrom, and without you, our cause would be lost. And so I ask you stand with us as the proud armada embarks on her most important voyage─a voyage into the annals of history!","Limsa Lominsa gleicht einem gewaltigen Schiff, und ich möchte, dass du Zeuge seiner wahren Größe wirst und es mit mir gemeinsam auf Siegeskurs bringst.","Je veux que les gens ambitieux comme toi voient l'immense nef de guerre qu'est Limsa Lominsa, qu'ils soient médusés par son allure vaillante et se prennent à rêver des chants de guerre qui seront entonnés lorsque, tous ensemble, nous rentrerons victorieux du combat.",
35,"それでは、[@STRING($EB(1))][@IF($E1($E9(52),0),[@IF($E3($E9(52),127),[@SHEET(xtx/gcRank,$E9(52),3)],)],)][@IF($E1($E9(53),0),[@IF($E3($E9(53),127),[@SHEET(xtx/gcRank,$E9(53),4)],)],)][@IF($E1($E9(54),0),[@IF($E3($E9(54),127),[@SHEET(xtx/gcRank,$E9(54),5)],)],)]。[@CR]「キャンプ・スカルバレー」の南西……[@CR]ハムレット「エールポート」でまた会おう。","I shall await your arrival in Aleport, [@IF($E1($E9(52),0),[@IF($E3($E9(52),127),[@SHEET(xtx/gcRank,$E9(52),12)],)],)]. Till sea swallows all.","Wohlan, [@IF($E3($E9(52),127),[@IF($E1($E9(52),0),[@IF($E4($E9(52),127),Aspirant,[@SHEET(xtx/gcRank,$E9(52),15)])],)],[@IF($E3($E9(53),127),[@IF($E1($E9(53),0),[@IF($E4($E9(53),127),Aspirant,[@SHEET(xtx/gcRank,$E9(53),16)])],)],[@IF($E3($E9(54),127),[@IF($E1($E9(54),0),[@IF($E4($E9(54),127),Aspirant,[@SHEET(xtx/gcRank,$E9(54),17)])],)],)])])] [@SPLIT([@STRING($EB(1))], ,2)], wir treffen uns südwestlich von Camp Schädeltal im Weiler Bierhafen.[@CR]Gute Reise!","Ta présence est cruciale pour le bon déroulement de cet événement. Port-aux-ales se trouve au sud-ouest de la Vallée du Crâne. Je compte sur toi, [@IF($E3($E9(52),127),[@IF($E1($E9(52),0),[@IF($E4($E9(4),0),[@SHEET(xtx/gcRank,$E9(52),21)],[@SHEET(xtx/gcRank,$E9(52),22)])],)],[@IF($E3($E9(53),127),[@IF($E1($E9(53),0),[@IF($E4($E9(4),0),[@SHEET(xtx/gcRank,$E9(53),23)],[@SHEET(xtx/gcRank,$E9(53),24)])],)],[@IF($E3($E9(54),127),[@IF($E1($E9(54),0),[@IF($E4($E9(4),0),[@SHEET(xtx/gcRank,$E9(54),25)],[@SHEET(xtx/gcRank,$E9(54),26)])],)],)])])] [@SPLIT([@STRING($EB(1))], ,2)].",
36,羅針盤に南北の刻みあろうとも、[@CR]その読み方を知らねば、船は永遠に海上を彷徨う。,A ship must 'ave a compass. 'Tis elsewise doomed t' drift the endless Deep. Yet a compass be worth only as much as the man readin' it.,"Die Nadel eines Kompasses zeigt zwar nach Norden, aber wer nicht weiß, wie man damit navigieren kann, wird sein Schiff niemals in den sicheren Hafen bringen.","Un capitaine a beau avoir une boussole et un sextant, s'il ne sait pas s'en servir, il est condamné à laisser son navire errer éter[@16]nel[@16]le[@16]ment sur les flots.",
37,我らが巨艦は、まさにその迷い船であったが……[@CR]メルウィブの奴め、ついにやりおったわ。,And Merlwyb be more man than any barnacle-backed scrag for a thousand leagues. Don't ye forget that.,"Unser Schiff trieb orientierungslos umher, aber die alte Merlwyb hat uns wieder auf Kurs gebracht.","Ainsi Limsa Lominsa est restée trop longtemps à la dérive, mais aujourd'hui Merlwyb a repris la barre. Dorénavant le destin de notre Cité est de nouveau clair pour tous.",
38,"ほう、お前が[@SPLIT([@STRING($EB(1))], ,1)]か。[@CR]俺は黒渦団軍令部総長、エインザル・スラフィルシン大甲将。","Hmph. You may have beguiled the Admiral, but you'll not find me so easy to deceive.","Sieh an, du bist also [@SPLIT([@STRING($EB(1))], ,1)].[@CR]Ich bin Konteradmiral Eynzahr Slafyrsyn, Chef des Marinegeneralstabs des Mahlstroms.","Alors c'est toi, [@IF($E9(4),la fameuse,le fameux)] [@SPLIT([@STRING($EB(1))], ,1)][@1D]? Enchanté, je suis le maréchal Eynzahr Slafyrsyn, directeur du quartier général du Maelstrom.",
39,あ？　俺の名前が覚えにくいってか？[@CR]じゃあ、俺のことは黒渦団で一番イイ漢、とでも覚えておきな。,"Regardless of what Merlwyb believes, the Maelstrom needs you like a privy needs an oven. One misstep and I'll have your head on a pike. Understood?",Was? Du kannst dir meinen Namen nicht merken?[@CR]Dann merk dir einfach mein markantes Gesicht!,"Tu trouves mon nom compliqué[@1D]?! Bien, dans ce cas tu peux m'appeler le “Bourreau des cœurs”, héhé[@1D]!",
40,メルウィブ提督の正義を、[@CR]ほかの海賊どもがその一端だけにしろ、理解したことは大きい。,"With the signing of the Galadion Accord, the Admiral will have accomplished that which her predecessors could only dream of.","Die Piraten haben endlich begriffen, dass es Merlwyb um die gute Sache geht und sie im Interesse von ganz Limsa handelt.","Même si leur intellect est limité, c'est une bonne chose que les pirates aient enfin compris l'importance de s'unir sous une seule et même bannière.",
41,課題は、まだまだ山積みだが……[@CR]我ら騎士団は一丸となって、清きリムサ・ロミンサ実現に邁進する所存だ。,"Whether she can maintain order remains to be seen... Yet I have full faith in the woman. She has come this far, and that in itself is an achievement few could claim.","Vor uns liegen große Heraus[@16]forde[@16]rungen, aber wir Barrakuda-Ritter werden alles in unserer Macht Stehende tun, um den Traum von einem geeinten Limsa Lominsa zu verwirklichen.","Il reste encore de nombreux problèmes à régler, mais nous autres, chevaliers du barracuda, avons l'intention de faire tout notre possible pour que Limsa Lominsa devienne une ville sûre et salubre.",
42,貴様かッ！！　裏切り者はぁあああッ！！！,TRAITOR!,Mieser Verräter!!!,C'est toi qui nous as vendus[@1D]! Sale traître[@1D]!,
43,悪いな、提督さま！！,"No 'ard feelin's, eh, Admiral?","Nichts für ungut, Admiral!","Désolé, Merlwyb. C'est pas personnel, c'est juste les affaires[@1D]!",
44,ガレマール帝国のほうが、景気が良くってよお！[@CR]情報、高く売れたぜえ！？,"The imperials've got deeper pockets, is all. Ain't a soul as would've done no different.",Das Kaiserreich zahlt einfach besser!,Les caisses des Garlemaldais sont bien garnies et j'ai amassé une vraie petite fortune en leur vendant ces in[@16]for[@16]ma[@16]tions.,
45,へ！？,Wh-Wh-What in the seven 'ells?,Hm?!,Hein[@1D]?!,
46,ま、待て待て待て！　俺は「ガラディオン協定」なんか興味ないって！,"No, no! Wait! We're on the same side, see?","Halt, halt, halt! Ich gehör doch zur Familie!","Eh, mais... Non[@1D]! J-j'me contrefiche de l'Accord Galadion, moi[@1D]!",
47,は……話がちが,B-But ye swore I'd─,N-Nicht!!!,C'est pas c'qui était prév...,
48,この……ッ！,By the Twelve! What is that thing!?,Verdammt!,Fichue machine[@1D]!,
49,撤退です！,Fall back!,Rückzug!,Replions-nous[@1D]!,
50,できるかッ！！,And admit defeat!? Never!,Niemals!,Plutôt mourir[@1D]!,
51,するのです！[@CR]ここで貴方が死んで、どうなさる！,"If you die here, our defeat is all but assured. Live today, so that we may exact our vengeance tomorrow.","Wir müssen uns zurückziehen! Wenn du hier stirbst, ist alles verloren!",Ne dites pas de sottises[@1D]! Mourir ici ne nous avancera à rien[@1D]!,
52,撤退しろ！,"Call the retreat, ye stubborn fool!","Los, Rückzug!",Fichez le camp[@1D]!,
53,ク……,"Damn you, both...",Also gut ...,Enfer[@1D]!,
54,退けッ！　全員、退くんだ！,Fall back! Fall back!,"Rückzug! Alle Mann, zieht euch zurück!","Repli général[@1D]! Battez en retraite, soldats[@1D]!",
55,敵影は……もう、ねえな。,I detect no further signs of imperial activity. The invaders are either dead or retreated.,Der Feind ist geflohen.,On dirait que l'ennemi a décampé...,
56,……帝国有利と見た奴が「調印式」の情報をもらし、[@CR]ここぞとばかりに急襲され……,It seems we were betrayed by a small group of pirates who believed they would gain more from an alliance with the Empire.,Der Verräter muss das Garleische Kaiserreich über die geplante Unterzeichnung des Galadion-Abkommens informiert haben.,"C'était un piège, nous avons été vendus...",
57,「ガラディオン協定」……,...Hells take those covetous fools! The Accord was meant to prevent this. To free us of the heavy price of greed...,... das Galadion-Abkommen ...,L'Accord Galadion...,
58,……リムサ・ロミンサの結束……,...To show every true Lominsan that [@1A(1)]united[@1A(0)] we could take on the world in arms!,... die Einigung Limsa Lominsas ...,L'union de Limsa Lominsa...,
59,とんだお笑いぐさではないかっ！！,And [@1A(1)]this[@1A(0)] is the unity I offer them!?,Alles war umsonst. Wir haben uns einfach nur lächerlich gemacht!,"Une vaste plai[@16]san[@16]te[@16]rie, oui[@1D]!",
60,己が利に縛られず、手を差し伸べる……か。,Have you come to make mock of me?,"Du bist wirklich eine treue Seele, [@IF($E9(4),meine Liebe,mein Freund)].",Tendre la main aux autres sans rien attendre en retour...,
61,本当の自由とは……[@CR]君たちがまとうものを言うのかもしれないな。,<sigh> You adventurers are a curious lot. I sense I might learn much from you.,Du folgst deiner Überzeugung und nicht dem Ruf des Geldes. Das ist wahre Freiheit.,Cet altruisme propre aux aventuriers pourrait-il être l'incarnation de la vraie liberté...?,
63,すぐにリムサ・ロミンサへ運ばせろ。,"You are right. We shall gather their bodies and bear them back to Limsa Lominsa, where they shall be honored as the heroes they are.",Bringt sie schleunigst nach Limsa Lominsa.,Transportez-les im[@16]mé[@16]dia[@16]te[@16]ment à Limsa Lominsa[@1D]!,
64,……この件は、忘れることだ。,And you...... Carry on.,"Wir vergessen am besten, was heute vorgefallen ist.",Oublie ce qui vient de se passer.,
65,ありがとう、だそうだ。,"I could be wrong, but I believe that was her way of saying, “thank you.”","Danke, du hast heute gerade noch so das Schlimmste verhindert.","Elle est un peu bourrue, mais c'est sa façon de te dire “merci”.",
66,しかし……こんな危機も久しぶりだな。[@CR]見たこともねえ兵器だが、あれは……帝国の新兵器か？[@CR]お前に来てもらってなければ、どうなっていたことか……。,"As for myself, I believe I owe you an apology. That was quite a display of courage. Your selfless act helped save the Admiral's life, and with it, the Maelstrom.","Heute sollte ein glorreicher Tag werden, aber das ist ganz schön in die Hose gegangen.[@CR]So eine Kriegsmaschine habe ich noch nie gesehen. Das muss eine Neuentwicklung der Garlear gewesen sein.","Il y avait bien longtemps qu'on n'avait pas subi une telle déconvenue... En tout cas, c'était la première fois que je voyais une pareille machine. L'Empire ne cesse de mettre au point de nouveaux armements. Si tu n'avais pas été là, nous serions sans doute tous morts...",
67,そのうち、メルウィブ様から、[@CR]連絡があるかもしれねえが、今回はこれで失礼するぜ。[@CR]……っといけねえ、こいつは少ないが今回の礼だ、とっておきな。,Perhaps you [@1A(1)]are[@1A(0)] all the Admiral believes you to be.,"Es kann gut sein, dass sich Merlwyb schon bald wieder bei dir meldet, doch vorerst bleibt uns nichts anderes übrig, als uns zurückzuziehen und unsere Wunden zu lecken.[@CR]Hier, nimm das als kleine Entschädigung für deinen Einsatz. Leb wohl und bis bald!","Nous te devons une fière chandelle... Je pense que l'Amirale te contactera pro[@16]chai[@16]ne[@16]ment pour faire le point sur cette sordide affaire. D'ici là, prends soin de toi.[@CR]Ah, j'oubliais[@1D]! Prends cette récompense. Ce n'est pas grand-chose, mais bon...",
68,死傷者多数！[@CR]しかし、急げば間に合う者も……！,"Admiral, if I may... It is true a great many brave souls gave their lives this day─but it was not in vain they did so. Outnumbered though they were, not a single man ran until the call for retreat was given. They stood their ground and fought to defend their nation, to defend the crimson standard. Those who died didn't die pirate or Barracuda─they died heroes. And there is no truer unity than that.","Wir haben herbe Verluste erlitten, aber einige Verwundete können wir noch retten.","Les pertes sont lourdes, mais on peut encore sauver les blessés[@1D]!",
