 ,0,1,2,3,4
 ,str,str,str,str,str
2,ああ、君、グランドカンパニー「不滅隊」の隊員になったんだってね？[@CR]……じゃあ、知ってるかな。グランドカンパニー「不滅隊」の内部で[@CR]ウルダハ出身の兵士と、アラミゴ出身の兵士が衝突してるって話。,"It is good to see you, [@SPLIT([@STRING($EB(1))], ,1)], but I fear all is not well. There is great dissension among the ranks of the Immortal Flames. I speak of the tensions between Ul'dahn and Ala Mhigan.","Du bist doch jetzt mit dabei in der Legion der Unsterblichen! Dann bist du [@IF($E9(4),Ärmste,Ärmster)] sicher reingezogen worden in die Streitereien ... Ach, das weißt du gar nicht? Dass sich die Soldaten aus Ul'dah mit denen aus Ala Mhigo in die Haare gekriegt haben?","Ah, c'est toi [@IF($E9(4),la gladiatrice,le gladiateur)] qui s'est [@IF($E9(4),enrôlée,enrôlé)] chez les Immortels, non[@1D]? Peut-être es-tu déjà au courant des tensions entre les soldats uldiens et mhigois au sein de cette grande compagnie[@1D]?",啊，你成为大国防联军恒辉队的队员了？[@CR]那你应该知道吧，在恒辉队的内部，[@CR]乌尔达哈出身的士兵和阿拉米格出身的士兵发生冲突一事。
3,先日結成された、魔物討伐部隊の内部事情も酷いもんだよ。[@CR]ウルダハ出身の兵士が、アラミゴ出身の兵士たちに[@CR]作戦地域をはっきりと伝えずに、出立しちゃったそうなんだから。,"Recently a force was assembled to seek out and cut down any foe found in the outlying regions─the Beastcleavers, they were named. Yet the Ul'dahns among them set forth without so much as telling their Ala Mhigan comrades where they were commanded to march.","Und das mit dem Monstervernichtungstrupp ist auch eine arge Geschichte! Gerade erst ins Leben gerufen, und schon sind sich alle spinnefeind. Die Kämpfer aus Ul'dah sind einfach aufgebrochen, ohne den Kollegen aus Ala Mhigo zu sagen, wo der Einsatzort genau liegt.","Pour te donner un exemple, les Uldiens de l'unité spéciale créée récemment pour exterminer les monstres dans la région viennent de partir sur le lieu des opérations sans donner d'in[@16]for[@16]ma[@16]tions précises aux Mhigois. Ceux-ci ne savent donc pas comment s'y rendre.",就连昨天刚刚结成的讨伐魔物小队内部也发生很严重的对立事件，[@CR]听说乌尔达哈出身的士兵，[@CR]并没有向阿拉米格出身的士兵好好传达作战区域就出发了。
4,アラミゴ出身の兵士たちは[@CR]たしかに、一癖も二癖もある奴が多いけどさ……,"I confess it, I... I have no love for the Ala Mhigans myself...but this?","Sicher, die Mhigiten haben alle eine Macke, aber ...",Je veux bien admettre que les Mhigois ne sont pas toujours faciles à vivre...,虽然阿拉米格的士兵确实毛病挺多的吧……
5,それで、俺たち「コロセウム」のスタッフに白羽の矢が立ったわけ。[@CR]仲の悪い彼らの間を、取り持ってやろうってわけさ。,"And so they've asked us of the Coliseum to do what we can to mediate a peace. The Flames must be unified, lest the fire sputter and die.","Und was passiert? Natürlich sollen wir vom Kolosseum jetzt die Kastanien aus dem Feuer holen. Versöhnt die Streithähne, hat es geheißen! Das sagt sich so leicht.","On nous a donc demandé de prendre l'affaire en main et de calmer les esprits. Le Colisée aussi emploie des Uldiens et des Mhigois, nous avons donc l'habitude de ce type de situation.",所以，现在就是我们竞技场的人出马的时候了。[@CR]我们要撮合他们两拨人之间的关系。
6,まさか君も、アラミゴ出身の兵士を嫌ってるの？[@CR]……まぁ、気持ちはわからなくはないけど……,"So you would sooner see the Flames die out than aid the Ala Mhigans among us? That's racist, [@SPLIT([@STRING($EB(1))], ,1)].","Was, du willst auch nichts mit diesen abgedrehten Mhigiten zu tun haben? Irgendwie verstehe ich ja, was du meinst ...","Ne me dis pas que toi aussi tu méprises les Mhigois[@1D]? Enfin, j'imagine que c'est com[@16]pré[@16]hen[@16]si[@16]ble, ils sont tellement différents de nous...",难道你也讨厌阿拉米格出身的士兵吗？[@CR]……虽然我也不是不明白……
7,ああ、よかった。[@CR]正直いって、俺はコロセウムの試合がらみで[@CR]アラミゴ出身の奴らに恨まれているんだ。じゃあ、頼んだよ。,"Thank the gods! And thank you, [@SPLIT([@STRING($EB(1))], ,1)]. I was loath to go on my own. Many of the Ala Mhigans despise me for some, shall we say, [@1A(1)]unfortunate[@1A(0)] events that came to pass here at the Coliseum.","Ah, hervorragend. Ehrlich gesagt habe ich selbst sowieso keinen guten Draht zu den Mhigiten, du verstehst - ich habe sie wohl zu oft bei den Kämpfen im Kolosseum in die Pfanne gehauen, die Dumpfbacken, har har! [@1A(1)]ähem[@1A(0)][@CR]Jedenfalls bin ich froh, dass ich dir diese Aufgabe überlassen kann.","Merci[@1D]! Pour tout t'avouer, je n'avais vraiment pas envie d'y aller moi-même, je suis en froid avec les Mhigois depuis mon dernier combat dans l'arène. Ne m'en demande pas plus...",啊，太好了。[@CR]说实话，因为竞技场的比赛，[@CR]其实我也很讨厌阿拉米格出身的人呢，那就拜托你啦。
8,ウルダハの裏通り「パールレーン」に行って[@CR]「アダルベルト」っていう、アラミゴ出身の兵士に伝えてくれ。[@CR]作戦地域は、東ザナラーンの「キャンプ・ドライボーン」から北東辺りだって。,"Travel to Pearl Lane, here in Ul'dah, and seek out an Ala Mhigan by the name of Cotter─Flame Sergeant Third Class Adalbert Cotter. He's a grim soul, but a good soldier. Tell him that the Beastcleavers march to the northeast of Camp Drybone, in eastern Thanalan.","Du sollst in der Perlengasse von Ul'dah mit dem mhigischen Soldaten Adalbert reden und ihm sagen, dass der Einsatzort in Ost-Thanalan liegt, nordöstlich von Camp Knochenbleich. Klar?","Un des soldats mhigois, Adalbert, se trouve en ce moment à la rue de perle.",前往乌尔达哈的内大街白玉小巷，[@CR]告诉一个名叫阿达尔伯特的阿拉米格士兵作战区域，[@CR]跟他说作战区域就在东萨纳兰的枯骨营地的东北边。
15,君、無事であったか！[@CR]急いで駆けつけてきたものの、我が目を疑ったぞ。[@CR]このような場所に、魔物の群れが現れるとは想定外だった。,"Are you well, friend? We came as soon as we were able. Twelve be good, I never expected beasts such as this to be here of all places.","Sei gegrüßt, [@IF($E9(4),Wahnsinnige,Wahnsinniger)]! Bist du noch bei Trost, in so einer gefährlichen Gegend joggen zu gehen?","Tu vas bien[@1D]? On a essayé d'intervenir aussi vite que possible, mais on a été pris par surprise. On ne s'attendait pas à tomber sur une bande de monstres ici.",啊，你平安无事吗！[@CR]我迅速赶来后，简直吓傻了。[@CR]没想到在这种地方居然有成群的魔物。
16,……何だと？　「不滅隊の魔物討伐部隊か？」だと？[@CR]いかにもそのとおりだが、何か火急の報せでもあるのか？,"The Beastcleavers? Aye, that we are. You are of the Flames? What word from the Hall, [@IF($E9(4),sister,brother)]?","Der Monstervernichtungstrupp der Legion?[@CR]Ja, klar sind das meine Leute, was denkst du denn. Und? Was hast du mir zu sagen?","Tu veux savoir si nous sommes l'unité spéciale d'extermination de monstres[@1D]? Oui, c'est bien nous. Un message urgent, tu dis[@1D]?",……什么？你问我们是不是恒辉队的魔物讨伐部队？[@CR]确实如此，你火急火燎的是要来报告什么吗？
17,ほう、本来の作戦地域までのルートは危険だというのか。[@CR]おい、待て。本来の作戦地域についての話をどこで……,Dangers on this route? I see... Then these beasts were no coincidence. Where did you hear of this?,"Oh, die Route zum vermeintlichen Einsatzort ist gefährlich? Ha ha ha! Im Unterschied zu allen anderen Routen in Eorzea, stimmt's?[@CR]Moment mal! Was heißt hier „vermeintlich“?","La route jusqu'au lieu des opérations est mortellement dangereuse[@1D]? Attends un peu, de qui tiens-tu cette information[@1D]?",唔哦，是为了告诉我们赶往作战区域的道路很危险吗……[@CR]唔？等一下，作战区域你是从哪里知道的……
24,君、遅かったね。[@CR]さっき、魔物討伐部隊が戻ってきたけど、何かあったのか？[@CR]裏通りにいるアダルベルトには、ちゃんと伝えてくれたんだろうね？,"The Beastcleavers have returned before you, [@SPLIT([@STRING($EB(1))], ,1)]. Did you speak with Sergeant Cotter? Tell me all that has happened.","Da bist du ja endlich! Der Monstervernichtungstrupp ist gerade zurückgekommen! Was ist denn passiert? Hast du Adalbert nicht ausgerichtet, was ich dir aufgetragen habe?","Ah, te voilà enfin[@1D]! Tu en as pris du temps pour transmettre un simple message en ville. Bon, tu as trouvé Adalbert[@1D]?",你回来的真慢啊。[@CR]刚才魔物讨伐部队已经回来了，发生了什么吗？[@CR]你有把口信传给阿达尔伯特吗？
25,……ルートの危険性を知って、戻ってきたって？[@CR]そうか、アダルベルトが、そんな大事な情報を……。,I see... So it was Sergeant Cotter's warning that made them turn back. That was...noble of him. Especially considering the animosity he and Lennard share.,"... Die Route sei gefährlich?! Ja, und? Gerade um die Gefahr zu beseitigen, wurde der Trupp doch hingeschickt![@CR]Oder ist es etwa ein Monsterdavonlauftrupp?!","... Tu es [@IF($E9(4),allée,allé)] jusqu'au nord-est du camp des Os desséchés pour empêcher l'unité spéciale de prendre une route dangereuse[@1D]?",……得知了道路的危险返回了？[@CR]是吗，阿达尔伯特将那么重要的情报……
26,これで、ウルダハ出身の兵士たちは[@CR]アラミゴ出身の兵士たちに借りができたってわけだな。[@CR]いいぞいいぞ、今後は、双方の関係も少しはマシになるだろう。,"It sounds as though the Ul'dahn Flames now owe the Ala Mhigan Flames a debt. No grounds for a lasting union, to be sure, but mayhap it will prove a step towards a peace.","Andererseits muss Adalbert es wissen, er hat die Gefahren der Strecke ja bereits am eigenen Leib erfahren ...[@CR]He! Das ist ja hervorragend! Die Soldaten aus Ala Mhigo konnten den Ul'dahnern damit einen Gefallen tun. Vielleicht bessert sich jetzt das Klima in den Reihen der Legion!","Eh bien, les Uldiens doivent une fière chandelle aux Mhigois. On peut espérer que les choses vont s'arranger un peu.",所以，这就等于乌尔达哈的士兵欠了阿拉米格士兵的一个人情吧。[@CR]太好了，这样今后双方的关系应该会稍稍融洽点了吧。
27,ん？　なんだ、君は？[@CR]……なんと、「正しい作戦地域を伝えにきた」だと？　して、その地とは？,"And who in the hells are you, then? Eh? Know where the Beastcleavers march, do you? Speak it, then, and speak it true, else you'll be less a tongue.","Was gibt's, [@IF($E9(4),Legionärin,Legionär)]?[@CR]Den „genauen Einsatzort“ willst du mir verraten? Du meinst wohl den, wohin die ul'dhischen Arroganzbolzen gerade zur Monsterbeseitigung unterwegs sind?",Qu'est-ce que tu veux[@1D]? Me transmettre le véritable lieu des opérations[@1D]?,嗯？你是什么人？[@CR]……什么？告诉我正确的作战区域？是哪里？
28,なに、「キャンプ・ドライボーン」の北東？[@CR]それは、おそらく表向きの作戦地域。[@CR]そこから次の地へ向かうとなると……,Northeast of Camp Drybone? Hmmm... Then they're like to be headed for─,"Im Nordosten von Camp Knochenbleich! [@1A(1)]schluck[@1A(0)][@CR]Wenn es dort ist, dann beginnt es da erst richtig! Das wird nur ein unbedeutendes Geplänkel vor der eigentlichen Konfrontation sein - und wenn sie dann weiter vorrücken ...",Alors c'est au nord-est du camp des Os desséchés qu'ils sont partis. Ce qui veut dire qu'ils vont vers...,东萨纳兰的枯骨营地的东北边？[@CR]那应该是表面的作战区域，从那里再出发的话……
29,あのルートを使う気か！？[@CR]……だめだ、あのルートはまずい。,"Gods, no, they can't mean to take [@1A(1)]that[@1A(0)] route! The daft bastards are walking into an eighth bloody hell!",Sie wollen doch nicht etwa [@1A(1)]diese[@1A(0)] Route nehmen?[@CR]Diese Dummköpfe ... Das wäre ihr Ende.,"Par tous les dieux, les inconscients[@1D]! Le chemin qu'ils ont pris est bien trop dangereux pour une troupe de cette taille[@1D]!",难道是那条通道？！[@CR]……糟了，那条道可不好办了！
30,君、部隊のあとを追い、引き返すよう伝えてくれんか？[@CR]今頃はおそらく、「キャンプ・ドライボーン」の[@CR]北東あたりを移動中であろう。,"If you mean to help, best go and see to it they turn back. And be quick about it. Given when they left, they'll be there or thereabouts already.","Du solltest dem Trupp nachlaufen, der dorthin unterwegs ist, und die Leute zum Rückzug bewegen! Sie sind jetzt sicher schon in der Nähe des Zielorts.","Je t'en prie, pars im[@16]mé[@16]dia[@16]te[@16]ment les prévenir du danger[@1D]! Ils sont pro[@16]ba[@16]ble[@16]ment déjà au nord-est du camp des Os desséchés, mais il n'est peut-être pas trop tard.",你能不能去追他们，让他们返回？[@CR]现在他们应该在向枯骨营地的东北方移动。
31,本来なら、我らが向かうべきだろう。[@CR]しかし、我が仲間たちは、奴らの仕打ちにとても腹を立てている。[@CR]ウルダハ出身の輩と、共に戦う気はないと言って聞かん。,"I'd go myself, but the blood between us still runs bad. Like as not, they'd think I was playing them for fools, as they have me and mine. Still, I've no wish to see them dead.","Ich weiß, ich weiß. Das wäre eigentlich unsere Aufgabe.[@CR]Aber du musst verstehen - meine Leute sind stinksauer auf diese großspurigen Ul'dahner. Am liebsten würden wir nicht mehr mit ihnen gemeinsam kämpfen, aber wir sind nun mal im selben Heer. Wir warten erst auf eine offizielle Entschuldigung.","Si je te demande ça, c'est que j'ai peur de ne pas réussir à convaincre mes compatriotes d'aller aider les Uldiens. Ils sont furieux contre eux, et je sais qu'ils refuseront de se battre à leurs côtés.",本来这应该是我们的工作。[@CR]但我的同伴因为他们的行为非常气愤。[@CR]他们都表示不想和乌尔达哈的士兵共同战斗了。
32,君にはすまないが、よろしく頼む。[@CR]道中は、じゅうぶんに注意してくれ。,"You're a Flame, same as them and me. That's the only reason I ask you. So go. And be careful, [@IF($E9(4),sister,brother)].","Also bitte, sei so gut. Und pass auf die Monster auf!","C'est pas de chance pour toi de te retrouver au milieu de nos querelles, mais tu es [@IF($E9(4),une Immortelle,un Immortel)] toi aussi. Considère ça comme ton devoir et accomplis-le sans rechigner.",很抱歉，只能麻烦给你了。[@CR]注意路上安全啊。
33,……なるほどな。[@CR]アラミゴ出身の「アダルベルト」がそう言ったというのか。[@CR]ここから先は、奴らがウルダハに移住してきた時に使ったルートであると……,Cotter? He claims to have marched it before?,"So ... Adalbert, der mickrige Mhigit, will uns also warnen. Tut mir leid, aber ich kann den Typ nicht ausstehen.[@CR]Aber das mal beiseite - wenn die Leute aus Ala Mhigo auf diesem Weg nach Ul'dah gekommen sind, müssen sie tatsächlich Bescheid wissen, welche Gefahren dort lauern.",Adalbert et les autres Mhigois sont passés par là lorsqu'ils se sont exilés à Ul'dah...[@1D]?,……原来如此。[@CR]阿拉米格出身的阿达尔伯特说的吗？[@CR]这里再往前，就是他们来乌尔达哈时途经的危险地带了吗……
34,先ほど現れた魔物も、関係があるのかもしれん。[@CR]ここは一度、引き返して、作戦を練り直した方がよかろうな。[@CR]これ以上、厄介な魔物が現れる前に、君もここを離れたまえ。,"Mayhap he tells it true... Beasts such as these might make a Dead March of any journey. Very well, I shall call back my outriders and consider our route once more. You would be wise to leave as well, before another of these fiends finds your scent.","Die Biester von vorhin waren vielleicht nur ein Vorgeschmack auf das, was noch auf uns lauert ...[@CR]Gut! Wir ziehen uns zurück und arbeiten eine neue Strategie aus. Und du machst besser auch, dass du hier wegkommst!","Ces monstres sont la preuve que l'histoire d'Adalbert est vraie. Nous allons rebrousser chemin et repenser notre stratégie. Quant à toi, tu ferais mieux de quitter ces lieux également, si tu tiens à la vie.",也许和刚才出现的魔物有一定的关系。[@CR]总之，先返回重新拟定一下作战方针比较妥当。[@CR]在可怕的魔物出现之前，你也赶快离开这里吧。
35,しかし……、アラミゴの奴らに助けられるとは。[@CR]悔しいが、奴らの知識は有益だと認めざるをえん。[@CR]作戦を成功させるためにも、後で謝罪のひとつでもしておくか……,"That I have no love for the Ala Mhigans is no secret. But they've repaid our slight with a kindness this day, and their knowledge of the land may have saved us many lives. Cotter will have my thanks when next I see him.","Mann, dass wir uns von diesen schrulligen Mhigiten helfen lassen müssen! Verdammt! Aber Tatsache ist, dass sie jetzt was bei uns gut haben. Ich muss mich wohl entschuldigen ... irgendwann.","C'est une leçon qu'on va devoir retenir. Les Mhigois ont des con[@16]nais[@16]san[@16]ces qui pourraient nous être utiles. Si nous voulons nous en sortir dans la région, nous avons besoin d'eux. Hmm, j'imagine qu'il va falloir leur présenter des excuses...",但是……竟然被阿拉米格的人救助了……[@CR]虽然不甘心，但还是得承认他们的知识很有帮助。[@CR]为了能让作战成功，向他们赔个礼吧……
36,なんか、おかしいんだよなぁ。[@CR]作戦地域はまだだいぶ先なのに、さっきから変な魔物に遭遇するんだ。,Summat ain't right about all this. Place we're s'posed to be huntin's still malms away. Bloody beasts such this ain't got no business turnin' up 'round here.,"Irgendwas ist hier verdammt faul. Wir sind noch malmenweit vom Zielort entfernt, und trotzdem wimmelt es hier gerade so von verfluchten Viechern.",C'est moi ou il y a plus de monstres ici que sur le lieu des opérations[@1D]?,但是好奇怪啊。[@CR]离作战区域还远着呢，却遇到了那么危险的魔物。
37,あなたは伝令の方？[@CR]てっきり、アラミゴ出身の兵士が、慌てて追いかけてきたのかと思ったわ。,You the messenger from the Hall? Thought maybe you was one of them Ala Mhigans come to track us down.,"Bist du [@IF($E9(4),eine Botin,ein Bote)]? Ich dachte schon, einer von den unnützen mhigischen Genossen sei uns den ganzen Weg nachgelaufen.","Ah bon, tu es seulement [@IF($E9(4),une messagère,un messager)][@1D]? Et moi qui croyais que les Mhigois avaient enfin réussi à nous retrouver. J'aurais dû me douter qu'ils n'en étaient pas capables.",就是你来传口信的吗？[@CR]我还以为是阿拉米格的士兵赶来了呢。
38,我々は、重要な任務を命じられている。[@CR]用件があるならば、すみやかにレンナード隊長に伝えたまえ。,"If you've business with the Beastcleavers, speak with Lieutenant Westin. But be quick about it. We are on a mission of the utmost importance.","Wir haben eine ruhmreiche Mission zu erfüllen. Wenn du etwas zu sagen hast, wende dich an Lennard. Er ist hier der Boss.","Nous sommes en route pour une mission importante. Si tu as un message à transmettre, va parler au capitaine Lennard.",我们有重要的任务在身。[@CR]有事的话，去找伦纳德队长直接说吧。
39,それにしても、君はいろいろと大変だったね。[@CR]お礼にこれを受け取ってくれ。不滅隊隊員なら、きっと役に立つよ。,"I am sorry to have burdened you with this. Feuds amongst the ranks should not fall to you to quell. Still, you have my thanks. Here, for your trouble.",Da hast du aber erstaunlich gute Arbeit geleistet! Wahrscheinlich bist du selbst am allermeisten erstaunt ...[@CR]Hier ist jedenfalls ein kleines Dankeschön.,"Quant à toi, tu mérites une récompense après avoir pris autant de risques et en faisant plus que ce qu'on attendait de toi. Prends ça, je suis sûr que ça pourra t'être utile.",你也辛苦了！[@CR]收下这份谢礼吧！你要是恒辉队的士兵，一定会非常出色的！
40,すぐに部隊のあとを追い、引き返すよう伝えてくれんか？[@CR]今頃はおそらく、「キャンプ・ドライボーン」の[@CR]北東あたりを移動中であろう。,Find the Ul'dahns of the Beastcleavers before their march proves the end of them. They're like to be northeast of Camp Drybone by now.,"Mach dich bitte sofort auf den Weg und sag dem Monstervernichtungstrupp, dass er sich zurückziehen soll.[@CR]Jetzt werden sie wahrscheinlich schon nordöstlich von Camp Knochenbleich sein.","Je t'en prie, pars im[@16]mé[@16]dia[@16]te[@16]ment les prévenir du danger[@1D]! Ils sont pro[@16]ba[@16]ble[@16]ment déjà au nord-est du camp des Os desséchés, mais il n'est peut-être pas trop tard.",你能不能去追他们，让他们返回？[@CR]现在他们应该在向枯骨营地的东北方移动。
41,……ただ、こういったイザコザを表沙汰にすると[@CR]おおごとに発展して、不滅隊分裂、内部衝突なんてことも考えられる。[@CR]だから、良識ある人たちも下手に動けないみたいなんだ。困ったね。,"This simply will not serve. Should word get out, the rift between the two factions will only widen. That is why the commanders have taken no action, lest they draw attention to the problem.","Aber wenn diese Streitereien nicht aufhören, kann das zu einer richtigen Staatsaffäre ausarten. Bei einer totalen internen Spaltung läuft die Legion Gefahr, sich selbst lahmzulegen. Und auch die Vernünftigen unter den Soldaten wagen es nicht, die Stimme zu erheben.","Mal[@16]heu[@16]reu[@16]se[@16]ment, des sanctions publiques pourraient se révéler dangereuses en mettant le feu aux poudres et créer de graves dissensions au sein des Immortels. C'est pourquoi les officiers de la compagnie sont dans l'embarras.",……但是，要是矛盾继续升级，[@CR]最后很可能发生恒辉队分裂或者内部冲突这种很严重的事。[@CR]所以现在搞得大家都非常头痛。
42,ウルダハの裏通り「パールレーン」に行って、[@CR]「アダルベルト」っていう、アラミゴ出身の兵士に伝えてくれないかな？[@CR]作戦地域は、東ザナラーンの「キャンプ・ドライボーン」から北東辺りだって。,"I would ask that you travel to Pearl Lane, here in Ul'dah. There find an Ala Mhigan by the name of Cotter─Flame Sergeant Third Class Adalbert Cotter. A grim soul, but a good soldier. Tell him that the Beastcleavers march to the northeast of Camp Drybone, in eastern Thanalan.","Geh in die Perlengasse - du weißt schon, diese Nebenstraße in Ul'dah - und sprich dort mit Adalbert. Er ist ein Soldat aus Ala Mhigo. Das Einsatzgebiet ist in Ost-Thanalan, nordöstlich von Camp Knochenbleich, richte ihm das aus.","Un de leurs soldats, Adalbert, se trouve en ce moment à la rue de perle. Va lui dire que sa troupe doit partir au plus vite pour le camp des Os desséchés dans le Thanalan oriental et se diriger vers le nord-est.",你能不能前往乌尔达哈的内大街白玉小巷，[@CR]告诉一个名叫阿达尔伯特的阿拉米格士兵作战区域呢？[@CR]跟他说作战区域就在东萨纳兰的枯骨营地的东北边。
43,置いてきぼりにするなんて、さすがにやりすぎだよ。[@CR]ウルダハ出身の兵士たちは、戦力が減っても[@CR]戦いに勝てるなんて豪語してたみたいだし。,"This is too much. Whatever grievances we harbor must be set aside when duty calls. As must pride. My Ul'dahn brothers and sisters imagine their might sufficient to fell any enemy they encounter, but there can be no certainty of that, and there has ever been safety in numbers.","Die Hälfte des Heeres einfach uninformiert stehen zu lassen, ist nicht nur kindisch, sondern schlicht ein Schnitt ins eigene Fleisch. Die Ul'dahner sind natürlich fest davon überzeugt, dass sie die Mission locker alleine bewältigen können, und spucken die allergrößten Töne.",Mais tout ceci n'est pas digne de soldats. Il paraît que les Uldiens ont dit juste avant de partir à qui voulait l'entendre qu'ils pouvaient très bien se passer des Mhigois pour vaincre. Ce genre d'attitude ne peut que mener au désastre.,但就那么晾着他们不理也太过分了。[@CR]乌尔达哈的士兵们好像还说即使战斗力减少也能胜利什么的。
44,さ、事情はだいたい、わかっただろう？[@CR]急いで、アラミゴ出身の兵士たちに作戦地域を伝えて[@CR]作戦に合流してもらわないと。……それには、君の協力が必要だよ。,"Would you help us in this, [@SPLIT([@STRING($EB(1))], ,1)]? We must inform the Ala Mhigans where to march, that they might rendezvous with the Ul'dahns.","So, jetzt bist du auf dem Laufenden über deine eigene Staatliche Gesellschaft, [@IF($E9(4),meine Liebe,mein Freund)]. Wir müssen schnell den Soldaten aus Ala Mhigo sagen, wo die Schlacht stattfinden wird, und sie dorthin lotsen. [@CR]Oder besser gesagt: Du machst das![@CR]Dann kämpfen Mhigiten und Ul'dahner Seite an Seite und alles wird gut.","Puisque tu es toi-même [@IF($E9(4),une Immortelle,un Immortel)], je suis certain que cette histoire ne te laisse pas [@IF($E9(4),indifférente,indifférent)]. Si tu pouvais transmettre aux Mhigois le lieu des opérations, ainsi que l'ordre de s'y rendre im[@16]mé[@16]dia[@16]te[@16]ment, tu nous rendrais un fier service.",好了，事情的大概你都清楚了吧？[@CR]接下来就尽快告知阿拉米格的士兵作战区域，[@CR]让他们尽快去和乌尔达哈的士兵会合。
45,アダルベルトに伝えれば、他のアラミゴ出身の兵士たちにも伝わって[@CR]すぐに出立してくれるだろう。,He will see to it word reaches the others.,"Wenn du ihm das ausrichtest, wird er sicher sofort mit seinen Leuten dorthin aufbrechen, da bin ich sicher.",Va lui dire que sa troupe doit partir au plus vite pour le camp des Os desséchés dans le Thanalan oriental et se diriger vers le nord-est.,只要告诉阿达尔伯特，他就会立刻通知其他士兵，[@CR]然后他们就能出发了吧。
46,我らが黒衣森を抜け、ウルダハへと旅したときに使ったが[@CR]たいそう危険な魔物が現れることがある。,"Aye, I know that route. My people were made to take it when the Garleans drove us from our lands. The dangers we found there were no less than those that found us in Ala Mhigo.","Hör zu, [@IF($E9(4),Legionärin,Legionär)]. Wir haben diesen Weg genommen, als wir damals aus Ala Mhigo geflohen und vom Finsterwald nach Ul'dah vorgerückt sind. Und die Monster entlang der Strecke waren unsäglich stark und grausam.","Lorsque moi et mes compatriotes avons fui Ala Mhigo vers Ul'dah, nous sommes tombés dans les griffes de monstres redoutables en sortant de la forêt de Sombrelinceul.",那条道路，在我们穿过黑衣森林来到乌尔达哈的时候曾经利用过，[@CR]那条路上会出现非常危险的魔物。
47,これだけの兵士を従えているというのに[@CR]助けが遅れ、面目ない。,"I am shamed that I command so many, yet could do so little to help you, and late at that.","Es beschämt mich allerdings, dass wir dir nur so wenig Hilfe leisten konnten.","Toutes mes excuses, ma troupe est suf[@16]fi[@16]sam[@16]ment nombreuse pour vaincre ces bêtes, mais elle a réagi un peu tard alors que tu étais en danger.",我率领着这么多士兵还是没能帮上忙，真是丢脸。
48,そういえば、奴らが流入してきたとき[@CR]多くの者が魔物の犠牲になったと聞いたことがある。,"Aye, all have heard that tale. The Dead March, some now call it. The Ala Mhigans fled their homes before the wrath of the Empire, weary of battle and empty of belly, and with women and children besides.",In der Tat wurden damals unzählige der Flüchtlinge brutalst niedergemetzelt. Mit den Monstern an dieser Strecke ist offenbar nicht zu spaßen.,"Maintenant que j'y pense, c'est vrai que je les ai entendus dire que beaucoup de réfugiés ont été tués par des monstres en chemin... Je n'y avais jamais vraiment prêté attention jusqu'à aujourd'hui. Les Mhigois exagèrent toujours tellement.",说起来，他们当初来的时候，确实听说有好多人死在了魔物手中。
49,ああ、君はグランドカンパニー「不滅隊」の隊員？[@CR]……じゃあ、知ってるよね。グランドカンパニー「不滅隊」の内部で[@CR]ウルダハ出身の兵士と、アラミゴ出身の兵士が衝突してるって話。,"You are of the Immortal Flames, are you not? Then mayhap you know of the parlous dissension within our ranks. I speak of the tensions between our Ul'dahn and Ala Mhigan brethren.","[@IF($E9(4),Eine,Einer)] von der Legion der Unsterblichen! Dann bist du [@IF($E9(4),Ärmste,Ärmster)] sicher reingezogen worden in die Streitereien.[@CR]... Das weißt du gar nicht? Dass sich die Soldaten aus Ul'dah mit denen aus Ala Mhigo in die Haare gekriegt haben?","Ah, tu es [@IF($E9(4),une Immortelle,un Immortel)][@1D]? Peut-être es-tu déjà au courant des tensions entre les soldats uldiens et mhigois au sein de cette grande compagnie[@1D]?",啊，你是大国防联军恒辉队的队员？[@CR]那你应该知道吧，在恒辉队的内部，[@CR]乌尔达哈出身的士兵和阿拉米格出身的士兵发生冲突一事。
50,"[@STRING($EB(1))][@IF($E1($E9(54),0),[@IF($E3($E9(54),127),[@SHEET(xtx/gcRank,$E9(54),5)],)],)]、ご苦労さまです。[@CR]……え？　なんですって……？　作戦地域が間違っている、と！？","And who in the hells are you, then? Eh? Know where the Beastcleavers march, do you? Speak it, then, and speak it true, else you'll be less a tongue.","[@IF($E1($E9(54),0),[@IF($E4($E9(54),127),Aspirant,[@SHEET(xtx/gcRank,$E9(54),17)])],)] [@SPLIT([@STRING($EB(1))], ,2)]?[@CR]Den „genauen Einsatzort“ willst du mir verraten? Du meinst wohl den, wohin die ul'dhischen Arroganzbolzen gerade zur Monsterbeseitigung unterwegs sind?",Qu'est-ce que tu veux[@1D]? Me transmettre le véritable lieu des opérations[@1D]?,啊，你是大国防联军恒辉队的队员？[@CR]那你应该知道吧，在恒辉队的内部，[@CR]乌尔达哈出身的士兵和阿拉米格出身的士兵发生冲突一事。
51,正しい作戦地域は、「キャンプ・ドライボーン」の北東なのですか？[@CR]それは……おそらく、表向きの作戦地域ではないでしょうか？[@CR]そこから次の地へ向かうとなると……,Northeast of Camp Drybone? Hmmm... Then they're like to be headed for─,"Im Nordosten von Camp Knochenbleich! [@1A(1)]schluck[@1A(0)][@CR]Wenn es dort ist, dann beginnt es da erst richtig! Das wird nur ein unbedeutendes Geplänkel vor der eigentlichen Konfrontation sein - und wenn sie dann weiter vorrücken ...",Alors c'est au nord-est du camp des Os desséchés qu'ils sont partis. Ce qui veut dire qu'ils vont vers...,啊，你是大国防联军恒辉队的队员？[@CR]那你应该知道吧，在恒辉队的内部，[@CR]乌尔达哈出身的士兵和阿拉米格出身的士兵发生冲突一事。
52,……実は、自分たちが黒衣森を抜けて[@CR]ウルダハへと旅したときに、そのルートを使ったことがありまして。[@CR]その際に、たいそう危険な魔物が現れ、多くの犠牲者が出たのです。,"Aye, I know that route. My people were made to take it when the Garleans drove us from our lands. The dangers we found there were no less than those that found us in Ala Mhigo.","Hör zu, [@IF($E1($E9(54),0),[@IF($E4($E9(54),127),Aspirant,[@SHEET(xtx/gcRank,$E9(54),17)])],)]. Wir haben diesen Weg genommen, als wir damals aus Ala Mhigo geflohen und vom Finsterwald nach Ul'dah vorgerückt sind. Und die Monster entlang der Strecke waren unsäglich stark und grausam.","Lorsque moi et mes compatriotes avons fui Ala Mhigo vers Ul'dah, nous sommes tombés dans les griffes de monstres redoutables en sortant de la forêt de Sombrelinceul.",啊，你是大国防联军恒辉队的队员？[@CR]那你应该知道吧，在恒辉队的内部，[@CR]乌尔达哈出身的士兵和阿拉米格出身的士兵发生冲突一事。
53,"[@STRING($EB(1))][@IF($E1($E9(54),0),[@IF($E3($E9(54),127),[@SHEET(xtx/gcRank,$E9(54),5)],)],)]殿、どうかお願いします。[@CR]部隊に追いつき、引き返すようお伝えくださいますか？","If you mean to help, best go and see to it they turn back. And be quick about it. Given when they left, they'll be there or thereabouts already.","Du musst den Trupp, der dorthin unterwegs ist, unbedingt zum Rückzug bewegen! Sie sind jetzt sicher schon in der Nähe des Zielorts.","Je t'en prie, pars im[@16]mé[@16]dia[@16]te[@16]ment les prévenir du danger[@1D]! Ils sont pro[@16]ba[@16]ble[@16]ment déjà au nord-est du camp des Os desséchés, mais il n'est peut-être pas trop tard.",啊，你是大国防联军恒辉队的队员？[@CR]那你应该知道吧，在恒辉队的内部，[@CR]乌尔达哈出身的士兵和阿拉米格出身的士兵发生冲突一事。
54,もちろん本来ならば、自分が仲間を集めて[@CR]部隊のもとへ向かうべきだと思います。しかし、自分の仲間たちは[@CR]「ウルダハ出身の輩と、共に戦う気はない」と言って聞かないのです。,"I'd go myself, but the blood between us still runs bad. Like as not, they'd think I was playing them for fools, as they have me and mine. Still, I've no wish to see them dead.","Ich weiß, das wäre eigentlich unsere Aufgabe, [@IF($E1($E9(54),0),[@IF($E4($E9(54),127),Aspirant,[@SHEET(xtx/gcRank,$E9(54),17)])],)], und wir müssen uns deinem Befehl fügen.[@CR]Aber ich bitte dich, zwing uns nicht dazu. Meine Leute sind stinksauer auf diese großspurigen Ul'dahner. Am liebsten würden wir nicht mehr mit ihnen gemeinsam kämpfen ...","Si je te demande ça, c'est que j'ai peur de ne pas réussir à convaincre mes compatriotes d'aller aider les Uldiens. Ils sont furieux contre eux, et je sais qu'ils refuseront de se battre à leurs côtés.",啊，你是大国防联军恒辉队的队员？[@CR]那你应该知道吧，在恒辉队的内部，[@CR]乌尔达哈出身的士兵和阿拉米格出身的士兵发生冲突一事。
55,"[@IF($E1($E9(54),0),[@IF($E3($E9(54),127),[@SHEET(xtx/gcRank,$E9(54),5)],)],)]殿には、大変申し訳ありませんが……[@CR]部隊は今頃、「キャンプ・ドライボーン」の北東あたりを[@CR]移動中であると思われます。どうか、よろしくお願いいたします！","You're a Flame, same as them and me. That's the only reason I ask you. So go. And be careful, [@IF($E9(4),sister,brother)].",... aber wir sind nun mal im selben Heer. Wir warten erst auf eine offizielle Entschuldigung. Jetzt werden sie wahrscheinlich nordöstlich von Camp Knochenbleich sein ...,"C'est pas de chance pour toi de te retrouver au milieu de nos querelles, mais tu es [@IF($E9(4),une Immortelle,un Immortel)] toi aussi. Considère ça comme ton devoir et accomplis-le sans rechigner.",啊，你是大国防联军恒辉队的队员？[@CR]那你应该知道吧，在恒辉队的内部，[@CR]乌尔达哈出身的士兵和阿拉米格出身的士兵发生冲突一事。
56,部隊に追いつき、引き返すようお伝えくださいますか？[@CR]今頃はおそらく、「キャンプ・ドライボーン」の[@CR]北東あたりを移動中であると思われます。,Find the Ul'dahns of the Beastcleavers before their march proves the end of them. They're like to be northeast of Camp Drybone by now.,"Kannst du dich auf den Weg machen und dem Monstervernichtungstrupp sagen, dass er sich zurückziehen soll?[@CR]Jetzt werden sie wahrscheinlich schon nordöstlich von Camp Knochenbleich sein.","Je t'en prie, pars im[@16]mé[@16]dia[@16]te[@16]ment les prévenir du danger[@1D]! Ils sont pro[@16]ba[@16]ble[@16]ment déjà au nord-est du camp des Os desséchés, mais il n'est peut-être pas trop tard.",啊，你是大国防联军恒辉队的队员？[@CR]那你应该知道吧，在恒辉队的内部，[@CR]乌尔达哈出身的士兵和阿拉米格出身的士兵发生冲突一事。
57,どうも、おかしいんですよ。[@CR]作戦地域はまだまだ先なのに、さっきから変な魔物に遭遇するんです。,Summat ain't right about all this. Place we're s'posed to be huntin's still malms away. Bloody beasts such this ain't got no business turnin' up 'round here.,"Irgendwas ist hier verdammt faul. Wir sind noch malmenweit vom Zielort entfernt, und trotzdem wimmelt es hier gerade so von verfluchten Viechern.",C'est moi ou il y a plus de monstres ici que sur le lieu des opérations[@1D]?,啊，你是大国防联军恒辉队的队员？[@CR]那你应该知道吧，在恒辉队的内部，[@CR]乌尔达哈出身的士兵和阿拉米格出身的士兵发生冲突一事。
58,"[@STRING($EB(1))][@IF($E1($E9(54),0),[@IF($E3($E9(54),127),[@SHEET(xtx/gcRank,$E9(54),5)],)],)]！？[@CR]……素っ頓狂な声をあげてしまい、申し訳ありません。[@CR]てっきり、アラミゴ出身の兵士が追いかけてきたのかと。",You the messenger from the Hall? Thought maybe you was one of them Ala Mhigans come to track us down.,"[@IF($E1($E9(54),0),[@IF($E4($E9(54),127),Aspirant,[@SHEET(xtx/gcRank,$E9(54),17)])],)] [@SPLIT([@STRING($EB(1))], ,2)]!? Verzeihung. Ich dachte schon, einer von den unnützen mhigischen Genossen sei uns den ganzen Weg nachgelaufen.","Ah bon, tu es seulement [@IF($E9(4),une messagère,un messager)][@1D]? Et moi qui croyais que les Mhigois avaient enfin réussi à nous retrouver. J'aurais dû me douter qu'ils n'en étaient pas capables.",啊，你是大国防联军恒辉队的队员？[@CR]那你应该知道吧，在恒辉队的内部，[@CR]乌尔达哈出身的士兵和阿拉米格出身的士兵发生冲突一事。
59,レンナード隊長に、ご用がおありでしょうか。[@CR]自分たちは見張りを命じられておりまして……[@CR]隊長のもとへ直接ご案内できず、申し訳ありません。,"If you've business with the Beastcleavers, speak with Lieutenant Westin. But be quick about it. We are on a mission of the utmost importance.","Du willst sicher mit Lennard reden? Er ist hier der Boss. Ich muss leider auf meinem Posten bleiben, deswegen kann ich dich nicht zu ihm bringen.","Nous sommes en route pour une mission importante. Si tu as un message à transmettre, va parler au capitaine Lennard.",啊，你是大国防联军恒辉队的队员？[@CR]那你应该知道吧，在恒辉队的内部，[@CR]乌尔达哈出身的士兵和阿拉米格出身的士兵发生冲突一事。
60,まさか、あのルートを使う予定では……[@CR]……いや、あのルートはまずい……,"Gods, no, they can't mean to take [@1A(1)]that[@1A(0)] route! The daft bastards are walking into an eighth bloody hell!",Sie wollen doch nicht etwa [@1A(1)]diese[@1A(0)] Route nehmen?[@CR]Diese Dummköpfe ... Das wäre ihr Ende.,"Par tous les dieux, les inconscients[@1D]! Le chemin qu'ils ont pris est bien trop dangereux pour une troupe de cette taille[@1D]!",啊，你是大国防联军恒辉队的队员？[@CR]那你应该知道吧，在恒辉队的内部，[@CR]乌尔达哈出身的士兵和阿拉米格出身的士兵发生冲突一事。
61,まさか、あのルートを使う予定では……[@CR]……いや、あのルートはまずい……,"Are you well, [@IF($E1($E9(54),0),[@IF($E3($E9(54),127),[@SHEET(xtx/gcRank,$E9(54),14)],)],)]? We came as soon as we were able. Twelve be good, I never expected beasts such as this to be here of all places.",Sie wollen doch nicht etwa [@1A(1)]diese[@1A(0)] Route nehmen?[@CR]Diese Dummköpfe ... Das wäre ihr Ende.,"[@2B([@IF($E1($E9(54),0),[@IF($E4($E9(4),0),[@SHEET(xtx/gcRank,$E9(54),25)],[@SHEET(xtx/gcRank,$E9(54),26)])],)])] [@SPLIT([@STRING($EB(1))], ,2)], vous allez bien[@1D]? On a essayé d'intervenir aussi vite que possible, mais on a été pris par surprise. On ne s'attendait pas à tomber sur une bande de monstres ici.",啊，你是大国防联军恒辉队的队员？[@CR]那你应该知道吧，在恒辉队的内部，[@CR]乌尔达哈出身的士兵和阿拉米格出身的士兵发生冲突一事。
62,まさか、あのルートを使う予定では……[@CR]……いや、あのルートはまずい……,"I am shamed that I command so many, yet could do so little to help you, and late at that.",Sie wollen doch nicht etwa [@1A(1)]diese[@1A(0)] Route nehmen?[@CR]Diese Dummköpfe ... Das wäre ihr Ende.,"Toutes mes excuses, ma troupe est suf[@16]fi[@16]sam[@16]ment nombreuse pour vaincre ces bêtes, mais elle a réagi un peu tard alors que vous étiez en danger.",啊，你是大国防联军恒辉队的队员？[@CR]那你应该知道吧，在恒辉队的内部，[@CR]乌尔达哈出身的士兵和阿拉米格出身的士兵发生冲突一事。
63,まさか、あのルートを使う予定では……[@CR]……いや、あのルートはまずい……,"The Beastcleavers? Aye, that we are. Have you tidings from the Hall, [@IF($E9(4),sister,brother)]?",Sie wollen doch nicht etwa [@1A(1)]diese[@1A(0)] Route nehmen?[@CR]Diese Dummköpfe ... Das wäre ihr Ende.,"Vous voulez savoir si nous sommes l'unité spéciale d'extermination de monstres[@1D]? Oui, c'est bien nous. Un message urgent, vous dites[@1D]?",啊，你是大国防联军恒辉队的队员？[@CR]那你应该知道吧，在恒辉队的内部，[@CR]乌尔达哈出身的士兵和阿拉米格出身的士兵发生冲突一事。
64,まさか、あのルートを使う予定では……[@CR]……いや、あのルートはまずい……,Dangers on this route? I see... Then these beasts were no coincidence. Where did you hear of this?,Sie wollen doch nicht etwa [@1A(1)]diese[@1A(0)] Route nehmen?[@CR]Diese Dummköpfe ... Das wäre ihr Ende.,"La route jusqu'au lieu des opérations est mortellement dangereuse[@1D]? Attendez un peu, de qui tenez-vous cette information[@1D]?",啊，你是大国防联军恒辉队的队员？[@CR]那你应该知道吧，在恒辉队的内部，[@CR]乌尔达哈出身的士兵和阿拉米格出身的士兵发生冲突一事。
65,まさか、あのルートを使う予定では……[@CR]……いや、あのルートはまずい……,Cotter? He claims to have marched it before?,Sie wollen doch nicht etwa [@1A(1)]diese[@1A(0)] Route nehmen?[@CR]Diese Dummköpfe ... Das wäre ihr Ende.,Adalbert et les autres Mhigois sont passés par là lorsqu'ils se sont exilés à Ul'dah...[@1D]?,啊，你是大国防联军恒辉队的队员？[@CR]那你应该知道吧，在恒辉队的内部，[@CR]乌尔达哈出身的士兵和阿拉米格出身的士兵发生冲突一事。
66,まさか、あのルートを使う予定では……[@CR]……いや、あのルートはまずい……,"Aye, all have heard that tale. The Dead March, some now call it. The Ala Mhigans fled their homes before the wrath of the Empire, weary of battle and empty of belly, and with women and children besides.",Sie wollen doch nicht etwa [@1A(1)]diese[@1A(0)] Route nehmen?[@CR]Diese Dummköpfe ... Das wäre ihr Ende.,"Maintenant que j'y pense, c'est vrai que je les ai entendus dire que beaucoup de réfugiés ont été tués par des monstres en chemin... Je n'y avais jamais vraiment prêté attention jusqu'à aujourd'hui. Les Mhigois exagèrent toujours tellement.",啊，你是大国防联军恒辉队的队员？[@CR]那你应该知道吧，在恒辉队的内部，[@CR]乌尔达哈出身的士兵和阿拉米格出身的士兵发生冲突一事。
67,まさか、あのルートを使う予定では……[@CR]……いや、あのルートはまずい……,"Mayhap he tells it true... Beasts such as these might make a Dead March of any journey. Very well, I shall call back my outriders and consider our route once more. You would be wise to leave as well, before another of these fiends finds your scent.",Sie wollen doch nicht etwa [@1A(1)]diese[@1A(0)] Route nehmen?[@CR]Diese Dummköpfe ... Das wäre ihr Ende.,"Ces monstres sont la preuve que l'histoire d'Adalbert est vraie. Nous allons rebrousser chemin et repenser notre stratégie. Vous feriez peut-être mieux de quitter ces lieux également, si vous tenez à la vie.",啊，你是大国防联军恒辉队的队员？[@CR]那你应该知道吧，在恒辉队的内部，[@CR]乌尔达哈出身的士兵和阿拉米格出身的士兵发生冲突一事。
68,まさか、あのルートを使う予定では……[@CR]……いや、あのルートはまずい……,"That I have no love for the Ala Mhigans is no secret. But they've repaid our slight with a kindness this day, and their knowledge of the land may have saved us many lives. Cotter will have my thanks when next I see him.",Sie wollen doch nicht etwa [@1A(1)]diese[@1A(0)] Route nehmen?[@CR]Diese Dummköpfe ... Das wäre ihr Ende.,"C'est une leçon qu'on va devoir retenir. Les Mhigois ont des con[@16]nais[@16]san[@16]ces qui pourraient nous être utiles. Si nous voulons nous en sortir dans la région, nous avons besoin d'eux. Hmm, j'imagine qu'il va falloir leur présenter des excuses...",啊，你是大国防联军恒辉队的队员？[@CR]那你应该知道吧，在恒辉队的内部，[@CR]乌尔达哈出身的士兵和阿拉米格出身的士兵发生冲突一事。
