 ,0,1,2,3,4
 ,str,str,str,str,str
1,今は、作動していないようだ。,The terminal appears to have been deactivated.,Das Terminal scheint momentan nicht in Betrieb zu sein.,Le dispositif semble désactivé.,
2,装置からは、不思議な光が放たれている……。,The terminal is emitting an eerie glow...,Das Terminal emittiert ein seltsames Licht ...,Le dispositif émet une étrange lumière...,
