 ,0
 ,s32
0,1280002
1,1280002
2,1280003
3,1280005
4,1280007
5,1280020
6,1280004
7,1280006
31,1280002
32,1280003
33,1280005
34,1280007
35,1280006
41,1280002
42,1280003
43,1280005
44,1280007
45,1280006
51,1280002
52,1280003
53,1280005
54,1280007
55,1280006
61,0
62,0
63,0
71,0
72,0
81,0
82,0
83,0
84,0
85,0
91,1280020
92,1280004
93,1280020
94,1280004
100,1280032
101,1280032
102,1280033
103,1280034
104,1280042
105,1280052
106,1280039
107,1280036
131,1280032
132,1280033
133,1280034
134,1280042
135,1280039
141,1280032
142,1280033
143,1280034
144,1280042
145,1280039
151,1280032
152,1280033
153,1280034
154,1280042
155,1280039
161,0
162,0
163,0
171,0
172,0
181,0
182,0
191,1280052
192,1280039
193,1280052
194,1280039
200,1280062
201,1280062
202,1280064
203,1280066
204,1280067
205,1280082
206,1280063
207,1280073
231,1280062
232,1280064
233,1280066
234,1280067
235,1280073
241,1280062
242,1280064
243,1280066
244,1280067
245,1280073
251,1280062
252,1280064
253,1280066
254,1280067
255,1280063
261,0
262,0
263,0
271,0
272,0
281,0
282,0
291,1280082
292,1280073
293,1280082
294,1280073
301,0
302,0
