 ,0,1,2,3,4
 ,str,str,str,str,str
1,[play]さん？　バーカード様から新たな任務があるそうですので、鬼哭隊の屯所まで来ていただけますか？,[en],[de],[fr],[chs]
2,あ、[play]さん。バーカード様がお待ちになっています。外交任務の失敗など忘れて、心機一転、新たな任務に取り組んでください。,[en],[de],[fr],[chs]
3,あのシルフが、古巣の仲間と釣るんで、意趣返しに来るようなことはない。「アッシュクラウン商会」には話を通してある。これは、正式な手続きを踏んだ追放ということだ。,[en],[de],[fr],[chs]
4,シルフのイタズラ騒ぎには、毎度のことだが手を焼くよ。二度と振り回されるものかと思っていても、結局、振り回されてしまってる。ときどき、自分が情けなくなる。,[en],[de],[fr],[chs]
5,お前が、「海蛇の舌」の隠れ処でアイツを捕まえてりゃ、わざわざ、防空タワーの連中に出しゃばらせることもなかったのによ。鬼哭隊の名折れだぜ！,[en],[de],[fr],[chs]
6,民家の裏にあった巨大な落書きを、一日がかりで落としたときは、心からシルフを呪ったわよ。なんでこの私が、こんなことしなきゃならないのってね。,[en],[de],[fr],[chs]
7,でも、これでしばらくは苦情に悩まされずに済むんでしょ？　ホッとしたわ。,[en],[de],[fr],[chs]
8,アイツが追放になってくれて、実にせいせいししたね！　アイツのせいで、道場の備品が無くなったこともあったわけだしさ！,[en],[de],[fr],[chs]
9,それで、どうして僕が疑われたのか、サッパリわからなかったけど、あのときは、本当にいい迷惑だったよ。,[en],[de],[fr],[chs]
10,まあ、今なら笑えるけどね。アハ、アハハハハ！,[en],[de],[fr],[chs]
11,来たか、[play]、我々が、イタズラ騒ぎに悩まされることはなくなったぞ。「防空タワー（仮）」からも数部隊が出動してな。あのイタズラシルフをグリダニアから追放した。,[en],[de],[fr],[chs]
12,例の手紙の件もあるし、俺もアイツが根っからの悪い奴とは思っちゃいない。だが、あくまで市民の生活を守るのが、我々の役目だからな。,[en],[de],[fr],[chs]
13,……で、お前に頼みたい任務というのがまさにそれなんだ。イタズラ騒ぎは収まったものの、都市民からの苦情処理は溜まっている。お前も手伝ってくれないか？,[en],[de],[fr],[chs]
14,まさか、都市民からの苦情処理を軽視してないだろうな？　俺たちが、一番守らなければならない人たちなんだぞ？,[en],[de],[fr],[chs]
15,そうか。お前に手伝ってもらえると、正直助かる。,[en],[de],[fr],[chs]
16,お願い！　あたしのお友達が急にいなくなったの！　誰か一緒に探してちょうだい！,[en],[de],[fr],[chs]
17,お嬢ちゃん、君のお友達がいなくなったって？,[en],[de],[fr],[chs]
18,そうなの！　イタズラっ子だけど、あたしに優しくしてくれたシルフなの！,[en],[de],[fr],[chs]
19,なんで、みんな黙ってるの！？,[en],[de],[fr],[chs]
20,お嬢ちゃん、そのシルフなら、もうグリダニアにはいないよ。我々が追い出したんだ。,[en],[de],[fr],[chs]
21,そんな！　どうして！？　あのシルフはちっとも悪い子じゃないのに！　ひどい！　ひどいよ！,[en],[de],[fr],[chs]
22,お譲ちゃんには悪いが、都市の平和を守るのが我々の仕事だからな。やむを得んさ。,[en],[de],[fr],[chs]
23,シルフが、もう少し大人しくできるなら、私としても大目に見てやれたんだがな……。,[en],[de],[fr],[chs]
24,さんざん迷惑かけたんだ、追放は当然の処分だと思うが。あんたはどうだ？,[en],[de],[fr],[chs]
25,ふん、追放なんかじゃ生ぬるいぐらいさ。何度も、あいつらには骨を折らされてるんだからな。,[en],[de],[fr],[chs]
26,妙なもんね。あのシルフは、とても困った存在だったけど、いざいなくなってみると、なんだか寂しい気もしてくるわ。,[en],[de],[fr],[chs]
27,僕たちのしたことは、何も間違ってないさ。甘い顔をしたら、アイツらをつけあがらせるだけなんだからね。,[en],[de],[fr],[chs]
28,[play]さん、鬼哭隊の一員として、せめてあの子の話を聞いてあげてくれませんか？,[en],[de],[fr],[chs]
29,あのう、お取り込み中すみません。,[en],[de],[fr],[chs]
30,鬼哭隊関係者の方でしょうか？　いえ、この子が、どうしても謝りたいことがあるというので、連れてきたんですが……。,[en],[de],[fr],[chs]
31,ご、ごめんなさい！,[en],[de],[fr],[chs]
32,奥さん、これは一体どういうことで？,[en],[de],[fr],[chs]
33,いえ、この子が妙にソワソワしていたものですからね、問いただしてみたんですよ。そうしましたら、自分のやったイタズラを、シルフ族のせいにして黙っていたらしくて……。,[en],[de],[fr],[chs]
34,い、家の壁に、ラクガキして回ったの、ボクなんです……。　,[en],[de],[fr],[chs]
35,で、でも、川に冷やしてあったスイカ（仮）を、カボチャ（仮）に取っ替えたのは、隣ん家の「クルミちゃん（仮）」です！,[en],[de],[fr],[chs]
36,コラッ！　人さまのことはいいの！,[en],[de],[fr],[chs]
37,まあ、このたびは、本当に申し訳ございませんでした。ご迷惑をおかけした方々のお宅には、直接、お詫びに行かせて頂くつもりでございます。,[en],[de],[fr],[chs]
38,もちろん、この子には私からキツ～く言って聞かせますので、今日のところはこれで……。,[en],[de],[fr],[chs]
39,わかりました。また改めてお越し頂くかもしれませんが、今日はもう帰ってかまいませんよ。,[en],[de],[fr],[chs]
40,ああ！　ありがとうございます！,[en],[de],[fr],[chs]
41,○○ちゃん、今度やったら承知しませんよ！　今日は、ご飯抜きですからね！,[en],[de],[fr],[chs]
42,さてと、どこから調べなおしたものか……。あのシルフに犯してない罪まで、背負わせるわけにはいかんからな。,[en],[de],[fr],[chs]
43,調査不足で振り出しに戻ったな。イタズラ好きなシルフ族という先入観を、まず捨てるべきだった。,[en],[de],[fr],[chs]
44,やれやれだよ。,[en],[de],[fr],[chs]
45,ドイツもコイツも、ややこしいことしやがって！,[en],[de],[fr],[chs]
46,……待てよ、そういや、誰かさんもシルフのせいにしてなかったっけな？,[en],[de],[fr],[chs]
47,実を言うと、私も小さい頃、同じようなイタズラしたことあるのよねぇ。なんだか、怒るに怒れないわ。,[en],[de],[fr],[chs]
48,あ～やだやだ！　人のせいにするのが一番いけないよね！　子供とはいえ、ここは厳重注意しておくべきだよ！,[en],[de],[fr],[chs]
49,……ねぇ、あのシルフを連れ戻してくれる？,[en],[de],[fr],[chs]
50,ああ。いろいろと、調べなおさなきゃいけなくなったようだからね。,[en],[de],[fr],[chs]
51,バーカード様！,[en],[de],[fr],[chs]
52,思い出しやした！　ここにいる隊員Ｅ（名前呼び捨て）も、掃除当番中に備品をなくして、シルフ族のせいにしてましたぜ！,[en],[de],[fr],[chs]
53,あ、あんただって、打ち込み稽古で壁を傷つけたのを、シルフ族のせいにしてたじゃないか！,[en],[de],[fr],[chs]
54,貴様！　それを言うかッ！！,[en],[de],[fr],[chs]
55,もういい！　黙れ！,[en],[de],[fr],[chs]
56,[play]、どうやら俺は、こいつらの事情聴取から始めねばならんらしい。お前が行って、あのシルフを連れ戻してきてくれるか？,[en],[de],[fr],[chs]
57,といっても、追い出したアイツがどこに行ったのか、俺にはわからんのだが。,[en],[de],[fr],[chs]
58,あの子、あたしのうちによく遊びにきてくれてたの。うちに行けば、何か手がかりが残ってるかも……。[play]さん、一緒に来てちょうだい！,[en],[de],[fr],[chs]
59,……ダメだわ。何も見つからない。,[en],[de],[fr],[chs]
60,あの子のことだから、きっと何か残してると思ったのに。,[en],[de],[fr],[chs]
61,……今ごろあの子、どうしてるかな？「まだ何も見つかっていない」,[en],[de],[fr],[chs]
62,あッ！,[en],[de],[fr],[chs]
63,間違いない！　あの子が描いたものよ！,[en],[de],[fr],[chs]
64,このシルシって、シルフ族のものでしょ？（OFF）,[en],[de],[fr],[chs]
65,あの子、自分のおうちに帰ったのかも！　「シルフの巣」（仮称）っていうところに。みんなに追い出されて傷ついたはずだもの。あたしなら、早くおうちに帰りたいって思うわ。,[en],[de],[fr],[chs]
66,[play]さん、お願い！　あの子をここに連れ戻して！,[en],[de],[fr],[chs]
67,ありがとう！　[play]さんなら、協力してくれると思ってた。あの子はきっと、「シルフの巣」に帰ってるはずよ！,[en],[de],[fr],[chs]
68,……[play]さんも、大人の人たちと一緒で、あの子を嫌ってるのね？,[en],[de],[fr],[chs]
69,……本当に？　ボク、グリダニアに戻っていいのでふっち？,[en],[de],[fr],[chs]
70,ふっち！　ふっち！　ヤッタのでふっちー！　,[en],[de],[fr],[chs]
71,よーし！　○○ちゃん（少女の名前）が、ボクを待ってるのでふっち！　急いで戻るのでふっちィー！,[en],[de],[fr],[chs]
72,[play]さん！　あたしの大切なお友達を、連れ戻してくれてありがとう！,[en],[de],[fr],[chs]
73,あ、ありがとうふっち。,[en],[de],[fr],[chs]
74,もう、どこにも行かないでね？,[en],[de],[fr],[chs]
75,イ、イケ！　イワレテ　モ　イカナイ　のでふっち！,[en],[de],[fr],[chs]
76,お父さんと母さんが、「海蛇の舌」の人たちに殺されてからずっと、暗い井戸の底にひとりぼっちでいるみたいだった。もう一生笑うこともないんだって、そう思ってた。,[en],[de],[fr],[chs]
77,なのに、あなたと出会ってから目が回るくらい、周りでオカシなことが起きるようになって……、気がついたらあたし、また笑ってた。,[en],[de],[fr],[chs]
78,だって……。こんなヘタっぴな絵、今まで見たことなかったんだもの！,[en],[de],[fr],[chs]
79,でも、あたしにとっては世界一の絵よ。いつも助けてくれてありがとう。これからも仲良くしてね♪,[en],[de],[fr],[chs]
80,キミ　ワラウ　ソレ　サイコー！　サイコー！　なのでふっち！,[en],[de],[fr],[chs]
81,[play]、よくぞシルフを連れ戻してくれた。,[en],[de],[fr],[chs]
82,アイツに罪をきせていた連中が、鬼哭隊の中にも少なからずいて、ほとほと参ったよ。上に立つ者の一人として情けない限りだ。,[en],[de],[fr],[chs]
83,シルフ自身が働いたイタズラについては、これから慎重に問いただしてみるつもりだ。だが……本当に正さねばならんのは、我々の中にこそあるのかもしれんな。,[en],[de],[fr],[chs]
84,シルフ族の中には、案外、お人好しなヤツも多いようだ。,[en],[de],[fr],[chs]
85,しかし、その優しさが、ときに扱いにくいしろものにもなる。やっかいなものだな？,[en],[de],[fr],[chs]
86,やれやれ。鬼哭隊の中にも、シルフ族に罪をきせてた同僚がいたとはね。シルフ族に合わせる顔がないよ。,[en],[de],[fr],[chs]
87,木匠館に通う子供たちの中には、両親をなくした子供も少なくないのよ。,[en],[de],[fr],[chs]
88,以前、騒ぎを起こしたシルフも、どうやらその子たちのために、イタズラして回ってたらしいわ。,[en],[de],[fr],[chs]
89,[play]さん、見事な活躍でございました。あの少女も、さぞかし喜んでいることでしょう。どうぞ報酬をお受け取りください。,[en],[de],[fr],[chs]
