 ,0,1,2,3,4
 ,str,str,str,str,str
2,ところで、おまえさん。[@CR]以前、でかい化け物を見たって言ってただろ？[@CR]その話、この頃になってよく聞くんだが、まさか「大海蛇」じゃないよな？,"Methinks I recall ye gabbin' on about some mighty sea beast. Well, lately, th' Wench be overflowin' with such rumors.","Sag mal, du hast doch von diesem riesigen Ungeheuer berichtet, das du gesehen hast. Das wird doch nicht etwa die Seeschlange gewesen sein? Man hört ja so einiges ...","Au fait, tu disais bien avoir vu un énorme monstre marin en venant ici[@1D]? J'entends souvent ça ces derniers temps... Ça ne serait quand même pas le serpent de mer[@1D]?",话说，你以前说过你看到过巨大的怪物吧？[@CR]虽然到现在才想起来详细地问你，你看到的不会是“大海蛇”吧？
3,大海蛇っていうのはな、[@CR]ここリムサ・ロミンサの海神さまが[@CR]海の底に封じたっていう、恐ろしい化け物なんだ。,Men startin' t' whisper it be none other than th' terrible sea serpent our fair goddess Llymlaen bound to the bottom o' th' abyss generations gone.,"Dieses furchtbare Seemonster wurde einst von Llymlaen, der Göttin der Seefahrer und Schutzgöttin unserer Stadt, tief unter dem Meeresgrund eingeschlossen.",C'est une créature abominable qui aurait jadis été emprisonnée au plus profond de la mer par notre bien[@16]veil[@16]lante déesse Llymlaen.,说起大海蛇，[@CR]可是利姆萨·罗敏萨的海神[@CR]封印在海底的，非常恐怖的怪物。
4,過去にもこの化け物が解き放たれて、[@CR]この都市が大混乱になったことがある。[@CR]あんなことが二度と起こらないでほしいんだが……,"I weren't no more'n a wee sprat th' last time th' serpent rose up from the depths t' menace the city. An' I can tell ye now, ain't a soul who thinks on them days fondly.","Trotzdem ist es dem Ungeheuer früher schon einmal gelungen, freizukommen und die ganze Stadt in Angst und Schrecken zu versetzen. Das soll kein zweites Mal passieren!","Ce serpent de mer a déjà été libéré par le passé, ce qui a provoqué un chaos sans précédent dans la Cité. Tous les Limséens prient pour qu'une telle tragédie ne se reproduise plus jamais...",以前这只怪物也被解放出来过，[@CR]给这个城市造成了一场大混乱。[@CR]希望这样的事情不要再发生第二次……
5,きいたかい、バデロンのオヤジ。[@CR]バラクーダ騎士団がサハギン族どもに襲われて、[@CR]蒼茫洋で大きな戦いが起きたって話。,"Baderon, you hear the Barracudas were ambushed by the fishbacks just off Seal Rock?","He, Baderon! [@1A(1)]keuch[@1A(0)] Hast du das auch gehört? Die Ritter des Barrakuda sind angegriffen worden und haben sich in den Indigotiefen mit den Sahagin eine blutige Schlacht geliefert.","Hé, Baderon, tu es au courant[@1D]? Des chevaliers du barracuda se sont fait attaquer par les Sahagins et de violents af[@16]fron[@16]te[@16]ments ont eu lieu du côté de l'océan Indigo.",巴德龙你听说了吗？[@CR]梭鱼骑士团被鱼人族那帮家伙给袭击了，[@CR]在苍茫洋掀起了一场大战。
6,多くの怪我人が出たらしいな。,"'Eard 'ell's seven gates still gapin' wide, lettin' in all the less 'n lucky ones.","Ja, es scheint unzählige Opfer gegeben zu haben.","Oui, apparemment il y a de nombreux blessés...",好像有很多人受伤了。
7,そして、このゴタゴタの間に[@CR]「百鬼夜行」が宝島に乗り込んだらしいぞ。,"Aye, Navigator guide their souls... But that's not the end of it. Word is, while the two were at each other's throats, the [@1A(1)]Misery[@1A(0)] slipped by and landed on the island.","Trotzdem haben es die Bekümmerten Klabauter irgendwie geschafft, auf die Schatzinsel zu gelangen.",Mais ce n'est pas tout[@1D]! La horde du kraken a profité de la confusion pour s'introduire sur l'île[@1D]!,还有，正在他们混战的时候，[@CR]“百鬼夜行”迅速地进入了宝岛。
8,なんだって！？,The [@1A(1)]Misery[@1A(0)]! Ye mean the Kraken's Arms made it t' th' rock!?,Was sagst du da?,Vraiment[@1D]!?,你说什么？！
9,しかも、宝物を見つけたって噂だ。[@CR]こりゃ、おおごとになるぜ？,"And people been sayin' their ship was sittin' low in the water when she made port, if you follow me.","Es heißt sogar, sie hätten den Schatz entdeckt. Klingt unglaublich, ist aber wahr!","Pour couronner le tout, ils auraient déjà mis la main sur le trésor... La situation est grave[@1D]!",而且，据说他们发现了宝物。[@CR]这可是个重大事件啊！
10,今回募集していた臨時編成艦隊に、海賊「紅血聖女団」が[@CR]凄腕の冒険者をもぐりこませたらしいじゃないか。,Heard the Sanguine Sirens got a man into the Barracudas' Seal Rock Unit.,"Sieht ganz danach aus, als hätten sich die Leichtblütigen Sirenen als gerissene Abenteurer an Bord einschleusen können.",Il paraît que les sirènes san[@16]gui[@16]nai[@16]res ont infiltré un aventurier rudement doué lors du dernier recrutement de la flotte spéciale d'in[@16]ves[@16]ti[@16]ga[@16]tion[@1D]!,听说这次“红血圣女团”那群海盗让很厉害的冒险者潜入了召集人手的临时编制舰队。
11,そいつのことか？[@CR]メロドランってやつだろ？[@CR]バラクーダ騎士団の試験で、小隊長を軽くいなしたって。,Ye mean that lad Merodaulyn? The one that went an' made the 'Cuda sergeant cry like a whelp at 'is mammy's teat?,Du meinst Merodaulyn? Bei der Auf[@16]nahme[@16]prüfung zu den Rittern des Barrakuda konnte er angeblich mit Leichtigkeit dem Kommandanten Paroli bieten.,"Ce gars, là, Merodaulyn[@1D]? Lors de l'examen d'entrée chez les chevaliers du barracuda, il a facilement maîtrisé le chef de compagnie[@1D]!",你说的是那个家伙啊？[@CR]那个叫梅洛多兰的家伙吧？[@CR]在梭鱼骑士团的测试中，很容易地对付了小队长。
12,サハギン族が攻めてきたのは、ちょうど[@CR]シールロックとリムサ・ロミンサの中間地点くらいだったそうだ。,The fishbacks launched their attack almost halfway between Limsa Lominsa and Seal Rock.,"Es hieß, die Sahagin hätten genau in der Mitte zwischen Robbenholm und Limsa Lominsa angegriffen.",Les Sahagins ont attaqué juste entre Limsa Lominsa et l'île des Tréfonds.,听说鱼人族所进攻的地方，[@CR]正好在闭岩岛和利姆萨·罗敏萨的中间。
13,「百鬼夜行」が宝を手に入れたって噂は眉唾さ。[@CR]もしも本当だったら、「紅血聖女団」が黙っちゃいねぇ。,"Them tales 'bout them bloody Krakens reachin' the Seal Rock treasure ain't worth more'n a pint o' piss in a jar. If they truly did get their 'ands on the loot, the Sanguine Sirens would be wrapped around 'em 'fore ye could spit.","Auf das Gerücht, die Leichtblütigen Sirenen hätten den Schatz erbeutet, würde ich nicht allzu viel geben. Wenn dem so wäre, wären sie doch die ersten, die sich lauthals damit brüsten würden.","Il vaut mieux se méfier de la rumeur selon laquelle la horde du kraken se serait emparée du trésor... Mais si c'est vrai, les sirènes san[@16]gui[@16]nai[@16]res ne resteront pas les bras croisés.",说“百鬼夜行”已经得到了宝物这个传闻不可信。[@CR]如果是真的，“红血圣女团”就不会这么沉默了。
14,あなた、冒険者よね？,Well met. I take from your attire that you are an adventurer.,"Du bist doch [@IF($E9(4),eine aufgeweckte Abenteurerin,ein aufgeweckter Abenteurer)], nicht?","Tiens, [@IF($E9(4),cette aventurière,cet aventurier)] de la dernière fois.",你是冒险者吧？
15,なんてこと。[@CR]この大陸に、死が近づいているわ……。,By the Twelve... Death's cold grip grows e'er tighter...,Na bravo! Dieses Land ist dem Untergang geweiht ...,C'est terrible. Je pressens des heures noires pour Eorzéa...,什么。[@CR]这个大陆快要迎来灭亡了……
16,そう。もしも見かけたら用心しなさいね。[@CR]彼等は、「死」を運ぶのよ。,"Then consider yourself fortunate. Should you happen across such an individual, you would be wise to turn and run...if you value your soul, that is.",So? Nimm dich bloß in Acht vor denen. Die bringen den sicheren Tod!,"Je vois. Si jamais tu devais les apercevoir, je te conseille d'être trrrès [@IF($E9(4),prudente,prudent)]. Ils ne répandent que mort et désolation.",这样啊。如果发现的话要小心啊。[@CR]他们会招致“死亡”的。
17,あら、あれはアスタリシア号。やっとお戻りね。[@CR]バラクーダ騎士団は口が堅いから、海賊のところで[@CR]話を聞いてみる必要がありそうだわ。,"Ah, the Astalicia. As the Knights of the Barracuda have proven rather reticent in the dissemination of their findings, it is perhaps time I called upon some less...restrained characters.","Oh, sieh doch mal, die Astalicia! Sie ist endlich zurückgekehrt! Von den Rittern des Barrakuda erfährt man ja kein Sterbenswort. Ich müsste mal einige der gesprächigeren Piraten um Informationen anhauen ...","L'Astalicia... Comme les chevaliers du barracuda sont peu bavards, je crrrois que je vais essayer avec les pirates.",呀，那是阿斯塔利西亚号。终于回来了。[@CR]因为梭鱼骑士团口风很紧，[@CR]所以有必要去问问海盗们。
18,ん？　まだいたのか？[@CR]そうか、大海蛇の話の続きだったな。,"Ye still 'ere? Ah, right. Bloody sea serpent.",Du bist ja immer noch da! Du willst also mehr über die Seeschlange erfahren ...,"Oh, toujours là[@1D]? Ah oui, notre discussion sur le serpent de mer, hein...",嗯？还没走吗？[@CR]大海蛇的事情还没说完啊。
19,あのとき戦った海賊たちなら、詳しい話をしてくれるかもしれん。[@CR]だが、海賊たちは気性が荒いからなあ。彼らにうまく[@CR]取り入ることができれば、斧の扱い方まで教えてもらえるんだが。,"Well, if ye be 'ells-bent on knowin' what 'appened th' last time that grisly beast reared 'is accursed 'ead, I suggest ye speak t' some o' the pirates what 'elped drive 'im back. An' who knows? May'ap they'll give ye a once-in-a-lifetime demonstration of 'ow a marauder swings 'is axe while ye're there.","Es kann gut sein, dass die Piraten, die damals in der Schlacht gekämpft haben, dir Einzelheiten verraten. Nur sind Piraten von Natur aus mitunter so aufbrausend wie eine Sturmflut. Wenn du es schaffst, einer von ihnen zu werden, stehen dir alle Türen offen.","Peut-être que cette célèbre bande de pirates qui lui a fait face par le passé pourrait t'en apprendre un peu plus[@1D]? Attention, ils ne sont pas tendres, mais si tu arrives à sympathiser, ils pourraient même t'apprendre le combat à la hache.",详细的事情你可以去问问那个时候参加了战斗的海盗们。[@CR]不过，海盗的性格都比较粗暴。[@CR]如果能和他们相处好的话，他们还会教给你斧子的使用方法。
20,まぁ一応、教えておこう。[@CR]港近くに客船「アスタリシア号」という船が停泊してるだろう？[@CR]あれが海賊たちのサロン。斧術士ギルドでもある。だが、今の[@CR]「バラクーダ騎士団」とは犬猿の仲だ、気をつけるんだぞ。,"Ye seen the towerin' dromond down at th' docks? That there be the Astalicia―'ome to the fiercest buggers in Limsa. Was a time when them marauders 'd cut yer 'ead off fer so much as lookin' at their shadow. Cooled down a bit now their cap'n be retired. Opened up their ship t' the other pirate gangs an' started a proper guild o' their own. 'Cudas still can't stand 'em, though. Some folks jus' can't let sleepin' sea dogs lie, eh?",Im Hafen ankert doch die Astalicia. Auf ihr haben sich die Piraten einen Salon eingerichtet. Auf dem Schiff haben aber auch die Marodeure ihren Stammsitz. Du musst dich daher gut vorsehen. Piraten und Barrakuda-Ritter sind wie Hund und Katze!,"Oui, le bateau qui leur sert de repaire abrite aussi la guilde des maraudeurs. Sois [@IF($E9(4),prudente,prudent)], ces fripouilles en[@16]tre[@16]tien[@16]nent des rapports plutôt houleux avec les chevaliers du barracuda...",我先来告诉你一点要领。[@CR]有一艘名叫“阿斯塔利西亚号”的客船停在港口附近吧？[@CR]那是海盗们的沙龙。也有斧术师行会。不过，[@CR]他们和“梭鱼骑士团”关系很糟糕，要小心啊。
21,はいはい、おこちゃまは間違えちゃったんでちゅねー？　ここが豪華客船とでも思っちゃったんでしゅかー？,"Young [@IF($E9(4),lassie,laddie)] come 'ere lookin' t' play pirate?","Hey, hey. Wir haben uns in der Tür geirrt, was? Du hast wohl gedacht, das hier wäre ein Luxusdampfer?","Alors [@IF($E9(4),la p'tite fille,le p'tit garçon)] à sa maman, on s'est [@IF($E9(4),perdue,perdu)][@1D]? C'est pas un endroit pour toi ici t'sais[@1D]?",好了好了，孩子你搞错了吧？把这里当成豪华客船了吧？
22,泣かされるまえに出てった方がいいでちゅよー？　ここにはコワーイ人がたくさんいましゅからねー？,"Best run back t' yer mummy 'fore I call me boys and we 'ave ourselves some fun, savvy?","Muss ich dir erst Beine machen? Glaub mir, es ist besser für dich, wenn du jetzt gehst. Hier ist es viel zu gefährlich für dich!","Tu f'rais mieux d'rentrer jouer [@IF($E9(4),à la poupée,aux billes)] avant d'avoir bobo[@1D]! Parce qu'ici c'est bourré d'gars qui d'mandent qu'à s'amuser avec les bleus dans ton genre, s'tu vois c'que j'veux dire...",在被惹哭之前还是先离开这里吧？这里有很多可怕的人！
23,バラクーダ騎士団のやつらが、またなんかの法律を作ったんだってよ。[@CR]まったく暇なやつらだぜ。ここの都市民を、みんな罪人にでもするつもりか？,The 'Cudas gone an' writ theirselves another o' them fancy legal laws they like. I swear there'll come a day as an honest pirate won't be able t' piss wi'out a license 'n' a measurin' jug.,"Die Barrakuda-Pfeifen haben mal wieder nichts Besseres zu tun, als noch ein überflüssiges Gesetz auszuhecken. Die wollen echt alle Bürger der Stadt zu Verbrechern abstempeln!","Les chevaliers du barracuda viennent encore d'édicter une nouvelle loi. Ils ont que ça à faire ou quoi[@1D]? Ils n'ont qu'à tous nous coffrer tout de suite, ça ira plus vite[@1D]!",梭鱼骑士团那帮家伙又在制定什么法律。真是够闲的。他们想把这个城市的人都变成罪人吗？
24,シールロックって、結局、なんだったんだろうな？　あんなことがあったから、あの海域は避けて通るようになっているが。,Damned Seal Rock 'as caused me and me mates more grief than she's worth. Jus' 'avin t' sail 'round the place tacks three more days on a ten-day journey.,Was ist denn am Ende aus Robbenholm geworden? Seit dieser Sache kann man da mit dem Schiff nicht mehr langfahren.,"Au final, qu'est-ce qui s'est passé sur l'île des Tréfonds[@1D]? La zone doit maintenant être contournée.",闭岩岛结果怎么样了啊？因为发生了那样的事，所以经过那片海域时要绕道而行。
25,大海蛇？　なんだそりゃ？[@CR]海の男は、海の化け物なんか気にしねぇぜ？[@CR]そういうのは、もうちょっと臆病な奴に尋ねな。,"Sea serpent? Ha! Leave them tales to the faeries. The only monster a pirate knows be the sea herself, and there ain't none colder. If you're in search of old wives' tales, best seek out an old wife...or a man who be no better than one.",Die Seeschlange? Was soll das bitte sein? Einen gestandenen Seemann kümmert kein noch so großes Meeresgetier. Du solltest besser bei den Sonn[@16]tags[@16]ma[@16]trosen anheuern!,Le serpent d'mer[@1D]? D'quoi tu m'parles[@1D]? Les vrais pirates s'moquent royalement de c'genre d'monstre marin. Trouve-toi quelqu'un d'autre pour tes questions à deux gils[@1D]!,大海蛇是什么？[@CR]海上的男人可不怕什么海里的怪物！[@CR]你去问问胆小的家伙吧。
26,おい、そこの冒険者さんよ？,'Venturer! O'er 'ere!,"He, du! [@IF($E9(4),Abenteurerin,Abenteurer)]!","Hé, toi, [@IF($E9(4),l'aventurière,l'aventurier)], là-bas[@1D]!",喂，那边的冒险者？
27,大海蛇に会いてぇのか？[@CR]いくらか用立ててくれたら、会わせてやってもいいぜ？,"[@1A(1)]I[@1A(0)] can bring ye t' th' serpent's teat, if it please ye. Give us but th' coin t' plenish me stein, an' we got ourselves a deal.","Du willst die Seeschlange sehen? Wenn du dich nur ordentlich erkenntlich zeigst, werde ich ein Treffen arrangieren.","Tu veux vraiment voir le serpent de mer[@1D]? Si tu as de quoi payer, je peux t'aider tu sais[@1D]?",你想见大海蛇吗？[@CR]如果你肯付钱的话，我可以带你去啊！
28,ほうらよ。,Heh heh. Much obliged. Off we go then!,Sehr schön. Dann pass mal gut auf!,"Alors, tu l'as bien vu, là[@1D]?",那就让你看一下。
29,大海蛇が現れたら、[@CR]「彷徨える燕尾岩」の伝説通りに、都市が滅びちまう。[@CR]罰当たりめが！,"That's what bloody outsiders like [@1A(1)]ye[@1A(0)] get fer talkin' 'eresy in earshot o' [@1A(1)]me[@1A(0)]. If th' ye-ken-what'd come back from th' abyss, it'd be the legend o' Swallowtail Roam come true, an' me days o' drinkin' an' 'orin'd be gone in a snap o' th' snake's fingers...if 'e'd 'ands, mind ye.","Wenn die Seeschlange hier auftaucht, ist unsere Stadt verloren! Wir wissen alle, was die Sage von der wandernden Schwalbe prophezeit. Das wäre das Ende!","D'après cette légende de l'île Hirondelle, lorsque le serpent de mer surgira des abysses, la ville sera anéantie. Et j'ai beau regarder autour de moi, rien n'a bougé d'un pouce[@1D]! Tu comprends ce que ça veut dire[@1D]? Il n'y a pas de serpent de mer[@1D]!",如果大海蛇出现的话，[@CR]就会像“彷徨的燕尾岩”的传说那样，城市会被毁灭的。[@CR]你这天杀的！
30,全員、動くな！,"Alright, seascum! Me and my boys have a few questions for your captains. Cooperate, and we'll all be gone before your grog stops steaming; move...and we'll shoot every last bloody one of you.","Keiner rührt sich, ist das klar!",Que personne ne bouge[@1D]!,大家都不要动！
31,バラクーダ騎士団！？[@CR]てめぇら、何しに来やがった！,'Cudas! You ain't got no right bein' here!,Die Ritter des Barrakuda? Was habt ihr hier zu schaffen?,Les chevaliers du barracuda[@1D]? Qu'est-ce que vous venez faire ici[@1D]!?,梭鱼骑士团？！[@CR]你们来这里干嘛？
32,カルヴァランを呼べ。,Get Carvallain. Now.,Ruf Carvallain! Schnell!,Faites venir Carvallain.,叫卡尔瓦兰出来。
33,スタルマン、か。[@CR]なんだ、あんたがじきじきに来るとは穏やかじゃない。[@CR]サハギン族に負けたからと、私たちをイビりに来るとは趣味がよくない。,"Sthalmann, my good man. I'm sure you have better things to do than harass my boys. Why, I thought you'd be seeking revenge against the Sahagin...seeing as they razed your fleet and all.","Oh, sieh an. Kommodore Sthalmann gibt sich die Ehre und erscheint höchst[@16]persön[@16]lich.[@CR]Nur dass wir die Niederlage gegen die Sahagin jetzt ausbaden sollen, finde ich nicht sehr nett.","Sthalmann, en personne[@1D]? Quel honneur... Puis-je savoir pourquoi tu viens nous chercher des noises[@1D]? Je te pensais occupé avec les Sahagins, vu la débâcle de la dernière fois...",是斯塔尔曼啊。[@CR]你亲自来我们这里可不太平了。[@CR]因为输给了鱼人族就来欺负我们，这个兴趣可不怎么样。
34,エメリックって奴が、おまえの配下にいるな？[@CR]そいつを引き渡してもらおうか。,"Word has it, a man by the name of Emerick is in your employ. Hand him over and we'll be on our way.","Dieser Emerick ist doch einer von deinen Leuten. Es reicht völlig, wenn du mir den aushändigst.",Il y a bien un dénommé Emerick parmi tes hommes[@1D]? Livre-le-moi sans faire d'histoires...,那个叫埃默里克的家伙。是你的人吧？[@CR]你能把他交出来吗？
35,奴こそが、サハギン族に[@CR]臨時編成艦隊の航路図を手渡した犯人。[@CR]目撃者がいるのだぞ。,"You haven't a peg leg to stand on, Carvallain. We know Emerick was the one who sold our navigational charts to the fishbacks. We have a witness!",Dieser Kerl hat den Sahagin die Route der Auf[@16]klärungs[@16]flotte verraten! Wir haben einen Zeugen dafür.,Nous savons que c'est lui le coupable qui a été révéler le trajet de la flotte spéciale d'in[@16]ves[@16]ti[@16]ga[@16]tion aux Sahagins. Il y a un témoin[@1D]!,那家伙正是把[@CR]临时编制舰队的路线图交给鱼人族的犯人。[@CR]我们这里可有目击者。
36,……ほう。それは初耳だ。[@CR]本当ならば、確かに重罪だな。,"Quite an accusation. If it is true, then that would mean this lad is a traitor to his own kith and kin.","Davon höre ich zum ersten Mal. Wenn dem jedoch so ist, dann ist das in der Tat kein Kava[@16]liers[@16]delikt.","Eh bien, première nouvelle. Si cette accusation est vraie, c'est ef[@16]fec[@16]ti[@16]ve[@16]ment un crime très grave.",……是么，这我还是第一次听说。[@CR]如果是真的，这可是重罪啊。
37,サハギン族は、ここリムサ・ロミンサの宿敵。[@CR]いくら海賊でも、守るべき掟はある。[@CR]退いてやれ！,"The Sahagin are not merely enemies of the Barracuda, but enemies of Limsa Lominsa and all who call her home...including us. You may call us pirates, but we have rules, just as you do. Very well. You have leave to search the ship for the one you seek. Men!","Die Sahagin sind seit jeher die Erzfeinde unserer Stadt. Auch Piraten können nicht nach Belieben tun und lassen, was sie wollen.[@CR]Ich lasse dir freie Hand auf meinem Schiff. Geh und such diesen Verräter!","Les Sahagins sont la pire menace à laquelle doivent faire face les Limséens, et nous autres pirates ne faisons pas exception à la règle. Laissez-les passer[@1D]!",鱼人族是利姆萨·罗敏萨多年来的敌人。[@CR]就算是海盗也有要遵守的规则。[@CR]让他们退下！
38,聞こえたよ、サハギン族に襲わせたんだってね。[@CR]なんて奴だ、リムサ・ロミンサがどうなったっていいって考えか。,"I heard it all, Carvallain... Oh deary me. Believe the Admiral's lapdog's on to somethin', do you? What in the Navigator's name has become o' this city!?","Ich weiß alles, Carvallain. Du hast die Sahagin auf die Ritter gehetzt.[@CR]Was hast du dir eigentlich dabei gedacht? Kümmert es dich überhaupt, was aus Limsa Lominsa wird?","C'est toi qui as permis aux Sahagins d'attaquer, hein[@1D]? Tu ne te soucies donc pas du destin de Limsa Lominsa[@1D]?",我听说了，被鱼人族袭击的事情。[@CR]他们是怎么搞的，难道认为利姆萨·罗敏萨怎么样都无所谓吗？
39,私は知らんよ。,"I find the situation as perplexing as you, my dear Rhoswen.","Ich habe keinen blassen Schimmer, was in deinem Spatzenhirn vor sich geht.",Je ne vois pas de quoi tu parles.,我不知道。
40,それよりも、お前はメロドランとかいう冒険者を、[@CR]バラクーダ騎士団に潜り込ませたそうじゃないか。[@CR]そいつがサハギン族に、航路図を流したんじゃないのか？,"And all this time, I believed it was your man Merodaulyn who had stolen the charts after infiltrating the Barracudas' ranks.",Hast du nicht diesen Abenteurer Merodaulyn bei den Rittern des Barrakuda eingeschleust? Er könnte genauso gut den Sahagin die Schiffsroute verraten haben.,"D'ailleurs, tu as bien infiltré les chevaliers du barracuda avec un aventurier du nom de Merodaulyn, hein[@1D]! Ça ne serait pas plutôt lui qui a révélé le trajet de navigation[@1D]?",话说，是你让那个叫梅洛多兰的冒险者，[@CR]潜入梭鱼骑士团的吧。[@CR]还让他把路线图交给了鱼人族！
41,メロドランは、あの戦いで怪我をさせられたんだよ？[@CR]エメリックとかいうガキが原因だと知れば、ぶっ殺しに行くだろうさ。,"Tread carefully, Captain. Merod barely 'scaped with his life when the fishbacks ambushed the 'Cudas. If this rat Emerick really did betray his kind, I personally guarantee that Sthalmann and his bootlickers will be the least of his worries.","Merodaulyn wurde in der Schlacht selber schwer verwundet. Wenn sich aber herausstellen sollte, dass es Emerick gewesen ist, werde ich ihm auf der Stelle den Hals umdrehen!","Comment oses-tu[@1D]?! Merodaulyn a été blessé pendant cette bataille[@1D]! Si j'apprends que c'est cet Emerick le coupable, je me chargerai personnellement de lui régler son compte...",梅洛多兰在那场战斗中受伤了吧？[@CR]如果他知道原因是那个叫埃默里克的家伙的话，会去杀了他吧。
42,サハギン族なんかと話してネェよ！　てめぇ！　俺に触れるな！,"Get yer stinkin' 'ands off me, ya scurvy bleedin' 'oresons! I ain't done nothin', an' ya couldn't prove nothin' if I 'ad!","Ich habe mit den Sahagin kein einziges Wort gewechselt! He, Blechmann, nimm die Finger weg!",Je n'ai jamais été parler avec les Sahagins[@1D]! Espèces de... Lâchez-moi[@1D]!,我没和鱼人族交谈过！混蛋！别碰我！
43,ところでカルヴァラン。[@CR]こいつは既にボロボロだが、拷問でもしやがったのか？,"One last thing, Carvallain. It looks as if this boy was taught a lesson before we found him. You know anything about this?","Sag mal, Carvallain. Kann es vielleicht sein, dass man den Kerl gefoltert hat? So wie der zugerichtet war ...","Mais dis-moi, Carvallain, ton gars est déjà dans un sale état. Tu l'aurais pas un peu torturé par hasard[@1D]?",话说，卡尔瓦兰。[@CR]这家伙的衣服上有不少血渍，你们拷问过他了吗？
44,お茶をこぼしましてね。,Might have been he spilled some rum on his captain's vestments.,Vielleicht hat er seine Ausgehuniform mit etwas Rum bekleckert.,"On ne renverse pas impunément du rhum sur son capitaine, n'est-ce pas[@1D]?",是把葡萄酒洒在上面了吧。
45,ほう？　アスタリシア号は、マナーにうるさいんだな。,"You run a strict ship, Captain.","Auf der Astalicia gelten strenge Umgangsformen, wie mir scheint ...","Tiens, je ne me rappelais pas qu'on était si strict sur l'Astalicia...",哦？阿斯塔利西亚号的规矩还真多啊。
46,次にいらっしゃるときは、どうぞノックをお忘れなく。,"I do. And that is why the next time you pay us a visit, you will [@1A(1)]not[@1A(0)] forget to knock.","Bei deinem nächsten Besuch vergisst du bitte nicht, vorher anzuklopfen, ja?",Tu seras toujours le bienvenu ici. N'oublie pas de frapper avant d'entrer la prochaine fois...,下次你再来的时候，别忘了敲门。
47,エメリックめ、どこに隠したんだよ！[@CR]サハギン族どもに盗られたって言ってるけど、[@CR]そんな嘘が通用すると思ってるのかよ！？,"Now where'd that scurvy little sod Emerick hide the loot!? He swears on his mother's grave them fishbacks up an' five-fingered it, but no one in his right mind 'd believe that crock o' swill!","Ich frage mich, wo Emerick sich die ganze Zeit versteckt gehalten hat. Man sagt zwar, die Sahagin hätten ihn in die Finger bekommen, aber ob das schon jeder mitbekommen hat?","Satané Emerick[@1D]! Où l'a-t-il caché[@1D]? Il dit s'être fait voler par les Sahagins, mais il croit vraiment qu'on va gober un truc pareil[@1D]!?",埃默里克，你藏哪去了！[@CR]虽然你说被鱼人族给偷走了，[@CR]你以为我们会相信你的谎言吗？！
48,あそこまでして宝島に渡ったのに、なんのお宝もねぇなんて酷い話だぜ。[@CR]お宝はとっくに「メルヴァン税関公社」に運ばれたって話が、やっぱり[@CR]本当なんじゃないか。,"After bustin' a gut t' get ourselves on that bloody rock, what be waitin' there fer us? Why, nothin' but a pile o' stones all slipp'ry wi' gull lime. Damn scholarlies must've 'auled th' swag back t' their custom-'ouse.","Ich kann mir vorstellen, wie entsetzt die gewesen sein müssen, als sie es bis auf die Schatzinsel geschafft hatten und von einem Schatz weit und breit nichts zu sehen war. Vermutlich ist doch was an der Geschichte dran, dass der Schatz zum Mealvaan-Tor geschafft wurde.","Après tout ce qu'on a fait, c'est vraiment rageant de n'avoir rien trouvé sur cette île. Je suis sûr que la douane de Mealvaan a déjà raflé le trésor il y a un bon bout de temps.",费那么大力气登上了宝岛，什么宝物也没有真是太过分了。[@CR]据说宝物早就被“梅尔凡海关”给带走了，[@CR]这果然是真的吗？
49,「紅血聖女団」のメロドランってヤツ、噂倒れじゃないかよ。[@CR]まったくいい気味だぜ。,"An 'andful o' coppers says that damn Merodaulyn be privy t' summat we ain't, an' poor ol' Emerick's takin' the fall fer summat he ain't got the nous t' be doin'.","Wer hätte gedacht, dass es einmal diesen Merodaulyn von den Leichtblütigen Sirenen erwischt. Das geschieht ihm ganz recht!","Ce Merodaulyn, des sirènes san[@16]gui[@16]nai[@16]res, sa réputation était com[@16]plè[@16]te[@16]ment surfaite[@1D]! Ça lui apprendra[@1D]!",“红血圣女团”的梅洛多兰，被传闻击败了吧。[@CR]心情真愉快啊。
50,っち、大海蛇か。[@CR]バラクーダ騎士団の奴ら、大海蛇にぶっ殺されちまえ。,Damn sea serpent... Gods alone know why 'e don't drag them 'Cudas screamin' down t' th' abyss.,Von wegen Seeschlange! Die würde doch aus den Bar[@16]ra[@16]ku[@16]da-Han[@16]seln Fischfutter machen.,Encore ce serpent de mer[@1D]? Pourvu que les chevaliers du barracuda se fassent réduire en miettes[@1D]!,切，是大海蛇吗？[@CR]梭鱼骑士团的家伙，最好都被大海蛇干掉。
51,大海蛇は、いまだにシールロックの近くで見かけるって言うしな……,"Ain't so much as touched them pullers neither now, 'as 'e? An' they be trawlin' out by that stinkin' rock nigh on ev'ry morn.","Aber man hört trotzdem immer noch von Leuten, die die Seeschlange in der Nähe von Robbenholm gesehen haben wollen ...",Il paraît qu'on l'aperçoit de temps en temps du côté de l'île des Tréfonds...,据说最近还看到大海蛇出现在闭岩岛附近呢……
52,"おっと、[@IF($E9(4),若造,小僧)]、そうだ。大丈夫か、悪かったな。","Oi, you! Sorry fer the, eh...misunderstandin' afore, matey.","He du, [@IF($E9(4),Abenteurerin,Abenteurer)], geht's dir gut? Tut mir leid wegen vorhin.","Hé, [@IF($E9(4),petite,petit)], comment ça va[@1D]? Désolé, hein.","哦，[@IF($E9(4),小妹妹,小子)]。没事吧，不好意思啊。"
53,そうだ、おまえ。[@CR]もしも、バラクーダ騎士団をぶっつぶしてくれるなら、[@CR]海賊にしてやってもいいぞ。,"By way o' recompense, I 'as a right gen'rous proposition fer ye─if ye'd be so good as t' gut me a few 'Cudas, I'll make ye a pirate.","Wenn du in der Lage bist, die Ritter des Barrakuda zu zermalmen, solltest du dich auch einmal als Pirat versuchen!","Si tu mets une bonne raclée aux chevaliers du barracuda, je veux bien faire de toi [@IF($E9(4),une,un)] pirate.",啊，是你。[@CR]如果你能打垮梭鱼骑士团的话，[@CR]可以让你加入海盗啊。
54,俺の海賊に入りやがるか？[@CR]海賊になれば、このアスタリシア号を大きな顔で歩けるぜ。,"Join ol' Rostnsthal an' there'll not be a dog on th' Astalicia that ain't 'eard yer name afore long! What say ye, [@IF($E9(4),lassie,laddie)]?",Willst du nicht bei mir anheuern? Auf der Astalicia wird dir dann jeder mit Respekt begegnen.,Tu as envie de rejoindre mon équipage[@1D]? Tu pourrais te balader la tête haute sur l'Astalicia.,想加入我们海盗吗？[@CR]如果成为海盗的话，在这个阿斯塔利西亚号上可就扬眉吐气了、
55,ヘッ、気軽に言いやがる。,"Talk the talk, but do ye walk the walk? We'll see what ye be made of sooner than later, I reckon. Heh heh heh.","Ich sehe schon, wir werden gut miteinander auskommen.[@CR]Sprich mal mit dem freundlichen Herrn da drüben. Der macht die Anmeldungen.","Haha, tu me sembles bien [@IF($E9(4),sûre,sûr)] de toi[@1D]! On va vite voir ce que tu vaux vraiment...",哼，说的很容易啊。
56,俺を馬鹿にしやがって……,Then get out o' me sight afore I rip the 'ide off yer pretty face an' use it t' wipe me arse!,"Machst du dich über uns lustig? Sieh zu, dass du Land gewinnst!",Tu me prends pour un imbécile[@1D]?,竟然瞧不起我……
57,荒くれものだらけだったろう？　怪我はしなかったか？　「アスタリシア号」を教えてやったものの、少し心配だったぞ。,"Hahahaha! Been plyin' yer trade on th' Astalicia now, 'ave ye? Well, I can't say as I didn't 'ave me doubts about sendin' ye in there. 'Ad an 'orrible feelin' th' only way ye'd be gettin' off that ship were in a rum barrel o'er the starboard side.","Haben sie dich einigermaßen gut behandelt oder hast du blaue Flecke bekommen?[@CR]Im Nachhinein mach ich mir regelrecht Vorwürfe, dass ich dir von der Astalicia erzählt habe.","Je me suis fait du souci après t'avoir [@IF($E9(4),envoyée,envoyé)] sur l'Astalicia[@1D]! C'est bien une bande de grosses brutes, n'est-ce pas[@1D]? Tu n'es pas [@IF($E9(4),blessée,blessé)][@1D]?",都是些粗暴的家伙吧？没有受伤吧？虽然告诉了你“阿斯塔利西亚号”的事情，不过还是有些担心。
58,……ほほう、バラクーダ騎士団がガサ入れをしたか。昔のバラクーダ騎士団は海賊と似たようなもんだったが、今のバラクーダ騎士団はお堅い奴等になっちまったからな。いろいろと、もめてただろ？,"What's this ye say? 'Cudas turned up uninvited? Them knights used t' be no better an' no worse than them pirates. But now they gone an' gotten all righteous. Bet they put on a grand show today, eh?","So so. Die Ritter des Barrakuda haben also bei den Piraten eine Razzia durchgeführt! Wenn ich so an früher denke, waren sich die Ritter und die Piraten eigentlich sehr ähnlich. Aber mit der Zeit sind die Ritter stur und steif geworden. Es muss viel Zwist zwischen ihnen gegeben haben.","Alors comme ça les chevaliers du barracuda ont fait une per[@16]qui[@16]si[@16]tion[@1D]? Autrefois, ils ne valaient pas mieux que les pirates, mais maintenant ils sont devenus bien stricts. Ça a chauffé[@1D]?",……吼吼，梭鱼骑士团来搜查了啊。原来梭鱼骑士团和海盗没什么区别，不过现在的梭鱼骑士团都是些不近人情的家伙。发生了不少争吵吧？
59,ところで、だ。おまえさんを探して、可愛い女の子がやってきてたぞ。「網倉」の子だそうだ。すぐに行ってやるといい。,"By the way, some wee lass from the Pullers' was up 'ere a few bells back lookin' for you and yours. Seemed urgent, like.","Da fällt mir ein: Vorhin war ein hübsches Mädchen von Fischers Bodden hier, das nach dir gefragt hat.","Au fait, une petite Lalafelle toute mignonne est passée te chercher, aujourd'hui. Je pense qu'elle est de l'Escale du pêcheur.",话说回来，有个可爱的女孩子来找你啊。好像是来自“网仓”的人。你赶紧去看看吧。
60,サハギン討伐隊が奮わなかったってことで、サハギン討伐の賞金が上がったらしいぞ。,"I heard since the failure of that mission to eradicate the Sahagin, the Limsa Lominsa authorities have upped the bounty for every confirmed fishback kill.","Anscheinend ist das Kopfgeld auf die Sahagin erhöht worden, da die Angriffsflotte keine Sahagin zu fassen gekriegt hat.","Après l'échec du corps ex[@16]pé[@16]di[@16]tion[@16]nai[@16]re, la récompense pour la chasse aux Sahagins a encore augmenté.",因为鱼人族讨伐队没什么干劲，所以讨伐鱼人族的赏金好像提高了。
61,あ、冒険者さん。私のこと覚えてる？,The bargain adventurer! Is it safe to assume you've not already gone and forgotten our most recent affair?,"He, [@IF($E9(4),Abenteurerin,Abenteurer)]! Erinnerst du dich an mich?","Oh, [@SPLIT([@STRING($EB(1))], ,1)], tu te souviens de moi[@1D]?",啊，冒险者。还记得我吗？
62,サハギン狩りにつきあわない？[@CR]ちょっとした穴場があるの。,"Wonderful! Which brings me to my next request, or should I call it offer? I was wondering if you'd be interested in joining me on a Sahagin hunt. I know the perfect spot!",Wollen wir nicht gemeinsam Sahagin jagen? Ich kenne da einen guten Platz ...,"Dis, tu voudrais bien partir à la chasse aux Sahagins avec moi[@1D]? Je connais un petit coin vraiment sympa[@1D]!",一起去捕获鱼人族吧？[@CR]有个好地方。
63,オシュオン灯台の近くに吊り橋があってね。[@CR]その先で待ち合わせしましょ。じゃあね～！,"Hold on, let me mark your map. No questions, now![@CR]See you there, then!",Ganz in der Nähe von Oschons Fackel gibt es eine Hängebrücke. Dort treffen wir uns. Bis dann!,Laisse-moi mettre une marque sur ta carte. On se donne rendez-vous là-bas. A tout à l'heure[@1D]!,奥修昂火炬灯塔附近有一座吊桥。[@CR]就在那里集合吧。先走啦～
64,冒険者さん、じゃあ始めましょう。,"So good of you to come! Now, let's begin!",Bist du bereit? Jetzt beginnt dein nächstes Abenteuer!,"Nous y voilà[@1D]! Bon, commençons.",冒险者，我们开始吧。
65,あれ？　なんで道具がないの？,"Oh, don't tell me you came empty-handed!",Was? Aber wieso hast du denn kein Angelzeug?,"Hein[@1D]? [@SPLIT([@STRING($EB(1))], ,1)], ne me dis pas que tu es [@IF($E9(4),venue,venu)] les mains vides[@1D]!?",咦？你怎么没有道具？
66,……ああ、サハギン狩りって「釣り」のことよ。[@CR]ここはね、サハギン族が苦手な「フェアリーレモラ」がよく釣れるの。[@CR]子供の頃から、よくここで釣りをして稼いだわ。,What? You thought that we were going to be fighting [@1A(1)]actual[@1A(0)] Sahagin!? Do I look like someone who can wrestle down a 200-ponze beast from the bottom of the sea? I'm just a fisher with a hook! A puller with a pole! We're here to collect faerie remora―a tiny breed of shark that releases a milky poison the Sahagin detest! I've been catching them in these waters since I was a girl.,"Wie? Wer hat denn was davon gesagt, dass wir gegen Sahagin kämpfen? Mit „jagen“ meinte ich natürlich „angeln“.[@CR]Weißt du, hier kann man viele Zau[@16]ber[@16]laus[@16]fische angeln. Die haben Sahagin gar nicht gern. Als Kind war ich oft zum Angeln hier und habe mir auf diese Weise ein paar Gil dazuverdient.","Tu pensais que nous allions nous battre contre les Sahagins[@1D]? Mais pas du tout[@1D]! On est ici pour pêcher des rémoras-fées, que ces créatures détestent par-dessus tout. Ça se vend pour un bon prix, en ville.",……哦，捕获鱼人族说的就是“钓鱼”。[@CR]这里经常能钓到鱼人族害怕的“仙境印鱼”。[@CR]我小时候经常在这里垂钓挣钱。
67,……ああ、サハギン狩りって「釣り」のことよ。[@CR]ここはね、サハギン族が苦手な「フェアリーレモラ」がよく釣れるのよ。[@CR]子供の頃から、よくここで釣りをして稼いだわ。,We're here to collect faerie remora―a tiny breed of shark that releases a milky poison the real Sahagin cannot stand. I've been catching them in these waters since I was a girl.,"Ah, da hast du es ja. Sehr gut.[@CR]Die meisten Leute kapieren nämlich nicht, dass „Sahagin jagen“ nicht kämpfen, sondern angeln heißt, haha.[@CR]Das kommt daher, dass man hier viele Zau[@16]ber[@16]laus[@16]fische angeln kann, und die haben die Sahagin gar nicht gern. Als Kind war ich oft zum Angeln hier und habe mir auf diese Weise ein paar Gil dazuverdient.","Ici, on peut pêcher des rémoras-fées, que les Sahagins détestent par-dessus tout. Ça se vend pour un bon prix, en ville.",捕获鱼人族说的就是“钓鱼”。[@CR]这里经常能钓到[@CR]鱼人族害怕的“仙境印鱼”。[@CR]我小时候经常在这里垂钓挣钱。
68,サハギン族がこの辺りの海まで荒らすようになって、みんな大変。[@CR]昔は、漁船の網が切られて、魚が奪われるくらいの被害で済んでいた[@CR]らしいんだけど……今は、命がけよ。,"When I was young, the beasts were more of a nuisance than an actual threat―the most we dealt with being the occasional cut net or stolen buoy. Now, they're attacking the pullers themselves, putting everyone on edge. Some of my sailmates have even given up the profession out of fear for their lives.","In jüngster Zeit trauen sich die Sahagin bis in die Nähe dieser Gewässer hier. Früher war es damit getan, dass sie die Netze zerrissen und die Fischer um ihren Fang betrogen haben. Aber heutzutage geht es um Leben und Tod!","Depuis que les Sahagins viennent piller dans les eaux toutes proches, tout le monde est bien embêté. Avant on s'en sortait avec des filets déchirés et quelques poissons volés... Maintenant c'est notre vie qui est en danger[@1D]!",鱼人族连这边的大海也不放过，大家都觉得很为难。[@CR]以前，他们只是割破渔船撒下的渔网，把鱼抢走，[@CR]现在连捕鱼人的生命也有危险了。
69,すべての始まりは、「シールロック」が現れてから。[@CR]ううん、きっとあれは、伝説の「彷徨える燕尾岩」だったんだわ。,"And it all started when that Seal Rock appeared from the mists. Since that day, I have tried to convince Wawalago that the island is actually Swallowtail Roam, and that if we continue to disturb it, the guardian and her minions will avenge themselves upon those who've defiled their sacred domain. He just laughs, however, attributing my concerns to girlish fancy.","Das hat alles erst angefangen, als Robbenholm plötzlich aus dem Meer aufgetaucht ist. Ich bin mir sicher, dass es das legendäre Eiland der wandernden Schwalbe ist.",Tout a commencé avec l'apparition de l'île des Tréfonds. Je suis sûre qu'en fait c'est l'île Hirondelle de la légende.,一切都是从“闭岩岛”出现后开始的。[@CR]不对，那里过去一定是传说中的“彷徨的燕尾岩”。
70,彷徨える燕尾岩っていうのはね、[@CR]ずっと昔、神さまリムレーンが海を生み出す「大海蛇」を封じた場所なの。[@CR]この大海蛇が目覚めると、リムサ・ロミンサが海に沈んじゃうってお話が[@CR]あるのよ。,"Legend has it that long, long ago, the world was a parched wasteland, filled with nothing but fire and rocks. Llymlaen, the Navigator, saw this and created a giant serpent to spout forth water and create Eorzea's oceans. But soon she realized that the serpent would never stop, and that all the land would one day disappear beneath the waves, so she sealed the beast away within a floating island called Swallowtail Roam. The island drifts about the sea so that those with evil intentions might never find it...","Auf dem Eiland der wandernden Schwalbe hat in ältester Vergangenheit unsere Göttin Llymlaen die Seeschlange eingeschlossen, die der Legende zufolge das Meer gebiert. Es steht zu befürchten, dass Limsa Lominsa im Meer versinken wird, wenn dieses Wesen wieder erwacht.","L'île Hirondelle, c'est cet endroit où, il y a bien longtemps, Llymlaen, la Navigatrice, a enfermé le serpent de mer, père des océans. On dit que lorsque ce serpent de mer se réveillera, sa colère provoquera l'en[@16]glou[@16]tis[@16]se[@16]ment de Limsa Lominsa.",说起彷徨的燕尾岩，[@CR]是很早以前，利姆莱茵神明将海中出现的“大海蛇”封印的地点。[@CR]据说如果这只大海蛇醒来的话，利姆萨·罗敏萨将会沉入海底。
71,まだ、リムサ・ロミンサは海に沈んでないけど……[@CR]でも、あれから、いろんなことが起こり続けてるわ。,"If the rumors are true, and the sea serpent has escaped from Swallowtail Roam, then it won't be long before the seas begin to rise once more, and Limsa Lominsa is swallowed whole.","Noch ragt Limsa Lominsa stolz über das Meer hinaus. Aber seitdem die Insel aufgetaucht ist, gerät alles aus den Fugen ...","Pour le moment, notre Cité se dresse encore fièrement sur les eaux, mais tous ces événements récents ne sont pas très rassurants...",虽然现在利姆萨·罗敏萨还没有沉下去……[@CR]不过那之后发生了很多事情。
72,おおい、シシプちゃん。,Sweet Sisipu!,"He, Sisipu!","Ohé, Sisipu[@1D]!",哟，希希蒲。
73,スタルマンさん！？,Uncle Sthalmann!,Sthalmann!,Monsieur Sthalmann[@1D]!,斯塔尔曼先生？！
74,連れがいるようだが、こんなところで釣りをしてたら危ないぞ。,I thought I told you it was dangerous to fish here...even with friends.,"Wie ich sehe, hast du jemanden, der auf dich aufpasst. Trotzdem ist es sehr gefährlich, an dieser Stelle hier zu angeln.","Même si tu es venue accompagnée de [@IF($E9(4),ta petite amie,ton petit ami)], c'est dangereux de pêcher par ici.",虽然你好像带着随从，不过在这种地方钓鱼挺危险的。
75,フェアリーレモラの群生地ですもの。[@CR]サハギン族は来ないわ。それと、この人は連れじゃないわ。,"Friends? Oh, you mean [@IF($E9(4),her,him)]? [@IF($E9(4),She's,He's)] not my friend―but I'll be alright! The faeries keep all the nasty fish-men away.","Hier gibt es Zau[@16]ber[@16]laus[@16]fische wie Sand am Meer! Sahagin trifft man hier nicht.[@CR]Und noch was: [@IF($E9(4),Die,Der)] hier ist nicht [@IF($E9(4),meine Aufpasserin,mein Aufpasser)]!","[@IF($E9(4),Ma petite amie,Mon petit ami)][@1D]? Mais pas du tout[@1D]! Rassurez-vous, c'est un véritable vivier de rémoras-fées ici, jamais les Sahagins ne viendront nous embêter.",这是仙境印鱼的聚集地，[@CR]鱼人族不会过来的。还有这个人不是我的随从。
76,冒険者のようだな。[@CR]ちょうどいい、シシプちゃんの護衛を頼むぞ。[@CR]この子は、大切な証人だからな。,You don't seem the dangerous type. Can I trust you to watch over Sisipu while you're here? It would be a great shame if anything were to happen to our little...witness.,"Du siehst aus wie [@IF($E9(4),eine Abenteurerin,ein Abenteurer)]. Das trifft sich ausgezeichnet. Gib mir ja gut Acht auf Sisipu! Sie ist eine wichtige Zeugin!","Je vois, c'est [@IF($E9(4),une aventurière,un aventurier)]. Parfait, c'est toi qui vas escorter Sisipu. Un témoin essentiel[@1D]! Je compte sur toi pour qu'il ne lui arrive aucun mal.",看样子是个冒险者啊。[@CR]正好，麻烦你保护希希蒲。[@CR]因为她是很重要的证人。
77,……サハギン族と取引していた人は、ちゃんと捕まえてくれたの？,Did you catch the man who was talking to the fishes?,"Hast du den Verräter dingfest gemacht, der den Sahagin Informationen geliefert hat?",Avez-vous réussi à attraper ce brigand de mèche avec les Sahagins[@1D]?,……和鱼人族串通的人，已经抓到了吗？
78,ああ、海賊「百鬼夜行」のカルヴァランの手下、エメリックって若い奴だ。[@CR]今、このエメリックと取引をしている。カルヴァランの方も牢にぶちこめる[@CR]いい機会だからな。,"In fact, we did. His name was Emerick, and he was working for a bad, bad pirate named Carvallain. Hopefully we can use Emerick to help us catch Carvallain as well, and then throw them both in gaol, where they'll never bother anyone―including you―ever again.","Ah, du meinst diesen Jungspund Emerick. Das war einer von Carvallains Klabautern. Carvallain verhandelt jetzt gerade mit dem Verräter, woraus sich für uns durchaus eine gute Gelegenheit ergibt, diese beiden Schufte ein für allemal hinter Schloss und Riegel zu stecken.","Ah, ce jeune garçon, Emerick[@1D]? C'est un membre de la horde du kraken, à la solde de Carvallain. A l'heure qu'il est, mes hommes sont en train de le faire parler. C'est l'occasion rêvée de jeter toute la bande en prison, le chef y compris[@1D]!",嗯，你说那个叫埃默里克的年轻人啊，他是“百鬼夜行”海盗的卡尔瓦兰的手下。[@CR]目前，正在和埃默里克交涉。这也是将卡尔瓦兰[@CR]关入大牢的好机会啊。
79,なら、私はもう、大丈夫よね？,"So, am I safe now?","Das heißt, ich brauche mir keine Sorgen mehr zu machen?","Alors, ça veut dire que je n'ai plus rien à craindre[@1D]?",那我已经没事了吧？
80,ううむ、まぁ、な。[@CR]今は、エメリックの方が、海賊どもに狙われて大変だ。,"Yes, my dear. You have nothing to be scared of. It's Emerick's turn to be scared now.",Vorerst nicht. Im Moment trachtet man dafür Emerick nach dem Leben.,"Oui, ne t'en fais pas ma petite. Maintenant, c'est plutôt la vie d'Emerick qui est menacée.",嗯，差不多了。[@CR]现在海盗们也正盯着埃默里克呢。
81,海賊「百鬼夜行」のカルヴァランは、証拠隠滅しようと躍起になっているし、[@CR]海賊「紅血聖女団」のメロドランは、エメリックへの復讐に燃えている。[@CR]……おっと、シシプちゃんには、ちょっと難しい話だったかな？,"The Kraken's Arms want to eliminate Emerick, and along with him any evidence that they were connected to the whole affair. Rhoswen and her Sanguine Sirens want his neck after what he did resulted in the injury of their best man... Ah, perhaps that was a little too difficult for you to understand, Sisipu.","Carvallain versucht nämlich, alle möglichen Beweise verschwinden zu lassen. Gleichzeitig sinnt Merodaulyn von den Leichtblütigen Sirenen nach Rache an Emerick.[@CR]Oha, das ist wohl etwas kompliziert und schwer für dich zu verstehen, meine Kleine.","Carvallain cherche à supprimer Emerick pour faire disparaître les preuves qui l'im[@16]pli[@16]que[@16]raient. Et puis il y a Merodaulyn, des sirènes san[@16]gui[@16]nai[@16]res, qui cherche à régler ses comptes avec lui. Oh, mes ex[@16]pli[@16]ca[@16]tions sont un peu trop compliquées pour toi, Sisipu[@1D]?",“百鬼夜行”海盗的卡尔瓦兰，正在努力毁灭证据，[@CR]“红血圣女团”海盗的梅洛多兰，也想找埃默里克复仇呢。[@CR]……啊，这对于希希蒲来说有点难以理解吧？
82,よくわからないけど、スタルマンさん。[@CR]エメリックって人、どうなっちゃうの？,"I don't know, but it sounds like Emerick is the one that needs protecting, not me. You should be back at the gaol, watching over him.","Wenn ich es richtig verstanden habe, muss Emerick um sein Leben fürchten. Der Ärmste ...","Je ne suis pas sûre d'avoir tout compris, mais il faut protéger cet Emerick, n'est-ce pas[@1D]? On en veut à sa vie...",斯塔尔曼先生，虽然不太明白是怎么回事，[@CR]但那个叫埃默里克的人，会怎么样呢？
83,大丈夫だよ。[@CR]エメリックは、そこらにある牢屋なんかには入れてないのさ。[@CR]もっと安全で、海賊も思いつかないようなところに隠してあるからな。,"Haha. For one so young, you are impressively observant.[@CR]Well, you don't have to worry about him, child. We have him hidden someplace a pirate wouldn't even imagine looking.","Wir haben alles unter Kontrolle. Emerick sitzt nicht im Gefängnis ein. Wir haben ihn an einen sicheren Ort verfrachtet, der den Piraten niemals in den Sinn kommen würde.","Ne t'inquiète pas pour ça. Emerick n'est pas détenu dans la prison, mais dans un endroit plus sûr dont même les pirates ne connaissent pas l'existence.",不用担心。[@CR]埃默里克没有被关入牢房。[@CR]我们把他藏到了一个更安全的，海盗们想不到的地方。
84,そうなんだ……,I suppose that's alright then...,Wenn du meinst ...,"Tant mieux, dans ce cas. J'espère vraiment que personne ne sera blessé[@1D]!",这样啊……
85,とにかく、シシプちゃんは、もう都市に帰ったほうがいい。[@CR]ここは君のお気に入りの場所で、奴等にもすぐに見つけられてしまうだろう。,"Still, you should be heading back to the city, Sisipu. The bad men know this is your favorite fishing spot, and they will know to come here if they are looking to catch you.","Für dich, Sisipu, ist es sicherer, sofort in die Stadt zurückzukehren. Oder such dir sonst einen anderen Ort. Jeder weiß, dass du gern zum Angeln hierher kommst. Hier würde man dich sofort finden.","En tout cas, tu ferais mieux de rentrer en ville, Sisipu. Si tu restes ici pour pêcher, ils auront vite fait de te retrouver.",总之，希希蒲，你回城市去比较好。[@CR]因为这里是你喜欢的地方，所以很快就会被那帮家伙找到吧。
86,うん……,"Yes, sir...","Ja, ist gut.","Oui, vous avez raison...",嗯……
87,シシプはね、漁村での生き残りだ。[@CR]そして、サハギン族とエメリックが交渉していたことを教えてくれた証人だ。,"You see, adventurer, Sisipu is one of the only survivors of Brookhaven...a village recently razed by the Sahagin. She was hiding when she saw Emerick speaking with one of his Sahagin contacts.","Du musst wissen: Sisipu hat damals einen Angriff auf ihr Fischerdorf überlebt. Sie hat als Einzige gesehen, wie Emerick mit jemandem von den Sahagin verhandelt hat. Deshalb ist sie eine sehr wichtige Zeugin.","Sisipu est une rescapée de ce village de pêcheurs récemment rasé. En plus de ça, c'est elle qui m'a prévenu qu'elle avait été témoin d'une discussion entre Emerick et un Sahagin.",希希蒲是渔村的幸存者。[@CR]她还是告诉我们埃默里克和鱼人族交涉的证人。
88,彼女もまだ、狙われる可能性がある。[@CR]なにかあったら、「メルヴァン税関公社」まで、すぐに連れてくるんだ。[@CR]……いいな？,"I'm not accusing you of anything, but there are those who would see that little girl dead for what she knows. If you sense anything amiss while you are out here, I ask that you bring Sisipu directly to the custom-house at Mealvaan's Gate.","Ich will dir nicht unnötig Angst machen, aber wir müssen immer noch damit rechnen, dass jemand auf sie angesetzt wurde. Wenn irgendwas passieren sollte, bring sie auf dem schnellsten Weg zum Mealvaan-Tor! Hast du verstanden?","Il est fort possible qu'elle soit encore visée. Si jamais il arrive quoi que ce soit, emmène-la im[@16]mé[@16]dia[@16]te[@16]ment à la douane de Mealvaan, compris[@1D]?",所以她也很有可能会被盯上。[@CR]如果发生什么事的话，就赶快把她带到“梅尔凡海关”去。[@CR]……知道了吧？
89,わぁ！　釣れた！　大漁！,Hah hah! I caught another!,Ich hab einen! Hier! Was für ein Fang!,Oooh[@1D]! J'en ai un[@1D]! C'est un gros[@1D]!,哇！钓到大鱼了！
90,あら？　なんだか退屈そうね？[@CR]わかったわ、私、釣り場所を変えてあげる。[@CR]飽きたら、一人で帰っていいから。,"What? You think I'm hoarding all the remora and leaving none for you? Alright, alright. I can take a hint. I'll fish somewhere else.","Was denn? Du siehst ziemlich gelangweilt aus ...[@CR]In Ordnung, wir suchen uns eine andere Stelle zum Angeln. Wenn du keine Lust mehr hast, kannst du meinetwegen auch schon allein zurückgehen.","Tu as l'air de t'ennuyer... On va aller chercher un autre coin, alors. Si tu en as marre, tu peux toujours rentrer [@IF($E9(4),toute seule,tout seul)], hein.",哎呀？总觉得你有些无聊？[@CR]明白了，我换个地方钓鱼吧。[@CR]如果你厌倦了的话，一个人回去也行。
91,あ、そうそう。[@CR]この穴場を教えてあげたのはね、この前のお礼なんだから！　感謝してよね！,"Stay here as long as you like, but don't forget who informed you of this prime location! Consider it payback for escorting me to the lighthouse. Now we're even!","Diese Stelle habe ich dir gezeigt, weil du mir bei der Sache damals geholfen hast! Danke noch mal dafür!","Ah, oui. Si je t'ai montré mon coin secret, c'est en re[@16]mer[@16]cie[@16]ment de ton aide, la dernière fois. Tu es la première personne que j'emmène ici, tu sais[@1D]!",啊，对了。[@CR]告诉你这个好地方是之前你帮我的回礼！谢谢你了！
92,おまえさんに、「メルヴァン税関公社」から呼び出しがかかってるぞ。リムサ・ロミンサに、マズイものでも持ち込んだのか？,"Jus' been on th' pearl wi' them scholarlies down at Mealvaan's Gate. Seems they's lookin' fer ye. Now what could that be about? Ain't gone an' brung summat unsavory into port [@1A(1)]again[@1A(0)] now, 'ave ye?","He, [@IF($E9(4),junge Abenteurerin,junger Abenteurer)]! Jemand vom Mealvaan-Tor wollte dich sprechen. Hast du etwa irgendwelche vergammelten Fische eingeschleppt?","[@SPLIT([@STRING($EB(1))], ,1)], tu as une convocation de la douane de Mealvaan. Rassure-moi, tu n'as pas introduit de mar[@16]chan[@16]di[@16]ses douteuses dans Limsa Lominsa, hein[@1D]?",“梅尔凡海关”来传唤你了。你把什么不好的东西带到利姆萨·罗敏萨去了吗？
93,「メルヴァン税関公社」は、海からの検閲所でな。都市の中に、危ないものや未知のものを持ち込まれたら困るだろ。そういったものを調べるのが仕事さ。,"Anythin' an' everythin' that comes into Limsa must pass through the gate. Th' scholarlies there keep an eye out fer items what might pose a threat t' th' city, as well as them what might make 'em a sackful o' coin through taxin'.","Das Mealvaan-Tor inspiziert alles, was aus dem Meer kommt und in die Stadt gebracht werden soll. So wird verhindert, dass unbekannte oder gefährliche Dinge unbemerkt in die Stadt gelangen.",La douane de Mealvaan est une sorte de poste de contrôle de tout ce qui arrive par la mer. C'est leur travail de vérifier tout objet inconnu ou po[@16]ten[@16]tiel[@16]le[@16]ment dangereux pour la Cité.,“梅尔凡海关”是进入利姆萨·罗敏萨之前的检察机构。把危险的东西或者是不明物体带到城市里会很麻烦吧。他们的工作就是调查这样的东西，
94,だがまぁ、バラクーダ騎士団が捕まえには来てないから、そんなに危険なものじゃなかったんだろう。安心して行ってこい。,"'Course, the scholarlies would've sent the 'Cudas t' fetch ye if ye [@1A(1)]was[@1A(0)] in any bother, so I doubts yer neck be in th' noose jus' yet.","Andererseits ist noch keiner von den Barrakuda-Rittern hier aufgekreuzt, um dich festzunehmen. Es kann demnach nichts Gefährliches gewesen sein. Du kannst also ruhig mal beim Mealvaan-Tor vorbeischauen.","Enfin bon, les chevaliers du barracuda ne sont pas venus t'arrêter, donc ça ne doit pas être très grave. Tu peux y aller l'esprit tranquille.",不过，因为不是梭鱼骑士团来抓你，所以应该不是那么危险的东西。你放心地去吧。
95,はい、「メルヴァン税関公社」受付です。,Welcome to Mealvaan's Gate.,"Ja, wenn du zum Mealvaan-Tor willst, bist du hier richtig.","[@IF($E3($E9(11),12),[@IF($E3($E9(11),4),Bonsoir,Bonjour)],[@IF($E3($E9(11),17),Bonjour,Bonsoir)])], bienvenue à la douane de Mealvaan.",你好，这里是“梅尔凡海关”接待处。
96,リムサ・ロミンサは多くの商船と交易をしております。[@CR]事故や問題を未然に防ぐため、こちらで積荷・船員・客員の検閲をしております。,"Hundreds of ships arrive at our docks every year, and to prevent the unlawful import of hazardous materials, we inspect all cargo, crew, and passengers before allowing them entry into our fine city. If you arrived via a sea route, then you will have already met one of our upstanding assessors.","In Limsa Lominsa laufen Handelsschiffe aus aller Herren Länder ein. Um von vornherein Unfälle auszuschließen und möglichen anderen Problemen aus dem Weg zu gehen, kontrollieren wir bei allen Schiffen die gesamte Fracht, das ganze Personal und alle Passagiere.","Pour éviter tout incident, nous contrôlons les membres d'équipage, les passagers ainsi que la cargaison de tout navire passant par Limsa Lominsa.",利姆萨·罗敏萨和许多商船有交易。[@CR]为了防止事故和问题发生，在这边进行行李、船员、客人的检查。
97,はい、「メルヴァン税関公社」では、[@CR]新しい社員を随時募集しておりますにゃあ。[@CR]「巴術」にて、積み荷等を探ることが主な業務になりますにゃあ。,"We are always searching for new employees, though we only accept those who exhibit a natural grasp of the arcane arts, these proving essential to the efficient examination of the many ships that frequent Limsa Lominsa.","Ja, das Mealvaan-Tor sucht jederzeit nach neuen Mitarbeitern. Alle Hermetiker, die wir einstellen, sind hauptsächlich damit beschäftigt, tonnenschwere Schiffs[@16]la[@16]dungen zu durchsuchen.","Nous sommes en perrr[@16]ma[@16]nen[@16]ce à la recherche de nouveaux employés. Le gros du travail consiste à fouiller les cargaisons à l'aide de techniques d'arcanisme, miaou.",“梅尔凡海关”[@CR]随时招募新职员。[@CR]主要的业务是使用“秘术”来寻找行李等物品。
98,「巴術」の使いこなしには長い鍛錬が必要ですが、[@CR]社内に特別な教育課程をご用意いたしましたにゃあ。[@CR]少しでも才能がある方をどんどん雇用し、育成していくのが「メルヴァン税関公社」の社内方針でございますにゃあ。,"Though it takes many years of training to become a master arcanist, those who are recognized as possessing the Gift will be allowed into these halls and trained by the finest mages in Eorzea. Upon completion of the training, the adepts will be accepted into our ranks, and given a position within the custom-house.","Die Ausbildung zum Hermetiker braucht zwar ihre Zeit, aber unsere Behörde wird dich in allem unterweisen. Es ist unser oberstes Ziel, Leute mit angeborenem Sachverstand ausfindig zu machen und zu Experten auszubilden.","Un long en[@16]traî[@16]ne[@16]ment est nécessaire pour parrrvenir à maîtriser l'arcanisme, mais nous avons un programme spécial de forrrmation pour nos nouvelles recrues. Nous nous efforçons cependant de trouver les éléments les plus prometteurs[@1D]!",要想熟练地使用秘术，需要长时间的锻炼。[@CR]公司内部安排了特别的教育课程。[@CR]“梅尔凡海关”的方针是多雇用一些有一点点才能的人，之后慢慢培养。
99,はい、メルヴァン税関公社の受け付けですにゃあ。[@CR]お名前は[@STRING($EB(1))]さんですにゃあ、少々お待ちくださいにゃあ。,"Greetings, and welcome to Mealvaan's Gate. We have been expecting you, [@STRING($EB(1))].","Herzlich willkommen am Mealvaan-Tor! Du bist [@STRING($EB(1))], richtig? Wir haben schon auf dich gewartet!","[@IF($E3($E9(11),12),[@IF($E3($E9(11),4),Bonsoir,Bonjour)],[@IF($E3($E9(11),17),Bonjour,Bonsoir)])], que puis-je fairrre pour vous, miaou[@1D]? [@IF($E9(4),Mademoiselle,Monsieur)] [@SPLIT([@STRING($EB(1))], ,2)], c'est bien ça[@1D]? Un instant s'il vous plaît.","这里是梅尔凡海关的接待处。[@CR]你的名字是[@SPLIT([@STRING($EB(1))], ,1)]，请稍等。"
100,"[@STRING($EB(1))]さん、[@CR]バラクーダ騎士団から「[@SWITCH([@SHEET(itemData,11000002,41)],[@COLOR(#fff3f3f3)],[@COLOR(#ffc0ffa0)],[@COLOR(#ff60c8ff)],[@COLOR(#ffb38cff)],[@COLOR(#ffffa666)],[@COLOR(#ffe5dd7e)])][@EDGECOLOR(#ff262626)][@SHEET(xtx/itemName,11000002,4)][@EDGECOLOR($EC)][@COLOR($EC)]」を持ち出していませんか？","I have little time to spend on idle chatter, so I will get to the point.","[@STRING($EB(1))], hast du von den Rittern des Barrakuda nicht [@SWITCH([@SHEET(itemData,11000002,41)],[@COLOR(#fff3f3f3)],[@COLOR(#ffc0ffa0)],[@COLOR(#ff60c8ff)],[@COLOR(#ffb38cff)],[@COLOR(#ffffa666)],[@COLOR(#ffe5dd7e)])][@EDGECOLOR(#ff262626)][@SHEETDE(xtx/itemName,1,11000002,1,4,1)][@EDGECOLOR($EC)][@COLOR($EC)] mitgenommen?","[@SPLIT([@STRING($EB(1))], ,1)], tu n'aurrrais pas emprunté [@SWITCH([@SHEET(itemData,11000002,41)],[@COLOR(#fff3f3f3)],[@COLOR(#ffc0ffa0)],[@COLOR(#ff60c8ff)],[@COLOR(#ffb38cff)],[@COLOR(#ffffa666)],[@COLOR(#ffe5dd7e)])][@EDGECOLOR(#ff262626)][@SHEETFR(xtx/itemName,1,11000002,1,1)][@EDGECOLOR($EC)][@COLOR($EC)] aux chevaliers du barracuda[@1D]?","[@SPLIT([@STRING($EB(1))], ,1)]，[@CR]你有没有从梭鱼骑士团拿走“[@SWITCH([@SHEET(itemData,11000002,41)],[@COLOR(#fff3f3f3)],[@COLOR(#ffc0ffa0)],[@COLOR(#ff60c8ff)],[@COLOR(#ffb38cff)],[@COLOR(#ffffa666)],[@COLOR(#ffe5dd7e)])][@EDGECOLOR(#ff262626)][@SHEET(xtx/itemName,11000002,131)][@EDGECOLOR($EC)][@COLOR($EC)]”？"
101,バラクーダ騎士団の銃は、持ち出し禁止の品。[@CR]部品それぞれに品番が刻印されており、バラクーダ騎士[@CR]それぞれの通し番号で管理されています。,"The unauthorized removal of a Barracuda firearm from the city limits is strictly prohibited under thalassocratic charter. Each and every weapon assigned to a knight is magically engraved with a number that identifies the weapon and its owner, making them easy to track and impossible to sell on the black market.","Pistolen der Ritter des Barrakuda zählen zu den Dingen, die nicht außer Landes gebracht werden dürfen. Sie tragen deshalb alle eine Seriennummer, anhand welcher wir sie identifizieren können.",Il est interdit de sortir les fusils des chevaliers du barracuda. Chaque pièce porrrte un numéro de série et un code pour identifier son pro[@16]prié[@16]taire.,梭鱼骑士团的枪是禁止外带的。[@CR]这些东西上面都印有自己的编号，梭鱼骑士团[@CR]是按照编号来管理的。
102,なんですって？[@CR]試し撃ちをした時に、隊長マンスクーンさまに銃を奪われたんですか？,You claim the weapon was confiscated from you by Sergeant Mannskoen? Are you certain of this?,"Was sagst du? Leutnant Mannskoen hat dir die Waffe abgenommen, nachdem du ein paar Probeschüsse abgefeuert hast?","Si je comprends bien, tu me dis que c'est Mannskoen qui t'a [@IF($E9(4),dépossédée,dépossédé)] de cette arme quand tu l'as essayée...[@1D]?",你说什么？[@CR]试枪的时候，枪被曼斯库恩队长夺走了？
103,隊長マンスクーンさまは確か……[@CR]シールロックへの臨時編成艦隊の……,But he was assigned to the Seal Rock Unit...,Leutnant Mannskoen ... Der war doch bei der Auf[@16]klärungs[@16]fahrt nach Robbenholm dabei ...,"Il me semble que Mannskoen participe à la mission d'in[@16]ves[@16]ti[@16]ga[@16]tion de l'île des Tréfonds, ça veut dire que...",我记得曼斯库恩队长是……[@CR]去往闭岩岛的临时编制舰队的……
104,な、なんだ！？,Keeper fend! What was that!?,W-Was war das?,Que se passe-t-il[@1D]?,你，你说什么？！
105,爆発みたいですにゃあ！[@CR]この建物内でしょうかにゃあ！？,I believe it was an explosion...from somewhere within the building!,Das war doch eine Explosion! In unserem Gebäude!,"Il y a eu un énorrrme bruit, comme une explosion, miaou[@1D]! Ça venait de notre bâtiment[@1D]?!",这个建筑里面好像爆炸了！
106,エメリックはどこだい！？[@CR]バラクーダ騎士団から預かったボウヤだよ！,"Alright you scholarlies, put down yer quills and shut yer yaps. I'm lookin' fer Emerick, and don't try playin' daft, 'cause I know the 'Cudas brought 'im 'ere.","Wo ist Emerick? Der Knirps, den ihr für die Ritter des Barrakuda in Verwahrung habt?",Où est Emerick[@1D]?! C'est le gamin que les chevaliers du barracuda ont amené ici[@1D]!,埃默里克在哪儿？！[@CR]梭鱼骑士团放在这里的人！
107,ひぃ！　「紅血聖女団」だ！,S-Sanguine Sirens!,"Auweia, die Leichtblütigen Sirenen!",Hiii[@1D]! Les sirènes san[@16]gui[@16]nai[@16]res[@1D]!,哇！是“红血圣女团”！
108,お助けを！,Twelve help us!,Mögen die Zwölf uns beistehen!,Au secours[@1D]!,救命！
109,逃げようたって無駄だよ！[@CR]裏口は爆破したんだからね！,"Oh, and those o' ye thinkin' o' boltin' out the back-way may want to think again...'less ye fancy charrin' yer own rear entrance, that is.","Glaubt nicht, dass ihr so einfach davonkommt! Den Hintereingang haben wir vor[@16]sichts[@16]halber zugesprengt.",Inutile de fuir[@1D]! Nous avons fait écrouler la porte de derrière[@1D]!,想跑也没用！[@CR]我们把后门给炸了！
110,さぁ、捜すよ！,"Come on, girls. We've a rat to catch.","Los, suchen wir den Verräter!","Allez, fouillez-moi ce bâtiment de fond en comble[@1D]!",给我找！
111,いったい、なんなの？[@CR]襲ってきたから、倒したけど？,"I grow weary of this city and its endlessly simmering tensions. Though I abhor violence, that will not prevent me from taking decisive action when the occasion calls for it.",Was willst du denn? Sie haben mich angegriffen. Da habe ich sie umgenietet.,Quoi[@1D]? Qu'est-ce qu'il y a de mal à se défendre[@1D]?,到底是怎么回事？[@CR]因为他来袭击我，所以我就把他打倒了。
112,もしかして、あなたも敵？,Might now be one such occasion?,"Bist du etwa auch [@IF($E9(4),eine,einer)] von denen?",A moins que tu ne sois de leur côté[@1D]?,难道你也是敌人？
113,こっちだ！,Over here!,Hierher!,Par ici[@1D]!,这边！
114,あら、まだ来るようね。面倒だから逃げましょう。,<sigh> Is there no end to this? Come along. I believe I know an alternate means of exit.,"Ah, da kommen ja noch mehr. Wir hauen lieber ab.","Mais d'où sorrrtent-ils tous comme ça[@1D]? Suis-moi, on se replie pour le moment.",他们好像还会来的。很麻烦的快逃吧。
115,あなたは……,You...,Du ...,Toi... ici[@1D]?,你是……
116,海賊が襲ってきているようだけど、身に覚えはあるのかしら？,"I do apologize, but now does not seem to be the best time for heartfelt reunions. You may not have noticed, but your quaint little custom-house is overrun with stark-raving-mad she-pirates.",Wir wurden von Piraten angegriffen. Hast du jemanden erkannt?,Tu sais ce qui nous vaut cette petite visite des pirates[@1D]?,你好像被海盗袭击了，不记得了吗？
117,知りませんよ。[@CR]エメリックとかいう泥棒を捜しているようなんですが、[@CR]そんな人が、ここにいるはずないじゃないですか。,It had not escaped my attention. They seek a young pirate named Emerick...though I know not why they imagine him to be here.,"Nein, niemanden. Sie schienen nach jemandem namens Emerick zu suchen. Warum sollte der sich ausgerechnet hier aufhalten?","Aucune idée[@1D]! On dirait que les pirates re[@16]cherrr[@16]chent un dénommé Emerick, mais il n'y a personne de ce nom ici.",不知道啊。[@CR]他们好像在找叫作埃默里克的小偷，[@CR]不过那个人应该不在这里啊。
118,あら、残念。[@CR]私もエメリックを捜しているのよ。,"A miraculous coincidence indeed, for I seek the same man.","Ja, schade, dass er hier nicht zu finden war. Ich bin nämlich auch auf der Suche nach ihm.","Quel dommage. Justement, je suis à sa recherche, moi aussi.",这样啊，可惜了。[@CR]我也在找埃默里克。
119,ああ、安心して。私は海賊ではないわ。[@CR]エメリックが会っていたという「影のない男」の話を聞きたくてね。,"Ah, but you may put your worries aside, for a pirate I am not. I wish only to speak with this Emerick concerning a certain...shadowless associate.","Aber ich kann dich beruhigen. Ich bin kein Pirat. Ich wollte nur danach fragen, was es mit dem Mann ohne Schatten auf sich hat, den Emerick getroffen hat.","Rassure-toi, je ne suis pas avec les pirates. Je veux juste qu'il me parle de cet homme sans ombre qu'il a soi-disant rencontré.",嗯，放心吧。我不是海盗。[@CR]我想问问埃默里克遇到的“无影之男”的事情。
120,影のない男？？？,Shadowless...?,Mann ohne Schatten?,Un homme... sans ombre[@1D]!?,无影之男？？？
121,……いや、今は、それよりもこれです！[@CR]これを守らなければなりません！,"I am afraid I know nothing of the pirate in whom you have all taken such an enthusiastic interest. As first assessor, my only concern is for the safety of the artifact we unearthed on Seal Rock. Though I plainly cannot assist you in your investigation, I appeal to your better self to aid me until these vile interlopers have left my guild.","Egal. Viel wichtiger ist doch, dass wir das hier gut behüten.",Il y a plus important pour le moment. Nous devons prrrotéger cette tablette coûte que coûte[@1D]!,……不过现在这个比较重要！[@CR]要守护好这个东西！
122,これは？,An artifact? Of what manner?,Was ist das?,Quelle tablette[@1D]?,这是？
123,シールロックで採取した重要な石版です。[@CR]かなり古いものでしてね、ここで解読を行っていたのです。[@CR]エメリックが盗んだ、宝に関係することが書いてあるようなのですが……,"A stone tablet, covered with the letters or runes of a language far older than any found in our archives. We have been attempting to decipher it for a sennight's space, and believe it may reveal more regarding the treasure that your quarry and his Kraken brethren are rumored to have stolen.","Eine Steinplatte von Robbenholm. Muss schon ziemlich alt sein.[@CR]Wir haben versucht, sie zu entziffern. Ihre Inschrift scheint einen Bezug zu dem Schatz zu haben, den Emerick gestohlen hat.","C'est une précieuse relique que nous avons découverte sur l'île des Tréfonds. Elle est trrrès ancienne, et j'étais justement en train de tenter de déchiffrer ce qui y est inscrit. Elle semble avoir un lien avec le trésor qu'Emerick a dérrrobé...",在闭岩岛获得的重要的石板。[@CR]是很早以前的东西，所以在这里进行解读。[@CR]这上面写的东西似乎和埃默里克偷的宝物有关……
124,これは、古代水棲族の血文字ね。,"Ah yes, Rhotano Bloodcant. Few remain who are versed in this tongue.",Das sind uralte Hämoglyphen von Meeres[@16]be[@16]wohnern im Golf von Rhotano.,Ce sont des caractères écrrrits du sang d'un ancien peuple aquatique.,这是古代水栖族的血书啊。
125,……七つの海を渡る宝……？,“And fain to suffer fell grammaryes[@CR]Wherewith to loose o'erreaching seas...”,Der Schatz der sieben Meere ...?,Le... trésor des sept mers...[@1D]?!,……七海之宝？
126,そうか、ヤツの狙いは、これだわ。[@CR]これを使って仲間を呼ぶつもりだわ。,Of course... They will use the key to call forth an army...,"Dann ist es das, wonach die Piraten gesucht haben. Damit wollten sie ihre Kameraden herbeirufen.","Je comprends, maintenant. Grâce à cette tablette, il compte faire appel à ses compagnons...",原来他们的目标是这个啊。[@CR]想使用这个召唤同伴。
127,あなた、読むことができるのですか！？[@CR]いったい、なにが書かれているのです！？,"You can read the tablet!? Tell me, what does the rest say!?","Du kannst diese Zeichen lesen? Sag schon, was steht da genau geschrieben?","Tu arrives à déchiffrer ce qui est écrit[@1D]? Alors dis-moi, de quoi s'agit-il[@1D]?!",你能读懂吗？！[@CR]这上面到底写了些什么？！
128,私が、海賊たちをやっつけるわ。,"I would be delighted, but it seems these pirates have other plans.",Diese Piraten mache ich fertig!,Laissez-moi me charrrger des pirates.,我要去干掉海盗们。
129,行くわよ。,Stay close if you value your life.,Darauf kannst du dich verlassen!,Suis moi[@1D]!,出发。
130,姉さま、バラクーダ騎士団がやってきます！[@CR]時間切れですわ！,Cap'n! The 'Cudas are here wi' reinforcements! 'Tis time we disappeared!,Wir haben keine Zeit mehr! Die Ritter des Barrakuda sind schon im Anmarsch!,"Chef, les Barracudas rappliquent[@1D]! On a plus le temps, il faut filer[@1D]!",姐姐，梭鱼骑士团来了！[@CR]时间到了！
131,ちっ、仕方無いねぇ。,And just as I was startin' t' have me some fun...,Verdammt!,Alors qu'on commençait à peine à s'amuser...,切，没办法。
132,おまえら、聞きな！[@CR]「紅血聖女団」が来たって一言でも証言してみな！[@CR]リムサ・ロミンサで安心してくらせなくなるからね！,"Alright, 'arken well, scholarlies. Any one o' ye even thinks o' mentionin' th' Sirens when them 'Cudas come in 'ere askin' their questions, remember...we knows where each 'n' ev'ry one o' ye 'n' yers takes their rest, [@1A(1)]savvy?[@1A(0)]","Alle mal herhören! Erzählt jedem, dass die Leichtblütigen Sirenen hier gewesen sind. Alle Familien sollen wissen, dass sie in Limsa Lominsa nicht länger sicher leben können!","Vous tous, écoutez-moi bien[@1D]! Que quiconque ose dire un mot sur notre venue ici et je peux vous assurer que sa famille ne sera plus en sécurité à Limsa Lominsa[@1D]!",你们给我听好了！[@CR]如果想在利姆萨·罗敏萨太平地过下去的话，[@CR]不要说“红血圣女团”来过！
133,わかったら、ほら、さっさと動くんだ。[@CR]いつもの仕事に戻りな。,Now back to lookin' busy!,Wir müssen uns langsam zurückziehen. Auf uns wartet Arbeit.,"Allez, allez, on se remet au travail comme si de rien n'était[@1D]!",听懂了就快点给我动起来啊！！！[@CR]像什么都没发生那样给我工作！！
134,エメリックを捜さないと。[@CR]あなたがもし、エメリックを見つけたら伝えて。[@CR]「影のない男」には、決して近づかないようにって。,"I must continue my search for Emerick. Should you happen upon him before I, enjoin him to ware the man without a shadow.","Wir müssen uns auf die Suche nach Emerick machen. Falls du ihm zufällig begegnen solltest, richte ihm aus, dass er sich unbedingt von dem Mann ohne Schatten fernhalten soll.","Je dois absolument retrouver Emerick. Si jamais tu le croises, tu veux bien lui faire passer un message[@1D]? Il ne doit s'approcher de cet homme sans ombre sous aucun prétexte...",我得去找埃默里克。[@CR]你如果看到他告诉他一声。[@CR]不要靠近“无影之男”。
135,そこのあなた！[@CR]こ、こちらへ来てくださいにゃあ！,"Y-You! Over here, quickly! Ask me a question! Anything!","He, du! Komm mal her!","Toi, là-bas, viens par ici[@1D]!",那边的你！[@CR]到这边来！
136,いつもどおり、いつもどおり、と……,We must make this look proper.,Das Gleiche wie immer ...,"On va continuer à discuter, comme si rien ne s'était passé, miaou...",像往常那样工作，工作……
137,所長？[@CR]所長、大丈夫ですかにゃあ？,"First Assessor? First Assessor, are you alright?",Frau Oberinspektor? Ist alles in Ordnung?,"Oh, Madame la directrice[@1D]! Vous allez bien[@1D]?",所长呢？[@CR]所长不要紧吧？
138,……ええ。え、えーとですね。[@CR]そうでした、銃の話でした。,"I... Yes, I was simply lost in thought.","Also, ich, äh ... Ach so, ja, die Pistole!","Oui, je... Je pensais à cette histoire de fusil.",……嗯。那个。[@CR]对了，接着说枪的问题。
139,もう一度、私の方でも調べ直してみます。[@CR]本日は、このままお引き取りくださって結構ですよ。はい、ええ。,"Ah, the weapon. I believe I shall inquire with the Knights of the Barracuda once more. You may go, [@STRING($EB(1))].",Ich werde das noch einmal überprüfen. Für heute kannst du Feierabend machen.,"Je ne te retiens pas plus longtemps, [@SPLIT([@STRING($EB(1))], ,1)], je vais essayer de tirer cette affaire au clair.",我这边会重新调查的。[@CR]今天就请你先回去吧。嗯。
140,なに？　エメリックって奴を捜している？　エメリック……、どこかで聞いた覚えはある名前なんだが……,"Lookin' fer a lad named Emerick, eh?",Was? Du suchst nach Emerick?,"J'ai appris que tu recherches un dénommé Emerick[@1D]? Emerick, c'est un nom qui m'est familier...",……什么？在找叫埃默里克的家伙？[@CR]埃默里克……  好像在哪里听过这个名字……
141,うーん、ありふれた名前だからかな？　とりあえず、だ。渡したいものがあるから、俺んとこに一度、戻ってこい。,"Emerick... Emerick... Sounds right familiar...though I get 'undreds o' lads in me pub every day. Why don't ye come by the Wench? We can talk more o' this fellow's whereabouts o'er a tall, warm ale.","Diesen Namen habe ich doch schon irgendwo mal gehört ... Oder täusche ich mich, weil es ein ganz gewöhnlicher Name ist?[@CR]Aber wie auch immer, komm doch mal bei mir vorbei, ich habe hier noch etwas für dich.","Impossible de me rappeler. Il faut dire aussi que j'ai un tas de gars qui défilent dans mon auberge tous les jours[@1D]! Pour l'instant, passe me voir, j'ai quelque chose à te donner.",嗯，或许因为是个常见的名字吧？总之，我有东西要交给你，回我这里一趟吧。
142,ごくろう、ごくろう。ほら、これをやるぜ。[@CR]冒険者としてやっていくための、ちょっとしたお祝いだ。,"'Ere, take this. Been meanin' t' give it t' ye fer some time now, and now's as good a time as any.","Hier, das ist für dich. Ich finde, als [@IF($E9(4),Abenteurerin,Abenteurer)] hast du es dir verdient.","Tiens [@SPLIT([@STRING($EB(1))], ,1)], c'est pour toi. Je sais que la vie d'aventurier n'est pas toujours facile, alors ça devrait te donner un petit coup de pouce.",辛苦，辛苦。给你这个。[@CR]因为你作为冒险者一直奋斗，所以给你一点贺礼。
143,しかし、あそこまで行くのは難だな。[@CR]方法があるにはあるが、危険な方法だ。[@CR]もう少し腕が上がったなら、俺のところに来な。,"Problem is, gettin' on that vessel ain't goin' to be an easy task, 'specially fer a greenback like yerself. Why don't ye drop by the Wench once ye've a few more notches on yer blade, an' then I might be able t' 'elp ye.","Aber dorthin kommt man nicht so einfach. Es ist nicht unmöglich, aber dafür ziemlich gefährlich. Arbeite noch ein bisschen an deinen Fähigkeiten und schau dann noch mal bei mir vorbei.","Mais tu dois savoir que c'est risqué de se rendre là-bas. Il y a bien un moyen, mais c'est très dangereux. Reviens me voir quand tu te seras un peu plus [@IF($E9(4),aguerrie,aguerri)], d'accord[@1D]?",不过到那里去很危险的。[@CR]方法虽然有，不过是个危险的方法。[@CR]如果你的技能更进一步的话，就来找我吧。
144,サハギン族に協力している人を知っている？,Have you heard of anyone aiding the Sahagin?,"Kennst du Leute, die mit den Sahagin gemeinsame Sache machen?",Avez-vous entendu parler d'humains qui aident les Sahagins[@1D]?,你知道给鱼人族帮忙的人吗？
145,はい,Yes.,"Ja, habe ich schon mal gesehen.",Oui.,知道
146,いいえ,No.,"Nein, sind mir noch nicht untergekommen.",Non.,不知道
147,ロスティンスタルの海賊に入る？,Join Rostnsthal's “crew” (of one)?,"Willst du [@IF($E9(4),eine,einer)] von Rostnsthals Piraten werden?",Voulez-vous rejoindre l'équipage de Rostnsthal[@1D]?,要加入罗斯特恩斯塔尔的海盗团体吗？
148,はい,AYE!,"Ja, auf ins nächste Abenteuer!","Oui, on va faire un malheur[@1D]!",好的
149,いいえ,NAY!,"Nein, ich will keine schwarze Augenklappe tragen müssen.","Non, je ne suis pas [@IF($E9(4),tombée,tombé)] si bas[@1D]!",不要
150,いやはや、こりゃ、大事になるぜ？[@CR]あの島にあったのがどんな宝か知らんが、伝説通りのモノなら……,"That accurs'd treasure'll be the end of us all! I tried warnin' th' 'Cudas, but ain't no one listenin'.","Wenn das Ding erst mal gehoben ist ... Ich weiß zwar nicht genau, was für ein Schatz auf dieser Insel liegt, aber wenn er auch nur annähernd dem gleicht, wovon die Legende berichtet, dann ... hoho!","Oh là là, mais c'est terrible[@1D]! Si la légende sur le trésor qui est enfoui là-bas dit vrai...",哎呀，这可是件大事啊！[@CR]虽然不知道那座岛上的宝物到底是什么，如果是传说中的宝物的话……
151,リムサ・ロミンサが滅びちまってもおかしくねぇ。[@CR]勢い余って、世界が滅びちまったりしてな。,"If ye'd half a brain in yer head, ye'd be on the next ship out of Limsa...though I don't know how far ye'd need to go t' 'scape the horrors that're jus' waitin' to rise up from the abyss.","Es würde mich nicht wundern, wenn Limsa Lominsa eines Tages untergeht. Mit so viel Kraft könnte man glatt die ganze Welt zugrunde richten.",J'ai bien peur que Limsa Lominsa soit rayée de la carte. Et même tout Eorzéa avec elle...,利姆萨·罗敏萨可能会被毁灭的。[@CR]甚至会毁掉整个世界。
152,神妙にしてろ！！！,"Lay one hand on your weapon, and you'll be in chains faster than you can blink!",Keine falsche Bewegung!,Tiens-toi à carreau[@1D]!,老实点！！！
153,さっさと諦めて、そこをどきなさいな。悪いようにはしないわよ。,"You had best not be hiding anything from us, pirate scum. We have ways of...encouraging secrets to make themselves known.",Gib auf und mach den Weg frei! Dann werde ich dir auch nichts tun!,"Abandonne, et laisse-nous travailler, veux-tu[@1D]?",赶紧投降吧，让开。不会伤害你们的。
154,す……すこしでも、動いたら、撃つどー！,"I-I'll shoot! Don't make me sh-shoot, because I will, you know! Shoot, th-that is!","Wenn du dich auch nur einen Schritt bewegst, drücke ich ab!",En-encore un geste et j'ouvre le feu[@1D]!,如……如果你敢乱动的话，我就开枪了！
155,撃てるもんなら、撃ってみやがれや！[@CR]その弾、くるっと避けてやらぁ！,"Any of you derelicts thinks they can take me down, fire away! I've seen fiercer mugs on the stray bitchpups down in Fisherman's Bottom.","Schieß doch, wenn du kannst! Ich werde jeder Kugel ausweichen!","Haha, tu penses avoir une chance de me toucher[@1D]? Essaye un peu pour voir[@1D]!",如果你以为能打中的话，就开枪啊！[@CR]我不会让子弹打中我的！
156,アスタリシア号を潰そうったって、そうはいかないよ。[@CR]騎士とかなんとか名乗ったって、あんたらも海賊じゃないのさ。[@CR]忘れちまったのかい。,"Hah! Ye 'Cudas ain't nothin' more'n pirates with fancy fineries. Ye can try an' take th' Astalicia, but ye'll fail jus' like ye did th' last time...an' th' time afore that!",Dass ich nicht lache! Ihr seid nichts weiter als ein Haufen aufgeputzter Piraten.[@CR]Ihr wollt aus der Astalicia Kleinholz machen? Das wird euch diesmal genauso misslingen wie bei eurem letzten Versuch. Und dem davor ...,Pour qui ils se prennent à débarquer sur l'Astalicia et essayer de faire la loi comme ça[@1D]? On ne se rendra jamais[@1D]!,我是不会让你们毁掉阿斯塔利西亚号的。[@CR]就算你们是骑士还是什么，你们可不是海盗。[@CR]你们难道忘记了吗？
157,なんだおめぇは？　海賊じゃねぇな、冒険者か？,"Who the hell are you? Ain't got the look of a pirate... Adventurer, maybe?","Du schon wieder? Du bist doch [@IF($E9(4),die Abenteurerin,der Abenteurer)] von eben?","Qu'est-ce que tu m'veux[@1D]? Tu m'as pas l'air d'[@IF($E9(4),une,un)] pirate... T'es [@IF($E9(4),aventurière,aventurier)][@1D]?",你怎么回事？不是海盗啊，是冒险者吗？
158,運がいいな、バラクーダ騎士団がいなけりゃ……[@CR]たっぷりと、かわいがってやったんだがなぁ。,"Consider yerself lucky, [@IF($E9(4),lassie,laddie)]. If it weren't fer the 'Cudas, me and me mates'd be whettin' our blades on yer bones.","Nochmal Glück gehabt, [@IF($E9(4),meine Liebe,mein Lieber)]. Wenn die Barrakudas nicht hier wären, hätten wir längst unsere Klingen an deinen Knochen gewetzt.","T'sais qu't'as d'la chance, hein... Si ces satanés chevaliers du barracuda n'avaient pas été là, j'aurais bien pris soin d'toi, à ma façon...",你运气真不错啊，要不是梭鱼骑士团在……[@CR]不然，我们会好好的疼爱你的。
159,く、紅血聖女団……。[@CR]あれに捕まったら、男は奴隷にされて、[@CR]こき使われて、最後は吊るし首って噂の……。,The Sanguine Sirens are infamous for their treatment of men. Rumor has it that all who are captured are made slaves of the female members...and then worked day and [@1A(1)]night[@1A(0)] until they literally collapse from exhaustion. And those who cannot “perform” their duties? It's said they're taken out and hung from the bow of the [@1A(1)]Lady Infernal[@1A(0)]...by their manhood.,"D-Die Leichtblütigen Sirenen ... Es heißt, sie versklaven und schinden jeden Mann, den sie in die Finger kriegen. Am Ende droht angeblich sogar der Strick ...","Les sirènes san[@16]gui[@16]nai[@16]res... Il paraît que si elles capturent un homme, elles en font leur esclave et l'exploitent jusqu'au dernier souffle, avant de le pendre par le cou.",红、红血圣女团……[@CR]据说男人要是被他们抓到的话，就会被他们当奴隶使，[@CR]最后被吊死……
160,ああ。[@CR]こんなことになるなら、大人しく寝坊していればよかったですよ。[@CR]そうすれば今頃は、夢の中でかわいこちゃんたちとイヒヒ……,"Oh, if only I'd stayed in bed and watched the sunrise with that beautiful wench I met at the Wench...","Wenn ich mir vorstelle, was mir da geblüht hätte, bin ich froh, dass ich das alles verschlafen und von süßen Mädchen geträumt habe ...","Aaah, c'est dans ces moments-là qu'on préférerait rester couché. Et dire que je pourrais être là à rêver de moi avec des Miqo'tes en train de... Hihihi[@1D]!",哎。[@CR]要是知道会变成这样的话，老老实实睡一觉就好了。[@CR]那样的话现在就可以在梦里和可爱的女孩们在一起了……
161,こんな恐ろしい女たちに殴られることもなかったんです。イテテ……,"Now it looks as if I may not live to see another...or sunrise, for that matter!",Die würden mich niemals verhauen. Aber diese Sirenen ... Allein schon der Gedanke daran. Aua!,"Au moins, je n'aurais pas eu à endurer leur traitement spécial... Aïe[@1D]!",从来没有被这群可怕的女人殴打过。好疼……
162,は、はい。「メルヴァン税関公社」受付です。[@CR]ただいま、緊急事態発生中です。,I-I a-ask that you remain c-calm while o-our trained p-p-p-professionals bring matters to a s-s-satisfactory conclusion.,"B-B-Bitte R-R-Ruhe bewahren. W-W-Wir haben er-er-erfahrene Exp-p-perten, die sich mit so was ausk-k-kennen.",Ou-oui. V-vous êtes bien à l'accueil d-de la douane de Mealvaan. C-c'est l'état d-d'urgence[@1D]!,是，是的。这里是“梅尔凡海关”接待处。[@CR]现在发生了紧急事态。
163,ご、ご安心ください。[@CR]私たちは多くの海賊と、日々、交渉をしています。[@CR]事故や問題を未然に防ぐため、皆さん、どうか落ち着いてください。,Such occurrences are qu-qu-qu-quite c-c-c-commonplace as we have d-d-dealings with p-p-p-pirates almost every d-d-day...albeit with f-f-f-fewer exp-p-p-plosions. (Oh-gods-oh-gods-Twelve-preserve-us...),"W-W-Wir haben immer wieder mit P-P-Piraten zu tun, und ungewöhnliche Er-Er-Ereignisse sind bei uns an der T-T-Tagesordnung. Wenn auch mit weniger Exp-p-plosionen ...","N-ne vous en faites pas. N-nous avons tout à fait l'habitude de n-négocier avec des p-pirates, quo[@16]ti[@16]dien[@16]ne[@16]ment. Afin de prévenir tout incident, p-permettez-moi de vous demander d-de garder votre c-calme.",请，请放心。[@CR]我们每天都在和很多海盗打交道。[@CR]为了防止事故和问题发生，请大家冷静一下。
164,メルヴァン税関公社にやっと就職できたと思ったのに、この有り様なんて！,I finally complete my training and earn a position at the custom-house...and look what happens!,"Ich war so froh, dass ich eine Anstellung im Mealvaan-Tor gefunden hatte. Und nun das ...","Alors que j'avais enfin réussi à me faire embaucher à la douane de Mealvaan, regardez ce qui arrive[@1D]!",还想着终于能到梅尔凡海关来上班了，没想到竟然发生这种事！
165,もしこの事件で首になったら、「紅血聖女団」に雇ってもらわなきゃ！[@CR]責任とってもらうんだから！,Perhaps I should have ignored my mother and become a pirate instead.,"Wenn sie mich wegen dieser Sache jetzt rausschmeißen sollten, werde ich von den Leichtblütigen Sirenen verlangen, dass die mich einstellen! Schließlich ist das alles nur ihre Schuld.","Si jamais je suis renvoyée à cause de ça, je dois absolument rejoindre l'équipage des sirènes san[@16]gui[@16]nai[@16]res. Je vais leur faire voir[@1D]!",如果因为这件事情被解雇的话，“红血圣女团”可要雇用我们才行！[@CR]你们可要负起责任来啊！
166,だめよ。[@CR]「大人しくしてなさい」って、[@CR]うちのローズウェンさまが言ってたでしょ？,Ye heard the cap'n―keep quiet or we'll cut yer tongue out and feed it to the fishes.,"Nichts da. Wenn du nicht die Klappe hältst, werden wir dir deine Zunge rausschneiden und sie an die Fische verfüttern.","Moins fort[@1D]! Rhoswen a été claire, non[@1D]? “Tenez-vous tranquilles.”",不行啊。[@CR]我们罗丝温大人不是说了吗，[@CR]让你们老实点！
167,それって、できるだけ息をひそめて、[@CR]片隅でブルブルしてなさいってことなのよ？　わかるわね？,Now back over into the corner where ye belong!,"Das soll heißen, du schaltest besser einen Gang zurück. In Ordnung?","Ça veut dire ce que ça veut dire[@1D]! Se cacher dans un coin et trembloter en silence, tu saisis[@1D]?",就是让你们尽可能的屏住呼吸，[@CR]在角落里发抖的意思。明白了吧？
168,どこにいっても逃げられやしないわ。[@CR]あたしたちは「紅血聖女団」。リムサ・ロミンサを牛耳る海賊さまよ。,"Wander about the hall all ye like, drylander. Ain't no one leavin' till Cap'n Rhoswen says so.","Uns kann niemand entfliehen. Ganz egal wohin er geht. Wir sind die Leichtblütigen Sirenen. Die Piraten, die Limsa Lominsa kontrollieren!","Vous aurez beau essayer, impossible de nous échapper. Nous sommes les pirates maîtresses de Limsa Lominsa, les sirènes san[@16]gui[@16]nai[@16]res[@1D]!",无论在哪也不会让你跑掉的。[@CR]我们“红血圣女团”可是控制着利姆萨·罗敏萨的海盗。
169,見てなさい。[@CR]次の提督は、ローズウェン様になるんだから。[@CR]逆らう者はみんな、皮をなめして素敵なカバンにしてあげるわ。,"Mind yer manners, ye may live long enough t' witness her take her rightful spot on the Bridge. Cross her path, and she'll skin ye alive.","Sieh den Tatsachen ins Auge! Der nächste Admiral wird Rhoswen heißen, und jedem, dem das nicht passt, wird sie das Fell über die Ohren ziehen![@CR]... Und es zu einer schönen Handtasche verarbeiten.","Que tout le monde soit prêt pour l'avènement de Rhoswen, qui deviendra bientôt la nouvelle Amirale[@1D]! Ceux qui tenteront de résister seront dépecés et transformés en sac à main[@1D]!",看着吧。[@CR]下一任提督会是我们罗丝温大人。[@CR]敢违抗我们的人，我们会把他的皮剥下来做成皮包。
170,気を失っているようだ。,"[@IF($E9(6),She,He)] seems to be knocked unconscious.","[@IF($E9(4),Sie,Er)] scheint bewusstlos zu sein.",On dirait qu'il a perdu con[@16]nais[@16]san[@16]ce.,好像昏过去了。
171,バラクーダ騎士団の応援に時間がかかる場所だな。[@CR]だから被害が大きかった。,That's why it took so long for reinforcements to arrive from either area...and why so many of them 'Cudas are now feedin' the sharks.,"Dort müssen die Ritter nämlich ziemlich lange warten, bis Hilfe eintrifft. Deshalb gab es so viele Opfer zu beklagen.","Du coup, les renforts des chevaliers du barracuda ont tardé à venir, et les dégâts sont importants.",那个地方要等到梭鱼骑士团的支援需要花上不少的时间。[@CR]所以伤忙惨重。
172,あの二つが本気でぶつかったら、バラクーダ騎士団でも止められネェぞ。,"An' once them two gangs get at it, ain't no stoppin' 'em, 'Cudas included.","Wenn die Sirenen und die Klabauter auf[@16]einander[@16]treffen, lassen sie sich auch durch die Ritter des Barrakuda nicht mehr stoppen.","Si un af[@16]fron[@16]te[@16]ment éclate, ça risque de faire du grabuge[@1D]!",如果他们两个团体动真格的话，就算是梭鱼骑士团也无法阻止啊。
173,どこを探しても、あなたに貸したという銃が見つからないのですが？,"You were lent a weapon―[@SWITCH([@SHEET(itemData,11000002,41)],[@COLOR(#fff3f3f3)],[@COLOR(#ffc0ffa0)],[@COLOR(#ff60c8ff)],[@COLOR(#ffb38cff)],[@COLOR(#ffffa666)],[@COLOR(#ffe5dd7e)])][@EDGECOLOR(#ff262626)][@SHEETEN(xtx/itemName,1,11000002,1,1)][@EDGECOLOR($EC)][@COLOR($EC)]―by one of the Knights of the Barracuda, and now that weapon has gone missing.",Die lässt sich nämlich nirgends auffinden.,Ils restent bredouilles malgrrré leurs recherches.,我们找了很多地方，都没有找到借给你的枪。
174,どこかで売り払っても、すぐに足はつきますよ。[@CR]正直に、すべてを告白した方が身のためです。,"Before you make the mistake of your life, I strongly suggest that you hand over the weapon so we can all return to our blissfully mundane lives.","Wenn sie irgendwo verkauft werden, können wir sie ausfindig machen. Glaub mir, es ist nur zu deinem Besten, wenn du mir alles sagst!","On pourrait les rrretrouver même au bout du monde, donc il serait plus sage pour toi de tout avouer dès maintenant.",不管你把它卖到哪里，都会马上被找到的。[@CR]你老实交代也是为你自己好。
175,サハギン族に協力している[@CR]人がいるって話があるのだけれど、あなたは見たことある？[@CR]どうも、影がない人らしいのだけど……,"Mayhap you can assist me, then. Might you have witnessed any apparently nondescript individuals aiding the Sahagin? Individuals...bereft of their shadows?","Hast du vielleicht Leute gesehen, die mit den Sahagin unter einer Decke stecken? Angeblich haben solche Leute keinen Schatten ...","Un humain rangé du côté des Sahagins, ça te dit quelque chose[@1D]? Comme quelqu'un qui aurait perdu son ombre...",据说有人在给鱼人族帮忙，[@CR]你见到过吗？[@CR]好像是个没有影子的人……
176,宝島……シールロックか。[@CR]バラクーダ騎士団も巻き込んで、大きな争い事が起きやがるな。,"Pirates, fishbacks, 'Cudas... That godsforsaken island's got all Limsa's players at each other's throats.","Schatzinsel ... Doch nicht etwa Robbenholm?[@CR]Wenn die Barrakudas davon Wind bekommen, kann ich mir schon das Gemetzel auf See ausmalen.","L'île au trésor... ou plutôt l'île des Tréfonds[@1D]? Tout le monde s'en mêle, même les chevaliers du barracuda. Je me demande comment tout ça va finir...",宝岛……闭岩岛啊。[@CR]会发生连梭鱼骑士团也卷进去的大乱子啊。
177,ちょいと誰かを使って、[@CR]アスタリシア号へ様子を見にやった方がいいかもしれんぞ、こりゃ。,'Tis 'igh time I sent a man down Astalicia-way t' appraise meself o' th' latest 'appenin's.,"Es könnte nicht schaden, wenn sich jemand auf der Astalicia mal ein wenig umsehen würde.",Peut-être que je ferais bien d'engager quelqu'un pour surveiller l'Astalicia histoire de voir ce qui se mijote.,让谁去阿斯塔利西亚号看看情况吧。
178,冒険者なら、危険な経験は買ってでもするもんだよな？,What's this? Don't tell me th' thought o' mixin' with a few pirates 'as ye cow'd? Not after all ye've seen!,"Echte Abenteurer lassen für ein gutes Abenteuer schon mal ein paar Gil springen, nicht?","Enfin, vous autres aventuriers, vous aimez les sensations fortes, hein[@1D]?",如果是冒险者的话，即使是危险的经验也想得到吧？
179,海賊たちのサロン「アスタリシア号」に顔を出してみるといい。[@CR]客を選ぶところだが、うまくいけば弟子入りできるかもしれないぞ。,"If ye ain't got th' conkers t' stroll through the Astalicia without sullyin' yer britches, that be all the more reason t' get yer arse down there an' on a crew.","Du solltest dich, ganz unverbindlich natürlich, bei den Piraten auf der Astalicia vorstellen. Die suchen immer illustre Gäste für ihren Luxusdampfer. Wenn du Glück hast, engagieren sie dich sogar als [@IF($E9(4),Novizin,Novizen)].","Tu devrais aller sur l'Astalicia leur rendre une petite visite. Ils n'acceptent pas n'importe qui, mais on ne sait jamais, tu leur plairas peut-être[@1D]? Qui ne tente rien n'a rien[@1D]!",你可以去海盗们的沙龙“阿斯塔利西亚号”看看。[@CR]不但可以挑选客人，顺利的话还可以拜师。
180,一応、サハギン族狩りの賞金を上げておけ。[@CR]賞金は、サハギン族の持ち物と引き換えにしておけよ。[@CR]宝がどんなものかがわからんから、珍しいものはかたっぱしから奪い取れよ。,"Every fishback I take down earns me coin fer ale an' women. All's I got t' do is take me a trinket from their cold corpses and trades it in. Don't ask me why anyone'd want that rubbish, but if it fills me tankard, I'm 'appy t' oblige.","Die sollen das Kopfgeld für einen gefangenen Sahagin erhöhen und eine Prämie für alle Sachen zahlen, die einem Sahagin abgeluchst worden sind.[@CR]Keiner weiß zwar, um was für einen Schatz es sich genau handelt, aber ich bin dafür, dass wir uns von denen alles nehmen, was wir kriegen können!","Fais-toi un max d'blé avec la chasse aux Sahagins et profites-en pour récupérer c'qui leur appartient. J'sais pas à quoi r'ssemble c'fameux trésor, mais t'gêne pas pour prendre tout c'qui a d'la valeur[@1D]!",先把捕捉鱼人族的赏金抬高吧。[@CR]赏金要用鱼人族的所有物来交换。[@CR]因为不知道宝物是什么东西，所以就把他们珍贵的东西都抢过来。
181,おまえさんを探して、可愛い女の子がやってきてたぞ。[@CR]「網倉」の子だそうだ。すぐに行ってやるといい。,A wee lass from the Pullers' was up 'ere a few bells back lookin' for you and yours.,"Vorhin war ein hübsches Mädchen von Fischers Bodden hier, das nach dir gefragt hat. An deiner Stelle würde ich sie nicht lange warten lassen.","Une fille plutôt mignonne est passée te chercher, aujourd'hui. Je pense qu'elle est de l'Escale du pêcheur.",有个可爱的女孩子来找你啊。好像是来自“网仓”的人。你赶紧去看看吧。
182,確か前に、一度、行ったことがあったろう。[@CR]ほら、漁師たちがたくさんいる建物さ。,"Ain't no one goin' t' 'old yer 'and all the way down t' Fisherman's Bottom, so get walkin'!","Warst du schon mal dort? Da drin haben die Fischer ihren Stammsitz, wie der Name schon nahelegt.","Tu y es déjà [@IF($E9(4),allée,allé)], je me trompe[@1D]? Mais si, tu sais, ce bâtiment où se retrouvent tous les pêcheurs[@1D]!",之前确实去过一次吧。[@CR]就是有很多捕鱼人在的建筑物。
183,シシプちゃんに誘われるなんて、幸せもの。この。この。,"No, no. Don't know exactly what Sisipu sees in you, but there's not a soul in the guild brave enough to gainsay her once she's made up her mind.",Sisipu hat dich eingeladen? Du bist vielleicht ein Glückspilz!,"Oh, Sisipu t'a donné rendez-vous, rrrendez-vous[@1D]? Quel [@IF($E9(4),chanceuse,chanceux)], hihi.",能得到希希蒲的邀约，幸福啊。你这个家伙。
184,待ち合わせで、女の子を待たせちゃだめですよ。[@CR]せっかく穴場を教えてくれるんですし、ね。うん。うん。,"But I warn you, I do―even think of layin' a finger on the wee lass and every puller in the Bottom'll hunt you down. And when they've finished with you, your member'll be stuck on a hook and dangled o'er a mullet's gullet.","Lass dir bloß nicht einfallen, die Kleine warten zu lassen! Sie zeigt dir immerhin einen Ort, den sonst niemand kennt.","Il ne faut jamais fairrre attendre [@IF($E9(4),quelqu'un,une demoiselle)] lors d'un rendez-vous[@1D]! Surtout quand [@IF($E9(4),cette personne,elle)] t'emmène dans son petit coin secret, secrrret.",让女孩子等你可不好。[@CR]又把好地方告诉了你。嗯嗯。
185,シシプちゃんが言う穴場というのは、あそこかしらん。らん。,"No, no. Don't know exactly what Sisipu sees in you, but there's not a soul in the guild brave enough to gainsay her once she's made up her mind.","Ist die Stelle, die Sisipu meint, vielleicht dort drüben?","Et d'ailleurs, il est où, ce petit coin secret...[@1D]?",希希蒲所说的好地方，好像在那边。
186,うん。うん。[@CR]もしかしたらちょびっと遠いと思うので、準備をしっかりしてくださいね。,"But I warn you, I do―even think of layin' a finger on the wee lass and every puller in the Bottom'll hunt you down. And when they've finished with you, you'll be stuck on a hook and dangled o'er a mullet's gullet.","Kann schon sein, dass es ein klitzeklein wenig weit ist ... Besser, du bereitest dich ordentlich vor.","C'est peut-être un peu loin, donc tu ferais mieux de bien te préparer, prrréparer[@1D]!",嗯，嗯。[@CR]说不定有点远，做好准备再发啊。
187,おまえさんに、「メルヴァン税関公社」から呼び出しがかかってるぞ。[@CR]リムサ・ロミンサに、マズイものでも持ち込んだのか？,"Jus' been on th' pearl wi' them scholarlies down at Mealvaan's Gate. Seems they's lookin' fer ye. Now what could that be about? Ain't gone an' brung summat unsavory into port [@1A(1)]again[@1A(0)] now, 'ave ye?","He, [@IF($E9(4),junge Abenteurerin,junger Abenteurer)]! Jemand vom Mealvaan-Tor wollte dich sprechen. Hast du etwa irgendwelche vergammelten Fische eingeschleppt?","Tu as une convocation de la douane de Mealvaan. Rassure-moi, tu n'as pas introduit de mar[@16]chan[@16]di[@16]ses douteuses dans Limsa Lominsa, hein[@1D]?",“梅尔凡海关”来传唤你了。[@CR]你把什么不好的东西带到利姆萨·罗敏萨去了吗？
188,バラクーダ騎士団が捕まえには来てないから、[@CR]そんなに危険なものじゃなかったんだろう。[@CR]だが呼び出しは、呼び出しだ。急いで行ってこい。,"'Course, the scholarlies would've sent the 'Cudas t' fetch ye if ye [@1A(1)]was[@1A(0)] in any bother, so I doubts yer neck be in th' noose jus' yet.","Da aber noch keiner von den Barrakuda-Rittern hier aufgekreuzt ist, um dich festzunehmen, kann es nichts Gefährliches gewesen sein. Andererseits: Eine Vorladung ist und bleibt eine Vorladung. Besser, du gehst bald ...","Les chevaliers du barracuda ne sont pas venus t'arrêter, donc ça ne doit pas être très grave. Mais une convocation, c'est une convocation. Allez, dépêche-toi d'y aller[@1D]!",因为不是梭鱼骑士团来抓你，[@CR]所以应该不是那么危险的东西，[@CR]不过终归是传唤。你赶紧去吧。
189,エメリック……ぶっ殺してやる。,"If Emerick manages to live through the night, I shall slit his throat with the cock's crow.",Emerick ... diesen Kerl lege ich um!,"Emerick... Si je le trouve, je le réduis en miettes[@1D]!",埃默里克……我要杀你了。
190,バラクーダ騎士団の牢屋にはいなかったのよぉ。[@CR]そうなると次に怪しいのは、ここ「メルヴァン税関公社」よね。,"After finding the Coral Tower's brig empty, our captain suspected Carvallain's rat might be stowed away here in the Admiral's vaults instead.",Im Kerker des Korallenturms war er nicht.[@CR]Dann kommt als Nächstes das Mealvaan-Tor in Frage.,"Nous ne l'avons pas trouvé dans la prison des chevaliers du barracuda. Ça veut dire que le seul endroit où il peut être détenu, c'est ici, à la douane de Mealvaan.",他不在梭鱼骑士团的牢房里。[@CR]所以下一个可疑的地方，就是“梅尔凡海关”了。
191,早く見つけてあげないと、メロドランさん怒っちゃうわぁ？,I daresay Carvallain'll be hoping the 'Cudas showed a bit more creativity.,"Wenn wir ihn nicht bald finden, wird Merodaulyn mächtig sauer werden.","Il faut vite le retrouver, sinon Merodaulyn va s'énerver pour de bon[@1D]!",不早点找到他的话，梅洛多兰会生气的！
192,……ところでな、おまえさんが探している[@CR]エメリックって奴だが、バラクーダ騎士団に匿われてる奴のことか？[@CR]もしそうなら、沖に出ている軍船があやしいぜ。,"Now about this Emerick. Ye're after th' treacherous sod what went an' sold th' 'Cudas t' th' fishbacks fer an 'andful o' sparklies, eh? Well, if I was th' bettin' sort, I'd wager 'e'd be caged o'er in th' big dromond anchored offshore. Them knights send th' worst o' th' worst out there 'til they be sentenced.","Moment mal! Wenn dieser Emerick, den du suchst, der Kerl ist, den die Barrakudas heimlich geschnappt haben, müsste er auf diesem Schlachtschiff sein, das immer auf offener See ankert.","Au fait, cet Emerick que tu cherches, et s'il était sur ce navire des chevaliers du barracuda qui stationne au large[@1D]? Il arrive que des prisonniers y soient transportés.",……话说，你在找的那个叫埃默里克的家伙[@CR]，是梭鱼骑士团藏起来的家伙吧？[@CR]要是那样的话，他可能在海上的军船上。
193,なんだ、なんなんだ！[@CR]すぐにバラクーダ騎士団が来るから、たいしたものは運びだせないぞ！？,"Your petty attempts at thievery will gain you naught, Sirens! Everything here before you has been documented in triplicate! The noble Knights of the Barracuda will have it all back before your rotting bodies are pecked clean by the gulls!",Geht's noch? Hier werden jeden Augenblick die Barrakudas auftauchen. Da kann ich keine großen Sachen mehr transportieren!,"Q-quoi, qu'est-ce qu'il y a[@1D]? Avec les Barracudas qui vont arriver d'une minute à l'autre, impossible d'emporter des mar[@16]chan[@16]di[@16]ses en[@16]com[@16]bran[@16]tes[@1D]! C'est pour ça que je me sers dans les babioles légères...",搞什么啊！[@CR]梭鱼骑士团一会就要来了，我可不会让你把重要的东西带走的！
194,……「大海蛇」が再び現れたなら、[@CR]リムサ・ロミンサはかなりやばいってことだ。[@CR]あんなことが二度と起こらないでほしいんだが……,Don't care to count 'ow many o' th' seven 'ells we'd be in if it turned out there was somethin' in them serpent-beast rumors.,"Wenn es stimmt, dass die Seeschlange wieder aufgetaucht ist, dann ist es um Limsa Lominsa wahrlich nicht zum Besten bestellt.[@CR]Ich kann nur hoffen, dass Llymlaen ein Einsehen mit uns hat ...","Si le serpent de mer est vraiment de retour, l'heure est grave pour Limsa Lominsa. Pourvu que cette tragédie ne se reproduise pas...",……如果“大海蛇”再度出现的话，[@CR]利姆萨·罗敏萨就很危险了。[@CR]希望那种事情不要再发生第二次……
195,……。,I have no more words for you.,...,...,……
196,ロスティンスタルの野郎、縁起でもねぇこと言いやがって。[@CR]「彷徨える燕尾岩」の伝説かよ……,"Swallowtail Roam? Hah![@CR]I take it ye was lucky enough t' catch ol' Rostnsthal on one o' them rare occasions when he weren't fillin' his gods-awful, bilge-spewin' maw with sour ale!","Die Legende von der wandernden Schwalbe ... Ich kann förmlich riechen, dass Rostnsthal da mit drin hängt!",Satané Rostnsthal...,罗斯特恩斯塔尔那家伙，总说一些不吉利的话。[@CR]说什么“彷徨的燕尾岩”的传说……
197,大変なことになったのにゃ。[@CR]ジャ・アールさまが青い顔して、あわあわなのにゃ……,All is not well... First Assessor J'arhll looked paler than usual...,Das hat uns gerade noch gefehlt. J'arhll ist blau angelaufen und spuckt Schaum ...,C'est terrible[@1D]! Madame J'arhll est dans un de ces états... C'est la prrremière fois que je vois quelqu'un devenir de cette couleur.,大事不好了。[@CR]嘉·爱尔大人的脸色很难看，没有血色……
198,コーラルタワーの牢屋に大物を捕まえとくと、[@CR]海賊どもが強襲して、民間人や旅人に怪我人が出るからなぁ。[@CR]結構前に、スタルマンの旦那が、船を使う手を思いついたんだよ。,"Keep a brigand like that in the Coral Tower an' it won't be long afore some lad wi' the fires o' vengeance burnin' an 'ole in 'is belly scales 'is way up the walls, 'ops into th' cell, an' does the sorry bugger in 'is sleep. 'Twas ol' Sthalmann's idea t' 'ide 'im away in th' ship, it was.","Wenn man im Korallenturm wichtige Leute einbuchtet, würden die Piraten garantiert einen Angriff versuchen. Dann würde man viele Verletzte unter den Einwohnern und Reisenden zu beklagen haben.[@CR]Deshalb hat Kommodore Sthalmann vor langer Zeit das Schiff zum Gefängnis umfunktioniert.","Quand un gros poisson est détenu dans la prison de la tour de Corail, les pirates y donnent l'assaut et font de sacrés dégâts. Sthalmann a donc eu l'idée de se servir de ce bateau comme prison annexe.",如果把大人物抓到珊瑚塔的牢房去的话，[@CR]海盗们会强攻过来，老百姓和旅行者都会受伤的。[@CR]很早以前，斯塔尔曼就想到用船的方法了。
199,おう、ちゃんと「メルヴァン税関公社」には顔を出したか？[@CR]冒険者だからといって、自由きままにやりすぎると大目玉を食らうぜ？,"Back from th' scholarlies' already? Didn't 'ave too much fun now, did ye?","Du hast dem Mealvaan-Zollfahndungsamt einen Besuch abgestattet?[@CR]Nun ja, als [@IF($E9(4),Abenteurerin,Abenteurer)] kann man halt auch nicht machen, was man will. Wer es es zu bunt treibt, der muss sich auf Konsequenzen gefasst machen.","Alors, tu as été te présenter à la douane de Mealvaan[@1D]? Ne crois pas que tu peux n'en faire qu'à ta tête sous prétexte que tu es [@IF($E9(4),une aventurière,un aventurier)], tu pourrais avoir des problèmes[@1D]!",哦，你已经去过“梅尔凡海关”了吧。[@CR]虽说是冒险者，不过太过随意的话会惹大麻烦的。
200,……で？　なに？　エメリックって奴を捜している？[@CR]エメリック……、どこかで聞いた覚えはある名前なんだが……,What's this? Ye say ye're lookin' fer a lad named Emerick? Emerick... Emerick... Why don't ye give me a few bells t' chew on the name and then ring me up on the aether.,Und nun? Was? Du suchst nach Emerick?,"Hein, tu cherches un dénommé Emerick[@1D]? Emerick, c'est un nom qui m'est familier...",……什么？在找叫埃默里克的家伙？[@CR]埃默里克……  好像在哪里听过这个名字……
