 ,0,1,2,3,4
 ,str,str,str,str,str
1,「マテリア」について書かれた書物のようだ。,The tome appears to be a treatise on materia creation and application.,„Schriften über Materia“,Cet ouvrage est un traité sur les matérias.,这似乎是记录着有关“魔晶石”的书籍。
2,何について確認しますか？,Select a chapter.,Worüber möchtest du nachlesen?,Quel chapitre voulez-vous consulter[@1D]?,需要对什么进行相关确认？
3,マテリア化について,Chapter I ─ Creating Materia,Über die Materia-Synthese.,La matérialisation.,关于魔晶石化
4,触媒の採集について,Chapter II ─ Catalysts,Über das Sammeln von Katalysatoren.,Les catalyseurs.,关于触媒的采集
5,マテリアの装着について,Chapter III ─ Melding Materia,Über das Einsetzen von Materia.,Le sertissage.,关于魔晶石的镶嵌
6,確認することはない,Close tome.,Die Schriften zurücklegen.,Aucun en particulier.,没有需要确认的
7,内容が難解すぎて理解できない……。,The text features such a preponderance of jargon that you find yourself utterly unable to comprehend its meaning.,Der Inhalt dieser Schriften übersteigt deinen geistigen Horizont ...,Le livre est écrit dans un jargon scien[@16]ti[@16]fi[@16]que qui vous passe com[@16]plè[@16]te[@16]ment au-dessus de la tête...,内容过于晦涩无法理解……
8,錬精度が100％になった装備品を[@CR]マテリアへと昇華させる行為を「マテリア化」と呼びます。,Materia is a synthetic stone created from equipment which shares a complete [@1A(1)]spiritbond[@1A(0)] with its owner.,"Die Sublimation eines Ausrüstungsgegenstands, zu dem dessen Besitzer eine vollkommene, hundert[@16]prozen[@16]tige emotionale Bindung aufgebaut hat, nennt man „Materia-Synthese“.",La matérialisation est le phénomène de transformation en matéria d'une pièce d'équipement en parfaite symbiose avec son pro[@16]prié[@16]taire.,使珍惜度达到100％的装备[@CR]升华为魔晶石的行为叫做“魔晶石化”。
9,何について確認しますか？（マテリア化）,Read on?,Was an der Materia-Synthese interessiert dich im Besonderen?,Quel aspect de la matérialisation vous intéresse[@1D]?,需要对什么进行相关确认？（魔晶石化）
10,マテリア化の方法について,Section I ─ The Procedure,Die Methode.,La procédure.,关于魔晶石化的方法
11,マテリア化できない場合について,Section II ─ Item Suitability,Die Ausnahmefälle.,Les limites.,关于无法进行魔晶石化的情况
12,マテリア化の結果について,Section III ─ Resultant Materia,Die Ergebnisse.,Les résultats.,关于魔晶石化的结果
13,錬精度について,Section IV ─ Spiritbonds,Die emotionale Bindung.,La symbiose.,关于珍惜度
14,錬精度の上昇について,Section V ─ Forming a Spiritbond,Das Anwachsen der emotionalen Bindung.,L'augmentation de la symbiose.,关于珍惜度的提升
15,錬精度の減少について,Section VI ─ Breaking a Spiritbond,Die Abnahme der emotionalen Bindung.,La perte de la symbiose.,关于珍惜度的减少
16,確認することはない,Return to table of contents.,An den Anfang des Schriftstücks zurückkehren.,Aucun en particulier.,没有需要确认的
17,「マテリア化」は、「アイテムリスト」から実行できます。[@CR]メインメニューの「アイテム」から任意の装備品を選択し[@CR]右側に表示されるコマンドリストから「マテリア化」を選択してください。,"In order to transform a piece of gear into materia, you must first examine the candidate item inside your inventory. You will then be presented with the option to create materia from it.",Materia-Synthese kann über das Inventar vorgenommen werden. Hierzu wählt man frei einen Ausrüstungsgegenstand im Inventar aus und klickt in dem sich daraufhin rechts öffnenden Menü auf das gleichnamige Kommando „Materia-Synthese“.,"Pour matérialiser un objet, sélectionnez-le dans votre inventaire puis choisissez l'option “Matérialisation” dans le menu de droite.",“魔晶石化”可以于“物品列表”执行。[@CR]请于主菜单的“道具”中任意选择装备物品[@CR]然后在显示于右侧的指令菜单中选择“魔精石化”。
18,錬精度が100％に達していない装備品は「マテリア化」できません。[@CR]また、装備品の一部には、錬精度が100％に達した場合でも[@CR]「マテリア化」できないものがあります。,"Only equipment with which you have formed a complete spiritbond can be made into materia. Please note, however, that certain items are unsuitable for conversion, regardless of whether you have or have not formed such a bond. Behold the fickle nature of inanimate objects.","Es gibt einige Aus[@16]rüstungs[@16]gegen[@16]stände, die sich auch dann nicht in Materia umwandeln lassen, wenn die emotionale Bindung zu ihnen 100 % erreicht hat.","Il est impossible de matérialiser un objet qui n'a pas atteint 100% de symbiose. Par ailleurs, certaines pièces d'équipement ne peuvent pas être transformées en matéria, indépendamment de leur taux de symbiose.",珍惜度未达100％的装备物品无法进行“魔晶石化”。[@CR]但是，也有一部分珍惜度达到了100％[@CR]依然无法实现“魔晶石化”的装备物品。
19,「マテリア化」を行うと、装備品は「マテリア」に変わり、[@CR]装備することができなくなります。なお「マテリア化」に[@CR]失敗することはありません。,"The transformation of equipment into materia is irreversible─once the process has been initiated, you will never see the item in question again, let alone equip it. Readers will be relieved to know, however, that no recorded attempt to create materia has ever resulted in failure (at the time of printing), save for when the candidate items did not fulfill all the requirements.","Beim Durchführen einer Materia-Synthese wird ein Ausrüstungsgegenstand unwiederbringlich in Materia umgewandelt. Da der verwendete Gegenstand hierbei vollständig in Äther sublimiert und dann wiederum zu Materia kristallisiert wird, kann er nicht mehr angelegt werden. Die Materia-Synthese gelingt immer.","La transformation d'une pièce d'équipement en matéria est irréversible. Une fois la procédure terminée, elle sera donc perdue en tant que telle. En contrepartie, une matérialisation réussit toujours.",实行“魔精石化”后，装备物品会变成“魔晶石”，[@CR]无法再次进行装备。并且“魔精石化”有一定概率[@CR]出现失败。
20,生成される「マテリア」の種類は、「装備品のレベル」または[@CR]武器の種類・防具の部位といった「装備品のカテゴリ」によって異なります。,"The type and level of the chosen item combine to determine the properties of the resultant materia. However, the selfsame equipment has been observed to yield materia of varying effects and potency. This variation has yet to be fully explained, though certain trends have been discerned.","Die Sorte der entstehenden Materia hängt nicht nur von der Stufe ab, für die der verwendete Gegenstand gedacht war. Die Art einer verwendeten Waffe, der Slot, an dem ein verwendetes Aus[@16]rüs[@16]tungs[@16]teil angelegt wurde, sowie die Gegenstandskategorie - all diese Faktoren spielen eine Rolle.","La matéria créée varie en fonction du niveau de l'équipement, ainsi que du type de l'arme ou de l'armure.",形成的“魔晶石”的种类，会因“装备的等级”[@CR]以及武器的种类，防具的部位等“装备物品的类型”的差异而不同。
21,錬精度は、装備品に対する使用者の思念の投影を数値化した値です。[@CR]錬精度が100％に達すると、その装備品の「マテリア化」が可能になります。,"A spiritbond is the measure of a piece of equipment's aetheric alignment with a living being─in other words, the degree of intimacy between object and man. Once a complete spiritbond is formed, the item in question can be transformed into materia, a synthetic stone capable of housing myriad powers.","Die emotionale Bindung soll in einem Zahlenwert ausdrücken, wie sehr ein Ausrüstungsgegenstand seinem Besitzer ans Herz gewachsen ist.","La symbiose est la mesure du lien entre une pièce d'équipement et son pro[@16]prié[@16]taire. Lorsqu'une symbiose parfaite est atteinte, cette pièce d'équipement peut alors être matérialisée.",珍惜度为使用者对装备物品的留恋度的具体数值。[@CR]珍惜度达到100%就可以实行装备物品的“魔晶石化”了。
22,装備品の錬精度は、「性能ウィンドウ」で確認することができます。[@CR]メインメニューの「アイテム」から、任意の装備品を選択すると[@CR]ウィンドウ下側に、錬精度がバー形式で表示されています。,"To view the strength of an item's spiritbond, simply examine it inside your inventory. A gauge will appear which indicates the progress you have made towards forming a full spiritbond.","Wählt man in seinem Inventar einen beliebigen Ausrüstungsgegenstand aus, so kann man ganz unten in dessen Hilfstext die emotionale Bindung in Form eines sich füllenden Balkens ablesen.","Votre degré de symbiose avec une pièce d'équipement est indiqué par une barre, en bas de la fenêtre détaillant les ca[@16]rac[@16]té[@16]ri[@16]sti[@16]ques de l'objet.",装备物品的珍惜度，可于“功能窗口”中进行确认。[@CR]于主菜单的“道具”中，选择任意装备物品，[@CR]代表珍惜度的棒形就会出现在窗口下侧。
23,錬精度は、装備品を装備して戦闘、製作、採集をしていると徐々に上昇します。[@CR]耐久度が0%の場合は上昇せず、適性ではない装備品を使用している場合は[@CR]上昇しにくくなります。,"An item's spiritbond increases as you battle, craft, or gather while equipped with it. Please note, however, that the development of the bond will be inhibited if the item's optimal rank is above your own, or when its [@1A(1)]Condition[@1A(0)] falls to zero.[@CR]※ The mechanism by which inanimate objects impose conditions upon the formation of spiritbonds is the subject of a separate study.","Die emotionale Bindung zu einem Ausrüstungsgegenstand steigt jedes Mal, wenn man den entsprechenden Gegenstand benutzt. Also wenn man damit kämpft, eine Synthese oder aber Sammlerarbeiten durchführt - je nach Art des Gegenstandes. Wenn man der Empfehlung für einen Gegenstand nicht entspricht, steigt sie langsamer, wenn sein Zustand auf 0 % gesunken ist, gar nicht.","La symbiose d'une pièce d'équipement augmente si vous en êtes équipée lorsque vous combattez, synthétisez des objets ou récoltez. Les pièces dont la condition est à 0% ne gagnent pas en symbiose, et celles n'étant pas adéquates à votre niveau/classe actuels en gagnent dif[@16]fi[@16]ci[@16]le[@16]ment.",珍惜度会在穿戴装备物品进行战斗，生产，采集的同时慢慢上升。[@CR]耐久度为0%的情况无法上升，使用没有适应性的装备珍惜度上升会很缓慢。
24,トレードや売買によって[@CR]プレイヤー間で装備品の授受が行われた場合、[@CR]対象となった装備品の錬精度は0％になります。,"Relinquishing an item, be it via trading or selling, renders its spiritbond dissolved, much as betrayal leads to shattered trust.[@CR]※ The mechanism by which inanimate objects sense, or appear to sense, changes in ownership is the subject of a separate study.","Handelt man einen Gegenstand mit anderen Charakteren oder verkauft ihn im Marktrevier oder an einen NPC, so sinkt die emotionale Bindung zu diesem Gegenstand auf 0.","La symbiose d'une pièce d'équipement qui change de pro[@16]prié[@16]taire, que ce soit par la vente ou l'échange, disparaît com[@16]plè[@16]te[@16]ment.",由于交易或买卖[@CR]导致玩家之间装备品互换时，[@CR]目标装备物品的珍惜度会归零。
25,「マテリア」を装備品に装着するためには、「触媒」と呼ばれる[@CR]アイテムが必要です。触媒は、ギャザラーの「採集」によって[@CR]入手することができます。,"Melding materia to equipment requires a special substance known as a catalyst. Catalysts occur in nature, and can be found and gathered by Disciples of the Land.","Zum Einsetzen einer Materia in einen Ausrüstungsgegenstand wird ein spezieller, als Katalysator bezeichneter Gegenstand benötigt. Katalysatoren können von allen Sammlerdisziplinen bei Sammlerarbeiten gefunden werden.",Les catalyseurs sont in[@16]dis[@16]pen[@16]sa[@16]bles durant le processus de sertissage d'une matéria dans une pièce d'équipement. Ils sont obtenus via la récolte.,将“魔晶石”镶嵌到装备品上时，需要用到“触媒”[@CR]这种道具。它可以通过能工巧匠的“采集”[@CR]来获得。
26,何について確認しますか？,Read on?,Was an den Katalysatoren interessiert dich im Besonderen?,Quel aspect des catalyseurs vous intéresse[@1D]?,需要对什么进行相关确认？
27,触媒の採集方法について,Section I ─ Procuring Catalysts,"Die Art und Weise, wie man sie sammeln kann.",Leur récolte.,关于触媒的采集方法
28,採集できる触媒の種類について,Section II ─ Types of Catalyst,Die verschiedenen Sorten.,Leurs types.,关于可采集触媒的种类
29,確認することはない,Return to table of contents.,An den Anfang des Schriftstücks zurückkehren.,Rien en particulier.,没有需要确认的
30,「触媒」は、ギャザラーがゴッドセンド「ゴッズプリント」を[@CR]メインメニューの「アクションメニュー」にセットしている時だけ[@CR]採集することができます。,Catalysts can only be gathered by Disciples of the Land for whom the “Fingerprints of the Gods” ability is active. This ability enables the detection of catalysts which would otherwise go unnoticed by even the keen of eye.,"Um Katalysatoren aufspüren zu können, müssen Sammler über die Kommandoliste bei „Talente (Synthese & Sammeln)“ das besondere Talent „Spur der Götter“ anlegen.",Vous pouvez récolter des catalyseurs en plaçant “Empreinte des dieux” dans la barre de bienfaits du menu des actions.,只有能工巧匠将天赋“众神的指纹”[@CR]设置于主菜单的“技能菜单”时，才可以完成[@CR]“触媒”的采集。
31,特定の採集場所で、ゴッドセンド「ゴッズプリント」が発動すると[@CR]「Aimフェイズ」のゲージが発光し、「触媒」を発見することができます。[@CR]さらに「触媒」が採集対象となった場合、「Approachフェイズ」の[@CR]ゲージが点滅します。,"When the ability is triggered during gathering, the Aim Gauge will light up, indicating that you are capable of detecting catalysts. Should a catalyst be present at the gathering point, the Approach Gauge will begin to blink.","Hat man dieses Talent angelegt, so kommt es an bestimmten Sammelstellen vor, dass der Balken in der Phase, in der man das Ziel auswählt, zu leuchten anfängt. Dann kann man Katalysatoren finden.[@CR]Wird ein Katalysator-Gegenstand während eines Sammelversuchs zum Ziel desselben, so fängt der Balken während dieser Phase an zu blinken.","Lorsque le bienfait “Empreinte des dieux” se déclenche durant une récolte, la jauge de visée brille pour vous indiquer que vous avez une chance de détecter un catalyseur. Si un catalyseur est présent au point de récolte, la jauge d'approche clignote.",在特定的采集地点发动天赋“众神的指纹”之后，[@CR]“垂直尺”便会发光，就能找到“触媒”了。[@CR]“触媒”变为采集对象的时候，“探测表”会开始闪烁。
32,「触媒」には、さまざまな種類があります。[@CR]採集作業を行うギャザラーのクラスや、採集ポイントの[@CR]グレードによって、入手できる「触媒」の種類が異なります。,"There exist various kinds of catalysts, with the gathering point and grade thereof determining the type yielded.","Es gibt viele verschiedene Sorten von Katalysatoren. Welche man findet, hängt davon ab, mit welcher Charakterklasse man sammelt, an welcher Art von Sammelstelle man sein Glück versucht und davon, welche Güteklasse die Sammelstelle hat.",Il existe différents types de catalyseurs. La classe de récolte et le niveau du point de récolte déterminent le type de catalyseur récolté.,“触媒”多种多样。[@CR]基于进行采集工作的能工巧匠的等级以及采集点和[@CR]品质级别的差异，获得的“触媒”也会不同。
33,クラフターは、装備品に「マテリア」を装着することができます。,The melding of materia to equipment falls within the domain of Disciples of the Hand.,Materia kann nur von Disziplinen der Handwerker eingesetzt werden.,Seuls les disciples de la main sont capables de sertir des matérias.,大地使者可以将“魔晶石”镶嵌到装备物品上。
34,何について確認しますか？,Read on?,Was am Einsetzen interessiert dich im Besonderen?,Quel aspect du sertissage vous intéresse[@1D]?,需要对什么进行相关确认？
35,マテリアの装着に必要なものについて,Section I ─ Required Ingredients,Die dafür benötigte Ausrüstung.,Les ingrédients nécessaires.,没镶嵌魔晶石时必要的条件
36,マテリアの装着方法について,Section II ─ The Melding Process,Die Art und Weise.,La procédure.,关于魔晶石的镶嵌方法
37,複数のマテリアの装着方法について,Section III ─ Melding Multiple Materia,Das mehrfache Einsetzen von Materia in einen Gegenstand.,Le sertissage de plusieurs matérias.,关于复数魔晶石的镶嵌方法
38,装着したマテリアを除去する方法について,Section IV ─ Purging Materia,Das Entfernen eingesetzter Materia.,Le dessertissage.,关于摘除已镶嵌的魔晶石的方法
39,確認することはない,Return to table of contents.,An den Anfang des Schriftstücks zurückkehren.,Rien en particulier.,没有需要确认的
40,「マテリア」を装着するためには、対象となる装備品と「触媒」が必要です。[@CR]一回につき、ひとつの装備品にひとつの「マテリア」を装着することが[@CR]できます。その際、「マテリア」と「触媒」は消費されます。,"Melding a piece of materia to an item of equipment cannot be achieved via conventional means─a compatible catalyst is required. Catalysts serve to stabilize materia, allowing them to merge with host items.[@CR]※ Catalysts are consumed during the melding process.","Zuerst einmal benötigt man den Ausrüstungsgegenstand, in den etwas eingesetzt werden soll, sowie den entsprechenden Katalysator.[@CR]In einen Gegenstand lässt sich eine Materia einsetzen, wobei sowohl die verwendete Materia als auch der verwendete Katalysator aufgebraucht werden.",Une matéria doit être stabilisée avec un catalyseur pour pouvoir être sertie dans une pièce d'équipement. La matéria et le catalyseur dis[@16]pa[@16]rais[@16]sent durant le sertissage.,镶嵌“魔晶石”时，需要对目标装备物品使用催化剂。[@CR]每次可以对一件装备物品镶嵌一件“魔晶石”。[@CR]镶嵌完成时，“魔晶石”与“触媒”将会被消耗掉。
41,「マテリア」の種類に応じて、装着できる装備品の種類や[@CR]必要となる「触媒」の種類が異なります。,"Not all catalysts are suitable for use with all materia. Similarly, specific materia can only be attached to certain types of equipment.[@CR]※ The mechanism by which materia appears to select or reject its mate is the subject of a separate study.","[@1A(1)]Entsprechender[@1A(0)] Katalysator daher, weil sich der zu verwendende Katalysator je nach Stufe des Ausrüstungsgegenstands unterscheidet. Außerdem kann nicht jede Materia in jede Sorte von Ausrüstungsgegenstand eingesetzt werden.","Le type de catalyseur à utiliser varie en fonction des matérias. De plus, une matéria spécifique ne peut être sertie que dans certaines pièces d'équipements.",因为“魔晶石”种类不同，可实施镶嵌的的装备物品种类[@CR]与所需的“触媒”种类也有相应差异。
42,マテリアを装着することができるクラフターは、対象となる装備品を[@CR]「製作することができるクラス」のクラフターのみとなります。[@CR]さらに、規定のレベルを満たしている必要があります。[@CR],The melding of materia is a delicate procedure that demands the expertise of Disciples of the Hand─and only those who fulfill the class and level requirements for crafting the host item.,"Nur Handwerker können Materia in Aus[@16]rüstungs[@16]gegen[@16]stände einsetzen, und auch nur dann, wenn sie die richtige Charakterklasse sowie die benötigte Stufe besitzen. Achtung, diese Stufe ist nicht diejenige zum Herstellen oder Reparieren des Gegenstandes, sondern die, die man zum Anlegen braucht.","Pour pouvoir sertir une pièce d'équipement, il est obligatoire de remplir les conditions de classe et de niveau pour la synthétiser.",可将魔晶石镶嵌于目标装备物品的大地使者[@CR]限定于达到“相应的制作等级”的大地使者。[@CR]并且，需要满足所规定的级别。[@CR]
43,メインメニューの「アイテム」から、任意のマテリアを選択すると[@CR]情報が表示され、性能、装着できる装備品の種類・レベル、[@CR]必要な「触媒」を確認することができます。,"The requirements for melding, such as minimum class level and compatible equipment and catalysts, can be reviewed by examining individual pieces of materia inside your inventory.","Wählt man eine Materia im Inventar aus, so bekommt man angezeigt, in welche Ausrüstung sie eingesetzt werden kann, also welche Sorte und welche Stufe, ab der sie angelegt werden kann. Außerdem sieht man, welcher Katalysator erforderlich ist.","Vous pouvez vérifier les pièces d'équipements compatibles, le catalyseur et le niveau de la classe nécessaires pour sertir une matéria en examinant celle-ci dans votre inventaire.",于主菜单“道具”中选择任意魔晶石[@CR]可获得相应信息，以便确认可实施镶嵌的装备物品的种类，[@CR]以及所需的“触媒”和大地使者在加工时需要达到的等级。
44,マテリアを装着するには、メインメニューの「アイテム」から[@CR]マテリアで強化したい対象の装備品を選択し、右側に表示される[@CR]コマンドリストから「マテリア装着」を選択してください。,"In order to attach a piece of materia to an item of equipment, begin by examining the latter inside your inventory. When you do so, you will be presented with the option to choose materia.","Um eine Materia in einen Ausrüstungsgegenstand einzusetzen, wählt man den entsprechenden Gegenstand im Inventar aus. Daraufhin wird rechts die Option „Materia auswählen“ eingeblendet.","Pour sertir une matéria, vous devez d'abord sélectionner une pièce d'équipement dans votre inventaire. Sélectionnez ensuite “Sertissage” dans le menu de droite.",镶嵌魔晶石时，从主菜单的“道具”中[@CR]选择的需要强化的目标装备物品会表示在右侧。[@CR]请于指令菜单里面选择“镶嵌魔晶石选择”。
45,すると、現在所持しているマテリアが表示されるので、[@CR]その中から希望のマテリアをひとつ、選択してください。,Selecting this option will bring up a list of materia currently in your possession.,"Ein Klick auf diese Option wiederum zeigt alle Materia an, die sich momentan im eigenen Besitz befinden.",Vous devez ensuite choisir une matéria parmi celles que vous possédez.,目前，所持的魔晶石被显示了出来。[@CR]请于其中选择一个需要使用的魔晶石。
46,"装備品とマテリアの情報をよく確認し、よければ[@CR]ウィンドウ下部の「マテリア装着」で決定しましょう。[@CR]「[@SWITCH([@SHEET(itemData,2001002,41)],[@COLOR(#fff3f3f3)],[@COLOR(#ffc0ffa0)],[@COLOR(#ff60c8ff)],[@COLOR(#ffb38cff)],[@COLOR(#ffffa666)],[@COLOR(#ffe5dd7e)])][@EDGECOLOR(#ff262626)][@SHEET(xtx/itemName,2001002,4)][@EDGECOLOR($EC)][@COLOR($EC)]」が起動し、装備品にマテリアが装着されます。","Choose the piece of materia you wish to attach, and then select [@19(1)]Meld[@19(0)]. Doing so will activate [@SWITCH([@SHEET(itemData,2001002,41)],[@COLOR(#fff3f3f3)],[@COLOR(#ffc0ffa0)],[@COLOR(#ff60c8ff)],[@COLOR(#ffb38cff)],[@COLOR(#ffffa666)],[@COLOR(#ffe5dd7e)])][@EDGECOLOR(#ff262626)][@SHEETEN(xtx/itemName,2,2001002,1,1)][@EDGECOLOR($EC)][@COLOR($EC)] and initiate the melding process.","Nun wählt man aus der angezeigten Liste die Materia aus, die man einsetzen möchte, und klickt dann auf „Materia einsetzen“. Daraufhin wird [@SWITCH([@SHEET(itemData,2001002,41)],[@COLOR(#fff3f3f3)],[@COLOR(#ffc0ffa0)],[@COLOR(#ff60c8ff)],[@COLOR(#ffb38cff)],[@COLOR(#ffffa666)],[@COLOR(#ffe5dd7e)])][@EDGECOLOR(#ff262626)][@SHEETDE(xtx/itemName,2,2001002,1,1,1)][@EDGECOLOR($EC)][@COLOR($EC)] aktiviert und der Prozess gestartet.","Une fois votre choix fait, sélectionnez “Sertissage”. Vous utiliserez alors votre [@SWITCH([@SHEET(itemData,2001002,41)],[@COLOR(#fff3f3f3)],[@COLOR(#ffc0ffa0)],[@COLOR(#ff60c8ff)],[@COLOR(#ffb38cff)],[@COLOR(#ffffa666)],[@COLOR(#ffe5dd7e)])][@EDGECOLOR(#ff262626)][@SHEETFR(xtx/itemName,12,2001002,1,1)][@EDGECOLOR($EC)][@COLOR($EC)] et la matéria sera sertie.","请仔细确认装备物品与魔晶石的信息，[@CR]然后通过窗口下部的“魔晶石镶嵌”进行确定。[@CR]“[@SWITCH([@SHEET(itemData,2001002,41)],[@COLOR(#fff3f3f3)],[@COLOR(#ffc0ffa0)],[@COLOR(#ff60c8ff)],[@COLOR(#ffb38cff)],[@COLOR(#ffffa666)],[@COLOR(#ffe5dd7e)])][@EDGECOLOR(#ff262626)][@SHEET(xtx/itemName,2001002,131)][@EDGECOLOR($EC)][@COLOR($EC)]”启动，魔晶石被镶嵌于装备物品之上。"
47,"だいじなもの「[@SWITCH([@SHEET(itemData,2001003,41)],[@COLOR(#fff3f3f3)],[@COLOR(#ffc0ffa0)],[@COLOR(#ff60c8ff)],[@COLOR(#ffb38cff)],[@COLOR(#ffffa666)],[@COLOR(#ffe5dd7e)])][@EDGECOLOR(#ff262626)][@SHEET(xtx/itemName,2001003,4)][@EDGECOLOR($EC)][@COLOR($EC)]」を所持している場合、[@CR]ひとつの装備品に対し、ふたつ以上のマテリアを装着することが[@CR]可能になります。","Those who possess the more advanced [@SWITCH([@SHEET(itemData,2001003,41)],[@COLOR(#fff3f3f3)],[@COLOR(#ffc0ffa0)],[@COLOR(#ff60c8ff)],[@COLOR(#ffb38cff)],[@COLOR(#ffffa666)],[@COLOR(#ffe5dd7e)])][@EDGECOLOR(#ff262626)][@SHEETEN(xtx/itemName,3,2001003,1,1)][@EDGECOLOR($EC)][@COLOR($EC)] may attempt to attach two or more pieces of materia to a single item.","Diejenigen, die [@SWITCH([@SHEET(itemData,2001003,41)],[@COLOR(#fff3f3f3)],[@COLOR(#ffc0ffa0)],[@COLOR(#ff60c8ff)],[@COLOR(#ffb38cff)],[@COLOR(#ffffa666)],[@COLOR(#ffe5dd7e)])][@EDGECOLOR(#ff262626)][@SHEETDE(xtx/itemName,1,2001003,1,4,1)][@EDGECOLOR($EC)][@COLOR($EC)] besitzen, können sich sogar daran versuchen, mehr Materia in einen Gegenstand einzusetzen.","Il est possible de sertir plus d'une matéria dans une même pièce d'équipement avec [@SWITCH([@SHEET(itemData,2001003,41)],[@COLOR(#fff3f3f3)],[@COLOR(#ffc0ffa0)],[@COLOR(#ff60c8ff)],[@COLOR(#ffb38cff)],[@COLOR(#ffffa666)],[@COLOR(#ffe5dd7e)])][@EDGECOLOR(#ff262626)][@SHEETFR(xtx/itemName,1,2001003,1,1)][@EDGECOLOR($EC)][@COLOR($EC)].","在持有“[@SWITCH([@SHEET(itemData,2001003,41)],[@COLOR(#fff3f3f3)],[@COLOR(#ffc0ffa0)],[@COLOR(#ff60c8ff)],[@COLOR(#ffb38cff)],[@COLOR(#ffffa666)],[@COLOR(#ffe5dd7e)])][@EDGECOLOR(#ff262626)][@SHEET(xtx/itemName,2001003,131)][@EDGECOLOR($EC)][@COLOR($EC)]”的情况下，[@CR]可以在一件装备物品上面，镶嵌两个以上的魔晶石。"
48,ただし、ふたつ目以降のマテリア装着は、必ず成功するとは限りません。,"Please note, however, that the chance of success progressively decreases with each additional piece of materia you attempt to attach beyond the first.","Dabei gilt es jedoch zu beachten, dass die Erfolgsrate mit jeder weiteren Materia nach der ersten rapide absinkt.","Cependant, le taux de réussite décroît progressivement avec chaque matéria sup[@16]plé[@16]men[@16]tai[@16]re au-delà de la première.",但是，镶嵌两个以上的魔晶石有一定概率会失败。
49,マテリアの装着に失敗した場合、「装備品」、「すでに装着済みのマテリア」、[@CR]「新たに装着しようとしたマテリア」、そして「触媒」のすべてが失われます。,"A failed attempt to attach materia will result in the loss of all items involved in the process, save for the melder. Such is the price of greed.","Schlägt ein solcher Versuch fehl, gehen alle verwendeten Materialien verloren: der Ausrüstungsgegenstand, die Materia, der Katalysator sowie bereits am Gegenstand angebrachte Materia.","Si une tentative de sertissage échoue, le catalyseur, la pièce d'équipement, toutes les matérias qui y étaient serties, et celle qui devait l'être seront perdus.",魔晶石镶嵌失败后，“装备物品”，“已经镶嵌完毕的魔晶石”[@CR]“准备镶嵌的魔晶石”，以及“触媒”会全部损失掉。
51,装着済みの「マテリア」を、装備品から取り除きたい場合[@CR]ゴブリン族の「ミュタミクス」に話しかけてください。[@CR]有料ですが、「マテリア」を装備品から除去してくれます。,"It is possible to have your equipment purged of materia. To do so, simply speak to Mutamix Bubblypots and pay the requisite fee in gil.","Es ist möglich, eingesetzte Materia aus einem Ausrüstungsgegenstand entfernen zu lassen. Dazu braucht man einfach bloß Mutagenix Lexikus darauf anzusprechen und ihm für den entsprechenden Dienst genügend Gil zu bezahlen.",Il est possible de dessertir des matérias en s'adressant au Gobelin Mutamix. Ce service est cependant payant.,需要将镶嵌完毕的“魔晶石”从装备物品上摘除时[@CR]请找哥布林族的“缪塔米克斯”对话。[@CR]将“魔晶石”摘除时需要付费。
52,ただし、除去した「マテリア」は失われてしまいます。[@CR]複数の「マテリア」が装着されていた場合は[@CR]そのすべてが、一度に失われてしまいます。,"Be fairly warned, however, that the process strips equipment of [@1A(1)]all[@1A(0)] materia. Selective purging is [@1A(1)]not[@1A(0)] possible. Furthermore, any purged materia will be [@1A(1)]permanently[@1A(0)] lost.[@CR]※ The Carriers of the Cauldron will not be held responsible for any loss or regret resulting from poor judgment on the part of the patron.","Bei dem Prozess werden automatisch alle Materia entfernt, die in den Gegenstand eingesetzt wurden. Einzelne Materia auszusuchen und entfernen zu lassen, ist nicht möglich. Des Weiteren gehen alle entfernten Materia unwiederbringlich verloren.","Le dessertissage est une opération délicate, qui détruit toutes les matérias serties.",但是，摘除的“魔晶石”会损失掉。[@CR]镶嵌的“魔晶石”数量在两个以上时[@CR]则会一次性全部损失掉。
53,"「マテリア化」には「[@SWITCH([@SHEET(itemData,2001001,41)],[@COLOR(#fff3f3f3)],[@COLOR(#ffc0ffa0)],[@COLOR(#ff60c8ff)],[@COLOR(#ffb38cff)],[@COLOR(#ffffa666)],[@COLOR(#ffe5dd7e)])][@EDGECOLOR(#ff262626)][@SHEET(xtx/itemName,2001001,4)][@EDGECOLOR($EC)][@COLOR($EC)]」が必要です。[@CR]サブクエスト「想いが生み出す力」を受注もしくは達成した場合に[@CR]入手することができます。","Attaching materia requires the use of [@SWITCH([@SHEET(itemData,2001001,41)],[@COLOR(#fff3f3f3)],[@COLOR(#ffc0ffa0)],[@COLOR(#ff60c8ff)],[@COLOR(#ffb38cff)],[@COLOR(#ffffa666)],[@COLOR(#ffe5dd7e)])][@EDGECOLOR(#ff262626)][@SHEETEN(xtx/itemName,2,2001001,1,1)][@EDGECOLOR($EC)][@COLOR($EC)] key item, which can be obtained via the quest “Forging the Spirit.”","Für die Materia-Synthese ist [@SWITCH([@SHEET(itemData,2001001,41)],[@COLOR(#fff3f3f3)],[@COLOR(#ffc0ffa0)],[@COLOR(#ff60c8ff)],[@COLOR(#ffb38cff)],[@COLOR(#ffffa666)],[@COLOR(#ffe5dd7e)])][@EDGECOLOR(#ff262626)][@SHEETDE(xtx/itemName,1,2001001,1,1,1)][@EDGECOLOR($EC)][@COLOR($EC)] nötig. Man bekommt ihn im Zuge des Auftrags „Das Formen der Seele“.","Il est nécessaire d'avoir [@SWITCH([@SHEET(itemData,2001001,41)],[@COLOR(#fff3f3f3)],[@COLOR(#ffc0ffa0)],[@COLOR(#ff60c8ff)],[@COLOR(#ffb38cff)],[@COLOR(#ffffa666)],[@COLOR(#ffe5dd7e)])][@EDGECOLOR(#ff262626)][@SHEETFR(xtx/itemName,1,2001001,1,1)][@EDGECOLOR($EC)][@COLOR($EC)] pour transformer un objet en matéria. [@IF([@SHEET(xtx/itemName,2001001,23)],Elle,Il)] peut être [@IF([@SHEET(xtx/itemName,2001001,23)],obtenue,obtenu)] après avoir accepté ou rempli la quête “Forger l'âme”.",但是，摘除的“魔晶石”会损失掉。[@CR]镶嵌的“魔晶石”数量在两个以上时[@CR]则会一次性全部损失掉。
