 ,0,1,2,3,4
 ,str,str,str,str,str
2,収穫はどうでしたか？[@CR]僕の方は上々です。この調子で、力をつけるとしますよ。,"How did you fare, [@IF($E9(4),sister,brother)]? I have made much progress. I feel my power growing.",Und? Hat sich bei deinen Energiezentren etwas geregt? Mir hat der Besuch des letzten Schlachtfeldes wieder ganz neue Möglichkeiten vor Augen geführt.,"Vos mesures avancent-elles, [@IF($E9(4),ma sœur,mon frère)][@1D]? J'ai de mon côté beaucoup progressé. Je sens mon pouvoir grandir.",
3,"なに！？　「[@SWITCH([@SHEET(itemData,11000552,41)],[@COLOR(#fff3f3f3)],[@COLOR(#ffc0ffa0)],[@COLOR(#ff60c8ff)],[@COLOR(#ffb38cff)],[@COLOR(#ffffa666)],[@COLOR(#ffe5dd7e)])][@EDGECOLOR(#ff262626)][@SHEET(xtx/itemName,11000552,4)][@EDGECOLOR($EC)][@COLOR($EC)]」が壊れてしまっただと！？[@CR]ううむ……最新式なだけに、耐久性に難ありか。","What? [@2B([@SWITCH([@SHEET(itemData,11000553,41)],[@COLOR(#fff3f3f3)],[@COLOR(#ffc0ffa0)],[@COLOR(#ff60c8ff)],[@COLOR(#ffb38cff)],[@COLOR(#ffffa666)],[@COLOR(#ffe5dd7e)])][@EDGECOLOR(#ff262626)][@SHEETEN(xtx/itemName,2,11000553,1,1)][@EDGECOLOR($EC)][@COLOR($EC)])] [@1A(1)]broke[@1A(0)]!? False! You [@1A(1)]allowed[@1A(0)] it to be broken! <sigh> Perhaps the new make is not so sturdy as the old.",Was!? Das Messinstrument ist einfach kaputt gegangen?[@CR]Hm ... Sollte sich etwa ausgerechnet beim neusten Modell ein Konstruktionsfehler eingeschlichen haben?,"Pardon[@1D]!? Votre [@SWITCH([@SHEET(itemData,11000552,41)],[@COLOR(#fff3f3f3)],[@COLOR(#ffc0ffa0)],[@COLOR(#ff60c8ff)],[@COLOR(#ffb38cff)],[@COLOR(#ffffa666)],[@COLOR(#ffe5dd7e)])][@EDGECOLOR(#ff262626)][@SHEETFR(xtx/itemName,12,11000552,1,1)][@EDGECOLOR($EC)][@COLOR($EC)] est hors d'usage[@1D]? Vous voulez dire que [@1A(1)]vous[@1A(0)] l'avez [@IF([@SHEET(xtx/itemName,11000552,23)],cassée,cassé)][@1D]! Enfin, peut-être que le nouveau modèle n'est pas aussi robuste que l'ancien...",
4,計測場所の選定と、新たな計測器の調達には時間がかかる。[@CR]鍛錬でもしながら、待っていてくれ。,"I shall require some time to ready a new device. In the meantime, just...go and fight something, or...do whatever it is you like wasting your life doing.","Ein neues Gerät zu bestellen, wird eine Weile dauern ...[@CR]Ich kann dich leider nur bitten abzuwarten und weiter zu trainieren.","Il va me falloir un peu de temps pour commander un nouvel appareil. Vous êtes libre de faire ce que vous voulez, comme... étudier, par exemple[@1D]?",
5,モンクのレベルが40以上になると、エリックから[@CR]モンククエスト「不和から至る旋律」を受注することができます。,The next monk quest will be available from Erik upon reaching level 40.,"Sobald du Er[@16]fah[@16]rungs[@16]stufe 40 in der Charakterklasse Faustkämpfer erreicht hast, kannst du von Erik den Mönch-Auftrag „Auf der Suche nach Macht“ erhalten.","Erik propose la quête suivante, “La quête de pouvoir”, aux moines de niveau 40.",
6,"[@SPLIT([@STRING($EB(1))], ,1)]！　ハハハ、待っていたぞ！[@CR]素晴らしい！　実に素晴らしい！　この感動を伝えるため！[@CR]吾輩は昨晩、辞書を片手に、考えうる限りの修飾語を列挙していたのだ！","Ah, dear [@SPLIT([@STRING($EB(1))], ,1)], so good of you to trouble yourself to come. Normally I might be cross, but my spirits are far too high just now. And it is you I have to thank!","[@SPLIT([@STRING($EB(1))], ,1)]! Ich habe dich bereits erwartet! Du ahnst ja gar nicht, wie froh ich bin, dich zu sehen.[@CR]Es ist einfach so wunderbar! Mehr noch! Am liebsten würde ich in einem Wörterbuch nach einem passenden Wort suchen, das meiner überschwänglichen Freude genügend Ausdruck verleiht.","Ah, [@IF($E9(4),ma chère,mon cher)], vous voilà enfin[@1D]! Je suis absolument ravi de vous revoir, vous mon [@IF($E9(4),étudiante la plus brillante,étudiant le plus brilliant)][@1D]!",
7,何の話かわからんだと！？　とぼける必要はない！[@CR]君が取得したデータの話だ！　実に正確！　実に見事！[@CR]エーテル計測の天才だ、君は！　その稀有な才能に、敬意を表そう！,"I speak of the data you procured! It is simply marvelous! You have a true gift for grunt work, my friend. I wish I had a hundred more assistants just like you.","Wovon ich rede? Das weißt du doch ganz genau![@CR]Von den Daten, die du gesammelt hast, natürlich! Du bist ein Genie auf dem Gebiet der Äther-Energie-Vermessung! Ich würde meinen Hut vor dir ziehen, wenn ich einen aufhätte.","Les données que vous avez collectées pour moi étaient remarquables[@1D]! Et d'une telle précision[@1D]! Vous avez un véritable talent pour le travail de sous-fifre[@1D]! J'aimerais avoir une centaine d'[@IF($E9(4),assistantes,assistants)] comme vous[@1D]!",
8,思い返せば、半西紀……[@CR]「マルドティー真菌培養事件」よりこちら……[@CR]吾輩はたったひとり、この道を走り続けてきた。そのことに後悔はない。,"I have been in this field for a very long time, and I have been alone. Ever since that unfortunate mulled tea fungus culture incident sparked my passion for research. I regret nothing, [@SPLIT([@STRING($EB(1))], ,1)].","Momente wie dieser lassen mich glücklich auf meine Forscherlaufbahn zurückblicken, die ich vor ungefähr 50 Jahren einschlug, als sich der Zwischenfall mit der Mardaux-Pilzkultur ereignete.","Je suis sur le terrain depuis presque un demi-siècle, et j'ai toujours travaillé seul. Mais je ne regrette rien, depuis ce jour fatidique où un malheureux incident lors d'une expérience à base de moisissures de thé a déclenché ma passion pour la recherche.",
9,……と、いかんいかん。[@CR]吾輩としたことが、本題を忘れるところだった。,"There, how was that? Shall we dispense with any further pleasantries? Very good, then.","Beim alten Althyk, da bin ich doch tatsächlich wieder vom Thema abgeschweift.",Mais assez parlé de vous. Où en étais-je[@1D]? Ah oui.,
10,これまで吾輩は「エーテルが乱れている場所、即ち古戦場である」という[@CR]仮説を立て、そのもとに研究を進めてきた。だが、今回の発見を鑑みた結果[@CR]過去の人間が「エーテルの乱れている場所を戦場に選定していた」という[@CR]恐ろしい可能性を思いついたのだ！,"My hypothesis was that such flux in the aether was indicative of a past battle, and all my research was predicated upon this. But turn the theory on its head, [@SPLIT([@STRING($EB(1))], ,1)], if your mind is able─what if the people of the past [@1A(1)]chose[@1A(0)] areas of roiling aether to hold their battles!?","Bisher habe ich mich bei meinen Forschungen immer auf die von mir persönlich aufgestellte These gestützt, dass der Äther immer dort gestört wird, wo Schlachten ausgetragen werden ...[@CR]Wenn man diese neue Entdeckung in Betracht zieht, lässt sich allerdings vermuten, dass man seit jeher bevorzugt die Orte zum Kämpfen ausgewählt hat, an denen der Äther bereits gestört oder korrumpiert war!","Jusqu'à maintenant, ma théorie était que de telles fluctuations indiquaient forcément un ancien champ de bataille, mais je suis arrivé à la conclusion que j'abordais le problème sous le mauvais angle. Et si les hommes du passé avaient choisi ces endroits pour se battre, précisément parce que leur atmosphère était saturée d'énergie éthérée[@1D]?",
11,ウィダルゲルトにはすでに、アラミゴとグリダニアの境界にして[@CR]「紅葉戦争」端緒の重要な舞台……「ファインサンド平野」にて[@CR]エーテル計測を行うよう、指示してある。,"I have already sent the simpleton monk to take measurements at the Finesand Banks. As you are doubtless unaware, this lies on the border between Ala Mhigo and Gridania, and was the setting of the Autumn War.","Widargelt habe ich damit beauftragt, das Tonfeld, einen bedeutenden Kampf[@16]schau[@16]platz aus dem Purpurlaubkrieg zwischen Ala Mhigo und Gridania, aufzusuchen und zu vermessen.","J'ai envoyé Widargelt à la plaine du sable fin, située à la frontière d'Ala Mhigo et Gridania. C'est là que la célèbre guerre des Erables s'est déroulée.",
12,君の仕事は、ふたつ。[@CR]ウィダルゲルトの「エーテル流測針」を回収すること。[@CR]彼の測針は旧式で、エーテル値を転送できないのだ。,"I ask that you find our monk friend and collect his aetheriometer. Manual and tedious, yes, but he has an early make of the device that is unable to transmit data.","Dich möchte ich gerne um zwei Dinge bitten:[@CR]Zuerst mal besorge das Messinstrument mit den Messdaten, mit dem Widargelt derzeit arbeitet. Es handelt sich dabei um eine ältere Baureihe, bei der die Daten nicht automatisch übertragen werden.","Je lui ai demandé comme à vous de mesurer l'éther, mais l'éthérimètre que je lui ai remis est un vieux modèle, incapable de m'envoyer directement les données. J'ai donc besoin que vous alliez les récupérer pour moi.",
13,"さあ、手を出せ！　「[@SWITCH([@SHEET(itemData,11000553,41)],[@COLOR(#fff3f3f3)],[@COLOR(#ffc0ffa0)],[@COLOR(#ff60c8ff)],[@COLOR(#ffb38cff)],[@COLOR(#ffffa666)],[@COLOR(#ffe5dd7e)])][@EDGECOLOR(#ff262626)][@SHEET(xtx/itemName,11000553,4)][@EDGECOLOR($EC)][@COLOR($EC)]」を支給する！[@CR]これは「[@SWITCH([@SHEET(itemData,11000552,41)],[@COLOR(#fff3f3f3)],[@COLOR(#ffc0ffa0)],[@COLOR(#ff60c8ff)],[@COLOR(#ffb38cff)],[@COLOR(#ffffa666)],[@COLOR(#ffe5dd7e)])][@EDGECOLOR(#ff262626)][@SHEET(xtx/itemName,11000552,4)][@EDGECOLOR($EC)][@COLOR($EC)]」の前に開発されたもので[@CR]地面に三脚を立てたのち、その頂点からモードゥナ産の[@CR]全属性クリスタルを吊り下げて使う！　なんたる古臭いデザイン！","Here, take this [@SWITCH([@SHEET(itemData,11000553,41)],[@COLOR(#fff3f3f3)],[@COLOR(#ffc0ffa0)],[@COLOR(#ff60c8ff)],[@COLOR(#ffb38cff)],[@COLOR(#ffffa666)],[@COLOR(#ffe5dd7e)])][@EDGECOLOR(#ff262626)][@SHEETEN(xtx/itemName,3,11000553,1,1)][@EDGECOLOR($EC)][@COLOR($EC)]. It is markedly older than the [@SWITCH([@SHEET(itemData,11000552,41)],[@COLOR(#fff3f3f3)],[@COLOR(#ffc0ffa0)],[@COLOR(#ff60c8ff)],[@COLOR(#ffb38cff)],[@COLOR(#ffffa666)],[@COLOR(#ffe5dd7e)])][@EDGECOLOR(#ff262626)][@SHEETEN(xtx/itemName,3,11000552,1,1)][@EDGECOLOR($EC)][@COLOR($EC)]. The chain and crystal hang from a tripod which must be set upright in the ground. Frankly, I'm embarrassed to resort to using it. Right, then, are you ready?","Ich möchte dir diesen [@SWITCH([@SHEET(itemData,11000553,41)],[@COLOR(#fff3f3f3)],[@COLOR(#ffc0ffa0)],[@COLOR(#ff60c8ff)],[@COLOR(#ffb38cff)],[@COLOR(#ffffa666)],[@COLOR(#ffe5dd7e)])][@EDGECOLOR(#ff262626)][@SHEETDE(xtx/itemName,5,11000553,1,4,1)][@EDGECOLOR($EC)][@COLOR($EC)] geben. Es handelt sich hierbei um das Vorgängermodell deines zu Bruch gegangenen Messinstruments.[@CR]Bei diesem Modell musst du das dreibeinige Stativ auf den Boden stellen und dann den Kristall herablassen. Etwas umständlich, aber wie sagt man so schön: In der Not frisst der Teufel Dasselfliegen.","Tenez, prenez [@SWITCH([@SHEET(itemData,11000553,41)],[@COLOR(#fff3f3f3)],[@COLOR(#ffc0ffa0)],[@COLOR(#ff60c8ff)],[@COLOR(#ffb38cff)],[@COLOR(#ffffa666)],[@COLOR(#ffe5dd7e)])][@EDGECOLOR(#ff262626)][@SHEETFR(xtx/itemName,6,11000553,1,1)][@EDGECOLOR($EC)][@COLOR($EC)]. Ce modèle est bien plus vieux que le précédent, vous voyez, la chaîne est attachée à un trépied, qui doit lui-même être posé au sol. Pour être honnête, je suis embarrassé d'être obligé de vous demander de l'utiliser, mais faute de grives, on mange des merles, n'est-ce pas[@1D]?",
15,……なんだと？[@CR]君が引き受けたのは「護衛」であって「研究助手」ではないと？[@CR]実に明快！　論理的な回答だ！　君には、研究者の素質がある！[@CR]だが、それではお互い、目的が果たせないではないか！,"Oh, you are an escort, not an assistant, are you? False! You are whatever I pay you to be. I own you, [@SPLIT([@STRING($EB(1))], ,1)]. And let us not forget, you'll do exactly as I say if you mean to chase these dreams of monkhood you unaccountably seem to harbor.","Man hat dich nicht als Laufbote, sondern als Leibwache angestellt?[@CR]Hm, eine klare und logische Argumentation! Du hast das Zeug [@IF($E9(4),zur Forscherin,zum Forscher)]. Willst du dich nicht einmal auf diesem Gebiet versuchen?","Pardon[@1D]? Vous êtes [@IF($E9(4),une,un)] garde du corps, pas [@IF($E9(4),une assistante,un assistant)][@1D]? Allons, allons, vous n'allez tout de même pas jouer sur les mots après tout ce temps[@1D]!",
30,まず「リトルアラミゴ」へ行く！　次に、ウィダルゲルトに会う！[@CR]さらに、社交辞令なりなんなり、会話を適当にかわす！[@CR]そして、あいつが持っている「エーテル流測針」を回収する！,"It is exceedingly simple, really. Travel to Little Ala Mhigo. Retrieve the simpleton monk's aetheriometer.","Suche Widargelt in Klein-Ala Mhigo auf, betreibe ein bisschen Konversation mit ihm, und dann lass dir von ihm sein Messinstrument mit den Daten, die er gesammelt hat, geben.","On peut dif[@16]fi[@16]ci[@16]le[@16]ment faire plus simple, [@IF($E9(4),ma chère,mon cher)]. Allez à la Petite Ala Mhigo, faites un brin de con[@16]ver[@16]sa[@16]tion avec Widargelt histoire d'être [@IF($E9(4),polie,poli)], et récupérez ses données.",
31,……ん？　そんなに詳しく言わなくていいだと？[@CR]何を言ってる、君の役割について聞いてきたのは、君自身じゃないか！,"Which part is it that you fail to understand, exactly?","Mir andauernd die gleichen Fragen zu stellen, muss dir übrigens nicht peinlich sein. Ich weiß sehr gut, was es bedeutet, vergesslich zu sein ...","J'ose espérer que cette fois-ci, vous avez compris ce que je vous demandais.",
32,"こんな辺境まで、ごくろうさまでした。[@CR]お茶は出せませんが歓迎しますよ、[@SPLIT([@STRING($EB(1))], ,1)]。","You have come far. It is good to see you, [@IF($E9(4),sister,brother)].","Willkommen im abgelegensten Niemandsland. Ich freue mich sehr, dass du die weite Reise auf dich genommen hast, um mich zu sehen.","[@IF($E3($E9(11),12),[@IF($E3($E9(11),4),Bonsoir,Bonjour)],[@IF($E3($E9(11),17),Bonjour,Bonsoir)])], [@IF($E9(4),ma sœur,mon frère)].",
33,なるほど……「エーテル流測針」を回収に来た、と。[@CR]それは……困りましたね。実はまだ、計測が終わっていないんです。,You come for my device? It is not ready to give. My work is not finished.,"Ich verstehe ... Die Messdaten möchtest du von mir.[@CR]Nun ja, das ist etwas problematisch, da meine Messungen noch nicht abgeschlossen sind.","Vous avez fait tout le chemin jusqu'ici pour récupérer les données que j'ai collectées[@1D]? Mal[@16]heu[@16]reu[@16]se[@16]ment, je n'ai pas encore fini mon travail ici.",
34,博士に言われ、すぐ設置に向かったんですが、[@CR]計測結果が出るには、もう少し時間が必要なようです。[@CR]もう間もなくだとは思うのですが……,The readings require more time. Do not worry. They will be ready soon.,Be[@16]ziehungs[@16]weise sind die Daten noch nicht ausgewertet. Das dauert bei dem alten Modell etwas ...,"L'appareil que ce cher professeur m'a remis est ancien, et les mesures se font plus lentement. J'ai besoin d'un peu plus de temps.",
35,ふうむ……あなたが博士に指示された場所は[@CR]北部森林「エメラルドモス」の北にある「ムントゥイ醸造庫」。[@CR]「古戦場でないにも関わらず、エーテルが乱れていた場所」でしょう？,You make for the Mun[@1F]Tuy Cellars. Erik believes the aether is strong there? Though the Cellars hosted no battle?,"Aber lass uns doch über deine Aufgabe reden. Du sollst Messungen in den Mun-Tuy-Braukellern im Nordwald vornehmen, richtig?[@CR]Dort wo die ätherische Energie gestört ist, obwohl dort keine historischen Schlachten stattgefunden haben.","Il vous a demandé d'aller mesurer l'éther des Caves de Mun-Tuy au nord de Moussémeraude, n'est-ce pas[@1D]? Les fluctuations éthérées y sont violentes, alors qu'aucune bataille de grande envergure ne s'y est déroulée.",
36,では、こうしてはいかがでしょう？[@CR]まずあなたは「ムントゥイ醸造庫」へ向かい、測定を行う。[@CR]僕の「エーテル流測針」は計測が終わり次第、そちらに届けます。,Leave me to my task here. Go to the Mun[@1F]Tuy Cellars. Take your readings. My work will soon be done. I will bring the device to you.,"Was hältst du davon: Du begibst dich bereits zu den Braukellern und nimmst dort Messungen vor, und ich folge dir dorthin, sobald ich hier fertig bin?","Eh bien, arrangeons-nous de la sorte[@1D]: partez pour les Caves pendant que je finis mon travail ici, et j'irai vous rejoindre là-bas avec les données.",
37,ん？　あなたが指定された場所を、僕がなぜ知っているかと？,The Mun[@1F]Tuy Cellars? How did I know?,Wieso ich von deinem Einsatzort weiß?,"Oh, vous voulez savoir pourquoi je connaissais votre prochaine destination[@1D]?",
38,「エオルゼアの新事実がわかったかもしれん」ということで[@CR]「ムントゥイ醸造庫」がどうのこうの、エーテルがどうのこうのと[@CR]数時間もつき合わされたんです。……今夜は、早く寝たいですよ。,"He was excited. He spoke of a great discovery. Of a new truth for the realm. Of the Mun[@1F]Tuy Cellars. Of aether. Long he spoke. So very, very long.","Er klang sehr aufgeregt, so als hätte er gerade eine bahnbrechende Entdeckung gemacht ...[@CR]Allerdings ist der Kontaktperlenempfang hier draußen sehr schlecht und ich hab fast kein Wort verstanden. Nach einer halben Stunde „[@1A(1)]krrrt[@1A(0)] ... Äther ... [@1A(1)]bzzzr[@1A(0)] ... Braukeller ... [@1A(1)]pfffzrk[@1A(0)] ...“ habe ich einfach aufgelegt ...","Il était très excité et parlait d'une grande découverte, des Caves de Mun-Tuy et de l'éther. Son discours a duré... longtemps.",
39,何を聞く？,What will you ask about?,Was möchtest du fragen?,Qu'est-ce qui vous intéresse[@1D]?,
40,「ファインサンド平野」について,The Finesand Banks.,Ich möchte mehr über das Tonfeld erfahren.,Les événements de la plaine du sable fin.,
41,自分の役目について,My task.,Was ist meine Aufgabe?,Mon travail.,
42,やめる,Nothing.,Ich habe keine Fragen.,Rien en particulier.,
43,どうしたんだ？[@CR]まさか、あれだけ簡潔に説明したにも関わらず、[@CR]自分の目的を忘れてしまったわけではあるまいな？,"Has even my simple explanation proven too much for you to recall? Gods be good, [@SPLIT([@STRING($EB(1))], ,1)], you truly know how to test a teacher's patience.","Was ist los?[@CR]Hm? Du wirst doch nicht deine Aufgabe vergessen haben, obowhl ich dir alles so haargenau erklärt habe?","Par les dieux, ne me dites pas que mes ex[@16]pli[@16]ca[@16]tions étaient trop compliquées pour vous et que vous avez oublié ce que vous deviez faire[@1D]?",
44,ううーむ……いや、悩んだところで時間の無駄だな。[@CR]先に「エメラルドモス」の北にある「ムントゥイ醸造庫」へ行って[@CR]現地の魔物「プリンスオブペスト」を倒し、エーテルを計測してくれ。,"Right, well, what's done is done─or in this case, not done, as it were. You'd best see to your other task. Make your way north of Emerald Moss to the Mun[@1F]Tuy Cellars. Slay the Prince of Pestilence and measure the area's aether.","Hm ... Wilde Spekulationen helfen auch niemandem weiter. Es wird Gründe geben und alles wird sich aufklären.[@CR]Begib dich erst mal zu den Braukellern im Norden von Smaragdmoos, bezwinge dort das notorische Monster Pestilenzio und beginne mit deinen Messungen.","Enfin, ce qui est fait est fait... ou n'est pas fait, dans ce cas précis. J'imagine que le mieux pour vous, et surtout pour mes recherches, est que vous alliez directement aux Caves de Mun-Tuy au nord de Moussémeraude, tuiez le prince de la pestilence et mesuriez l'éther de l'endroit.",
45,"さすがですね、[@SPLIT([@STRING($EB(1))], ,1)]。[@CR]順調に「チャクラ」を開いているようで、なによりです。","Well done, [@IF($E9(4),sister,brother)]. I feel your chakra. It has grown.","[@STRING($EB(1))], du machst schneller Fortschritte, als ich erwartet hatte.","Bravo, [@IF($E9(4),ma sœur,mon frère)]. J'ai senti la montée de votre puissance. Un de vos chakras s'est ouvert, je me trompe[@1D]?",
46,あなたに先んじるつもりでしたが……一足遅かったようですね。[@CR]この地に宿る「気」は、あなたのチャクラを開いてしまった。[@CR]……これでは、僕のチャクラが開かない。,I hoped to arrive before you. But I see I am late. This land's power has gone to you. There is nothing left for me here.,"Eigentlich hatte ich vor, hier vor dir einzutreffen, aber ich war wohl zu langsam ...[@CR]Der Äther dieses Ortes hat bereits dein Chakra geöffnet. Für mich ist hier also nichts mehr zu holen.","J'espérais arriver avant vous, mais je n'ai pas été assez rapide. Le pouvoir de cet endroit vous revient. Il ne reste plus rien pour moi ici.",
47,「ファインサンド平野」の計測？　そんなもの、していませんよ。[@CR]急いでここへ向かうつもりが、同志との協議のため、[@CR]「リトルアラミゴ」に立ち寄ったのがまずかったようです。,The teacher's work means nothing. I took no readings at the Finesand Banks. I meant to hasten here. But I was delayed. There was a gathering of the monkhood. I was summoned to Little Ala Mhigo.,"Deshalb wollte ich einen anderen Ort aufsuchen, um Messungen durchzuführen und gleichzeitig meine Fertigkeiten verbessern zu können.[@CR]Ich hätte gleich hierher kommen sollen, ohne vorher in Klein-Ala Mhigo zu verweilen.","Les mesures que voulait le professeur[@1D]? Je n'en ai aucune, j'avais mieux à faire. Je devais assister à une assemblée de moines à la Petite Ala Mhigo. C'est d'ailleurs ce qui m'a retardé.",
48,ああ……博士に責められるか心配ですか？[@CR]大丈夫ですよ、僕もここで計測を行えばいい。,The teacher's chidings? Worry not. I will use my device here. Any result will suffice. The man will twist his words to fit.,"Keine Sorge. Der Professor wird mich nicht zur Rechenschaft ziehen, nicht, wenn ich ebenfalls hier eine Messung durchführe.","Vous avez peur que ce cher professeur se mette en colère[@1D]? N'ayez crainte, je vais prendre quelques mesures ici.",
49,問題ありませんよね？[@CR]あなたが黙ってさえいれば、博士にはわからない……そうでしょう？,"Speak not of this to him, [@IF($E9(4),sister,brother)]. You see both our aims. You know mine to be more worthy.","Vorausgesetzt natürlich, dass du ihm nichts von meinem kleinen Geheimnis erzählst ...","Si bien sûr, vous ne lui dites rien...",
50,"[@SPLIT([@STRING($EB(1))], ,1)]、あなたにだけは、話しておきます。[@CR]僕は、ガレマール帝国から、都市アラミゴを解放することを目的とした[@CR]レジスタンス組織……「アラミゴ解放軍」を率いる者のひとりです。",I tell this to you alone. I am of the Ala Mhigan resistance. I fight for freedom from Garlemald.,"[@STRING($EB(1))], ich möchte dir etwas anvertrauen.[@CR]Du sollst wissen, dass ich einer der Anführer der Ala Mhigo-Befreiungsarmee bin.","... Je vais vous confier un secret, [@SPLIT([@STRING($EB(1))], ,1)]. Je fais partie de la résistance mhigoise, qui lutte contre l'envahisseur garlemaldais.",
51,帝国兵の目を盗んで「内地」へと脱出し……[@CR]多くの仲間や武器を集めるため奔走しています。,I escaped the occupation. I have come here to fight. To gather allies and weapons.,"Wir wollen unsere Heimat von den garleischen Besatzern befreien, doch unsere Kraft reicht einfach nicht aus. Mit eorzäischer Technologie lässt sich gegen die Magitek-Waffen des Kaiserreichs nichts ausrichten. Schwerter und Bögen wirken dagegen wie Spielzeug.","Je me suis échappé de ma Cité et depuis, je cherche des alliés et je rassemble des armes pour combattre l'Empire.",
52,唯一、小さな組織が協力してくれましたが、それだけでは、力が足りません。[@CR]やはり僕たち自身が、大きな力を身につけてアラミゴを救わねばならない。[@CR]さらなる力を得るため、もっとチャクラを開く必要があるんです！ ,The resistance here is small. They aid where they can. But it is not enough. This war demands great power. That power lies in the chakra.,"Ich verlange nicht von dir, dass du dich unserer Armee anschließt oder den Professor betrügst. Ich möchte dich nur darum bitten, das Gesagte für dich zu behalten.","Il y a bien un groupe qui nous aide, mais il n'est pas suf[@16]fi[@16]sam[@16]ment puissant. J'ai besoin d'un pouvoir plus grand, et ce pouvoir réside dans les chakras.",
53,もしも「チャクラ」を開く道が閉ざされてしまっては……[@CR]僕たちは……いいえ、僕は、どうしても力がほしいんです！,"If this way is lost to me... No. No, I [@1A(1)]will[@1A(0)] have this power. I must!",Ich muss die Energie aller Chakren meines Körpers zu nutzen lernen. Ich brauche einfach mehr Macht!,"Si jamais il me congédie, je ne pourrai plus aider mes compagnons... Cela ne doit pas être, je trouverai un moyen, quoi qu'il en coûte.",
54,……失礼。少し感情的になってしまいましたね。,Forgive my speech. It is a matter close to my heart.,Entschuldige ... Ich habe mich etwas gehen lassen.,"Pardonnez-moi, je me suis laissé un peu aller.",
55,モンクのレベルが45以上になると、エリックから[@CR]モンククエスト「チャクラの波紋」を受注することができます。,The next monk quest will be available from Erik upon reaching level 45.,"Sobald du Er[@16]fah[@16]rungs[@16]stufe 45 in der Charakterklasse Faustkämpfer erreicht hast, kannst du von Erik den Mönch-Auftrag „Ätherische Harmonie“ erhalten.","Erik propose la quête suivante, “Le septième chakra”, aux moines de niveau 45.",
56,もう虐げられるのも、飢えるのもたくさんだ！[@CR]一度でいいから、平和なアラミゴをこの目で見てみたいんです！,An end to oppression. An end to starvation. Ala Mhigo will be made free. I will see it done.,"Ich habe genug von den Misshandlungen, vom Hunger ... Ich möchte einmal vor meinem Tode ein freies Ala Mhigo betreten können!","L'oppression prendra fin. Ala Mhigo sera libre, Rhalgr m'en est témoin.",
57,"ここに「[@SWITCH([@SHEET(itemData,11000553,41)],[@COLOR(#fff3f3f3)],[@COLOR(#ffc0ffa0)],[@COLOR(#ff60c8ff)],[@COLOR(#ffb38cff)],[@COLOR(#ffffa666)],[@COLOR(#ffe5dd7e)])][@EDGECOLOR(#ff262626)][@SHEET(xtx/itemName,11000553,4)][@EDGECOLOR($EC)][@COLOR($EC)]」を設置すればよさそうだ。[@CR]まずは、魔物「プリンスオブペスト」を倒そう。",This seems to be an ideal location. Slay the Prince of Pestilence and set up the aetheriometer.,"Diese Stelle scheint für Messungen geeignet zu sein.[@CR]Erledige zuerst Pestilenzio, damit er die Arbeiten nicht stört.",Cet endroit semble idéal. Tuez le prince de la pestilence et installez l'éthérimètre.,
58,"「[@SWITCH([@SHEET(itemData,11000553,41)],[@COLOR(#fff3f3f3)],[@COLOR(#ffc0ffa0)],[@COLOR(#ff60c8ff)],[@COLOR(#ffb38cff)],[@COLOR(#ffffa666)],[@COLOR(#ffe5dd7e)])][@EDGECOLOR(#ff262626)][@SHEET(xtx/itemName,11000553,4)][@EDGECOLOR($EC)][@COLOR($EC)]」を設置した！","You set up [@SWITCH([@SHEET(itemData,11000553,41)],[@COLOR(#fff3f3f3)],[@COLOR(#ffc0ffa0)],[@COLOR(#ff60c8ff)],[@COLOR(#ffb38cff)],[@COLOR(#ffffa666)],[@COLOR(#ffe5dd7e)])][@EDGECOLOR(#ff262626)][@SHEETEN(xtx/itemName,2,11000553,1,1)][@EDGECOLOR($EC)][@COLOR($EC)].","Du hast [@SWITCH([@SHEET(itemData,11000553,41)],[@COLOR(#fff3f3f3)],[@COLOR(#ffc0ffa0)],[@COLOR(#ff60c8ff)],[@COLOR(#ffb38cff)],[@COLOR(#ffffa666)],[@COLOR(#ffe5dd7e)])][@EDGECOLOR(#ff262626)][@SHEETDE(xtx/itemName,2,11000553,1,4,1)][@EDGECOLOR($EC)][@COLOR($EC)] aufgestellt!","Vous installez [@SWITCH([@SHEET(itemData,11000553,41)],[@COLOR(#fff3f3f3)],[@COLOR(#ffc0ffa0)],[@COLOR(#ff60c8ff)],[@COLOR(#ffb38cff)],[@COLOR(#ffffa666)],[@COLOR(#ffe5dd7e)])][@EDGECOLOR(#ff262626)][@SHEETFR(xtx/itemName,2,11000553,1,1)][@EDGECOLOR($EC)][@COLOR($EC)].",
60,だが今、君たちのような弟子を持ち、吾輩は幸せを感じている！[@CR]茨の道行きは、かくも楽しいものだったか！[@CR]この感動は、まさに数値化不可能だ！,"Save perhaps having to share so wondrous a world with souls as unlearned as yourself. Still, your performance has not left me completely bereft of joy. It is rewarding to think that my instruction has guided you to such success.","Hach ja, was habe ich seitdem alles erlebt ... und bereuen tue ich nichts. Im Gegenteil, ich freue mich bereits auf unsere zukünftigen Erlebnisse.","Cependant, je comprends maintenant toute la sa[@16]tis[@16]fac[@16]tion qu'un homme instruit retire de l'éducation des ignorants. Je ressens de la fierté à l'idée de vous avoir [@IF($E9(4),conduite,conduit)] sur le droit chemin, celui du savoir[@1D]!",
61,そしてもうひとつの仕事は、エーテルの乱れている土地……[@CR]グリダニアは「エメラルドモス」の北、「ムントゥイ醸造庫」の地下で[@CR]エーテルを計測することだ！,"You think I ask much of you? False! I ask more. Your other task is to travel to Emerald Moss in the Black Shroud, and there take measurements at the Mun[@1F]Tuy Cellars.","Danach besuche bitte einen der Orte, an denen die ätherische Energie gestört ist, um dort die ätherische Energie zu messen.[@CR]In den Mun-Tuy-Braukellern konnte ich dieses Phänomen zum Beispiel feststellen.","Mais puisque vous allez voyager, autant en profiter pour prendre de nouvelles mesures, n'est-ce pas[@1D]? Il y a justement une créature qui a retenu mon attention. C'est aux Caves de Mun-Tuy, au nord de Moussémeraude dans la forêt de Sombrelinceul.",
62,吾輩は引き続き、エーテルが乱れた土地の割り出しを急ごう。[@CR]「紅葉戦争」を語るに外せぬ「ファインサンド平野」について[@CR]知りたければ、吾輩に再び話しかけるがいい。,"I shall continue my search for other potential battlegrounds in your absence. As ever, should you care to be led from the dark of your allegorical cave, ask me anything at any time. I have much I could share with you of the Finesand Banks.","Welch harmonische Zusammenarbeit zwischen Schülern und Professor ...[@CR]Wenn du etwas über die Bedeutung des Tonfeldes während des Purpurlaubkrieges erfahren möchtest, brauchst du mich einfach nur zu fragen.","Très bien, pendant ce temps-là, je vais continuer mes recherches. Ah, mais que cela ne vous retienne pas de me poser des questions sur les événements qui se sont déroulés à la plaine du sable fin, si le sujet vous intéresse.",
64,ウィダルゲルトは「キャンプ・ドライボーン」の南[@CR]「リトルアラミゴ」にいるはずだ。[@CR]東ザナラーンの一番南西にある、メサの西側にその入口はある。,"He told me on the linkpearl that he has put in at Little Ala Mhigo, to the south of Camp Drybone. I assume your geography is as advanced as your history, so allow me to append: the entrance is on the western side of a great monolith in the most southwesterly region of southern Thanalan.","Du findest ihn in Klein-Ala Mhigo, südlich von Camp Knochenbleich.[@CR]Warst du schon mal dort? Der Ort ist nicht ganz einfach zu finden. Der Eingang ist auf der Westseite eines Monolithen, den du im südwestlichsten Zipfel von Ost-Thanalan finden kannst.","Il est à la Petite Ala Mhigo, au sud du camp des Os desséchés. Peut-être vaut-il mieux que je vous donne un peu plus de précisions, au cas où vos con[@16]nais[@16]san[@16]ces géographiques soient aussi pauvres que vos con[@16]nais[@16]san[@16]ces historiques[@1D]? L'entrée est sur le côté ouest de la mesa située au sud-ouest du Thanalan oriental.",
65,吾輩の目的は、エーテルの測定だが……[@CR]君の目的が、エーテルの影響を強く受けた魔物を倒す[@CR]ことならば、「プリンスオブペスト」に、戦いを挑むといいだろう。,"There is a particularly vile fiend in the area known as the Prince of Pestilence. I have no desire to propagate the monkhood's dated and tribal beliefs, but all things being equal, this beast will likely prove the most worthwhile quarry to serve both our ends.","Wenn du dich zu den Braukellern im Norden von Smaragdmoos begibst, musst du dort allerdings zuerst das notorische Monster Pestilenzio besiegen, bevor du mit deinen Messungen beginnen kannst.",Un monstre surnommé le prince de la pestilence y rôde. L'éther libéré à sa mort devrait me fournir des données très utiles.,
66,意気揚々と「ムントゥイ醸造庫」へ行く！[@CR]一気呵成に「プリンスオブペスト」を倒す！[@CR]疲労困憊で「エーテル値の測定」を実施！,Travel to the Mun[@1F]Tuy Cellars. Kill the Prince of Pestilence. Take measurements of the area's aether.,"Begib dich dann zu den Braukellern im Norden von Smaragdmoos, mache Pestilenzio den Garaus und führe dann die Messungen für mich aus.","Partez ensuite pour les Caves de Mun-Tuy, tuez le prince de la pestilence et mesurez l'éther libéré à sa mort.",
67,無駄足を踏ませてしまい、本当にもうしわけありません。[@CR]では……「ムントゥイ醸造庫」にてまた……。,"I have troubled you to come here. I will not trouble you to wait. Go. We will meet again soon, [@IF($E9(4),sister,brother)].","Es tut mir wirklich leid, dass du den weiten Weg quasi umsonst auf dich nehmen musstest.[@CR]Also dann, wir sehen uns in den Braukellern ...","Je ne veux pas vous obliger à refaire tout le chemin jusqu'ici. Ne vous en faites pas pour moi, j'aime voyager de toute façon.",
68,簡単なことです。実は今朝、眠っていたところを[@CR]博士からのリンクパール通信で叩き起こされまして……,The teacher's linkpearl carried his voice to me. It woke me in the morning.,"Na, weil mich der Professor heute Morgen über die Kontaktperle kontaktiert und darüber informiert hat.","Eh bien, ce matin, j'ai été réveillé par la voix du professeur sur la linkperle.",
69,なに？　ウィダルゲルトの計測が、終わっていなかった？[@CR]……おかしいな。吾輩の計算では、とうに終わっているはず。,"The simpleton monk has yet to finish his readings? Odd. Given when he departed, he should be well done by now. <sigh> Give an Ala Mhigan an ilm and he will take a malm.",Widargelt war noch nicht fertig? Das ist merkwürdig. Laut meiner Berechnungen sollten seine Arbeiten längst abgeschlossen sein ...,"Pardon[@1D]? Widargelt n'a pas encore fini ses mesures[@1D]? Voilà qui est bien étrange, en vérité. Vu quand il est parti, il aurait dû réunir toutes les données nécessaires. Vraiment, il est impossible de compter sur ce garçon.",
70,以前も言いましたが……[@CR]僕たち「モンク」は「気」の満ちる古戦場を巡り、[@CR]そこで修行を積むことで、「チャクラ」をより開くすべを身につけます。,It is as I told you. We monks travel to sites of battle. There we train. The power of the land enters us. Thus our chakra expand.,"Wir Mönche wandern über die Schlachtfelder, um unsere Energiezentren zu öffnen ... allerdings funktioniert dies nur einmal auf jedem Schlachtfeld.","Vous rappelez-vous mes paroles[@1D]? Nous autres moines, nous nous rendons sur les champs de bataille de jadis pour nous y entraîner, afin que le pouvoir qui les imprègne ouvre nos chakras.",
71,ですが、誰かが一度、チャクラを開いた場所では[@CR]「気」が乱れてしまって、当分チャクラを開くことができない。,This bonding causes great unrest. The land's energy becomes unstable. It will enter no other until it calms.,Man kann an ein und demselben Ort nicht zwei Chakren öffnen. Zumindest für eine ganze Weile ...,"Mais ce phénomène déstabilise l'énergie du lieu, et jusqu'à ce qu'elle retrouve un certain équilibre, elle ne peut plus être utilisée pour nous fortifier.",
72,つまり、僕の目的地だった「ファインサンド平野」に、[@CR]あなたが向かったところで、もうチャクラは開かないのです。,I trained at Finesand Banks. But felt nothing. I know not why.,"Da du bereits das Tonfeld besucht hast, hatte dieser Ort keine Bedeutung mehr für mein Training.","Bref, il est inutile pour moi de m'entraîner ici. Tant pis.",
73,きっと「新しい事象を発見した！」とでも大喜びするでしょう。[@CR]なんといっても、別々の場所で計測した結果が、[@CR]完全に一致することになるんですから。,It is a sad existence. To sacrifice all for truth. Yet be unable to [@1A(1)]truly[@1A(0)] know when one sees it.,"Ich weiß nicht, wie genau die Daten sind, die diese Messinstrumente aufzeichnen, aber der Professor wird sicherlich nichts bemerken. Er wird sich höchstens über eine vermeintliche neue Entdeckung freuen.","Il sera cer[@16]tai[@16]ne[@16]ment surpris en voyant que nos résultats sont identiques, mais il se réjouira cer[@16]tai[@16]ne[@16]ment en pensant avoir fait une nouvelle découverte.",
74,けれども、ここでは……[@CR]「内地」では、僕が思っていた以上に、[@CR]アラミゴのことは忘れ去られようとしていました。,But these lands sadden me. The people have forgotten. Ala Mhigo is a distant memory.,"Deshalb versuche ich hier, in Eorzea, mein Training abzuschließen und die Kampfkunst der Mönche zu meistern.",Mais les Eorzéens me déçoivent. Ils semblent avoir déjà oublié la tragédie d'Ala Mhigo.,
75,博士は悪い人ではありません。[@CR]でも、彼には研究しか見えていない……[@CR]人々の苦しみなんて、彼にとっては別世界の出来事なんでしょう。,The teacher is not an evil man. But he thinks only of his work. Not of the suffering of innocents.,"Wenn der Professor von meinen wahren Beweggründen erfährt, wird er womöglich nicht weiter mit mir zusammen arbeiten wollen. Er hat ein gutes Herz, aber außer seiner Forschung scheint ihn wenig zu interessieren.","Le professeur n'est pas un mauvais bougre, mais il ne pense qu'à ses recherches. Il ne voit pas la souffrance des gens.",
76,それでも僕たちには、博士の古戦場に関する知識が必要なんです。[@CR]ひとりでも多くの同志が、チャクラを開いて強くなるために！,His knowledge can be used for good. The battlefields. They can turn the tide. The chakra of many must be opened.,"Sein profundes Wissen über die Kriegshistorie erleichtert mir das Auffinden historischer Kampfschauplätze erheblich. Ich kann es mir nicht leisten, das zu verspielen.",Mais ses con[@16]nais[@16]san[@16]ces peuvent être utiles. Il sait où trouver les endroits qui regorgent d'énergie spirituelle. Il est vital d'ouvrir les chakras d'autant de combattants que possible.,
77,あなたと僕の計測器は、僕がまとめて博士に届けましょう。[@CR]その代わり、くれぐれもこの件は博士には内密に……。,"Give me your device. I will see both back to the teacher. Again, I beg you. Tell him nothing of this.",Ich werde die Messgeräte dem Professor zurückbringen. Trainiere du weiter und bereite dich auf den nächsten Einsatz vor.,"Donnez-moi votre appareil, j'irai porter les données au professeur. Et je vous en prie, [@IF($E9(4),ma sœur,mon frère)], ne lui dites rien de mon petit mensonge.",
78,次なる古戦場の選定をしている際、吾輩は妙なことに気づいた。[@CR]エオルゼアには、古戦場として伝わっていないにも関わらず[@CR]エーテルが乱れている場所が、多数存在していたのだ。,"I made yet another career-defining discovery while pondering which battleground to measure next. Eorzea is home to numerous locations where the aether is in an intensely chaotic state, yet which never played host to any war.","Bei der Suche nach geeigneten Orten für die nächsten Vermessungen ist mir etwas aufgefallen: In Eorzea gibt es mehrere Stellen, zu denen es keine Aufzeichnungen über historische Schlachten gibt und an denen doch der Äther in Unordnung geraten ist.","J'ai fait une nouvelle découverte qui ré[@16]vo[@16]lu[@16]tion[@16]nera une fois encore la science[@1D]: il existe des endroits où les fluctuations d'éther sont extrêmement violentes, mais qui n'ont jamais été le théâtre de la moindre bataille digne d'être mentionnée dans l'histoire.",
79,大地のエーテルに導かれ、[@STRING($EB(1))]のチャクラが開いた！,The aether of the land opens your chakra!,Die ätherische Energie dieses Ortes hat ein weiteres deiner Chakren geöffnet.,Un de vos chakras s'est ouvert sous l'influence de l'éther de cet endroit[@1D]!,
