 ,0,1,2,3,4
 ,str,str,str,str,str
1,"遊技場「プラチナミラージュ」事務所受付のガガルナでございます。[@SPLIT([@STRING($EB(1))], ,1)]さん、どうぞ事務所までいらしてください。新しいお仕事が、[@SPLIT([@STRING($EB(1))], ,1)]さんを待っています。","[@SPLIT([@STRING($EB(1))], ,1)], it is Gagaruna. The Platinum Mirage has a new task for you. I will await your arrival.","Hallo, [@SPLIT([@STRING($EB(1))], ,1)]! Wie geht es dir? Ich bin's, Gagaruna, aus dem Palais Platin. Hier wartet ein neuer Auftrag auf dich.","Bonjour, [@SPLIT([@STRING($EB(1))], ,1)], c'est Gagaruna, du Mirage de platine. Comment allez-vous[@1D]? Bien j'espère, car nous avons du travail pour vous ici.","我是游技场“白金幻象”的伽伽鲁纳。[@SPLIT([@STRING($EB(1))], ,1)]，请您来事务所一趟。新的工作在等着[@SPLIT([@STRING($EB(1))], ,1)]您。"
3,"[@SPLIT([@STRING($EB(1))], ,1)]さん、[@CR]ティティニン係長が来るまでお待ちください。[@CR]奥の方で少々、もめているようなのですが……","[@SPLIT([@STRING($EB(1))], ,1)], good of you to come. Please, make yourself comfortable and wait for Titinin. He is a bit...preoccupied, at present.","[@SPLIT([@STRING($EB(1))], ,1)], warte bitte kurz, bis Titinin kommt. Er hat eine Besprechung ...","Ah, [@SPLIT([@STRING($EB(1))], ,1)]. Titinin sera à vous dans un instant...","[@SPLIT([@STRING($EB(1))], ,1)]，[@CR]提提尼恩组长来之前请在这里稍等。[@CR]里面似乎稍微有些纠纷……"
4,役立たずは、即刻、出ていきなさい！！！,"Bah, you're as useless as a mummer's fart! Now stop wasting my bloody time and get the hells out of here!",Du bist zu gar nichts zu gebrauchen! Du verlässt besser sofort das Kasino ... bevor ich richtig sauer werde!!!,Bon à rien[@1D]! Sors d'ici im[@16]mé[@16]dia[@16]te[@16]ment[@1D]!!,派不上用场的就请赶紧走！！
5,おやおや、いったい、何があったんでしょう？[@CR]借金お取り立てに失敗したのでしょうか？,"Gods be good, I've rarely seen him so upset. Perhaps that fellow failed to make good on his collections.",Was der wohl verbockt hat? Vielleicht hat er ja beim Schuldeneintreiben versagt ...?,Je me demande ce qui est arrivé. Peut-être que cet aventurier a échoué dans sa mission[@1D]?,哎呀哎呀，到底发生什么了？[@CR]是追讨欠款失败了？
6,"……ああ、これは[@SPLIT([@STRING($EB(1))], ,1)]さん。[@CR]お見苦しいところをお見せしまして……","Welcome, [@SPLIT([@STRING($EB(1))], ,1)], welcome. I wasn't aware you'd be coming. I am sorry you had to witness that.","Ah, [@SPLIT([@STRING($EB(1))], ,1)]. Entschuldige, ich wollte eigentlich nicht, dass du diese unschöne Szene mitansehen musst.","Ah, vous voilà, [@SPLIT([@STRING($EB(1))], ,1)]. J'ai un peu honte de m'être emporté de cette façon.","……啊，这是[@SPLIT([@STRING($EB(1))], ,1)]。[@CR]让你看到丢脸的事了……"
7,「プラチナミラージュ」の女神レウェナさまから、[@CR]貸し付けたお金を回収できなかった、と言うんですよ。,That chocobo's arse claimed he was unable to collect from Lady Lewena.,"Dieser Taugenichts ist schon an der einfachen Aufgabe gescheitert, ausstehende Schulden von unserer geschätzten Dame Lewena einzufordern.","Mais vous comprenez, cet incapable n'a pas su récupérer l'argent que nous doit madame Lewena.",说是没能从“白金幻象”的女神莱维娜那儿回收成借出去的钱。
8,"それにしても……困りました。[@CR]今回は、[@SPLIT([@STRING($EB(1))], ,1)]さんの腕を見込んで、[@CR]偽造コイン事件を完全解決してもらおうと思っていたのです。","<sigh> I summoned you with the intention of having you discover who brought these fake chips into our midst, and getting to the bottom of all this counterfeiting nonsense.","Kommen wir gleich zum Geschäftlichen: Da du deinen ersten Auftrag mit Bravur bewältigt hast, möchte ich dich darum bitten, die Hintergründe der ganzen Falsch[@16]geld[@16]affäre komplett aufzuklären.","Bon, si je vous ai fait appeler, c'est pour résoudre définitivement le problème des faux jetons.","不过……这下可就难办了。[@CR]这次我想借助[@SPLIT([@STRING($EB(1))], ,1)]的力量，[@CR]希望你能够彻底解决伪造硬币的事件。"
9,ですがその前に、レウェナさまから[@CR]貸付金をお取り立てするお仕事を、頼んでもよいでしょうか？,Would you mind calling upon Lady Lewena once more and collecting her payment?,"Kann ich dich noch um einen kleinen Gefallen bitten, bevor du mit deinen Untersuchungen beginnst?","Mais avant ça, pourriez-vous vous charger des dettes de madame Lewena[@1D]?",不过在那之前，[@CR]能不能拜托你从莱维娜夫人那儿取回借款的工作？
10,なんと、お忙しいのですか。[@CR]それが口実か真実かは見破れませんが、ただただ私の心は引き裂かれましたよ。,"You wound me, [@SPLIT([@STRING($EB(1))], ,1)]. And there I was thinking that I could rely upon you for anything...",Deine Antwort bricht mir das Herz. Von dir hätte ich eigentlich mehr erwartet.,"Ah, vous êtes trop [@IF($E9(4),occupée,occupé)]. J'ignore si c'est vrai ou si vous mentez, mais la déception que vous me causez est atroce. Je ne l'oublierai pas de sitôt.",唉，你很忙是吗？[@CR]虽然看不出是真是假，反正我听了心里好难受啊。
11,ありがとうございます、そう言ってくださると思っていました。[@CR]では、レウェナさまによろしくお伝えください。,I knew you of all people would not let me down. Do give my regards to the lovely thing when you see her. Hehehe!,"Danke. Dann richte Lewena bitte schöne Grüße von mir aus, wenn du sie triffst.",Je savais pouvoir compter sur vous. Passez le bonjour de ma part à madame Lewena[@1D]!,非常感谢，我知道你会这么说的。[@CR]那么，请代我向莱维娜夫人致以问候。
12,"[@SPLIT([@STRING($EB(1))], ,1)]さんじゃないか。[@CR]もし、偽造コインの件を調べに来たのなら、解決せずとも問題はないぞ。","Well, look what the tides washed in! Come, [@SPLIT([@STRING($EB(1))], ,1)], stop wasting your time sniffing about for more bloody chips.","Na, wenn das nicht [@STRING($EB(1))] ist. Wenn du wegen des Falschgeldes hier bist, dann lass mich dir eines sagen: Es ist überhaupt kein Problem, wenn du dieses Rätsel nicht löst.","Tiens, [@SPLIT([@STRING($EB(1))], ,1)]. Il paraît que tu t'occupes encore de cette histoire de faux jetons[@1D]? Tu ne devrais pas trop te monter la tête, même si tu échoues, le casino n'y perd pas grand-chose.","是[@SPLIT([@STRING($EB(1))], ,1)]吗？[@CR]要是为了来调查伪造硬币的事的话，不解决也没问题哦。"
13,プラチナミラージュは、ああいった問題が起きたときのために、[@CR]ナル・ザル教団の保険に入っているんだ。あそこが損をした分は、[@CR]ナル・ザル教団が補填してくれる。,The Mirage [@1A(1)]does[@1A(0)] have insurance against such misfortunes. Straight from the Ossuary. The Order will take care of any losses.,"Das Palais Platin hat bei den Thaumaturgen eine Versicherung für genau solche Fälle abgeschlossen, die jegliche durch Betrug entstehenden finanziellen Verluste ausgleicht.",La boîte est assurée à l'Ordre de Nald'thal contre ce genre d'incident et ses pertes vont toutes être remboursées.,白金幻象为了防止那种问题发生，[@CR]所以加入了纳尔札尔教团的保险。[@CR]损失的钱纳尔札尔教团会赔付。
14,もちろん、この件を起こした者には、呪術士の呪いがかかるだろうが……。,I just pity the souls behind this. They have a dark fate waiting for them at the hands of the thaumaturges.,"Derjenige, der für das Ganze verantwortlich ist, kann sich gewiss sein, dass er von den Thaumaturgen mit einem Fluch belegt wird ...",Ce sont plutôt les faussaires qui devraient se faire du souci. Les occultistes vont cer[@16]tai[@16]ne[@16]ment se venger...,当然，引起这件事的人也会被施以咒术师的诅咒……
15,その事件ではなく、レウェナ様の借金取り立てに来たのか？,"Not why you're here, eh? Ah, collecting Lady Lewena's owings, are you?","Was? Du bist nicht deswegen hier, sondern wegen Lewenas Schulden!?","Ah bon, tu n'es pas ici pour ça mais pour voir madame Lewena et recouvrer ses dettes[@1D]?",不是那事件，而是来找莱维娜夫人催要欠款的吗？
16,まぁ、あなた様も、奥様をお捜しですか。私は、奥様……[@CR]レウェナ様の身の回りのお世話をしております、使用人でございます。,"Begging your pardons, [@IF($E9(4),madam,sir)], I am handmaiden to Lady Lewena, if it please you. Are you searching for milady, too?","Ihr sucht ebenfalls nach der werten Dame? Wenn Ihr mir gestatten würdet, mich vorzustellen - ich bin das Dienstmädchen der Madame Lewena.","Pardon de m'immiscer ainsi dans votre con[@16]ver[@16]sa[@16]tion, mais j'ai entendu que vous cherchiez ma maîtresse.",啊，您也是在找夫人的吗？我是夫人……[@CR]莱维娜夫人身边负责照顾她的佣人。
17,レウェナ様は、小遣いを使い果たしてしまったのか？,"Gods be good, don't tell me she's already exhausted [@1A(1)]all[@1A(0)] her allowances!",Lewena hat ihr gesamtes Haushaltsgeld verprasst? Stimmt das etwa?,Madame Lewena n'a donc plus d'argent[@1D]?,莱维娜夫人把零花钱花光了吗？
18,お恥ずかしい話です……。[@CR]いつもならば、すぐに旦那様に足りない分をいただけるのですが、[@CR]今、旦那様は船上でございます。,"It shames me to say, but... Well, milady's lord husband always sees to her needs...only, he is off at sea for the nonce, and...","Darüber zu reden, ist mir etwas unangenehm ...[@CR]Eigentlich erhält die Dame immer genug Haushaltsgeld von ihrem Gatten, aber der ist momentan auf einer Schiffsreise.","Eh bien, oui... D'habitude, son mari lui donne ce qu'il lui manque, mais il est ac[@16]tu[@16]el[@16]le[@16]ment en mer.",真让人惭愧……[@CR]要是平时，肯定马上就能从老爷那儿拿到不够的部分，[@CR]不过现在老爷正在船上。
19,ですが、すべて私の予想に過ぎませんので、[@CR]やはり奥様にお確かめになった方がよろしいですね。[@CR]奥様をお捜しになってください。,"I-I am but a humble handmaiden. No doubt it would be best for you to speak to milady herself, only...I know not where she is.","Natürlich ist das nur meine bescheidene Meinung und Ihr solltet in jedem Fall mit der Madame Absprache halten.[@CR]Findet sie bitte, bevor ihr etwas zustößt.",Mais je ne veux pas trop m'avancer. Il vaudrait mieux vérifier cela auprès de ma maîtresse. J'ignore où elle est malheureusement. J'espère qu'elle ne fait rien d'inconsidéré.,不过这都是我的猜想，[@CR]还是去找夫人确认一下比较好。[@CR]那就请你去找她吧。
20,レウェナ様ならば、大丈夫だろう。[@CR]安心してくれ。,"She'll come to no harm. If there's a lady who knows how to look after herself, it's Lady Lewena, and no mistaking.","Wir reden hier von der Dame Lewena, die kann auf sich aufpassen. Mach dir mal keine Sorgen.","Oh, ne vous faites pas de souci, madame Lewena a la peau dure.",莱维娜夫人的话会没事的。[@CR]放心好了。
21,それならばよろしいのですが。[@CR]奥様は、時折、怖いことをおっしゃいますから。,"I would like nothing more than to believe so. But sometimes, the way she speaks, it...it [@1A(1)]frightens[@1A(0)] me. I can't help thinking something terrible has happened...","Eure Meinung zu hören, beruhigt mich, wenn ich sie auch nicht ganz teilen kann.[@CR]Die Dame hat in letzter Zeit nämlich schauderhafte Dinge erzählt ...","Je le sais bien, mais elle dit parfois des choses qui me font peur.",真的没事就好了……[@CR]因为夫人有时候会说一些很可怕的话。
22,レウェナ様、大変申し訳ございません。,"Me humble apologies, as always, milady.","Ich stehe tief in Eurer Schuld, Lewena.","Madame Lewena, je ne sais pas comment me faire pardonner.",莱维娜夫人，诚惶诚恐。
23,気にしなくてよくってよ。わたくしは好きで、この件に付き合うのです。[@CR]もしかしたら、命を落とすことになるかもしれませんわね……,"Think nothing of it, Hurrey. I've taken quite a liking to you, and so shall see this thing through─even if it costs me my very life.","Zerbrich dir nicht den Kopf darüber. Ich tue dies ja aus freien Stücken.[@CR]Wenn etwas schiefgehen sollte, sind dann wirklich unsere Leben in Gefahr ...?","Ne t'en fais donc pas, je me suis lancée dans cette aventure de mon plein gré. Et si j'y perds la vie, eh bien, la mort est simplement une nouvelle péripétie.",不必在意。因为喜欢我才参与这件事的。[@CR]要是有个万一说不定会丢掉性命是吧……
24,まさか、そのようなことは起こさせません。[@CR]俺たちが全力で、レウェナ様をお守りします。[@CR]今回も、数人の護衛をつけ、しっかりと戦いの準備はいたしました。,"Things won't come to that, I assure you. You've all the protection we have to offer. A good, solid guard.","Wo denkt Ihr hin. Ich werde alles in meiner Macht Stehende tun, um Euch zu beschützen! Ich habe wieder ein paar Mann als Eskorte angeheuert. Auf Zwischenfälle sind wir bestens vorbereitet.","Croyez-moi, Madame, rien ne vous arrivera tant que nous vous protégerons. Nous sommes parés à toutes les éventualités.",怎么会，俺不会让那种事发生的。[@CR]俺们会尽全力保护莱维娜夫人。[@CR]这次也添加了护卫数人，并仔细做好了战斗的准备。
25,ふふふ。[@CR]さぁ、シルバーバザー近くの、あのメサへ向かいましょう。,"Is that so? Well, I feel safer already for the knowing. Very well, then. Let us make for the Silver Bazaar─to that plateau. Come, you know the one.","Na dann, lasst uns zum Tafelberg nahe des Silberbasars aufbrechen.","Hé hé hé, alors partons pour le Bazar argenté.",呵呵呵。[@CR]那么，我们就到白银集市附近的那个台地去吧。
26,レウェナ様ならば、大丈夫だ。俺たちがついている。,"Lady Lewena will be fine. She's got us now, and we'll not let her come to harm.",Der Dame Lewena wird nichts geschehen. Wir passen gut auf sie auf.,"Ne t'inquiète pas, madame Lewena est en sécurité avec nous.",莱维娜夫人的话会没事的。有俺们跟着。
27,……ああ、退屈ですわ。何か、おもしろいことはなくって？,"<sigh> I grow weary of this. Come, girl, have you not some talk to pass the time?",[@1A(1)]seufz[@1A(0)] ... Mir ist sooo langweilig. Passiert denn hier nie etwas Aufregendes?,Quel ennui... Mes journées s'écoulent sans présenter le moindre intérêt.,……啊，真无聊啊。没什么有趣的事情吗？
28,奥様、そろそろ新しい遊びに挑戦なさってはどうでしょう？[@CR]イシュガルドという都市では、珍しい動物や魔物を育てることが[@CR]できるようですよ？,"If milady is bored, why not take up some new pastime? I've heard it said that one may rear all manner of strange creatures in the city of Ishgard!","Madame, vielleicht könnte Euch ja eine neue Heraus[@16]forde[@16]rung amüsieren? Ich habe vernommen, dass man in Ishgard seltsame Monster großzieht.","Madame, vous pourriez peut-être commencer un nouveau passe-temps[@1D]? Il paraît qu'on peut élever des monstres rares dans la Cité d'Ishgard.",夫人，是时候挑战下新的游戏怎么样？[@CR]在名为伊修加德的城市可是能饲养珍稀动物与魔物哦？
29,ベヒーモスやドラゴンを飼うことができるなら、[@CR]すぐに、イシュガルドに住みかえてもよろしくてね。,I suppose keeping a behemoth or a dragon as a pet [@1A(1)]might[@1A(0)] be sufficiently alluring to warrant a move to Ishgard.,"Hm, also wenn ich mir dort einen Drachen oder Behemoth halten könnte, ich würde sofort nach Ishgard ziehen.","Tu m'intéresses. Si on peut élever des béhémoths ou des dragons, je déménage là-bas.",要是能饲养贝希摩斯或者龙的话，[@CR]马上搬去伊修加德住也可以啊。
30,なんて恐ろしい。[@CR]それでは奥様、お世話する者が食い殺されてしまいますわ。,"Milady, such horrific beasts!? Surely they would swallow their keepers whole when they came of a size.","Wie grausam von Euch, Madame. Fürchtet Ihr denn gar nicht darum, dass Euer Dienstmädchen aufgefressen werden könnte?","Oh Madame, ce serait bien trop dangereux[@1D]!",多么可怕。[@CR]而且夫人啊，饲养者会被吃掉的。
31,そうでないとつまりませんでしょう。[@CR]さまざまな娯楽に興じたわたくしには、もう、[@CR]「死」くらいしか楽しめることはありませんの。,Just so! What greater thrill than the ever-present prospect of death!?,"Das wäre doch gerade der Spaß dabei. Bist du etwa nicht bereit, zur Belustigung deiner Herrin zu sterben?[@CR]Ich habe mich in den Jahren auf so viele Weisen vergnügt, inzwischen weiß mich nur noch der Tod zu unterhalten ...","Mais c'est ce qui fait tout le piquant de la chose. J'ai goûté à tous les plaisirs, j'ai tout vu et tout essayé. Il n'y a plus que la mort qui ait l'attrait de la nouveauté.",不那样就没意思了吧。[@CR]对于享受过各式各样娱乐的我来说，[@CR]除了“死”的程度之外已经没什么可享受的了。
32,もうしばらくすれば、旦那様がお帰りになります。[@CR]今回は、せめて一週間でも、ご自宅にご滞在になればと思います。,"Milady's lord husband will soon return from his voyage. I pray he is able to remain this time, if only for a short while.","Es dauert nicht mehr lange, bis ihr Ehemann zurückkommen wird. Ich hoffe nur, dass er dieses Mal wenigstens für eine Woche bei der Madame verweilt.",Mon maître sera bientôt de retour. Je pense qu'il restera au moins une semaine cette fois-ci.,再过一些时候老爷就该回来了。[@CR]这次希望能至少在家里住上一周。
33,もう充分ですわ。どきどきする戦いでした。,That's quite enough. An exhilarating show indeed! You fought bravely.,Das ist genug. Ihr habt mir einen aufregenden Kampf geboten.,"Assez. Le combat était palpitant, je suis satisfaite.",已经够了。真是场紧张激烈的战斗。
34,さて、アルダネス聖櫃堂の方。わたくしが黒幕ですわ。,"But know one thing, thaumaturge─it is [@1A(1)]I[@1A(0)] who pull the strings here.","Allerdings muss ich dich, Gesandte des Arr[@16]za[@16]neth-Os[@16]sari[@16]ums, darauf hinweisen, dass ich die gesuchte graue Eminenz bin.","Ne cherche pas plus loin, mon petit bout d'occultiste. La coupable, c'est moi.",那么，阿达内斯圣柜堂的收债人。我就是幕后老大。
35,レウェナ様！,Lady Lewena!,Lewena!,Madame Lewena[@1D]!,莱维娜夫人！
36,あら、第二幕の始まりですわね？,Is it time for the next round already? What a treat!,"Oha, der zweite Akt hat bereits begonnen ...?","Oooh, un deuxième round[@1D]?",哎呀，要开始第二幕了吗？
37,……はぁ、はぁ……奴は、諦めてはいないだろう。[@CR]すぐに、次の戦いのために立て直さなくては。,The fight...is not finished. The witch...will be back.,[@1A(1)]keuch[@1A(0)] ... S-So schnell wird diese Hexe nicht aufgeben ...[@CR]Macht euch auf eine weitere Runde gefasst ...,A-aah... aaah... je ne crois pas qu'elle abandonnera aussi facilement... Il faut se préparer à un nouvel assaut.,……呼、呼……那家伙还没放弃吧。[@CR]必须要马上调整好准备下次的战斗。
38,"力を貸してくれ、[@SPLIT([@STRING($EB(1))], ,1)]さん。","Aid me, [@SPLIT([@STRING($EB(1))], ,1)].","[@SPLIT([@STRING($EB(1))], ,1)], ich brauche deine Hilfe!","Aide-moi, [@SPLIT([@STRING($EB(1))], ,1)].","请助我一臂之力，[@SPLIT([@STRING($EB(1))], ,1)]。"
39,レウェナ様、[@CR]駆け付けるのが遅れてしまいまして、大変、申し訳ありません。,"Apologies, milady. We were delayed.","Lewena, verzeiht bitte, dass wir erst so spät hier eintrafen.","Je suis vraiment désolé pour le retard, Madame.",莱维娜夫人，[@CR]在下迟来一步，罪该万死。
40,構いませんわよ、おもしろかったですから。[@CR]ああ、どきどきしましたわ。,"Think nothing of it, Hurrey. Your tardiness only served to make things more exciting.","Aber nicht doch, ich habe mich prächtig amüsiert. Mein Herz rast noch vor Aufregung.",Il n'y a pas de mal. Je me suis beaucoup amusée.,没关系啊，因为很有趣。[@CR]啊，心噗通噗通跳。
41,断罪依頼を遂行するためにいらした、アルダネス聖櫃堂の方ですわね？,"You have come at the behest of Arrzaneth Ossuary, yes? To carry out an order of condemnation?","Du wurdest vom Arr[@16]za[@16]neth-Os[@16]sari[@16]um geschickt, um ein Rachegesuch auszuführen? Habe ich recht?","Tu es ici pour exécuter un contrat de damnation, n'est-ce pas[@1D]?",您是从阿达内斯圣柜堂来执行断罪委托的人吧？
42,せっかく来ていただいた上、素晴らしい戦いでした。[@CR]けれども、わたくし、特例を使わせていただきたいのですの。[@CR]こちらをお納めくださいますわね？,"I wonder if you wouldn't be willing to make a special exception in my case. I shall make it worth your while, of course.","Ich möchte dich darum bitten, bei mir eine Ausnahme zu machen. So etwas gibt es doch, oder? Es soll sich auch für dich lohnen.",Je demande une clause de caducité. J'ai de quoi la payer.,让您特意前来，而且带来了场出色的战斗。[@CR]不过，我希望能够使用下特例。[@CR]你能收下这个吧？
43,……600万ギル、承りました。[@CR]貴方様へは、特例措置を適用させていただきましょう。,Then it is agreed. The order of condemnation against you shall be lifted in exchange for the sum of six million gil.,Einverstanden. Ihr werdet dieses Mal als Ausnahme behandelt und die Ausführung des Rachegesuchs wird ausgesetzt.,"Le compte y est. Très bien, vous n'êtes plus la cible de cette damnation.",……600万金币，敬悉惠意。[@CR]对您将采用特例措施。
44,レウェナ様……[@CR]遊技場からの借入金を払えなかった、と聞きましたが……,"But Lady Lewena, I heard it told that you had yet to make good on your...ahem, obligations to the Mirage...","Lewena, stimmt es, dass Ihr dem Palais Platin noch Geld schuldet?",Mais je croyais que vous ne pouviez pas payer vos dettes de jeu...[@1D]?,莱维娜夫人……[@CR]我听说您还没能还上从游技场借的欠款……
45,ええ、この件でまとまったお金が必要だと思っておりましたの。[@CR]プラチナミラージュの方は、頼みこめさえすれば、[@CR]夫の帰りを待ってくださいますでしょう？,Yes. Circumstances dictate that I hold on to my resources for the time being. Surely such trifling matters can wait until my lord husband returns?,"Ja. Zum Begleichen der Schulden hat mein Geld nicht gereicht, also habe ich das mir verbleibende Restgeld darauf verwendet, mich vor diesem lästigen Thaumaturgen zu schützen. Das Kasino kann doch wohl auf die Rückkehr meines Gatten warten!","Oui, car je pensais bien qu'il me faudrait cet argent pour nous sauver la vie. Pensez-vous que le casino pourra attendre le retour de mon mari[@1D]?",嗯，我想这件事会需要相当多的钱。[@CR]如果恳求白金幻象的人的话，[@CR]能等到我家老爷回来吧？
46,"[@SPLIT([@STRING($EB(1))], ,1)]さん、[@CR]すぐに、ティティニン係長に伝えてくれないか。[@CR]レウェナ様の借入金返済は、少し待ってほしいと。","You heard the Muse, [@SPLIT([@STRING($EB(1))], ,1)]. See to it word gets back to Titinin.","[@SPLIT([@STRING($EB(1))], ,1)], hast du gehört? Richte Titinin aus, dass er sich noch etwas gedulden muss, was die Rückzahlung von Lewenas Schulden betrifft ...","[@SPLIT([@STRING($EB(1))], ,1)], va demander à Titinin si les échéances de madame Lewena peuvent être repoussées.","[@SPLIT([@STRING($EB(1))], ,1)]，能马上向提提尼恩组长转达下吗？[@CR]希望他能够再稍微等等莱维娜夫人的还款。"
47,それと、わたくしが偽造コインを作らせたとも。,"And while you're at it, don't neglect to mention that it is I who has been minting the counterfeit chips.","Bei der Gelegenheit kannst du ihm gleich noch sagen, dass ich hinter den falschen Münzen stecke.",Et dis-lui aussi que je suis derrière l'affaire des faux jetons.,还有，是我让他们制作的伪造硬币。
48,やめてください、レウェナ様！[@CR]すべては、俺たちが自分たちのためにやったのです。[@CR]レウェナ様は、得などないのに毎回、助けてくださるだけのこと。,"There's no need for that, now. Everything we did was done for the good of us all. But you acted out of kindness, at no personal gain to yourself.","Was redet Ihr da?! Wir haben das für uns und unseren Gewinn allein getan.[@CR]Lewena hat uns zwar dabei geholfen, aber ohne in irgendeiner Art und Weise davon zu profitieren.","Mais Madame, vous avez fait ça simplement pour nous aider. Vous n'y avez rien gagné[@1D]!",不要这样，莱维娜夫人！[@CR]都是俺们为了一己私欲才干的。[@CR]莱维娜夫人每次都不图名利的帮助俺们。
49,ふふ、素晴らしい退屈しのぎなんですもの。,"I acted out of [@1A(1)]boredom[@1A(0)], dear Hurrey. Boredom. I simply had nothing better to do.",Hahaha ... Ihr habt mir das Leben gerettet. Ich hätte mir vor lauter Langeweile bestimmt etwas angetan.,"Oh, mais si. J'y ai gagné un agréable passe-temps.",呵呵，真是绝妙的消遣。
50,……レウェナ様……[@CR]帰りましょう、お送りします。,"Lady Lewena... Come, let us go.",Wir sollten uns auf den Heimweg machen.,Je suis simplement heureux qu'il ne vous soit rien arrivé. Rentrons maintenant.,……莱维娜夫人……[@CR]回去吧，俺来送您。
51,ここであったことは、誰にも言うな。[@CR]皆に迷惑がかかる。,Speak to no one of this. No good will come of it.,"Behalte bitte alles für dich, was du hier gesehen und gehört hast.",Ne raconte à personne ce qui s'est passé ici. Les autres auraient des ennuis.,这里的事别给任何人说。[@CR]会给大家造成麻烦的。
52,"おかえりなさい、[@SPLIT([@STRING($EB(1))], ,1)]さん。[@CR]随分とお時間かかったようですが、レウェナさまに会えましたか？","Welcome back, [@SPLIT([@STRING($EB(1))], ,1)]. Took your sweet time, didn't you? Well, were you able to see Lady Lewena?","Willkommen zurück, [@SPLIT([@STRING($EB(1))], ,1)]. Das hat ja ganz schön lange gedauert. Hast du dich mit Lewena getroffen?","Ah, [@SPLIT([@STRING($EB(1))], ,1)], vous en avez mis du temps. Avez-vous vu madame Lewena[@1D]?","欢迎回来，[@SPLIT([@STRING($EB(1))], ,1)]。[@CR]花了相当长的时间啊，见到莱维娜夫人了吗？"
53,……そうですか。[@CR]レウェナさま自身から、そう話を聞いたのでしたら、確かでしょう。,"So you were able to find her and discover all of that, were you?","Ich verstehe ... Nun, wenn Lewena es dir persönlich so gesagt hat, dann kann man dem wohl Glauben schenken.","Si c'est bien ce qu'elle vous a dit, nous n'avons pas à nous en faire.",……是这样吗。[@CR]从莱维娜夫人自己那儿听到这么说的话，应该是真的吧。
54,ところで……前回の偽造コイン事件ですが、[@CR]アルダネス聖櫃堂が調査してくださっていたようです。,"Ah, yes, that reminds me. I have some news of this counterfeiting affair. I kept it secret until now, but the Mirage hired Arrzaneth Ossuary to look into the matter.","Ach ja, was die Falsch[@16]geld[@16]affäre angeht - zu diesem Thema hat das Arr[@16]za[@16]neth-Os[@16]sari[@16]um Erkundungen für mich eingeholt.","Ah, au fait, au sujet de l'affaire des faux jetons. Les occultistes de l'Ossuaire d'Arrzaneth ont enquêté pour nous.",顺便……上次的伪造硬币事件，[@CR]阿达内斯圣柜堂调查过了。
55,しかし、調査と処罰に失敗したようで、私たちに補填金が入ってきました。,"Sadly, their investigation yielded no clues. On a more positive note, however, that means our insurance policy can now come into effect.","Ihre Nach[@16]for[@16]schungen und die anschließende Bestrafung der vermutlichen Täter waren ein Misserfolg, weshalb sie um eine Aus[@16]gleichs[@16]zah[@16]lung nicht herumgekommen sind.",Ils ont échoué à punir les coupables et nous ont donc payé des dédommagements.,不过，调查和处罚都失败了，所以会为我们支付保险金。
56,"では、受付から報酬をもらってください。[@CR]これからも一緒に頑張りましょう、[@SPLIT([@STRING($EB(1))], ,1)]さん。",That is all for now. Be sure and see Gagaruna for your reward.,"Du kannst dir deine Belohnung an der Rezeption abholen. Auch weiterhin viel Erfolg, [@SPLIT([@STRING($EB(1))], ,1)]!","Allez prendre votre récompense à l'accueil. Vous avez bien travaillé. Nous aurons cer[@16]tai[@16]ne[@16]ment encore besoin de vous dans un proche avenir, [@SPLIT([@STRING($EB(1))], ,1)].","那么，请去接待那儿取您的报酬。[@CR]以后也一起努力吧，[@SPLIT([@STRING($EB(1))], ,1)]。"
57,"[@SPLIT([@STRING($EB(1))], ,1)]さん、お疲れ様でした。[@CR]レウェナ様から借金お取り立ての仕事だけでしたから、[@CR]今回の報酬はとても少ないです。","Regrettably, [@SPLIT([@STRING($EB(1))], ,1)], as you played no real part in the resolution of this matter, I can only recompense you for contacting Lady Lewena about her outstanding debts. Accordingly, your reward is quite small.","[@STRING($EB(1))], herzlichen Dank für deine Mühe. Was deine Arbeit als Eintreiber betrifft, so fällt deine Belohnung diesmal nicht so hoch aus.","Bonjour, [@SPLIT([@STRING($EB(1))], ,1)]. Il s'agissait d'un simple travail de re[@16]cou[@16]vre[@16]ment de créances cette fois-ci, alors ne vous étonnez pas si la somme est petite.","[@SPLIT([@STRING($EB(1))], ,1)]您辛苦了。[@CR]因为只是从莱维娜夫人那儿催讨欠款的工作，[@CR]所以这次的报酬非常的少。"
58,けれども、カジノのコインには裏と表があります。[@CR]あなたは格闘士たちの裏の面まで、ご覧になったようですね。,But you are truly one of us now. You have seen the dark underbelly of our Platinum Mirage.,Allerdings wäre da ja noch die Falsch[@16]geld[@16]affäre. Du hast dieses Mal Licht- und Schattenseite der Welt der Faustkämpfer kennengelernt.,Mais vous avez gagné autre chose dans toute cette affaire. Vous avez découvert la face cachée des pugilistes de ce casino.,不过，就像卡西诺的硬币皆有正反两面一样。[@CR]这次你连格斗士们的“反面”也看到了吧。
59,そして、目的を見失わずに誇りを捨てて負け、[@CR]勝てるときには素直に勝ち、どちらに賭けるべきかわからないときには[@CR]静観しました。カジノに喩えれば、一流のプレイヤーと言えるでしょう。,"And you have served the guild well, without ever losing sight of your goal. You have learned to set aside your pride when you must, to wait and watch when the odds are unknown, to win when much is at stake. I daresay if you had been at the tables, you would be a rich [@IF($E9(4),woman,man)] by now.","Mal kämpfst du entschlossen, um zu gewinnen, mal vergisst du deinen Stolz und verlierst, ohne das Ziel aus den Augen zu verlieren. Und wenn eine Wette nicht sicher erscheint, lehnst du dich zurück und beobachtest ...[@CR]Aus dir ist bereits [@IF($E9(4),eine erstklassige Spielerin,ein erstklassiger Spieler)] geworden, [@SPLIT([@STRING($EB(1))], ,1)]!","Et vous n'avez jamais perdu de vue votre objectif, vous avez par[@16]fai[@16]te[@16]ment observé l'issue d'une partie qui était incertaine. Vous avez l'âme et le talent d'[@IF($E9(4),une joueuse,un joueur)].",然后，有时为了不迷失目的而舍弃自尊认输，[@CR]该赢时痛快的赢，[@CR]而不知道该押哪边时又能够静观其变。[@CR]这三点你都做到了，用卡西诺来比喻的话，能称得上是一流的玩家。
60,この報酬には、あなたへの賛辞が込められています。[@CR]表と裏の報酬です、愛でも力でも何でもお買い上げください。,"Consider this payment a tribute from the Mirage. You recall the three truths I spoke of, yes? Well, may this small sum of money help to bring you the love and power you deserve.","Diese Belohnung enthält Lob und Anerkennung der anderen Faustkämpfer.[@CR]Gib es für die Liebe aus oder erkaufe dir Macht ... Was du damit machst, bleibt ganz dir überlassen.",Faites-vous plaisir avec cet argent bien mérité[@1D]!,这份报酬中也包含了对你的赞赏。[@CR]这是正反两面的报酬。你可以用它去购买你想要的东西，不管是爱或是力量。
61,"[@SPLIT([@STRING($EB(1))], ,1)]さんなどは、朝飯前の仕事だったというのに。[@CR]まったく、冒険者にも、天と地の差があることを痛感しました。","No doubt you'd have been there and back with the coin in time to break your fast with the dawn watch. Gods help me, you adventurers can be as different as night and day.","Für dich war das ein Kinderspiel, habe ich recht?[@CR]Bei euch Abenteurern gibt es Unterschiede wie Tag und Nacht ... Deshalb kann ich niemals damit aufhören, mir Sorgen zu machen.","Quand je pense avec quelle facilité vous y êtes [@IF($E9(4),parvenue,parvenu)][@1D]! Vraiment, on trouve autant de bons que de mauvais éléments chez les aventuriers.","明明对于[@SPLIT([@STRING($EB(1))], ,1)]就是小菜一碟的事。[@CR]真是让我深刻感到冒险者之间也是有天壤之别的。"
62,あの偽造コインを持ち込んだ人を捜せば、[@CR]もう一歩、踏み込んだ事実がわかるかもしれないと。,"But before we can get to that, I'm afraid I have to ask you to clean up this fool's failure.","Dazu solltest du am besten erst einmal herausfinden, wer die falschen Münzen hier hinein[@16]ge[@16]schafft hat.",Il faut mettre la main sur la personne qui les écoule dans le casino. Nous aurons peut-être le fin mot de l'histoire en l'interrogeant.,要是能找到那个将伪造硬币带进来的人，[@CR]我们离真相就又近了一步。
63,"[@SPLIT([@STRING($EB(1))], ,1)]さんには退屈なお仕事だと思いますが、[@CR]こちらの方が「プラチナミラージュ」にとって、最優先項目です。",It truly is of the utmost importance.,"Es wird dich vielleicht langweilen, aber könntest du dich um das Eintreiben der ausstehenden Schulden der Dame Lewena kümmern?","Je sais bien que ce n'est pas très passionnant pour vous, mais c'est une priorité pour l'éta[@16]blis[@16]se[@16]ment.","虽然我也想过对于[@SPLIT([@STRING($EB(1))], ,1)]你来说这是个无聊的工作，[@CR]不过这个对于“白金幻象”来说是最优先的事情。"
64,依頼を受ける？,Will you collect from Lady Lewena again?,Den Auftrag annehmen?,Acceptez-vous ce travail[@1D]?,接受委托吗？
65,はい,"Yes, I think I'd enjoy that.",Ja. Das erste Mal war ja auch ein Heidenspaß!,"Oui, comptez sur moi[@1D]!",是的
66,いいえ,"No, I've had a bellyful of the tease.","Schon wieder diese Verrückte? Nein, danke!","Non, j'ai d'autres choses à faire.",不要
67,その旨をお伝えすれば、お支払いは待っていただけることと思います。,We would be ever so grateful if the Platinum Mirage would be willing to permit a slight extension─ever so slight.,"Es bleibt wohl nichts anderes übrig, als deine Auftraggeber über die prekäre Lage in Kenntnis zu setzen und auf die Zahlung zu warten.","Je pense que si elle vous expliquait la situation, le remboursement pourrait être repoussé.",只要你能转告这个意思，支付欠款应该还能通融两天。
68,レウェナさまの御主人は、一航海するたびに[@CR]財を増やして帰ってくる大豪商です。心配はありません。,"To be fair, her lord husband always brings back a kingly haul from his trading voyages abroad. The payment can wait.",Ihr Gatte ist ein bekannter Kaufmann und er bringt von seinen Reisen immer viel Geld mit zurück. Wegen der Bezahlung mache ich mir keine Sorgen.,Son mari revient de ses voyages chaque fois plus riche. C'est un des marchands les plus importants de la ville.,莱维娜夫人的丈夫是个每次一航海回来就能财产翻番的大商人。[@CR]没什么可担心的。
69,これにて今回の損失は埋まりましたから、[@CR]この件は一応は、終わりにしたいと思います。,"It will amply cover our losses, so we have resolved not to pursue the matter any further.","Der Schaden wurde ausgeglichen, und damit möchte ich die Sache auf sich beruhen lassen.","Nous sommes rentrés dans nos frais, tout est bien qui finit bien.",这样这次的损失就能填上了，[@CR]这次事件暂时就这么结束吧。
70,呪術士さんと対決だなんて、本当にぞくぞくしましたわ。[@CR]わたくしが黒幕だって言ったときの顔なんて、見物でしてよ？,It isn't often that I get a chance to contend with a thaumaturge. Did you see the look on her face when I said it was I who pull the strings? Hahaha!,"Der spannende Kampf gegen die Thaumaturgin und dann das Gesicht von der Kleinen, als ich ihr sagte, dass ich hinter all dem stecke ... einfach unbezahlbar ...","Rendez-vous compte, un duel avec une occultiste. Ce n'est pas une chose à laquelle on assiste tous les jours. As-tu vu sa tête, lorsque j'ai dit que j'étais la coupable[@1D]?",和咒术师的对决真是令人激动。[@CR]我说自己是幕后老大时的表情真是值得一看对吧？
71,奥様は、お寂しいのかもしれません。,Milady seems so lonely and distant of late...,"Sie wird nämlich von Mal zu Mal trauriger, wenn er nicht bei ihr ist ...",Je crois que ma maîtresse se sent seule car il est souvent absent.,夫人说不定很寂寞。
72,"レウェナ様から、貸付金のお取り立てをお願いいたします。[@CR]以前に、[@SPLIT([@STRING($EB(1))], ,1)]さんもお会いになった方ですよ。","Please, see to the collection of Lady Lewena's owings. You did so before by fighting for her at the Coliseum, did you not? I daresay she has taken a liking to you.","Lewena ist schon wieder mit ihrer Zahlung im Verzug, und da du sie ja bereits kennengelernt hast, kann ich mir niemanden vorstellen, der besser dafür geeignet wäre als du ...","Vous voilà une fois de plus [@IF($E9(4),chargée,chargé)] de recouvrer les dettes de madame Lewena. Vous vous souvenez d'elle, j'imagine[@1D]?","希望你从莱维娜夫人那儿取回借款。[@CR]她以前也曾与[@SPLIT([@STRING($EB(1))], ,1)]您见过面。"
73,"大商人の奥方様ですから、[@CR][@SPLIT([@STRING($EB(1))], ,1)]さんが彼女の希望を叶えてさしあげれば、[@CR]色をつけて払ってくださいましょう。","Her lord husband is a wealthy merchant. The coin is there, it is simply a matter of coaxing it from her. Do whatever she asks, [@SPLIT([@STRING($EB(1))], ,1)]. [@1A(1)]Whatever[@1A(0)] she asks!","[@SPLIT([@STRING($EB(1))], ,1)], du weißt sicher, worauf es ankommt: Du wirst den Wünschen der Kaufmannsgattin entsprechen und sie zufriedenstellen, damit sie ohne zu zimpern ihre nächste Rate begleicht.","Il est fort probable qu'il vous faille à nouveau répondre à ses désirs avant qu'elle accepte de vous payer. Quoi qu'elle vous demande, faites-le.","她是大商人的夫人，[@CR]只要[@SPLIT([@STRING($EB(1))], ,1)]您能实现她的愿望，应该会利落的还钱的吧。"
74,レウェナ様は、この頃、闘技場でも負けがこんでるみたい。,Word around the Coliseum is that the lovely Lady Lewena has lost a small fortune of late.,Lewena wird sicherlich wieder im Kolosseum sein und ihr Geld auf die Kämpfer dort verwetten.,Il paraît que madame Lewena a perrrdu beaucoup d'argent au Colisée der[@16]niè[@16]re[@16]ment.,莱维娜夫人这一段时间在斗技场也输的很多的样子。
75,ナル・ザル教団に動きがあったら、あいつらと戦う準備をしないと。,"If it is true, I pray it does not lead to...significant problems.","Wir sollten die Thaumaturgen genau im Auge behalten. Wenn sie auftauchen, müssen wir uns auf einen Kampf gefasst machen.",J'espère qu'elle ne va pas avoir de prrroblèmes.,要是纳尔札尔教团有所动作，就要准备和他们战斗了。
76,心配だな……。いや、おまえのことじゃない、気にするな。,"Ain't been this worried since my sixth wife missed her moonblood. Naw, not about you, you idiot.","Ich mache mir große Sorgen ... Hm? Nein, keine Sorge. Nicht wegen dir.","Hmm, ça ne me dit rien de bon... Ah, non, ne fais pas attention.",真担心啊……不，不是说你，别在意。
77,サハギン族っていう蛮族が、活動範囲を広げているんだって。,Word is the fishbacks've been growin' bolder and roamin' further.,Die Sahagin weiten ihren Aktionsradius angeblich immer mehr aus.,Ces sal'tés d'Sahagins s'contentent plus d'attaquer les p'tits bateaux marchands.,说是名叫鱼人族的蛮族活动范围在扩大。
78,海賊どもまで被害をこうむってる。[@CR]商船だって、いつ沈められるかわかったもんじゃないんだ。[@CR]融資には気をつけないとね。,They've even been attackin' [@1A(1)]pirates[@1A(0)]! It'll take a bloody miracle to get a merchant vessel across the seas if this carries on!,"Selbst die Piraten sollen unter den Angriffen der Sahagin zu leiden haben. Wer weiß, wann diese laufenden Heringe das erste ul'dhische Handelsschiff versenken. Ich würde mir dieser Tage genau überlegen, worin ich meine Gil investiere ...",Ils s'en prennent même aux pirates[@1D]! L'moindre trajet en mer peut êt'fatal[@1D]!,连海盗们都遭受了损失。[@CR]商船也不知什么时候会沉。[@CR]要注意下融资啊。
79,レウェナ様の旦那様はね、遠洋商船を何隻もお持ちの大商人なんだ。,That Lady Lewena's lord husband has got hisself a whole damn fleet o' merchant ships.,"Der Gatte der Dame Lewena ist so reich, dass es schon fast obszön ist. Er soll eine eigene Flotte von Handels[@16]schiffen besitzen.",Le mari de madame Lewena possède plusieurs navires marchands au long cours.,莱维娜夫人的丈夫是拥有好几艘远洋商船的大商人啊。
80,ウルダハから港まで、結構な距離がある。[@CR]そこで、海での商売に一早く手を出した彼が、[@CR]抜きんでて、大成功をおさめたというわけだね。,"Clever sod was one o' the first to get into the trade game with Ul'dah, far from the sea as we are. Made a bloody fortune, he did.",Er soll als erster Ul'dahner die große Bedeutung des Überseehandels für die Stadt erfasst und ein regelrechtes Imperium aufgebaut haben.,"Il a été le premier à se lancer dans le commerce maritime, dans cette ville éloignée de la mer. C'est comme ça qu'il a fait fortune.",从乌尔达哈到港口有相当的距离。[@CR]然后最先开始着手海洋贸易的他，[@CR]做的出类拔萃并取得了很大的成功。
81,お金の大切さを本当に知ってるなら、[@CR]どのような相手からでも、お金を取り戻せるはずです。,"The best debt collector is [@IF($E9(4),she,he)] who knows the [@1A(1)]true[@1A(0)] value of gil.","Wenn du die Wichtigkeit des Geldes erst einmal begriffen hast, wirst du dir dein Geld auf jeden Fall zurückholen. Von wem auch immer!",Les meilleurs recouvreurs de dettes sont ceux qui comprennent l'importance de l'argent.,如果真的明白金钱的重要性，[@CR]不论是从怎样的对手都一定能要回来钱。
82,冒険者は、そこのところが甘いんです。[@CR]誇り高いはずのアラミゴ生まれだって、みんなちゃんと勤め上げてるのに。,"You adventurers could learn much from the Ala Mhigans. Proud though they may be, they always make their collections.",Ihr Abenteurer seht die finanziellen Zwänge des Lebens viel zu blauäugig.,"Beaucoup d'aventuriers sont des idéalistes qui le méprisent. C'est dommage. Même les fiers réfugiés mhigois ne crachent pas dessus, alors pourquoi faire la fine bouche[@1D]?",冒险者就是在这点上心太软了。[@CR]连在阿拉米格出生的自尊心很强的人，也都做的很不错的。
83,手柄を立てたいのはわかるけど、[@CR]レウェナ様は「プラチナミラージュ」の女神さまなんだ。,"I know you seek to distinguish yourself here with great deeds─we all do. But remember, Lady Lewena is the Muse of the Mirage.","Ich verstehe, dass du dich hervortun möchtest, aber Lewena ist die Muse des Palais Platin.","Evite d'faire trop d'zèle, souviens-toi qu'madame Lewena est la déesse du Mirage.",虽然知道你想要功绩，[@CR]但莱维娜夫人是“白金幻象”的女神大人啊。
84,手荒に扱ったら、僕ら全員の鉄拳制裁だぜ。アラミゴ流入民をナメるなよ。,Do not think her easy prey simply because she is Ala Mhigan. Mistreat her and there [@1A(1)]will[@1A(0)] be consequences.,"Wag es ja nicht, sie grob zu behandeln. Sonst bekommst du die Schlagringe der gesamten Belegschaft zu spüren!","Si tu la trait'mal, on t'fera tous passer l'envie d'recommencer.",你要是乱来，等着你的就是我们全员的铁拳之制裁。别小看阿拉米格难民。
85,すぐに、あのお方のもとに向かわねば……,Lady Lewena must be found─and quickly.,Wir müssen sofort zu ihr eilen.,Nous devons la retrouver au plus vite...,不马上到那位大人那儿去的话……
86,"なんだ、[@SPLIT([@STRING($EB(1))], ,1)]。レウェナ様のことなら、俺たちに任しておけ。","She'll be safe once she's in our company. Leave this to us, [@SPLIT([@STRING($EB(1))], ,1)].","[@SPLIT([@STRING($EB(1))], ,1)], was willst du denn? Um die Dame Lewena brauchst du dir keine Sorgen zu machen, wir kümmern uns um sie.","Ah, [@SPLIT([@STRING($EB(1))], ,1)]. Ne t'inquiète pas, madame Lewena est en sécurité avec nous.","怎么了，[@SPLIT([@STRING($EB(1))], ,1)]。莱维娜夫人的事就交给俺们吧。"
87,奥様は、いったいどこへ行ってしまわれたのでしょう。,Wherever could milady have gone?,"Wenn ich nur wüsste, wo sich Dame Lewena hinbegeben hat.","J'ignore où ma maîtresse est allée, mais j'ai un mauvais pres[@16]sen[@16]ti[@16]ment.",夫人到底到哪里去了呢。
88,お願いです、奥様に危険及ばなきよう、お守りください。,"Please, she has been as a mother to me. You must find her and make sure she is safe. I beg of you!","Ich bin Euch keine große Hilfe, aber ich bitte Euch inständig, findet und beschützt sie bitte.","Je vous en prie, si vous la retrouvez, protégez-la.",求求您，请保护夫人不要遭遇危险。
89,おや、レウェナ様から約束状をいただいたのですか。[@CR]旦那さまのお帰りが遅れていると……？,Lady Lewena has requested an extension? I take it her lord husband has yet to return.,Lewena hat dir einen Brief mitgegeben? ... Die Rückkehr ihres Gatten wird sich verspäten?,"Madame Lewena a demandé un délai[@1D]? Ah, son mari n'est pas encore de retour...",哎呀，从莱维娜夫人那儿拿到字据了吗？[@CR]说老爷晚些时候才回来……
90,それは仕方ありませんね。ティティニン係長に御報告ください。[@CR]後のことは、ティティニン係長にお任せしましょう。,"Well, I suppose there is naught else to be done. You had best report to Titinin. He will take care of matters from here.","Hm, da können wir wohl nichts machen ... außer Titinin Bericht zu erstatten - was in deinen Auf[@16]gaben[@16]bereich fällt.[@CR]Er soll darüber entscheiden, wie das Palais Platin in dieser Sache verfahren wird.","Très bien, allez expliquer tout ça à Titinin. C'est à lui de décider quoi faire.",那也没有办法啊。请去给提提尼恩组长报告一下。[@CR]之后的事就交给提提尼恩组长吧。
91,あたくしたち格闘士にとって、[@CR]呪術士のような魔法を使う輩と戦うのは、きついわ。,Spellweavers such as the thaumaturges make for some of the toughest opponents we pugilists face.,"Wir Faustkämpfer kämpfen nicht gerne gegen Thaumaturgen, die benutzen zu viele fiese Tricks.",Les occultistes sont une vrrraie plaie pour les pugilistes.,对于我们格斗家来说，[@CR]和咒术师那样使用魔法之辈战斗会很难搞啊。
92,ここだけでなく他の施設も、アラミゴ出身者を[@CR]積極的に雇い入れてくれていれば、よかったんだけどね。[@CR]そうしたら、裏から手をまわせたのに。,"I had a mind to take up the dark arts myself, but Arrzaneth Ossuary does not allow Ala Mhigans to take the Order's vows.","Wenn in anderen Einrichtungen in Ul'dah auch so viele Mhigiten arbeiten würden wie hier, hätte sich die Angelegenheit sicher eleganter aus der Welt schaffen lassen ...","J'aurais bien aimé en devenir une, mais l'Ordre de Nald'thal n'accepte pas les Mhigois aussi facilement qu'ici.",要是不仅仅是这里，[@CR]连其他的设施也会积极的雇佣阿拉米格出身的人的话就好了。[@CR]要是那样的话，就能从背后疏通了。
93,どんな法でも、人が作るものなら抜け道がある。[@CR]人の生き方というものは、時代とともに変化していくからだ。,"Ain't no such thing as a perfect law, nor a timeless one. The way men live changes with the seasons, it does.",Es liegt einfach in der Natur der Bewohner Ul'dahs. Bei jedem Geschäft gibt es ein Hintertürchen.,Les lois sont ce qu'en font les hommes. La morale et les façons de penser changent au fil du temps.,不管什么法律，只要是人定的就会有漏洞。[@CR]因为人的生活方式也是同时代一同变化的。
94,それならば、ともかく金さえ払えばいいと[@CR]わかりやすくしたのがウルダハの法だ。,An' there's the beauty of Ul'dahn law─you just pay up. Ain't no problem what can't be solved with enough coin.,Und jedes Hintertürchen lässt sich mit dem richtigen Preis öffnen. Deshalb lebt es sich hier so unkompliziert.,C'est pour ça que j'aime la simplicité de la loi uldienne[@1D]: tout se règle avec de l'argent.,正因这样，不管怎样只要付钱就行——[@CR]这种简单易懂的正是乌尔达哈的法律。
95,あとは、レウェナ様の旦那様だけが心配だね。[@CR]無事に帰ってきてくださればいいけれど。,There's still the matter of the lady's lord husband... I only pray Llymlaen sees him safe to port.,"Um den Gatten der Dame Lewena mache ich mir ja ein wenig Sorgen. Ich hoffe nur, dass er unversehrt zurückkehren wird.",C'te pauvre madame Lewena doit s'sentir bien seule sans son mari. J'espère qu'rien lui est arrivé.,之后就只用担心莱维娜夫人的老爷了。[@CR]如果平安回来的话就还好。
96,断罪依頼は、罪を犯した者への処罰の依頼だよ。[@CR]ここでは法を犯した者は、ナル・ザル教団の呪術士に処罰されるんだ。,"A condemnation order? Aye, 'nother of the Ossuary's services, that. Whene'er a law's been broke, folk can call for the criminal to be brought to justice, and the Order sees to it from there.","Ein Urteilsgesuch ist eine Bitte an das Ossarium, die Strafe eines Verbrechers durch die Hand eines Thaumaturgen vollstrecken zu lassen.","Lorsque quelqu'un enfreint une loi, l'offensé peut charger l'Ordre de Nald'thal de punir le coupable. C'est ce qu'on appelle un contrat de damnation.",断罪委托是向犯了罪行之人加以处罚的委托。[@CR]在这里犯了法的人将会被纳尔札尔教团的咒术师处罚。
97,ちなみに、どんな処罰も依頼者がいてのこと。[@CR]誰も依頼しなければ、どんな凶悪な犯罪者も野放しになるんだよ。,"'Course, there needs t' be a paying client on the other end. If there ain't, Order'll ignore even the foulest o' criminals.","Dabei bestimmt der Bittsteller das Strafmaß selbst. Wir können Nald'thal für dieses System nur danken.[@CR]Stell dir nur mal vor, all die Verbrecher würden ungestraft in der Stadt herumlaufen ...","Ce n'est valable que si quelqu'un paie pour ce contrat. Sinon, même une personne ayant commis le pire des crimes n'a pas à se soucier des occultistes.",顺便，无论任何处罚也需要有委托人。[@CR]如果没有人委托的话，怎样凶恶的犯罪者也会被放任自流。
98,先日の偽造コインの件。[@CR]ナル・ザル教団がかけた呪いから、黒幕が見つかったといいますけど……,I've heard the Order of Nald'thal used their thaumaturgy to find the mastermind behind the counterfeiting.,"Diese Falschgeldgeschichte ... Angeblich sollen die Thaumaturgen durch einen Fluch aufgedeckt haben, wer die Drahtzieher dahinter sind.","Quelle drôle d'histoire. L'Ordre de Nald'thal aurait retrouvé le faux-monnayeur, mais ce dernier serait toujours en vie.",前些日子伪造硬币的事。[@CR]因为纳尔札尔教团施加了诅咒，虽说是找到了幕后人……
99,どうやら、特例措置が使われたらしいですよ。[@CR]黒幕は、よっぽどの富豪か呪術士ということですね？,What's that? The culprit got them to lift the condemnation order!? I...I don't believe it. This villain must be wealthy beyond words...or one of their own. There can be no other explanation.,"Na ja, jedenfalls soll es zu einer außer[@16]ordent[@16]lichen Regelung gekommen sein. Was nur bedeuten kann, dass die Drahtzieher entweder steinreich sind oder selbst der ul'dhischen Glaubensgemeinschaft angehören ...","Il paraît qu'une clause de caducité a annulé le contrat de damnation. Cette personne devait être soit très riche, soit un occultiste. C'est la seule explication possible.",不过看样子是采取了特例措施吧。[@CR]也就是意味着幕后人不是相当的富豪就是咒术师吧？
100,危険なことって、そんなに癖になるのかなぁ？,This perilous thrill-seeking of Lady Lewena's... Do you think there is something to it?,Können gefährliche Nervenkitzel zu einer schlechten Angewohnheit mutieren ...?,"C'est amusant, l'danger[@1D]?",危险的事情就那么容易变成癖好吗？
101,いくら退屈だからって、今のレウェナ様は幸せそうに見えないよね……。,"She claims she acts out of boredom. But even when she's flirting with disaster, I don't think I've ever seen true happiness in her eyes.","Die Dame Lewena beklagt sich ja häufig über Langeweile, aber ich glaube, ihr drückt ganz woanders der Schuh. Besonders glücklich sieht sie mir trotz des vielen Adrenalins jedenfalls nicht aus ...","Madame Lewena affirme qu'elle s'amuse, mais moi, j'trouve qu'elle a un je n'sais quoi d'triste.",就算再怎么因为无聊，现在的莱维娜夫人看起来并不幸福啊……
102,"[@SPLIT([@STRING($EB(1))], ,1)]さんに[@CR]前回の偽造コイン事件を、完全解決してもらおうと思ったんですけどねぇ。[@CR]あの若いのが失敗さえしなければ……","I had hoped to put an end to that counterfeiting nonsense, once and for all. If only that sprat had made good on his collections, I could devote all─","Da du deinen ersten Auftrag mit Bravur bewältigt hast, möchte ich dich darum bitten, die Hintergründe der ganzen Falsch[@16]geld[@16]affäre komplett aufzuklären.",Je pensais vous demander de mettre fin à cette terrible histoire de faux jetons. Si seulement ce petit jeune n'avait pas échoué...,"虽然也想让[@SPLIT([@STRING($EB(1))], ,1)]您能完全解决上次的伪造硬币事件啊。[@CR]要是那个年轻人不失败的话……"
103,やれやれ。お金に縁遠い人は、永遠に縁遠いのでしょうね。ノンノンノン。,<sigh> It will not serve to dwell upon it now. Some just do not understand the importance of money─especially those new to it.,Aber eins nach dem anderen. Zuerst einmal möchte ich dich zu Lewena schicken.,"Enfin, certaines personnes sont incapables de comprendre l'importance de l'argent.",哎呀哎呀，要说这和金钱无缘之人啊，那是一辈子都发不了财！嚯嚯嚯。
104,アルダネス聖櫃堂の債務回収者が分身した！,The thaumaturge calls forth a doppleganger!,Die Thaumaturgin erschafft eine Doppelgängerin!,La recouvreuse de dette de l'Ossuaire d'Arrzaneth se dédouble[@1D]!,阿达内斯圣柜堂的收债人分身了！
