 ,0,1,2,3,4
 ,str,str,str,str,str
1,,[en],"Hallo, [@STRING($EB(1))]. Ich bin es, Gagaruna, vom Kasino W.J.. Wir haben einen gefährlichen Auftrag zu vergeben und ich wollte dich fragen, ob du Interesse hast[@1D]...",[fr],[chs]
2,,[en],"Du kannst dabei etwas über die Bauindustrie Ul'dahs lernen.Komm einfach ins Kasino, wenn du den Auftrag haben willst.",[fr],[chs]
3,"[@SPLIT([@STRING($EB(1))], ,1)]さんなら、[@CR]危険だと言われても、来てくださると思っていました。[@CR]おそらく、何の苦労もなく、このお仕事をやり遂げてくださると思います。",[en],"[@STRING($EB(1))], hab ich mir doch gedacht, dass du gleich hier aufkreuzt, wenn ich von Gefahr rede. Nun, ich will dir keine falschen Hoffnungen machen. Vielleicht geht der Job auch komplett ohne Probleme über die Bühne.",[fr],[chs]
4,えー、ごほん。[@CR]ウルダハの工業として、採掘業があります。,[en],"Wenn man in Ul'dah von Industrie spricht, geht es fast immer um Bergbau. Kennst du die Amazhina Bergbau AG? Das ist die hiesige Gilde der Minenarbeiter. Sie erschließen, wie du wahrscheinlich vermuten wirst, im Umkreis von Ul'dah immer neue Minen für den Erzabbau.",[fr],[chs]
5,そして、その鉱山開発費は、私たちが融資したものです。[@CR]私たちあってこその、ウルダハ工業の発達なんですね。,[en],Die Er[@16]schlie[@16]ßungs[@16]kosten für Bergwerke sind sehr hoch und werden von uns mitfinanziert. Wir investieren in Ul'dahs Industrie und lassen sie wachsen.,[fr],[chs]
6,さて、前置きはこれくらいにしまして……。,[en],"Das sollte als Einleitung reichen[@1D]... Bei dem Job, den ich dir anbiete, geht es um die Prüfung einer neuen Investition.Du sollst für uns ein Darlehen prüfen, um das uns die Amazhina Bergbau AG gebeten hat.",[fr],[chs]
7,何か考えがあるのですか？[@CR]とにかく、ここまで聞いてしまったことは、誰にも話さないでくださいね。[@CR]融資調査が走ることは周知の事実ですが、手の内が明かされるのはよろしくないのです。,[en],"Das ist nicht dein Ernst, oder? Hm[@1D]... Erzähl auf keinem Fall weiter, was ich dir bisher anvertraut habe!Unsere Absicht, diese Untersuchung durchzuführen, muss auf jeden Fall im Verborgenen bleiben!",[fr],[chs]
8,ありがとうございます。,[en],Danke. Auf dich kann man sich verlassen!,[fr],[chs]
9,この融資、担保はナナワ銀山となっています。[@CR]担保価値が十分か、専門家の意見を聞いてください。,[en],Für das Darlehen wurde uns die ○○-Mine als Hypothek angeboten. Wir wollen von einem Experten den Hypothekenwert der Mine prüfen lassen. Dafür haben wir den renommierten Geologen Professor Ale engagiert.,[fr],[chs]
10,今回は、地質学者のザントバルン先生が力を貸してくれます。[@CR]彼さんと共に、ナナワ銀山内部を調査するのです。,[en],"Du sollst Professor Ale bei seiner Untersuchung in das Innere der Mine begleiten. Du solltest allerdings vorsichtig sein, in der Mine soll es viele Eisenwürmer（仮） geben!",[fr],[chs]
11,"[@SPLIT([@STRING($EB(1))], ,1)]さんお一人だと、[@CR]何かあったときに手の打ちようもないので、[@CR]冒険者のお仲間を○○人ほど連れていってくださいね。",[en],"Ich befürchte, du wirst alleine gegen die Eisenwürmer nicht viel ausrichten können, deshalb schlage ich vor, dass du dich mit mindestens ○○ weiteren Abenteurern zu[@16]sammen[@16]schließt.",[fr],[chs]
12,後は……そうですね、[@CR]ザントバルン先生は、ナナワ銀山の入口でお待ちです。[@CR]さっそく向かってください。,[en],"Was gibt es sonst noch zu sagen[@1D]... Ach ja, Professor Ale wird sich am Eingang der ○○-Mine mit euch treffen.",[fr],[chs]
13,こらこらー、手ぶらで何しに来たのー？[@CR]せめて、ツルハシくらい持ってきなさいよー？,[en],"He, was willst du denn mit leeren Händen hier? Solltest du nicht wenigstens eine Spitzhacke dabei haben?",[fr],[chs]
14,……あらー、間違えちゃったー。[@CR]コロセウムの人だったとはねー。いつもの担保調査ってやつに来たのねー。,[en],"Oh, entschuldige, ich habe nicht gleich gesehen, dass du aus dem Kasino W.J. kommst.Du bist wegen dem Hytopheten-Dings hier, hab ich Recht?",[fr],[chs]
15,ならー、残念なお知らせがありまーす。[@CR]地質学者のザントバルン先生、私がいくら止めても無駄でー、[@CR]さっさと中入っちゃいましたー。,[en],"Wenn dem so ist, dann habe ich schlechte Nachrichten für dich. Ich habe versucht ihn davon abzuhalten, aber dieser Geologe ist bereits in die Mine gerannt.",[fr],[chs]
16,あー文句なら聞かないよー。[@CR]いつも文句言われるけどー、あの人を止めるのって大変なんだよー。[@CR]血がどうのこうの言うけどさー、頭に血も上ろうってもんだよー。,[en],"Wenn du dich beschweren willst, dann fang gar nicht erst an. Ich lass mir für die Sturheit dieses Mister Neunmalklug nicht die Schuld in die Schuhe schieben.",[fr],[chs]
17,おい、そこの。,[en],"He, du da!",[fr],[chs]
18,コロセウムから来た格闘士だな。俺たちから見れば、敵だ。,[en],"Bist du etwa ein Faustkämpfer aus dem Kasino? Ist dir klar, dass wir dich hier als Feind betrachten!?",[fr],[chs]
19,俺たちが命がけで堀り進めた鉱山のおかげで、ウルダハは都市として大発展したんだ。それまでウルダハは、ただのでかいバザーだったのさ。,[en],"Dank dieser Mine ist aus Ul'dah eine richtige Stadt geworden, die Perle der Wüste. Früher war Ul'dah nicht mehr als ein einfacher Basar.",[fr],[chs]
20,そして今、アマジナ鉱山社で多くの人々が職にありつくことができ、日々のおまんまを食っていけている。,[en],Viele Leute haben hier Arbeit gefunden und in Ul'dah mit Waren gehandelt. Und durch solche Arbeiter erblühen Städte wie Ul'dah oder Sil'dih in früheren Zeiten.,[fr],[chs]
21,よく覚えておけよ、俺たちは金を借りてやるんだ。金を掘ることでな。,[en],"Merke dir eins: Wir leihen euch Geld, das Geld das wir hier aus der Erde holen!",[fr],[chs]
22,俺たちの仕事場を荒らす奴は、容赦しねえぞ。おまえの頭を掘り進んでやってもいいんだぞ。,[en],"Wenn ich etwas nicht abkann, dann sind das Leute, die mich bei der Arbeit stören!Pass bloß auf, dass ich mir keine Grubenlampe aus deinem Schädel baue!",[fr],[chs]
23,鉱山開発は、ウルダハの他ギルドにも意味があることよ。[@CR]彫金師ギルドや錬金術ギルドは、私たちの功績によって発展したに等しいのよ。,[en],Die Erschließung von Bodenschätzen hat auch für die anderen Gilden großen Nutzen. Die Goldschmiede und Alchemisten sind auf unsere Funde angewiesen.,[fr],[chs]
24,地質学者なら、その辺をうろうろしていたよ。[@CR]魔物に絡まれたりしながらね。働かないで物調べばかりしているなんて、僕から見れば怠け者にも程があるよ。,[en],"Ein Geologe[@1D]... der ist hier vorhin rumgeschlichen, stimmt. Ein paar Monster hatten sich bereits an seine Fersen geheftet.Was für ein Faulpelz, wer fleißig arbeitet und sich bewegt, dem passiert so etwas nicht!",[fr],[chs]
25,どうだ、壁の石を採集するなら手伝うぜ。けど、俺たちも馬鹿じゃない。この調査のために前もって、壁に宝石を埋め込んでおくかもしれないな。どうだ、調査する気が失せただろ。,[en],"Soll ich dir beim Sammeln helfen? Du suchst doch Steine, oder?Du solltest uns Arbeiter nicht für dumm halten, wir wissen genau, warum du und der Geologe hier seid. Vielleicht haben wir ja schon wertvolle Edelsteine vergraben[@1D]... und zwar so, dass ihr sie sicher finden werdet[@1D]...",[fr],[chs]
26,見たところ、きみは採掘師ではないようじゃのう。[@CR]わしを捜しにきたコロセウムゆかりの者といったところかな。,[en],"Du siehst mir nicht nach einem Minenarbeiter aus. Bist du vom Kasino gekommen, um mich zu suchen?",[fr],[chs]
27,ちょうどよかったのう。[@CR]わしの調査は、ほぼ終了じゃ。,[en],"Du kommst genau richtig, meine Untersuchung ist fast abgeschlossen. Jetzt müssen wir nur noch diese Monster, die ihre Opfer verwirren, besiegen, und ihr Blut sammeln.",[fr],[chs]
28,……なんと！？　既に集めたというのかね！？,[en],W-Wie bitte?! Du bist bereits fertig?,[fr],[chs]
29,ということは、もう全部、倒してきたということか。[@CR]仕事が早くて有り難いが、時既に遅しというのはこういうことで……,[en],"Du hast diese über[@16]dimen[@16]sionierten Maden ohne mich erledigt? Die Ge[@16]schwindig[@16]keit, mit der du deine Arbeit erledigst, ehrt dich, aber[@1D]...",[fr],[chs]
30,わしも、こいつを相手にするのは久々だわい。,[en],Na bitte! Ich wollte schon lange mal wieder gegen einen von denen kämpfen!,[fr],[chs]
31,まったく、前回はひどい目にあったのう。しかし、手ごたえはあったように思うのじゃ。もう一度、挑戦してみてほしいのじゃが、よいかな？,[en],"Der letzte Kampf lief nicht so gut. Immerhin wissen wir jetzt, wie zäh die Viecher sind. Was sagst du? Versuchen wir's noch mal?",[fr],[chs]
32,身体がバキバキ言うとる。もう年じゃのう。,[en],"Heiliges Saphirquarz, mir tut jeder Knochen weh! Werd bloß nicht alt!",[fr],[chs]
33,おっと、新鮮なうちに。,[en],"Schnell, so lange das Blut noch warm ist[@1D]...",[fr],[chs]
34,これでよし。きみが集めた、魔物の血も預かろう。,[en],"Sehr schön. Das Blut, das du bereits gesammelt hast, kannst du mir ebenfalls geben. Damit ist unsere Arbeit hier abgeschlossen.Zuhause nehme ich erst mal ein heißes Bad[@1D]...",[fr],[chs]
35,どうでした？　あら、地質学者のザントバルン先生は一緒ではないのですか？,[en],Was ist passiert? Ist Professor Ale gar nicht bei dir?,[fr],[chs]
36,そこの冒険者の仕事が早かったのでな、わしも仕事をパパっと終わらせることにしたよ。,[en],"Dieser Abenteurer war so schnell, dass ich mir gestattet habe, mich zuhause noch frisch zu machen.",[fr],[chs]
37,これが調査結果じゃ。やはり少し、含有鉱物が減ってきておるな。,[en],"Kommen wir zum Ergebnis meiner Untersuchung: Der Erzbestand hat etwas abgenommen. Um die momentane Fördermenge aufrecht erhalten zu können, müssen tiefere Schächte gegraben werden. Es sieht nicht gut aus.",[fr],[chs]
38,そうですね。ナナワ銀山は、担保価値としてはゴミですね。融資額と釣り合ってないどころの騒ぎじゃありません。,[en],Ich verstehe. Als Hypothek ist die Mine also nicht mehr viel wert. Wir werden die Höhe des Darlehens ausbalancieren müssen[@1D]... das wird einen Tumult geben!,[fr],[chs]
39,"[@SPLIT([@STRING($EB(1))], ,1)]さん、どうもありがとうございました。調査材料の採集に手を貸してくださって。",[en],"[@STRING($EB(1))], vielen Dank für deine Mithilfe bei der Beschaffung der Materialien.",[fr],[chs]
40,そういや、きみは何も聞かんな。一応、今さらながら説明しておくが、魔物の血に含まれる鉱物を調べたんじゃよ。,[en],"Es hat dir noch niemand erklärt?! Also pass auf: Wir haben die im Blut gelösten Bestandteile der Minerale untersucht. Diese Würmer fressen und verdauen erzhaltiges Gestein und mit einer Analyse ihres Blutes lässt sich feststellen, wie erzhaltig das Gestein ist, das sie verzehren.",[fr],[chs]
41,何かあったら、錬金術大学病院（仮）まで来てくれな。その道じゃ、名を知られた「血質学者」じゃからな。,[en],"Wenn du mal gesund[@16]heit[@16]liche Beschwerden haben solltest, dann komm zu mir in die Vonboot-Uni[@16]versitäts[@16]klinik（仮）. Man kennt dich dort als „Professor Lebenssaft“, obowhl viele diesen Spitznamen auf meinen Familiennamen zurückführen und nicht auf meine Tätigkeit[@1D]...",[fr],[chs]
42,今回のお仕事は、融資調査です。[@CR]アマジナ鉱山会社から、新しい融資を求められている件について……[@CR]ばっちり調査してほしいのです。,[en],[de],[fr],[chs]
43,今回のお仕事は、融資調査です。[@CR]アマジナ鉱山会社から、新しい融資を求められている件について……[@CR]ばっちり調査してほしいのです。,[en],[de],[fr],[chs]
44,今回のお仕事は、融資調査です。[@CR]アマジナ鉱山会社から、新しい融資を求められている件について……[@CR]ばっちり調査してほしいのです。,[en],[de],[fr],[chs]
45,今回のお仕事は、融資調査です。[@CR]アマジナ鉱山会社から、新しい融資を求められている件について……[@CR]ばっちり調査してほしいのです。,[en],[de],[fr],[chs]
46,ですが、あの鉱山には今、鉱虫（魔物名）が大量発生しているようです。,[en],[de],[fr],[chs]
47,そういう人間が物を買ってやるから、ウルダハも、その昔のシラディハも、大都市のバランスが取れたんだ。,[en],[de],[fr],[chs]
48,あとは、きみが混乱した魔物たちを倒して、その血を集める仕事が残っておるぞ。,[en],[de],[fr],[chs]
49,もう一度、挑戦する？,[en],[de],[fr],[chs]
50,はい,[en],[de],[fr],[chs]
51,いいえ,[en],[de],[fr],[chs]
52,これで仕事終了じゃ。帰って風呂と飯とキュウリ（仮）じゃ。,[en],[de],[fr],[chs]
53,だから謝ったりしませんよーだ。,[en],[de],[fr],[chs]
54,採掘師ギルドでもある「アマジナ鉱山会社」のことは、ご存じですか？[@CR]あちらに雇われている採掘師たちが、多くの鉱山を開発したんですよ？,[en],[de],[fr],[chs]
55,ナナワ銀山に住むあの魔物は、鉱石を摂取して成長するからのう。血に、摂取した鉱物成分が溶け出す生き物なのじゃ。,[en],[de],[fr],[chs]
56,ナナワ銀山で、今の産出量を確保し続けるには、奥へ掘っていくしかない結果じゃ。まずいんじゃないかい？,[en],[de],[fr],[chs]
57,どうも皆、勘違いしているような気がするがのう。,[en],[de],[fr],[chs]
58,ナナワ銀山の入口にいる、いつものミコッテ族「ジョ・サパ」に、一声かけることをお忘れなく。,[en],[de],[fr],[chs]
59,ザントバルン先生にも同じことを伝えておきましたから、そこで先生とは落ち会うことができるでしょう。,[en],[de],[fr],[chs]
60,フォンボード錬金術大学のザントバルン先生といえば、金回りがよさそうな好々爺ね。孫がかわいくて仕方ないとか、よく長話されるらしいわ。,[en],[de],[fr],[chs]
61,鉱山の仕事は危ないのに、引き受けて大丈夫なのかしら。孫がかわいいから、お小遣いでも稼いであげようってことかしらね。,[en],[de],[fr],[chs]
62,ウルダハがこれだけ発展したのは、ここ「プラチナミラージュ」が多くの施設に融資をしたからさ。,[en],[de],[fr],[chs]
63,……そういった話を何度も聞かされるだろうけど、ここはウルダハ。まずは、疑ってかかった方が身のためかもね。,[en],[de],[fr],[chs]
64,融資ってなんだか知ってる？　何かどでかいことをするからお金を貸してって言われて、それを貸してあげるわけよ。,[en],[de],[fr],[chs]
65,そのどでかいことが成功したら、ちゃんとおこぼれをちょうだいね♪　……というのが、うちの融資の仕事なわけ。,[en],[de],[fr],[chs]
66,以前、おまえが取り立てに向かった人々の中にも、融資を受けていたお人はいるぞ。,[en],[de],[fr],[chs]
67,カジノで金を使うためではなく、大きな仕事を立ち上げるために融資を受けたのだ。その中でも一握りの人が、本当に大成功を収める。,[en],[de],[fr],[chs]
68,融資を受けたのに、失敗した人はどうなるのかですって？　岩砂漠に埋められるんじゃないですかね？,[en],[de],[fr],[chs]
69,相手が失敗しても「プラチナミラージュ」が損しないように契約を結ぶから、俺たちは大丈夫ですよ。,[en],[de],[fr],[chs]
70,僕も、融資先の担保調査に行ったことあるよ。あの時は、いたれりつくせり、茶菓子にマッサージつきだったけど。,[en],[de],[fr],[chs]
71,ナナワ銀山行くなら、小さな問題でも見逃さないようにね！　鉱山とかって、いつ何が起きて、価値が無になっちゃうかわからないし！,[en],[de],[fr],[chs]
72,ザントバルン先生は、先に銀山の中へ入ってしまわれたのですか。何度か調査を頼んでいる相手とはいえ、心配ですね。急いで、彼を追いかけて探し出してください。,[en],[de],[fr],[chs]
73,そこで彼が倒れても、免責事項を記した書類がありますから問題はないのですが……。もし死亡して、特約をたくさんつけた遺言状があったりすると、面倒なことになります。,[en],[de],[fr],[chs]
74,あら、すっきりした顔をしてるじゃない。格闘士らしい仕事をしたって感じかしら。,[en],[de],[fr],[chs]
75,趣味と実益を兼ねた仕事なんだから、これからも首にならないように頑張りなさいよ。,[en],[de],[fr],[chs]
76,魔物の血を集めて帰ってきたのかい？　銀山には、妙な生き物がいるという噂を聞いたことがあるけど、そいつらじゃないだろうね？,[en],[de],[fr],[chs]
77,ああ、知らないならいいんだよ。あの銀山の奥は、凄腕の採掘師じゃないと立ち入り禁止なんだけど、そこを探るのは僕らも止められてるんだ。,[en],[de],[fr],[chs]
78,それで、ナナワ銀山への融資の件は、どうなったのかしら？　もし、融資中止なんてことになったら、採掘師たちは働き場を失って……,[en],[de],[fr],[chs]
79,あたしたちを脅かすような、いい人材がどっと流れ込んでくるかもしれない。くわばらくわばらよ。,[en],[de],[fr],[chs]
80,わしの叔父の兄の嫁の長男は、プラチナミラージュから融資を受けて、事業を大成功させたことがある。,[en],[de],[fr],[chs]
81,彼が亡くなったら、その事業を引き継ぐために争いが起きるのは確実でね。だから、わしはここで拳の修行を積んでいるのだ。,[en],[de],[fr],[chs]
82,岩砂漠には、いくつもの骸が眠っている……夢に破れ、ギルに裏切られた人たちの骸だよ。,[en],[de],[fr],[chs]
83,採掘師たちは、そういった骸を幾つも掘り出しているだろうからね。彼らは必死さ、同情するよ。,[en],[de],[fr],[chs]
84,鉱山に魔物が出るのは、当たり前だから気にしなくていいと思うよ。鉱虫（仮）なんかは、逆にいた方が、よい鉱脈がまだ眠っている可能性が高い。,[en],[de],[fr],[chs]
85,君も、そういった知識を貯めておかないと、偉くなれないよ。プラチナミラージュでの出世競争は激しいんだから。,[en],[de],[fr],[chs]
86,"[@SPLIT([@STRING($EB(1))], ,1)]さん、よく来てくださいました。今回は、少し危険なお仕事かもしれません。しかしその分、がっつり報酬もお渡しできるかと。",[en],[de],[fr],[chs]
87,しかも、ウルダハの工業について勉強になりますよ。どうぞ、ティティン係長からお話をお聞き下さい。,[en],[de],[fr],[chs]
88,「アマジナ鉱山会社」所有の「ナナワ銀山」にて、ザントバルン先生と調査をお願いします。[@CR]あの鉱山の開発費は、私たちが融資したものなのです。,[en],[de],[fr],[chs]
89,融資先が利益を出し続けることが可能かどうか、無理な経営をしていないかどうか、きめ細やかに面倒を見なくては大事故に繋がります。,[en],[de],[fr],[chs]
90,地質学者のザントバルン先生ならー、さっさと鉱山の中に入っちゃいましたー。どかどか入ってちゃってー、魔物に襲われたりしちゃうんじゃないかなー。,[en],[de],[fr],[chs]
91,おや、ナナワ銀山にて、ザントバルン先生にはお会いできました？,[en],[de],[fr],[chs]
92,……ふむ、銀山内に魔物が現れているんですって？　それは心配ですね、魔物の種類や様子によっては、融資を切り上げる必要が出るかもしれません……,[en],[de],[fr],[chs]
93,おかえりなさい。随分、汗水垂らして働いてきたようですね。お金に対して、一生懸命の姿勢、すばらしいことです。,[en],[de],[fr],[chs]
94,ティティン係長が奥でお待ちですよ。ぜひ、ご報告をお願いいたします。,[en],[de],[fr],[chs]
