 ,0,1,2,3,4
 ,str,str,str,str,str
2,よくもぬけぬけと、ここへ来られたものだ……内通者め！[@CR]貴様が逆賊ソルクザギル、そして砂蠍衆の共和派と[@CR]通じているのを、私が気づかぬとでも思ったか……？,"So you dared to come. You are a brazen one, I will grant you that. But did you really think I wouldn't find out?","Du hast ganz schön Mut, hier aufzutauchen. Denkst du etwa, ich würde dein falsches Spiel nicht durchschauen?",Hmpf[@1D]! Je ne pensais pas que tu aurais l'audace de venir. Je reconnais que c'est courageux de ta part... Mais la supercherie a assez duré[@1D]! Je sais tout[@1D]!,
3,さあ、「聖剣」と逆賊の行方について、あらいざらい吐いてもらおう。,"Confess! With your dying breath, you will tell me where I can find Oathkeeper and the traitor who stole it!","Na los, spuck schon aus, was du über den Verräter und den Verbleib der Eidklinge weißt!","Inutile de nier, un de mes hommes t'a vu en train de parler à Solkzagyl. Alors, dis-moi où il se cache[@1D]! Où est l'Epée sacrée[@1D]?!",
4,ふん……嘘だとでも言いたいのか？[@CR]ここに集いし我が同志に限って、嘘や裏切りなど存在せぬ。[@CR]我らの覚悟は貴様らとは違うのだ……そうであろう？　同志よ！,"Do you dare accuse my own Sultansworn of lying? We are comrades-in-arms, every one of us, bound in brotherhood by our oath. I would trust them with my life. What is your word, when set against theirs? We know the meaning of honor!","[@IF($E9(4),Die Dumme,Den Dummen)] zu spielen, wird dich nicht retten![@CR]Willst du etwa behaupten, die Gardisten hätten gelogen? Das ist undenkbar. Was ist dein Wort schon wert im Vergleich zu ihrem?","Accuserais-tu mes hommes de mentir[@1D]? Les soldats qui m'ac[@16]com[@16]pa[@16]gnent aujourd'hui sont mes plus fidèles compagnons[@1D]; ta parole vaut bien peu de choses en comparaison de la leur, nous autres connaissons le sens de l'honneur[@1D]!",
5,……私が、甘かったのだ。[@CR]貴様は逆賊ソルクザギルから「ナイトの証」を受け取った。[@CR]その時点で、疑ってかかっておくべきだったのだ。,"You are a naive fool. I suspected you from the beginning, ever since you showed me the Soul of the Paladin that the traitor Solkzagyl gave you.","Schon die Tatsache, dass du einen Paladin-Kristall von Solkzagyl bekommen hast, war sehr verdächtig.","J'ai été naïf... Solkzagyl t'a donné son cristal de paladin, cela aurait dû me mettre la puce à l'oreille...",
6,"これより、裏切り者[@SPLIT([@STRING($EB(1))], ,1)]に裁きを下す。[@CR]自由騎士とはいえ、騎士を志した貴様だ……[@CR]せめてもの情けをくれてやろう。","You were, no matter how briefly, a paladin, and as such, you are bound by a code of honor that is as unforgiving as it is noble.","Du bist ein Paladin, wenn auch noch nicht sehr lange. Deshalb muss deine Unehrenhaftigkeit hart bestraft werden.","Même si tu as prêté serment à l'ordre des paladins comme nous tous, ta trahison est im[@16]par[@16]don[@16]na[@16]ble.",
7,その恥ずべき罪を衆目にさらすことなく、[@CR]今ここで砂塵と散るがいいっ！！,"Traitor! I sentence you to death, and decree that your body shall lie here and feed the crows.","[@IF($E9(4),Elende Verräterin,Elender Verräter)], hiermit verurteile ich dich zum Tode. Dein Körper soll hier in der Wüste Thanalans verdorren!","Et pour ce, je te condamne à mort, sans rémission[@1D]!",
8,なぜ貴様ごときに……[@CR]剣の腕ならば……私の方が数段、上のはず……,You...you cannot do this. I am the greater swordsman. Your superior...in every way...,Wie kann das sein?! Ich bin ein viel besserer Schwertkämpfer als du!,Comment ai-je pu perdre...? Je suis pourtant meilleur épéiste que toi...,
9,お前の視野が狭いからだ、ジェンリンス！,"You were blinded, Jenlyns─by your own conviction.","Du bist ein närrischer Tor, Jenlyns, nichts weiter!","C'est parce que tes convictions t'aveuglent, Jenlyns. Ouvre donc les yeux[@1D]!",
10,この自由騎士を見習え……[@CR]ナイトが守るべきは、権威でも「銀冑団」でもない！,"Jenlyns, remember your own lesson! A paladin does not exist to defend his position or the honor of his fellow Sultansworn.","Die Aufgabe eines Paladins ist es nicht, seine Stellung oder Ehre zu verteidigen.",Jamais les paladins ne se sont battus pour défendre leur “prestige” ou “l'honneur de leur unité”.,
11,今のは「見えざる毒尾」。砂蠍衆の共和派が仕向けた刺客だ。[@CR]お前は、きゃつらの妖計にはめられたのだよ。,"Those men were assassins, in service to the Monetarists. The moment you outlived your usefulness, you were to be killed. You and this free paladin of yours.","Das war ein Assassine des „Skorpionstachels“, ein gedungener Mörder der Republikaner. Sie haben keine Verwendung mehr für dich und wollen dich aus dem Weg räumen, ebenso wie den Freien Paladin, der schon zu viel weiß.",Ces hommes étaient des assassins à la solde des monétaristes. Tu as une fois de plus été victime de leurs manipulations[@1D]!,
12,何をっ……！？[@CR]共和派と通じてるのは、貴様だろうが……！？,Liar! You are their agent! You betrayed us for them...,"Lügner![@CR]Du bist doch der Verräter, der mit den Republikanern im Bunde steht!","Calomnies[@1D]!! C'est toi qui es à la solde des monétaristes, sale traître[@1D]!",
13,まだ気づかぬか？[@CR]まっすぐすぎるのだ、現総長殿は……。[@CR]それが、お前の良さでもあるが……。,"You were always naive, Jenlyns. It's one of your virtues, but you have a deplorable habit of turning your virtues into vices...","Begreifst du es denn immer noch nicht? Du warst schon immer zu gutgläubig, was deine Tugend und gleichzeitig dein Laster ist.","Tu es trop naïf, Jenlyns... C'est une de tes qualités, mais aussi ton plus grand défaut...",
14,お前に提供されていた情報は、すべて共和派の工作だ。[@CR]お前が連れていた、あの騎士たちも共和派の犬……,"Think! The information you uncovered─how did you come by it? Did it fall into your lap, as if―oh, I don't know―someone was [@1A(1)]feeding[@1A(0)] it to you for their own purposes? You, and the paladins you lead, are the Monetarists' lapdogs.","Die Informationen, die du erhalten hast, wurden dir alle von den Republikanern zugespielt. Und die Paladine, die dich begleitet haben, waren ebenfalls Schergen der Republikaner.",Réfléchis un peu. Tous ces ren[@16]sei[@16]gne[@16]ments que tu as acquis... Comment sont-ils arrivés jusqu'à toi[@1D]?,
15,共和派に、いいように踊らされていたのは……お前自身だ。,"Jenlyns, you've been led a merry dance, and followed their lead at every step.",Du bist die ganze Zeit über nach der Pfeife der Republikaner getanzt.,"Toi et les paladins que tu diriges, êtes tous des marionnettes entre les mains des monétaristes[@1D]!",
16,そんな……[@CR]では貴方は……逆賊では……ないのです……ね……[@CR]よかっ……た……,Then...you were never a traitor? You were innocent? I...I have wronged you...,Wie ...? Was ...? Dann ... bist du ... gar nicht ... der Verräter ...?[@CR]Ich habe dir Unrecht getan ...,Mais alors tu... v-vous ne nous avez pas trahi[@1D]? Vous étiez innocent[@1D]? Je... Je m'étais com[@16]plè[@16]te[@16]ment... trompé...,
17,死にぞこないは、だまっていろ。,"Easy now. Your wounds aren't mortal, but you still need to rest.",Hör auf zu sprechen. Du bist schwer verwundet.,"Ne parle plus. Tes blessures n'ont pas l'air mortelles, mais tu as besoin de te reposer.",
18,総長殿は、わしが介抱しておく。[@CR]心配めさるな。これしきの傷、すぐに癒えよう。,"I'll take care of the captain. He's had worse, and we'll have him back on his feet soon enough.",Ich kümmere mich um den Gardehauptmann. Mach dir keine Sorgen! Seine Wunden werden schnell verheilen.,"Je m'occupe du capitaine. Ne vous inquiétez pas, Jenlyns est un dur à cuire, il sera de nouveau sur pieds en un rien de temps.",
19,立派な自由騎士となったな。[@CR]すでに己の「騎士道」を見極めたと見える。[@CR]……まだ自覚しておらぬかな？　まあ、じきに自ずと悟るだろう……,"You've become a fine warrior, and learned all there is to know about the way of the paladin. I think perhaps that you are not aware just how much you've grown. Well! 'Tis time you were [@1A(1)]made[@1A(0)] aware─paladin!","Zielsicher und unbeirrbar gehst du den Weg des Paladins. Vielleicht war dir selbst noch nicht bewusst, wie weit du auf diesem Weg gekommen bist, doch hier und heute hast du wahre Größe gezeigt, Paladin.","Vous êtes devenu[@IF($E9(4),e,)] un brillant paladin. Sans doute n'avez-vous pas encore conscience du chemin que vous avez parcouru, mais je pense que vous comprendrez bientôt.",
20,これからも総長殿を頼むぞ！　貴君が導いてやってくれ！,"When the captain's recovered, keep an eye on him for me, will you? He needs someone like you to watch his back.","Ich verlass mich darauf, dass du auch in Zukunft dem Gardehauptmann zur Seite stehst. Er braucht jemanden wie dich.","J'espère que vous pardonnerez le capitaine et que vous continuerez à le soutenir, il a besoin d'une personne comme vous pour le guider.",
21,見事に「白銀の騎士甲冑」を集めたか。[@CR]これを成し遂げた貴公の加勢があれば、逆賊ソルクザギルも討ち取れよう。,"Good, the armor is yours. You have learned your lessons well and honed your skills, and now you are ready to face Solkzagyl the traitor.","Du hast es also tatsächlich geschafft, alle Teile der Silbernen Paladinrüstung zusammenzutragen.[@CR]Dann kannst du es auch mit dem Verräter Solkzagyl aufnehmen.","Bravo, vous avez passé le test avec succès. Vous êtes désormais prêt[@IF($E9(4),e,)] à affronter Solkzagyl.",
22,そう、ついに逆賊と対峙するときが来た。[@CR]奴の居所に関する情報が入り、仲介者を通して接触したところ、[@CR]なんと向こうから「聖剣」返還の交渉を持ちかけてきたのだ。,"Yes, the time has come. I have discovered his hiding place, and made contact through emissaries. We are negotiating the return of Oathkeeper.","Endlich können wir uns diesen Verräter vorknöpfen. Kürzlich haben wir einen Hinweis auf seinen Aufenthaltsort erhalten. Als daraufhin ein Kontaktmann von uns an ihn herangetreten ist, hat er doch tatsächlich angeboten, über die Rückgabe des heiligen Schwerts zu verhandeln.","J'ai réussi à découvrir son repaire et j'ai pu entrer en contact avec lui via des intermédiaires. Oui, vous m'avez bien entendu[@1D]: l'heure de la bataille contre le traître est arrivée[@1D]! Enfin pas tout à fait, car il m'a répondu vouloir négocier la restitution de l'Epée sacrée.",
23,大人しく「聖剣」を差し出し、裁きを受けると言うなら良し。[@CR]そうでなければ、力ずくで捕縛し、女王陛下の御前に引きずり出すまで。,"I have told him that if he returns the sword, we will give him a fair trial. Otherwise, he shall be captured and thrown at the feet of the sultana for judgment.","Wenn er die Eidklinge anstandslos zurückgibt und seine gerechte Strafe empfängt, soll es mir recht sein.[@CR]Falls nicht, werden wir ihn mit Gewalt festnehmen und vor die Sultana zerren, damit sie über ihn richten kann.","Je lui ai dit que s'il refusait de nous la rendre et de répondre de ses crimes devant la justice, nous enverrions des hommes à ses trousses pour le capturer et le traîner jusqu'au trône de la Sultane.",
24,交渉の場は、ウルダハから北東に位置する高台だ。[@CR]奴は、砂蠍衆の共和派には、この交渉を伏せているというが……[@CR]奸計の可能性もぬぐえぬ。万一に備え、共に来てくれるな？,"The parley is to take place on high ground in the northeast of Ul'dah. While I believe he is acting alone, we must be prepared for anything─you may be certain that the Monetarists will not take kindly to his surrender. Are you ready to accompany me?","Die Verhandlungen sollen auf einer Anhöhe nordöstlich von Ul'dah stattfinden.[@CR]Solkzagyl behauptet, die Republikaner des Scor[@16]pio-Krei[@16]ses seien nicht eingeweiht, aber es könnte sich natürlich um eine Falle handeln. Daher wäre ich froh, wenn du mich begleiten würdest. Kannst du mir Rückendeckung geben?","Les négociations auront lieu sur une butte au nord-est d'Ul'dah. Il m'a assuré qu'il n'avait rien dit aux monétaristes, mais il s'agit peut-être d'un piège. Nous devons envisager le pire. Etes-vous prêt[@IF($E9(4),e,)] à m'accompagner[@1D]?",
25,そうか……。[@CR]それは困った。失敗は決して許されぬ。[@CR]どうしても貴公の力添えが必要なのだが……。,"Your answer displeases me. But if you are not ready, we cannot take the risk.",Das ist schade. Mit dir an meiner Seite wäre mir wohler zumute. Überlege es dir doch noch einmal.,"Le temps presse, [@SPLIT([@STRING($EB(1))], ,1)][@1D]! C'est une chance unique de récupérer l'Epée sacrée et d'en finir avec cette histoire. Enfin, si vous n'êtes pas prêt[@IF($E9(4),e,)], je ne vais pas vous forcer non plus...",
26,「聖剣」を取り戻し、「銀冑団」の威信回復の足掛かりとするのだ。[@CR]ソルクザギルの行動を知れば、共和派が妨害してくる恐れもある。[@CR]ゆえに、交渉は秘密裏に進めなければならぬ。,"The recovery of Oathkeeper will be the first step in restoring the honor of the Sultansworn. If the Monetarists discover Solkzagyl is willing to parley, they will surely try to intervene. We must not speak of what we do, not to anyone.","Sehr gut! Wir werden die Eidklinge zurückholen und die Autorität der Palastwache wieder[@16]herstellen![@CR]Wenn die Republikaner von der Verhandlung mit Solkzagyl erfahren, werden sie wahrscheinlich intervenieren. Wir müssen deshalb große Vorsicht walten lassen und im Geheimen agieren.","Récupérer l'Epée sacrée est seulement le premier pas vers la restauration de l'honneur des casques d'argent. Mais la prudence est de mise[@1D]! Si jamais les monétaristes découvrent que Solkzagyl est disposé à discuter, ils risquent de nous mettre des bâtons dans les roues. Voilà pourquoi ces négociations doivent rester secrètes.",
27,少しでも目立たぬよう、別行動をとり、現地で合流しよう。[@CR]貴公の準備が整い次第、速やかに出発してくれ。,"We should travel separately, so as not to attract attention. We shall meet again at the parley. Make your preparations, and leave as soon as you can.","Damit wir keine Aufmerksamkeit erregen, reisen wir getrennt und treffen uns vor Ort. Bereite dich gut auf den Einsatz vor und brich dann so schnell wie möglich auf.",Je propose que nous partions chacun de notre côté et que nous nous retrouvions directement sur place. Nous devons à tout prix éviter d'éveiller les soupçons.,
28,逆賊ソルクザギルとの交渉場所は、ウルダハから北東に位置する高台だ。[@CR]交渉は秘密裏に進める必要があるため、目立たぬよう別行動をとり、[@CR]現地で合流しよう。,"Solkzagyl the traitor will be waiting for us on high ground in the northeast of Ul'dah. Secrecy is crucial―you and I will leave separately, and meet again at the parley ground.","Der Ort, an dem wir mit Solkzagyl verhandeln wollen, liegt auf einer Anhöhe nordöstlich von Ul'dah. Damit wir keine Aufmerksamkeit erregen, reisen wir getrennt voneinander und treffen uns vor Ort.","Solkzagyl nous attend au sommet d'une butte au nord-est d'Ul'dah. Gardez bien à l'esprit que ces négociations doivent rester secrètes[@1D]; il faut à tout prix éviter d'éveiller les soupçons. Partez de votre côté, je vous retrouverai directement sur place.",
29,ナイトのレベルが50になると、ジェンリンスから[@CR]ナイトクエスト「かざすは騎士の聖剣」を受注することができます。,The next paladin quest will be available from Jenlyns upon reaching level 50.,"Sobald du Er[@16]fah[@16]rungs[@16]stufe 50 in der Charakterklasse Gladiator erreicht hast, kannst du von Jenlyns den Paladin-Auftrag „Das heilige Schwert“ erhalten.","Jenlyns propose la quête suivante, “A chacun son chemin”, aux paladins de niveau 50.",
30,"観念しろ、[@SPLIT([@STRING($EB(1))], ,1)]。[@CR]貴様が逆賊ソルクザギルの手の者であること、[@CR]「銀冑団」の同志が突きとめ、私に伝えてくれたのだ。","Come, come, confess. My allies within the Sultansworn have told me the truth. I know you are working in league with the traitor and the Monetarists.","Meine Vertrauten in der Palastwache haben mir verraten, dass du mit dem Verräter Solkzagyl und den Republikanern unter einer Decke steckst!","Allez, crache le morceau[@1D]! Avoue que tu es de mèche avec le traître et les monétaristes[@1D]!",
31,ソルクザギルの誇り高き言葉が、歴代の騎士たちの記憶を呼び覚ます……[@CR]「ナイトの証」の導きにより、戦技の勘所を掴んだ！,"The noble words of Solkzagyl have awakened the memories of paladins past. Guided by their souls, you have mastered new battle skills!",Solkzagyls lobende Worte haben die in dem Paladin-Kristall gespeicherten Erinnerungen wachgerufen. Dadurch hast du eine neue Kampftechnik erlernt.,Les nobles paroles de Solkzagyl ont réveillé les souvenirs des paladins de jadis... Ces derniers vous guident vers de nouveaux sommets de puissance.,
