 ,0,1,2,3,4
 ,str,str,str,str,str
2,貴公に「ナイトの証」を託したという老いた自由騎士こそ、[@CR]「銀冑団」の威信を地に落としめた逆賊。,"The man who gave you the Soul of the Paladin was a traitor. He dishonored the name of the Sultansworn, and without it, we are nothing.","Der alte Paladin, der dir den Paladin-Kristall gab, ist ein elender Verräter, der die Ehre der Palastwache mit Füßen getreten hat.","Celui qui vous a remis ce cristal n'est qu'un traître, et sa perfidie a jeté le discrédit sur les casques d'argent.",
3,わが命を賭して……「銀冑団」の誇りと信用を取り戻さねば。[@CR]貴公には今後、おおいに協力してもらうことになろう。[@CR]そのときに備えて、剣の腕を磨いてくれたまえ。,"You are our hope. If you do as I ask, and succeed, the Sultansworn may yet restore the glory that was once its birthright. So prepare yourself. Hone your skills that you may be ready when the time comes.","Wir müssen unter allen Umständen die Ehre der Palastwache wieder[@16]herstellen, selbst wenn es unser Leben kosten sollte.[@CR]Dafür möchte ich bald auf deine Hilfe zurückgreifen, doch noch bist du dieser Aufgabe nicht gewachsen. Du musst noch besser im Umgang mit dem Schwert werden.","Je ferai tout ce qui est en mon pouvoir pour rétablir l'honneur de notre unité, même si c'est la dernière chose que je dois faire de mon vivant[@1D]! Mais pour cela, je vais avoir besoin de votre aide, [@SPLIT([@STRING($EB(1))], ,1)]. Continuez à per[@16]fec[@16]tion[@16]ner vos techniques d'épéiste et revenez me voir lorsque vous aurez progressé.",
4,ナイトのレベルが35以上になると、ジェンリンスから[@CR]ナイトクエスト「慕いし背中」を受注することができます。,The next paladin quest will be available from Jenlyns upon reaching level 35.,"Sobald du Er[@16]fah[@16]rungs[@16]stufe 35 in der Charakterklasse Gladiator erreicht hast, kannst du von Jenlyns den Paladin-Auftrag „Leuchtendes Vorbild“ erhalten.","Jenlyns propose la quête suivante, “Un rêve d'enfant”, aux paladins de niveau 35.",
5,貴公は「自由騎士」と名乗ることができるようになったわけだが……[@CR]周囲の反応は、いかがかね？,You have earned the right to call yourself a paladin. But how do others treat you? Do they recognize you for what you are?,"Nun, wie ist es dir in letzter Zeit ergangen? Behandeln dich die Menschen anders, seit du ein Freier Paladin geworden bist?","Alors, [@SPLIT([@STRING($EB(1))], ,1)], qu'est-ce que cela fait d'être un paladin[@1D]? Avez-vous l'impression que le regard des gens sur vous a changé[@1D]?",
6,かつて「銀冑団」の近衛騎士は、市街をも巡回していた。[@CR]その隊列を、庶民は尊敬と感謝のまなざしで見つめたものだ。[@CR]中でも、近衛騎士の鑑と名高かったのが「前総長」であった……,"Once, not so long ago, the Sultansworn could walk the streets with their heads held high. When they marched by, the smallfolk would look upon them with reverence and gratitude. And no one was more respected than the captain. My predecessor.","Bis vor Kurzem konnten die Gardisten der Stadtwache erhobenen Hauptes durch die Stadt gehen und ihnen wurde von der Bevölkerung großer Respekt ent[@16]gegen[@16]ge[@16]bracht. Der damalige Gardehauptmann, mein Vorgänger, war ein glänzendes Vorbild und wurde von allen hoch geschätzt.","Autrefois, les casques d'argent s'occupaient aussi de maintenir l'ordre en ville. Tous nos concitoyens nous saluaient quand ils nous voyaient patrouiller, et les enfants nous regardaient comme des héros... Le plus célèbre des paladins de la garde royale était mon prédécesseur au poste de capitaine.",
7,幼少のみぎり、私は前総長と出会ったことがある。[@CR]市場で父とはぐれ、裏通りへと迷い込み……運悪く乱闘にまきこまれてな。[@CR]泥酔した狩人があたりかまわず矢を放ち、いくつかが私へ飛んできた。,"When I first saw him, I was still a child. My father had promised to take me to a local festival, but somewhere he took a wrong turn. We became lost and stumbled into a secluded back alley. Luck was not with us, because the next moment, we found ourselves in the middle of a riot. Drunken hunters were firing arrows into the crowd, and we were caught between them. There was no way out─it was only a matter of time before we would be struck...","Als ich ihm zum ersten Mal begegnete, war ich noch ein Kind. Mein Vater ging mit mir zu einem Straßenfest, doch wir nahmen den falschen Weg und gerieten in einer Seitengasse mitten in ein Handgemenge.[@CR]Ein sturzbetrunkener Jäger schoss blind Pfeile durch die Gegend und einer davon raste genau auf mich zu.","J'ai eu la chance de le rencontrer alors que j'étais un petit bout d'homme à peine plus haut que trois pommes. Je m'étais égaré dans une ruelle après avoir perdu mes parents au marché, et j'ai accidentellement atterri au beau milieu d'une rixe. Un chasseur plus qu'éméché s'est mis à tirer des flèches au hasard, dont plusieurs dans ma direction.",
8,この窮地を救ってくれたのが、巡回中の前総長だ。[@CR]見事な剣さばきで私を救い、父からの礼も辞して立ち去った。[@CR]その頼もしい後ろ姿……忘れようにも、忘れられぬ……。,"That's when the captain saved us from our plight. I'd never seen a sword move so swiftly! It flashed faster than my eyes could follow, and in seconds the hunters were on the ground or fleeing for their lives. The captain was gone down the street, slicing at their heels, before my father had time to thank him. Even today, I can see the captain as he was then, blood on his sword, armor impossibly bright in the sun.","Plötzlich tauchte wie aus dem Nichts der Gardehauptmann vor mir auf, deckte mich mit seinem Schild und sorgte mit energischen Worten und ein paar gezielten Schwerthieben für Ruhe und Ordnung. Sein edles Auftreten, seine prächtige Gestalt und seine blitzschnellen Schwerthiebe gingen mir danach nicht mehr aus dem Kopf.","Je dois mon salut au capitaine qui pa[@16]trouil[@16]lait justement dans les environs. Sans hésiter un instant, il a dégainé son épée et a dévié les projectiles qui menaçaient de m'atteindre, tout cela avec une aisance et une grâce admirables. Mon père a voulu le dédommager, mais le paladin a poliment refusé ses gils et a poursuivi sa patrouille comme si de rien n'était. Je me souviens encore de sa carrure, si im[@16]pres[@16]sion[@16]nante... La fierté de sa démarche avait quelque chose de subjuguant.",
9,以来、私は騎士に憧れ、剣の稽古に打ちこんだのだ。[@CR]ついに念願かない、「銀冑団」に入ってからも、[@CR]前総長に追いつかんと、一層の修練に励んだ……,"After that, all I ever wanted to be was a paladin. I would practice endlessly with my sword, dreaming of bandits defeated and monsters slain. Even after I became one of the Sultansworn, the memory of the captain still inspired me─I was always the first to arrive in the training yard, and the last to leave.","Ich wollte unbedingt ein Paladin wie er werden und trainierte täglich mit dem Schwert.[@CR]Auch als ich nach langem, harten Training endlich in die Palastwache aufgenommen worden war, blieb der Gardehauptmann mein Vorbild und ich eiferte ihm nach.","Après cet incident, j'ai commencé à pratiquer l'escrime et me suis entraîné sans relâche. Si bien qu'un jour mes efforts ont été récompensés et j'ai pu rejoindre la garde royale. Mais ce n'est pas pour autant que j'ai cessé de m'exercer[@1D]; je tenais absolument à égaler le capitaine.",
10,こうして、前総長の背中を追い続けた私が[@CR]気づけば総長の座に……なんとも皮肉な話だ。[@CR]だが、かつては崇敬を集めた「銀冑団」の威信も今や、完全に地に落ちた。,"And so the years passed, and before I knew it, I found myself named captain of the Sultansworn. Yet the triumph was hollow, because by then, the honor of the Sultansworn elite, that very thing that had drawn me to the brotherhood, was a tattered vestige, like the discarded banner of a defeated foe.","Schließlich, nach vielen Jahren, wurde ich selbst zum Gardehauptmann ernannt und nahm damit den Platz meines großen Vorbildes ein.[@CR]Doch die Zeiten haben sich geändert. Die Palastwache hat ihren guten Ruf verloren und wird kaum noch geachtet. Die Menschen werfen uns verächtliche Blicke zu.","Et voilà comment, plusieurs années plus tard, j'ai fini par succéder à l'homme que j'idolâtrais... Le destin est ironique parfois...",
11,原因は、数多ある。[@CR]……その中でも特に、「聖剣」の喪失が打撃であった。,"There were many reasons for the fall, but the loss of Oathkeeper... Yes, that was the mortal blow.","Es gab viele Ursachen für den Niedergang, doch der vernichtende Schlag war der Raub der Eidklinge.","Aujourd'hui, les casques d'argent souffrent d'une terrible réputation. Il y a plusieurs raisons à cela, mais la principale est cer[@16]tai[@16]ne[@16]ment la disparition de l'Epée sacrée.",
12,この「聖剣」を、逆賊が奪い去ったのだ！！[@CR]それにより、王家からの信頼は揺らぎ……[@CR]「銀冑団」の失態は、庶民の失望を深めた。,"But then the unthinkable came to pass─Oathkeeper was stolen by the traitor. It shook our brotherhood to the core. How can we be trusted to protect the sultana if we cannot even hold on to the symbol of our fealty? We have been tarnished, in the eyes of ruler and ruled alike.","Die Eidklinge ist sozusagen die Insignie des Generalhauptmanns und der Verräter hat es gewagt, sie zu rauben![@CR]Durch den Raub der Eidklinge wurde das Vertrauen des Sultanats in die Palastwache erschüttert und auch das Volk war schwer enttäuscht. Das Ansehen der Palastwache sank gewaltig.","Hélas, cette épée a disparu... C'est le traître qui l'a dérobée. Depuis l'annonce de ce vol, rien ne va plus[@1D]: la Sultane doute de notre obédience et le peuple d'Ul'dah n'a plus confiance en ses “élites”.",
14,この状況を打開するには、逆賊が持ち去った「聖剣」奪還が急務。[@CR]しかし、たるんだ近衛騎士が立ち向かったところで、結果は明らか。[@CR]事の成就には、精鋭を集めて任にあたる必要がある。,"If the Sultansworn are to survive, we must find the traitor and recover Oathkeeper. But...the Sultansworn have grown too weak, and we cannot do it ourselves. We've been forced to recruit outsiders to help us in our cause.","Um die Situation zu bereinigen und das verlorene Vertrauen zurück[@16]zu[@16]gewinnen, müssen wir unbedingt die geraubte Eidklinge zurückholen.[@CR]Aber die Gardisten, die wir bisher ausgeschickt haben, hatten keinen Erfolg. So demoralisiert, wie sie sind, sind sie einfach zu nichts mehr zu gebrauchen. Diese Aufgabe verlangt nach einem wahrhaft mutigen Kämpfer.",Nous devons à tout prix la récupérer et redorer le blason de notre unité. Mais les paladins de la garde royale sont trop indolents pour mener à bien cette mission. Nous devons tout d'abord réunir des épéistes de qualité.,
15,貴公には特に期待しているゆえ、大任に備えて新たな戦技を伝授しよう。[@CR]その技の勘所を掴むには、ティノルカ北部森林の「ムントゥイ醸造庫」に[@CR]潜む魔物「アルシュ」を仕留めるほどの腕が必要だが、覚悟はあるか？,"I have high hopes for you, my friend. It is a great thing that we ask, and you must learn more of our secrets if you are to succeed. Out in the North Shroud, in the Mun[@1F]Tuy Cellars, hides a fiend known as an alux. A fight with such a monster would be a fine way to hone the skills that I will teach you. What say you?","Daher setze ich große Hoffnung auf dich und um dich auf diese Aufgabe vorzubereiten, will ich dir eine neue Kampftechnik beibringen.[@CR]Um die Kampftechnik zu erlernen, musst du allerdings im Mun-Tuy-Braukeller im Nordwald gegen einen Alux kämpfen und gewinnen. Traust du dir das zu?","Je place énormément d'espoir en vous, [@SPLIT([@STRING($EB(1))], ,1)]. Je sais que lorsque le moment viendra vous saurez vous montrer digne de ma confiance. Voilà pourquoi j'ai décidé de vous transmettre une nouvelle technique. Mais pour en saisir la quintessence, vous allez devoir abattre le monstre nommé Alux qui rôde dans les caves de Mun-Tuy, dans la forêt du nord.",
16,戦技の伝授は、貴公の望みだったはず。[@CR]未知の領域に立ち向かう気概も、騎士道精神のひとつであるぞ。,"I thought you were ready to learn more. Remember, a paladin must not be afraid to journey into unknown lands.","Du wolltest doch die Kampftechniken erlernen, oder nicht?[@CR]Ein Paladin, der etwas auf sich hält, muss nun mal der Gefahr ins Auge blicken. Oder willst du dich schon zur Ruhe setzen?","Ne m'avez-vous pas dit que vous désiriez apprendre les techniques des paladins[@1D]?! Avoir le courage d'affronter l'inconnu, c'est aussi ça, l'esprit chevaleresque[@1D]!",
17,すばらしい気概だ。[@CR]これより伝える教えをクリスタルに刻み、かの魔物と戦うのだ。,"Yes, you have mettle in your heart. I will carve your next lesson on the crystal, and then you will be ready to battle the fiend.","Das nenne ich Mut! Wundervoll![@CR]Ich graviere dir in deinen Kristall, wie die Kampftechnik funktioniert. Pass gut auf! Bei dem Kampf, der dir bevorsteht, könnte dein Leben davon abhängen.",Votre détermination fait plaisir à voir. Laissez-moi graver cette technique dans votre cristal.,
18,ちなみに、その魔物は[@CR]グリダニアの精鋭集う「鬼哭隊屯所」に侵入し[@CR]そこの酒を飲んでいたところを捕らえられ……収監されていた。,"The fiend invaded the Wailing Barracks, where the elite of Gridania are wont to gather. It was captured and imprisoned after growing drunk on wine and ale.","Das dreiste Monster hatte sich in die Große Waldschanze, wo sich die Elite von Gridania versammelt, geschlichen, um sich dort über die Weinvorräte herzumachen. Dabei wurde es auf frischer Tat ertappt und eingesperrt.","Notez au passage que, malgré la présence de nombreux épéistes aguerris, ce monstre a réussi à s'introduire dans la Caserne des vigiles. Ils l'ont retrouvé com[@16]plè[@16]te[@16]ment soûl sous des barils de bière et l'ont enfermé dans un cachot sous haute sur[@16]veil[@16]lan[@16]ce.",
19,しかし、厳重な監視の目を盗んで脱走を遂げたという。[@CR]つまり、それほどの能力を持つ、危険な相手ということ。[@CR]必要なときに私と連絡が取れるよう、「リンクパール」を渡しておこう。,"However, it managed to slip its cell and escape, despite the close attention of the guards. Unquestionably, it is a dangerous foe. Take this linkpearl, that we may stay in contact.","Doch trotz der strengen Bewachung konnte es fliehen. Das zeigt, wie gefährlich dein Gegner ist, also sei auf der Hut![@CR]Für den Notfall gebe ich dir diese Kontaktperle mit, damit du mich kontaktieren kannst. Viel Erfolg!","Il a réussi à échapper à la vigilance des gardes et s'est enfui au nord de Gridania. Son caractère rusé et sournois font de lui un adversaire par[@16]ti[@16]cu[@16]liè[@16]rement redoutable, la méfiance est de mise. Prenez cette linkperle avant de partir, elle me permettra de vous contacter plus facilement.",
20,都市グリダニアを包む森……[@CR]その北部森林の「ムントゥイ醸造庫」に潜む魔物「アルシュ」を倒してみよ。,"Go into the woods of the North Shroud and continue to the Mun[@1F]Tuy Cellars. Find the alux fiend that is hiding there, and defeat it in battle.",Erledige den Alux im Mun-Tuy-Braukeller im Nordwald bei Gridania!,"Partez en direction de Gridania, dans la forêt du nord, et terrassez Alux. Ce monstre se cache à l'intérieur des caves de Mun-Tuy.",
21,……以上が、戦技の要領である。[@CR]予想外の動きを見せる敵と、しのぎを削るうちに[@CR]クリスタルの導きによって、戦技の勘所を掴めることだろう。,"...It is done. When you face an agile foe, let the crystal be your guide, and master the skills that you have learned.","... Jetzt weißt du Bescheid.[@CR]Sei darauf gefasst, dass dich dein Gegner mit flinken Manövern verwirren wird. Dir steht ein harter Kampf bevor, aber der Paladin-Kristall wird dir dabei helfen, die Kampftechnik anzuwenden.","Voilà, c'est terminé. Pour venir à bout de cet ennemi au com[@16]por[@16]te[@16]ment im[@16]pré[@16]vi[@16]si[@16]ble, il va falloir que vous dépassiez vos limites. Lorsque vous aurez accompli votre objectif, le cristal de paladin vous livrera ses secrets.",
22,騎士の本分は、剣のみにあらず。[@CR]常に自らを律して正義を行い、人としての模範を示さねばならぬ。,Remember that fancy swordplay and well-polished armor do not make you a paladin. You must be just in your heart and strive always to be an exemplar of true virtue.,"Denke stets daran, dass es als Paladin nicht nur darum geht, das Schwert zu schwingen, sondern vor allem darum, für die Gerechtigkeit einzutreten und den Menschen ein gutes Vorbild zu sein.","N'oubliez jamais qu'en tant que paladin, votre mission ne se limite pas à simplement pourfendre l'ennemi. Vous devez avant tout avoir une conduite exemplaire, afin d'être un modèle de vertu pour tous.",
23,「聖剣」とは、初代総長がウルダハ王家から授かった宝剣。[@CR]王家への忠誠の象徴として代々、総長に受け継がれてきたものだ。[@CR]いわば、銀冑団総長の証……,"The sword Oathkeeper was bestowed upon the first captain of the Sultansworn by the then sultan of Ul'dah. In time it became our standard, the symbol of the oaths we had sworn, and it was treasured by each new captain for generations. Possession was proof of Sultansworn command.","Die Eidklinge ist ein heiliges Schwert, das der Sultan dem allerersten Gardehauptmann geschenkt hat. Seither wurde es als Symbol der Treue vom amtierenden Gardehauptmann getragen und bei dessen Tod an den Nachfolger vererbt.","Ce trésor d'une valeur inestimable a été remis au fondateur des casques d'argent par le grand sultan Sasagan Ul Sisigan en témoignage de son estime et de sa recon[@16]nais[@16]san[@16]ce. Ainsi, durant plus de six siècles, chaque fois qu'un capitaine venait à quitter ses fonctions, il la confiait à son successeur qui en devenait le gardien.",
24,わが教えをクリスタルに刻み、[@CR]予想外の動きを見せる敵を相手と戦えば、戦技の勘所を掴めるだろう。,"The lesson is carved in your crystal. Now, when you face a fast-moving foe, you must take the skills described therein and make them your own.","Lasse dich nicht von seinen flinken Manövern überraschen. Denke an das, was ich dich gelehrt habe, dann wirst du die Kampftechnik meistern.","Son com[@16]por[@16]te[@16]ment est im[@16]pré[@16]vi[@16]si[@16]ble, mais si vous restez concentré[@IF($E9(4),e,)] et déterminé[@IF($E9(4),e,)] vous devriez être capable d'en venir à bout et, par la même occasion, de comprendre la nouvelle technique que j'ai gravé dans votre cristal.",
