 ,0,1,2,3,4
 ,str,str,str,str,str
2,こんなところで、亡者退治とは……[@CR]貴君も、「銀冑団」にナイトの戦技を求める者か？,"If you are in this place, searching for the undead, then you must be a petitioner seeking the secrets of the paladin arts.","Du bist also hier, um Untote zu jagen, wie? Dann gehörst du sicher zu den Hitzköpfen, die unbedingt von der Palastwache die Paladin-Kampftechniken lernen wollen.",Que faites-vous à chasser des morts-vivants dans un endroit pareil[@1D]? Etes-vous l'un de ceux qui veulent apprendre les secrets des paladins[@1D]?,
3,誤解してはならん。[@CR]「戦技を体得すればナイトとなる」というわけではない。[@CR]ましてや、貴君がまとう権威や武具によるものでもない。,"But make no mistake. Simply learning paladin swordplay does not make you a paladin─nor less the armor you wear, or the status you claim.","Stell dir das alles nicht zu einfach vor. Durch das Erlernen irgendwelcher Kampftechniken wirst du noch lange nicht zum Paladin, genauso wenig wie durch irgendwelche Titel oder deine Ausrüstung.","Ne vous méprenez pas, mon ami[@IF($E9(4),e,)]. Ce ne sont pas les techniques ou l'équipement qui font le paladin.",
4,「自由騎士」たる、この老いぼれが、ひとつ忠告しておこう。[@CR]「意志縛る枷を断つ剣を得よ」……[@CR]さすれば、己の「騎士道精神」が拓けよう。,"I am just another aging free paladin, but you would do well to heed my counsel. Strike off the shackles that bind your spirit, lift the visor that blinds, and find the true path of the paladin.","Ich bin nur ein alter Mann, aber ich möchte dir als angehendem Paladin einen guten Rat mit auf den Weg geben. Zerschneide die Fesseln des Geistes, öffne das Visier, das deinen Blick einschränkt und erkenne den wahren Weg des Paladins.","Le vieux paladin affranchi que je suis n'a peut-être plus toute sa tête, mais laissez-moi tout de même vous donner un conseil[@1D]: vous ne parviendrez pas à libérer l'esprit chevaleresque qui sommeille en vous sans trouver l'épée capable de trancher les liens qui vous entravent.",
5,そうだ、ひとつ頼みがある。[@CR]このクリスタルを総長殿へ渡してくれ。,"Here, you will be returning to the captain, yes? Then give him this crystal.",Außerdem habe ich eine Bitte an dich. Bring diesen Kristall zu Gardehauptmann Jenlyns.,"Et puisque le destin vous a mis sur ma route, j'aimerais en profiter pour vous demander un service... Pourriez-vous remettre ce cristal au capitaine des casques d'argent[@1D]? Il comprendra.",
6,……なに。[@CR]貴君の剣さばきを見て、ある男を思い出してな。,The way you use that sword reminds me of a man I used to know...,Dein Schwertkampfstil erinnert mich übrigens an jemanden ...,Héhé[@1D]! Votre façon de manier l'épée me rappelle un homme que j'ai bien connu autrefois.,
7,真実を見極めんとする、いい眼をしておる。[@CR]貴君なら、立派な「ナイト」となろう。[@CR]精進に励み、常に人の光であれ！,"Mine eyes may be old, but they can see the truth well enough. Be a paladin strong and true. Devote yourself to the way and become a beacon of light.","Du hast einen scharfen, aufgeweckten Blick, mit dem du die Wahrheit zu erkennen vermagst. Ich glaube, du wirst einen prächtigen Paladin abgeben. Stähle deinen Geist, vervollkommne deine Tugend und streite für das Wohl Eorzeas.",Votre regard est déterminé et semble chercher la bonté de ce monde... Je pense que vous deviendrez un grand paladin. Continuez sur cette voie et implantez l'espoir dans le cœur de votre prochain.,
8,"[@SPLIT([@STRING($EB(1))], ,1)]さん、ようこそぉ！[@CR]い～ところに、いらっしゃいましたぁ！[@CR]さらに強くなれちゃう「耳寄り情報ぉ」があるんですぅ！","Oh, there you are, [@SPLIT([@STRING($EB(1))], ,1)]. Perfect timing! I've just heard a juicy bit of gossip that I [@1A(1)]know[@1A(0)] you're going to be interested in...","Hallo, [@IF($E9(4),meine liebe,mein lieber)] [@SPLIT([@STRING($EB(1))], ,1)]! Du kommst gerade recht.[@CR]Es gibt eine hochbrisante Neuigkeit, die dich brennend interessieren dürfte!","[@IF($E3($E9(11),12),[@IF($E3($E9(11),4),Bonsoir,Bonjour)],[@IF($E3($E9(11),17),Bonjour,Bonsoir)])], [@SPLIT([@STRING($EB(1))], ,1)]. Quel plaisir de vous revoir[@1D]! Vous tombez bien, j'ai une information qui devrait vous intéresser[@1D]!",
9,おやおやぁ～、あなたも剣術士さんですかぁ？[@CR]だったらぁ、いずれウチの大会に出たいですよねぇ？[@CR]その夢が一歩近づいちゃう「耳寄り情報ぉ！」があるんですぅ！,"Oh-ho, don't tell me you're a gladiator, too. I dare say you're itching to join our tourney. Am I right, or am I right? Well then, I daresay what I'm about to tell you will bring you one step closer to making your dream come true...","Oh, hallo! Du bist [@IF($E9(4),eine Gladiatorin,ein Gladiator)], nicht wahr? Träumst du davon, zum Champion des Kolosseums aufzusteigen?[@CR]Dann habe ich eine interessante Neuigkeit, die dich deinem Traum einen Schritt näher bringen kann.","Bien le [@IF($E3($E9(11),12),[@IF($E3($E9(11),4),bonsoir,bonjour)],[@IF($E3($E9(11),17),bonjour,bonsoir)])], jeune [@IF($E9(4),gladiatrice,gladiateur)]. Vous aussi, vous rêvez de faire vos débuts dans l'arène[@1D]? Dans ce cas, j'ai une information qui devrait vous intéresser[@1D]!",
10,近衛兵団「銀冑団」が、な～んと、なんとぉ！[@CR]「ナイト」の技を「解放ぉ！」しはじめたんですぅ！,"Apparently─and remember, you heard this first from me─the Sultansworn elites are sharing the secret skills and training of paladins! Incredible, I know.","Die Palastwache soll damit begonnen haben, die Techniken der Paladine frei zugänglich zu machen! Ich kann es noch gar nicht fassen!","Ouvrez grand vos oreilles... Vous êtes prêt[@IF($E9(4),e,)][@1D]? Figurez-vous que les casques d'argent ont décidé de rendre publiques leurs techniques de paladin[@1D]! Eh ouiiii[@1D]!",
11,ナイトの技っていうのは、近衛兵団「銀冑団」の専売特許でしてぇ。[@CR]「銀冑団」に入った凄腕の近衛騎士じゃないとぉ、使えないんですぅ。,"The Sultansworn have an exclusive monopoly on the instruction of paladin skills. Once upon a time, if you weren't one of those officer-track elites then you had no chance to learn the arts. And competition to get to the top was [@1A(1)]very[@1A(0)] fierce indeed, let me tell you.",Die Techniken der Paladine waren bisher den Gardisten der Palastwache vorbehalten. Niemand sonst durfte sie erlernen oder gar anwenden.,"Sans doute l'ignorez-vous, mais ces méthodes de combat sont la propriété exclusive des casques d'argent. Seuls les bretteurs confirmés recrutés par ce corps d'élite peuvent les utiliser.",
12,でも～「銀冑団」に入るときにぃ～ウルダハ王家に忠誠を誓うんですぅ。[@CR]つまりぃ～冒険などなど、副業いっさい「禁止ぃ！」なんでぇ……[@CR]こっちからしてみれば「ナニソレ退屈ぅ～」みたいな。,"But anyone who joined had to swear an oath of fealty to the Ul'dahn sultanate. Which meant no more adventuring, no more derring-do, and no more Coliseum─just languishing about in the palace all day polishing plate mail.","Wer der Palastwache beitritt, muss natürlich einen heiligen Eid auf das Sultanat von Ul'dah schwören. Das ist ja schön und gut, aber wer hat denn schon Lust, den ganzen Tag Wache zu stehen und über den Hof zu marschieren? Also, ich ganz sicher nicht. Spaß und Abenteuer kann man dann nämlich vergessen!","Mais pour devenir un chevalier de la garde royale, il faut prêter allégeance à la Sultane. Et une fois engagé, il est interdit de combattre ou de travailler pour qui que ce soit d'autre. Quoi de plus barbant pour [@IF($E9(4),une aventurière,un aventurier)] qui rêve de conquête, de gloire et de fortune[@1D]?",
13,それがぁ～、「銀冑団」に入らなくても、「ナイト」の技を[@CR]覚えられちゃうんですからぁ～出血大サービスですぅ～！,"That's why this news is so big. Now anyone with a bit of commitment can learn the skills of a paladin, and no memorizing the Fifty-Five Commandments of the Sworn or any other nonsense, either.","Aber jetzt soll es möglich sein, die Paladin-Techniken zu erlernen, auch ohne der Palastwache beizutreten. Das wäre natürlich der absolute Wahnsinn!","Enfin tout ça, c'est du passé. Il est dorénavant possible d'apprendre ces techniques sans avoir à s'engager pour la vie[@1D]! Vous rendez-vous compte[@1D]? C'est l'affaire du siècle, comme disent les marchands[@1D]!",
14,このお宝チャンスを、モノにしない手はないですぅ！[@CR]よかったら、このルルツが受付窓口を教えちゃいますよぉ？,"This is a golden─no, a [@1A(1)]platinum[@1A(0)] opportunity that comes but once in a lucky adventurer's lifetime. Let this slip through your fingers and regret will be your just deserts. So what do you say?","Wer sich diese Gelegenheit entgehen lässt und daraus keinen Profit schlägt, muss ein hirnloser Fungus sein![@CR]Falls du Interesse hast, verrate ich dir, wo du dich melden musst. Dann habe ich aber etwas gut bei dir!","Vous n'allez pas laisser passer une occasion pareille, n'est-ce pas[@1D]?! Si vous êtes intéressé[@IF($E9(4),e,)], je veux bien vous donner le nom de la personne qui enseigne ces techniques. Qu'en dites-vous[@1D]?",
15,ざぁんねぇーん。[@CR]コロセウムに「ナイト」が出場してくれれば[@CR]「話題沸騰ぉ！」「千客万来ぃ！」だと思ったのにぃ！,"Ah, a crying shame and what's more, a pity. How I would have loved to have seen a paladin stand bold and tall in the Coliseum. Imagine the crowds! It would have been a spectacle for the ages.","Tja, selbst schuld, kann ich da nur sagen. Aber du musst es ja wissen.[@CR]Dabei könntest du gaaanz groß rauskommen, sage ich dir! Die Zuschauer würden in Scharen ins Kolosseum strömen, wenn dort ein Paladin kämpfen würde.","Quel dommage... Je voyais déjà les titres des journaux[@1D]: “Un paladin fait ses débuts dans l'arène”, “La vertu affronte le vice”... Je suis persuadée que tous les Uldiens se seraient précipités au Colisée.",
16,そうこなくっちゃ～！[@CR]コロセウムにナイトが「降臨！」したら、お客様は「狂喜乱舞ぅ！」[@CR]「満員御礼ぇ！」で、賭け金もりもり～間違いなしですぅ！,"Of course you say yes─it's the only possible choice. To think that the Coliseum will be graced by a mighty paladin! I can see the crowds now, feel the stands tremble with their bloodthirsty roars, hear the tinkle of countless coins tumbling into our coffers...","Bravo! Du hast den richtigen Riecher![@CR]Ich sage dir, wenn ein Paladin im Kolosseum auftritt, werden die Zuschauer in Scharen herbeiströmen und ich ... äh ... ich meine natürlich, wir werden uns an den Wetteinsätzen dumm und dusselig verdienen!","Fantastique[@1D]!! Lorsque les gens apprendront qu'un paladin va bientôt faire ses débuts dans l'arène, ils seront hystériques et s'arracheront les places[@1D]! J'entends déjà le son des gils qui tombent dans ma bourse, hihi[@1D]!",
17,よぉ～し、対戦相手の悪役を手配しなくっちゃぁ！[@CR]……って、ツイ熱くなって、大事なことを忘れてましたぁ！,"We must find a suitable adversary! Someone mean, someone rotten, someone [@1A(1)]powerful[@1A(0)]... But listen to me, I'm getting ahead of myself. First things first, yes?","Jawoll, jetzt muss ich mich nur noch um einen würdigen Gegner kümmern, also jemanden, der boshaft und gefährlich ist! ... Ach so, ja, beinahe hätte ich's vergessen.","Booon[@1D]! Je dois trouver un adversaire à la hauteur de l'affiche, maintenant. Je pensais à un grand à la mine mauvai... Oups[@1D]! Dans l'excitation du moment, j'ai com[@16]plè[@16]te[@16]ment oublié de vous donner le nom de la personne à qui vous adresser.",
18,「ロイヤル・プロムナード」あたりにいる近衛兵団「銀冑団」総長の[@CR]「ジェンリンス」様に、ナイトへの熱い思いをぶつけてくださぁい！[@CR]ここウルダハの「政庁層」に行けば、見つかるハズですぅ！,"You need to go to the Royal Promenade, in Ul'dah's Hustings Strip. Find the captain of the Sultansworn elites─Jenlyns is his name─and tell him how you're just [@1A(1)]dying[@1A(0)] to become a paladin.","Gehe hier in Ul'dah zur Herrscherpromenade auf der Ebene der Redner und sprich dort mit Jenlyns, dem Gardehauptmann der Palastwache.[@CR]Schmier ihm ordentlich Honig um den Bart und schwärme ihm vor, wie sehr du die Paladine bewunderst!","Il s'agit du dénommé Jenlyns. Allez lui faire part de votre désir d'apprendre les techniques des paladins. Vous le trouverez au district politique, près de la promenade royale. Attention, cet homme est le capitaine des casques d'argent, alors mettez-y les formes[@1D]!",
19,近衛兵団「銀冑団」総長のジェンリンス様に、声をかけてくださぁい。[@CR]ここウルダハの政庁層、「ロイヤル・プロムナード」あたりにいますぅ。[@CR]さぁ～、対戦相手の悪役を手配しなくっちゃぁ！,"Remember: the Royal Promenade, in Ul'dah's Hustings Strip. Talk to Jenlyns, captain of the Sultansworn elite. In the meantime, I'll be scouting a suitable foe for my new star paladin...","Na los, geh schon zur Herrscherpromenade auf der Ebene der Redner in Ul'dah und sprich mit Jenlyns, dem Gardehauptmann der Palastwache. Ich muss mich jetzt dringend nach einem bösartigen Gegner für dich umsehen!","Allez voir le dénommé Jenlyns et faites-lui part de votre désir d'apprendre les techniques des paladins. Vous le trouverez au district politique, près de la promenade royale. De mon côté, je m'occupe de trouver un adversaire digne de votre combat, hihi[@1D]!",
20,……いかにも、私が近衛兵団「銀冑団」を束ねるジェンリンス。[@CR]貴公も、誇り高き「ナイト」を目指し、わがもとへ？[@CR]ならば、貴公の名を聞こう。,"Yes, I am Jenlyns, member of the Sultansworn elite and servant to the Ul'dahn sultanate. Unless my instincts deceive me, you have come to inquire about training as a paladin. If so, I would have your name, good [@IF($E9(4),woman,sir)].","Sei gegrüßt. Ich bin Jenlyns, Gardehauptmann der Palastwache des Sultanats. Was führt dich zu mir? Möchtest du ein Paladin werden? Dann nenn mir zuerst einmal deinen Namen.","Pardon[@1D]? Vous voulez savoir si je peux vous apprendre les techniques des paladins[@1D]? La politesse voudrait que vous vous présentiez avant de me poser cette question, jeune [@IF($E9(4),demoiselle,homme)].",
21,"……[@SPLIT([@STRING($EB(1))], ,1)]か、よい名だ。[@CR]よくぞ来てくれた。貴公の勇断を歓迎する。[@CR]ナイトを志す以上……貴公にも、その心得を肝に銘じてもらいたい。","...[@SPLIT([@STRING($EB(1))], ,1)]? A fine name. I bid you welcome, and salute your noble resolve. But if you aspire to paladinhood, you should understand what it means.","[@SPLIT([@STRING($EB(1))], ,1)]? Der Name gefällt mir und ich freue mich über dein Interesse.[@CR]Zunächst einmal musst du wissen, was es bedeutet, ein Paladin zu sein.","[@SPLIT([@STRING($EB(1))], ,1)], vous dites[@1D]? Eh bien, [@SPLIT([@STRING($EB(1))], ,1)], sachez que votre détermination me plaît[@1D]! Pour répondre à votre question, c'est bien moi qui enseigne les techniques des paladins. Commençons sans plus attendre[@1D]: votre première leçon consiste à apprendre les bases de notre code d'honneur.",
22,ひとつ。ナイトとは、主君に忠節を誓う者なり。[@CR]ひとつ。ナイトとは、主君の剣となり、盾となる者なり。[@CR]ひとつ。ナイトとは、主君の国土と民を守る者なり。,A paladin swears allegiance to the sultanate. A paladin shall be the sword and shield of the sultanate. A paladin defends the people of the realm.,Erstens: Ein Paladin ist dem Sultanat zu absoluter Treue verpflichtet.[@CR]Zweitens: Ein Paladin ist das Schwert und das Schild des Sultanats.[@CR]Drittens: Ein Paladin hat das Reich und das Volk des Sultanats zu beschützen.,Un paladin doit fidélité et protection à son souverain.[@CR]Un paladin doit être loyal envers ses compagnons d'armes.[@CR]Un paladin doit écoute et assistance à son prochain.[@CR]Un paladin doit être investi de la foi.,
23,……己のために剣をふるう[@CR]傭兵や剣闘士とは、決定的に動機が異なる存在だ。[@CR]その点をはき違えぬよう、くれぐれも心得よ。,"Sellswords and gladiators and others of their ilk wield their blades for themselves, but a paladin serves the greater good. Do you understand me?","Gladiatoren und Söldner schwingen ihre Schwerter in erster Linie aus Eigennutz, doch ein Paladin dient dem Wohl des Sultanats und damit dem Wohl des Volkes. Klar?","Le paladin fait passer l'intérêt général avant le sien propre, c'est ce qui le différencie des mercenaires et des gladiateurs. Gardez toujours cela à l'esprit.",
24,そんなナイトが扱う「戦技」は[@CR]「銀冑団」の近衛騎士たちが、600年という[@CR]長き歴史のなかで、編み出し、継承してきたもの。,"The battle arts that the paladin learns have been held secret, nurtured, and perfected within the ranks of the Sultansworn elite for nigh on these six hundred years.",Die Kampftechniken der Paladine wurden in den letzten 600 Jahren von den Gardisten der Palastwache entwickelt und von Generation zu Generation weitergegeben.,Les techniques de combat que nous utilisons sont transmises et améliorées au sein de notre ordre depuis plus de 600 ans. Cela aussi nous met à part des combattants ordinaires.,
25,知ってのとおり、「銀冑団」は、ウルダハ王家を守護する近衛兵団。[@CR]王家に仕える騎士のうちでも、特に忠誠心厚く、[@CR]剣の腕に優れる者のみが任じられてきた。,"As you well know, of all those sworn to protect the sultanate─the soldiers, the mounted guards, and knights─we are the elite of the elite. Our conviction unwavering, our hearts true, our sword skills without peer.","Wie du sicher weißt, ist die Palastwache eine Elitetruppe, die für den Schutz des Sultanats verantwortlich ist. Von allen Rittern werden nur die loyalsten und fähigsten Kämpfer in die Palastwache aufgenommen.","Comme vous le savez, notre unité a pour tâche principale d'assurer la sécurité de la Sultane et de sa famille. Pour ce faire, nous recrutons l'élite de la chevalerie, et seuls les plus courageux, les plus endurcis, peuvent prétendre rejoindre nos rangs.",
26,だが、「銀冑団」の栄光の日々も今は昔……[@CR]近年においては、兵団の規模は縮小を続け、団員の士気は低下。[@CR]ウルダハ王宮の警護にすら、傭兵を雇わねばならぬ有様……。,"But the glory of the Sultansworn... Well, much of it is buried in the past now. Our brotherhood grows smaller by the year, we are a shadow of what we once were, and the sultana turns to sellswords to defend her palace.","Doch die glorreichen Tage der Palastwache sind schon längst vergangen ...[@CR]In den letzten Jahren hat unsere Truppenstärke stark abgenommen und die Moral hat arg gelitten. Mittlerweile ist es sogar so weit gekommen, dass wir zum Schutz des Sultanats Söldner anheuern müssen!","Hélas, les choses sont différentes aujourd'hui... Les casques d'argent ont perdu de leur superbe d'antan, nos rangs s'amenuisent de jour en jour, au point que nous avons dû faire appel à des mercenaires pour garder le palais, rendez-vous compte[@1D]! Il n'est pas étonnant que nos troupes aient le moral en berne...",
27,それもこれも、逆賊……いや、ある者が残したひずみのせい。[@CR]そこで、実力を備えた冒険者を見出し、協力を仰ぐという[@CR]苦渋の決断を下さざるをえなかったのだ。,"All this, because of one traitor─no, because of a blot of dishonor left by one who shall not be named... And because of him, we have been forced to seek the help of able-bodied adventurers.","Das geht alles auf die Kappe dieses elenden Verräters ...[@CR]Nun ja, schließlich habe ich mich schweren Herzens zu der Entscheidung durchgerungen, [@IF($E9(4),eine fähige Abenteurerin,einen fähigen Abenteurer)] wie dich zu suchen und um Hilfe zu bitten.","Tout cela ne serait jamais arrivé si cet homme, que dis-je, ce scélérat ne nous avait pas trahi... Voilà pourquoi aujourd'hui nous avons besoin d'aventuriers ex[@16]pé[@16]ri[@16]men[@16]tés, comme vous, pour nous aider à assumer nos tâches.",
28,この見返りとして、私がナイトの「戦技」を伝授しよう。[@CR]近衛騎士とはいかぬゆえ、「自由騎士」と自称することも認める。[@CR]ただし、まずは、それに値する実力を示してもらわねばならぬ。,"And here you are. We shall instruct you in the paladin military arts. You will not be inducted into the Sultansworn, but serve as a free paladin.[@CR]However, first you will show us that both your sword and heart have mettle, and you are worthy of the honor.","Als Belohnung werde ich dich in den geheimen Kampftechniken der Paladine unterweisen und dich in den Stand eines „Freien Paladins“ erheben. Du musst also nicht der Palastwache beitreten.[@CR]Doch bevor es so weit ist, musst du zunächst dein Können unter Beweis stellen.","Les secrets de nos techniques de combat seront la récompense de vos efforts. Vous ne pourrez pas rejoindre la garde royale, mais vous pourrez tout de même devenir un paladin affranchi. Cependant, avant d'en arriver là, vous allez devoir faire la preuve de vos talents d'épéiste.",
29,西ザナラーンにある[@CR]旅亭「コッファー＆コフィン」南方を徘徊する[@CR]亡者どもを討ち取り、その証拠を持ちかえるのだ。,"In western Thanalan is a travelers' way station called the Coffer & Coffin. Undead monsters prowl the lands to the south. Find them, defeat them, and return with proof of your deed.","Reise in das Gebiet südlich der Raststätte „Zum Würfel und Becher“ im westlichen Thanalan, wo einige untote Monster ihr Unwesen treiben. Erledige sie und bringe mir einen Beweis für den Erfolg deiner Mission.",Partez dans le Thanalan occidental et pourfendez les errants qui rôdent au sud de l'auberge “le Coffre et le Cercueil”.,
30,はるか昔……[@CR]初代ササガン・ウル・シシガン王が、このザナラーンの地にウルダハを[@CR]建国されたとき、多くの勇士が王の下にはせ参じ、臣従の誓いを立てた。,"In ancient times, when the first sultan Sasagan Ul Sisigan built the nation of Ul'dah here in Thanalan, brave warriors gathered to take the knee and swear fealty.",Vor langer Zeit gründete der erste Sultan Sasagan Ul Sisigan hier in Thanalan die Stadt Ul'dah. Damals scharten sich viele Helden um ihn und schworen ihm Gefolgschaft.,"Jadis, lorsque le premier sultan Sasagan Ul Sisigan fonda la Cité d'Ul'dah, de nombreux braves venus de tous les horizons se sont agenouillés face à son trône en signe d'allégeance.",
31,その中から、特に忠誠心厚く、剣の腕にも優れる者が[@CR]選抜され、王家を守護する近衛騎士に任じられた。[@CR]……これが近衛兵団「銀冑団」の始まりである。,"Of those warriors, the purest of heart and most skilled with the sword were given the honor of defending His Majesty himself. Thus, the brotherhood of the Sultansworn was born.",Aus ihren Reihen wurden die loyalsten und fähigsten Kämpfer ausgewählt und mit dem persönlichen Schutz des Sultans beauftragt. Das war der Ursprung der Palastwache.,"Parmi ces combattants, seule une infime poignée d'entre eux a été choisie pour former sa garde rapprochée. C'est ainsi qu'est née l'unité des casques d'argent.",
32,以後、「銀冑団」に属する近衛騎士たちが長き年月を[@CR]かけて編み出し、発展させてきたのが、ナイトの戦技だ。[@CR]貴公の気概と剣の腕が証明された暁に、これを伝授しよう。,"Over the centuries that followed, the elite of the Sultansworn nurtured and developed the arts of the paladin. And now to you, who have proven yourself dauntless of resolve and skilled of blade, I provide instruction in those secrets.","Im Laufe der Jahre entwickelten und verfeinerten die Paladine der Palastwache spezielle Kampftechniken, die bisher niemand sonst erlernen durfte. Doch ich werde sie dir beibringen, sobald du deinen Mut und dein Können mit dem Schwert unter Beweis gestellt hast.","Depuis, tous les combattants qui ont appartenu à ce corps d'armée se sont voués à l'élaboration et au développement des techniques de paladin. Ce sont ces techniques ancestrales que je me propose de vous inculquer si vous parvenez à me prouver votre bravoure.",
33,さあ、西ザナラーンに向かえ。[@CR]旅亭「コッファー＆コフィン」の南を徘徊する[@CR]亡者どもを討ち取り、その証拠の品を持ちかえるのだ。,Find the undead monsters who infest the land south of the Coffer & Coffin in western Thanalan. Defeat them and return with proof of your deed.,"Reise in das Gebiet südlich der Raststätte „Zum Würfel und Becher“ im westlichen Thanalan, wo die untoten Monster ihr Unwesen treiben. Erledige sie und bringe mir einen Beweis für den Erfolg deiner Mission.","Pourfendez les errants qui rôdent au sud de l'auberge “le Coffre et le Cercueil”, dans le Thanalan occidental, et rapportez-moi leurs cendres en guise de preuve de vos exploits.",
34,亡者を討ち取った証……確かに受け取った。[@CR]貴公の実力は、今、ここに証明された。[@CR]早速、最初の戦技を伝授しよう。,"Yes, that's what I needed. Proof that you have defeated the undead. You have shown that your heart is true and your sword has mettle. Now, without further ado, let me teach you your first skills.",Du hast die Untoten also erledigt. Hervorragend![@CR]Damit hast du eindeutig dein Können unter Beweis gestellt und zur Belohnung werde ich dir die erste Kampftechnik beibringen.,"Fé[@16]li[@16]ci[@16]ta[@16]tions, ce sont bien des cendres d'errants. Vous m'avez montré que vous aviez le courage et le potentiel pour devenir un paladin. Je vais donc vous transmettre la première technique de combat, comme convenu.",
35,「自由騎士」とは、主君を持たず、諸国を巡りて剣持たぬ者を守る者。[@CR]つまり、主君ではなく、己に誓いを立てた者のことだ。[@CR]冒険者の貴公にとって、ふさわしい呼称だろう？,"A free paladin has no master. Instead [@IF($E9(4),she,he)] travels all lands, and in every place takes up the cause of the unarmed and defenseless. You swear fealty not to a lord, but to yourself─you are nobility amongst adventurers.","Ein Freier Paladin hat keinen Herrn, sondern reist auf eigene Faust durch die Welt, um den Schwachen zu helfen.[@CR]Du bist also nicht an einen Herrn gebunden, sondern nur deinen eigenen Idealen verpflichtet. Du bist [@IF($E9(4),eine Edle,ein Edler)] unter den Abenteurern!","Les paladins affranchis sont des combattants libres qui luttent pour celles et ceux qui ne peuvent pas se défendre. Ce sont des chevaliers qui placent la vertu et les faibles avant l'obéissance à un seigneur. Je pense que ce titre convient par[@16]fai[@16]te[@16]ment à ce que vous êtes et représentez en tant qu'[@IF($E9(4),aventurière,aventurier)].",
36,騎士の道を踏み出した貴公に、この「ナイトの証」を授けよう。[@CR]このクリスタルには、歴代の騎士の記憶が刻まれている。[@CR]騎士道を歩む者にとって、導きとなるものだ。,"You have taken your first steps on a new path, and you have earned the right to bear this, the Soul of the Paladin. Upon its surface are carved the deeds of paladins of eras past. [@IF($E9(4),She,He)] who bears it commands the respect of all knights of honor.","Hier, nimm diesen Paladin-Kristall. Er soll dich von nun an auf deinem Weg begleiten.[@CR]Der Kristall birgt die Erinnerungen berühmter Paladine aus vergangenen Tagen und stellt damit eine unschätzbare Inspirationsquelle für junge angehende Paladine dar.",Laissez-moi également vous remettre ce cristal de paladin pour célébrer votre entrée dans le monde de la chevalerie. On dit que les souvenirs des paladins de jadis sont gravés à l'intérieur. Nul doute qu'il vous guidera sur la voie de la vertu.,
38,……なんと！？　貴公は、このクリスタルをすでに持っていると！？[@CR]私へ渡すよう、見知らぬ「自由騎士」から手渡されたというのか？[@CR]どれ、よく見せてみたまえ……,"Bahamut's fang! You already possess the crystal? And you say it was given to you by an unknown free paladin, who told you to hand it to me?",Wie bitte?! Du besitzt bereits solch einen Kristall?! Du hast ihn von einem fremden Paladin bekommen und sollst ihn mir bringen?! Zeig mal her!,C-comment[@1D]?! Un homme vous a déjà donné un cristal identique[@1D]?! Montrez-le-moi.,
39,おのれ……愚弄しおって……。[@CR]貴公が受け取ったクリスタルは、確かに「ナイトの証」。[@CR]……実は、これは「銀冑団」から奪われたものなのだ。,"Curse him, he has made a mockery of the trial. That crystal you bear is indeed the Soul of the Paladin. But it is disgraced, impure. It was stolen from the Sultansworn.","Dieser Mistkerl ... Da geht mir doch der Hut hoch![@CR]Das ist tatsächlich ein Paladin-Kristall, doch er wurde von der Palastwache geraubt.",Le saligaud[@1D]! Il se moque de moi... C'est ef[@16]fec[@16]ti[@16]ve[@16]ment un cristal de paladin[@1D]; mais celui-ci a été volé aux casques d'argent.,
40,この証を貴公に託したという老いた自由騎士こそ……[@CR]私が、その行方を追っている逆賊。,The man who gave you this soul is the very traitor whom I have been seeking these many moons.,"Der alte Paladin, der dir diesen Kristall gab, ist ein Deserteur aus unseren Reihen.",L'homme qui vous l'a remis est le traître dont je vous ai parlé. C'est lui qui a terni la réputation des casques d'argent.,
41,ウルダハ王家への忠義と、近衛騎士の誓約を踏みにじり[@CR]「銀冑団」の威信を、地の底へと落としめた張本人だ。[@CR]それが、よくも騎士道精神を偉そうに語ったものだ。,"He is an oathbreaker who bent the knee to the Ul'dahn sultanate and who swore allegiance to the Sultansworn, but then single-handedly sullied our name, and trampled it underfoot until it was lost, perhaps forever. How dare he give counsel on honor, on the paladin way...!?","Dieser elende Verräter hat seinen heiligen Eid gegenüber dem Sultanat gebrochen und die Ehre der Palastwache mit Füßen getreten. Was fällt diesem Wicht ein, große Reden über uns Paladine zu schwingen?!",Et vous me dites qu'il a eu le culot de vous faire la leçon sur “l'esprit chevaleresque”[@1D]!? Les bras m'en tombent.,
42,そもそも証は、近衛騎士に任じられる際、総長より贈られるもの……[@CR]それを差し置いて貴公へ手渡すなど……「銀冑団」はもちろん[@CR]自ら志願した貴公をも、侮辱する行為だ！,"Give me that soul. It is polluted and I must dispose of it. When you come to wield your sword as a paladin, the only soul you may wear is that which is bestowed by a captain of the Sultansworn.","Paladin-Kristalle werden aus[@16]schließ[@16]lich vom Gardehauptmann an würdige Personen im Dienst der Palastwache vergeben.[@CR]Dass dieser Kerl dir den Kristall einfach so gegeben hat, ist ein schwerer Verstoß gegen das Protokoll. Damit hat er die Palastwache und auch dich beleidigt.","Ces cristaux sont offerts aux nouvelles recrues qui intègrent l'unité des casques d'argent. C'est généralement au capitaine que revient ce privilège. J'imagine que vous comprenez ma colère maintenant[@1D]? Non seulement il m'a humilié en vous remettant ce cristal en premier, mais il a également insulté tous les casques d'argent, vous y compris[@1D]!",
43,……この証は、責任もって私が処分しておこう。[@CR]貴公が「ナイト」として剣を抜くときには[@CR]必ずや、私が授けた証を身につけるのだぞ。,"That traitor is no Sultansworn, still less a captain. By giving you a soul, he insulted not only the brotherhood, but you, too.","Diesen Kristall werde ich vor[@16]sichts[@16]halber in Verwahrung nehmen. Du hingegen darfst nur den Kristall verwenden, den ich dir gegeben habe.","Je vais détruire ce cristal de ce pas. Pensez bien à équiper celui que je viens de vous remettre, il vous permettra d'utiliser les techniques des paladins quand vous combattrez.",
44,……貴公のような冒険者には、くだらぬことと思えるやもしれぬな？[@CR]だが、長い年月をかけて培われた儀礼や伝統こそ、遵守せねばならぬ。[@CR]今や「銀冑団」の騎士さえ、この精神を重んじる者は減る一方……,"Perhaps an adventurer like yourself finds our rules quaint, even a nuisance in these troubled times. But through reigns long and short, our forebears in the Sultansworn have preserved its rituals and traditions, and we are duty-bound to uphold them─even if men and women within our own ranks scorn them as relics.","[@IF($E9(4),Eine Abenteurerin,Ein Abenteurer)] wie du kann das vielleicht nicht so recht nach[@16]voll[@16]ziehen, aber wir müssen nun mal unsere Traditionen und Werte in Ehren halten.[@CR]Doch in letzter Zeit mangelt es sogar innerhalb der Armee an dem nötigen Respekt. Wenn das so weitergeht, wird das Reich zugrunde gehen.","Peut-être trouvez-vous cela ridicule, mais j'estime qu'il est de mon devoir d'observer les traditions et les protocoles qui ont été établis au cours des siècles, même si je suis bien conscient qu'il y a peu d'individus qui accordent encore de l'importance à ces pratiques aujourd'hui...",
45,この難境に、私が「銀冑団」の総長に任じられたのも運命に違いない。[@CR]女王陛下に忠誠を誓った騎士として、命に代えても、この大役を果たし、[@CR]失われた「銀冑団」の威信を取り戻さねばならぬ。,"It has been my fate to be named captain of the Sultansworn in these troubled times. But I have bent my knee to the sultana and sworn fealty, and I am bound to my duty. What choice do I have, but to fight to restore our honor and name?","Daher sehe ich meine Ernennung zum Gardehauptmann der Palastwache als Schicksalsaufgabe.[@CR]Ich habe der Sultana Treue geschworen und werde alles daran setzen, meine Pflicht zu erfüllen und die Ehre der Palastwache wie[@16]der[@16]her[@16]zu[@16]stel[@16]len.","Le destin a voulu que je sois à la tête des casques d'argent pendant cette période tourmentée. Je jure sur mon honneur de chevalier de rétablir la dignité perdue de cette unité, quitte à y laisser ma vie[@1D]!",
46,剣の腕に優れ、なにより逆賊と面識ある貴公には[@CR]いずれ逆賊捕縛の大任を任せることになろう。,"You wield a skilled blade, and more importantly, you have met the traitor face-to-face. Your great task as a paladin will be to help me bring him to justice.","Du kannst mir dabei helfen. Schließlich bist du nicht nur geschickt mit dem Schwert, sondern hast sogar schon den Verräter zu Gesicht bekommen. Du bist genau [@IF($E9(4),die Richtige,der Richtige)], um ihn dingfest zu machen.","Heu[@16]reu[@16]se[@16]ment, je sens que le vent tourne doucement... Ce n'est cer[@16]tai[@16]ne[@16]ment pas un hasard si vous êtes venu[@IF($E9(4),e,)] jusqu'à moi. Vous allez m'aider à attraper ce traître et lui faire payer sa perfidie[@1D]!",
47,そのときまで、貴公は任に備え、剣の腕により磨きをかけてもらいたい。[@CR]これが自由騎士とはいえ、騎士を名乗る者の務めであるぞ。,"You must ready yourself, marshal your resources, and hone your skills until the time comes when you are able to discharge your duty. The journey will be long, but you are a paladin now, and honor binds you as surely as an oath.","Der Einsatz muss unter allen Umständen Erfolg haben, daher müssen wir ihn sorgfältig planen. Eine Niederlage kommt nicht in Frage.[@CR]Halte dich bereit, junger Paladin, und trainiere weiter mit dem Schwert. Du wirst es bald brauchen.","D'ici là, continuez à per[@16]fec[@16]tion[@16]ner votre technique d'épée et préparez-vous pour votre prochaine mission. Vous avez beau être un paladin affranchi vous n'en restez pas moins un paladin, et à ce titre l'en[@16]traî[@16]ne[@16]ment est in[@16]dis[@16]pen[@16]sa[@16]ble[@1D]!",
48,ナイトのレベルが35以上になると、ジェンリンスから[@CR]ナイトクエスト「慕いし背中」を受注することができます。,The next paladin quest will be available from Jenlyns upon reaching level 35.,"Sobald du Er[@16]fah[@16]rungs[@16]stufe 35 in der Charakterklasse Gladiator erreicht hast, kannst du von Jenlyns den Paladin-Auftrag „Leuchtendes Vorbild“ erhalten.","Jenlyns propose la prochaine quête, “Un rêve d'enfant”, aux paladins de niveau 35.",
49,……以上が、戦技の要領である。[@CR]貴公ほどの腕前ならば、この戦技をすぐに使いこなせるはずだ。[@CR]以後、古の風習に伝わる「自由騎士」と名乗るとよいだろう。,"There, it is done. You are an attentive pupil─you will soon be able to put your skills to use. Remember, you are a paladin now, and custodian of traditions ancient and noble.",Du lernst schnell. Bei deinem Geschick wirst du die Kampftechnik schnell perfektionieren.[@CR]Hiermit ernenne ich dich zu einem Freien Paladin. Trage diesen Titel mit Würde!,"Voilà, c'est tout pour cette fois. Une fine lame comme vous ne devrait avoir aucun mal à la maîtriser. Vous êtes désormais un authentique paladin affranchi.",
50,さあ、未来のナイトよ……[@CR]貴公の気概と、剣の腕を見せてくれ！！,"Now, would-be paladin, show me the mettle in your heart and steel in your blade!","Also dann, zukünftiger Paladin, zeige uns, wie mutig und geschickt du mit dem Schwert bist!","Rapportez-moi leurs cendres en guise de preuve, et je vous apprendrai la première technique de combat. Assurez-vous que ce sont bien des cendres d'errants, je saurai faire la différence[@1D]!",
51,自由騎士の誓いが、歴代の騎士たちの記憶を呼び覚ます……[@CR]「ナイトの証」の導きにより、戦技の勘所を掴んだ！,"The oath of the free paladin has awakened the memories of paladins past. Guided by their souls, you have mastered new battle skills!",Dein Eid als Freier Paladin hat die in dem Paladin-Kristall gespeicherten Erinnerungen wachgerufen. Dadurch hast du eine neue Kampftechnik erlernt.,Votre engagement solennel à protéger les plus faibles a réveillé les souvenirs des paladins de jadis... Votre esprit s'élève et s'enrichit de leurs en[@16]sei[@16]gne[@16]ments.,
