 ,0,1,2,3,4
 ,str,str,str,str,str
2,気をつけろ！　ガレマール帝国兵が、黒衣森に潜伏しているぞ！,"The Garleans have invaded the Twelveswood! Be wary, lest you fall prey to ambush!","Pass auf! Die Garlear lauern im Wald! Sie können hinter jedem Baum hervorspringen, und dann gute Nacht.",Les sauvages garlemaldais profanent la Sylve[@1D]!,小心！加雷马帝国兵潜伏在黑衣森林里！
3,ロイシアから連絡が入った。[@CR]ガレマール帝国兵が、黒衣森に潜伏しているようだ。,"Pay heed, friend, for this knowledge may mean the difference between life and death. I've received word from Roysia that imperial troopers─aye, the godsdamned Garleans─are at large in the Twelveswood!",Roysia hat mich gewarnt. Hier sind überall garleische Soldaten.,"J'ai reçu un message de Roysia nous prévenant que des Impériaux ont été repérés dans la forêt. Faites attention si vous vous aventurez dans les bois, ils se jetteront sur vous comme une meute de loups enragés[@1D]!",洛伊西娅发来情报说，加雷马帝国兵潜伏在黑衣森林。
4,何を尋ねる？,Inquire further?,Was willst du fragen?,Que voulez-vous savoir[@1D]?,要问什么？
5,兵数は？,How many do they number?,Wie viele sind es in etwa?,Combien sont-ils[@1D]?,人数？
6,武装は？,How were they armed?,Wie sind sie ausgerüstet?,Comment sont-ils armés[@1D]?,武装？
7,場所は？,Where were they seen?,Wo sind sie genau?,Où ont-ils été vus[@1D]?,地点？
8,ロイシアによると、見通しが悪く、敵の規模はわからないらしい。[@CR]木々が生い茂り、細い道が入り組んでいる場所だからな。[@CR]潜んでいる帝国兵を探し出して、追いつめるしかなさそうだ。,"I asked Roysia the selfsame question, but she says the terrain made it nigh on impossible to discern their numbers. We would have to flush them out of hiding to know for sure.","Roysia kann es auch nicht genau sagen. Bei dem Dickicht und den schmalen Pfaden, die ins Unterholz geschlagen sind, ist das auch kein Wunder. Der einzige Weg, es herauszufinden, ist wohl, die Garlear aufzuscheuchen und aus ihren Verstecken hervorzulocken.","J'ai posé la même question à Roysia, mais elle m'a répondu que la nature du terrain rendait impossible ne serait-ce qu'une estimation. Ils se cachent dans la broussaille et les futaies, il faudrait les en déloger pour avoir une meilleure idée de leur nombre.",洛伊西娅说那里树木茂密，道路比较狭窄，[@CR]视野不好，所以不清楚敌军部队的规模。[@CR]想要找出潜伏在那里的帝国兵，只能把他们追到无路可退的地方。
9,目撃された帝国兵は、噂どおりの強力な兵器で武装してたらしい。[@CR]それに加えて、凶暴で敏捷な魔物も引き連れているようだ。[@CR]森の細道で戦うとなると、厄介だろうな。,"The arms the Garleans bore were as powerful as the rumors suggested, but that's not the half of it. They had [@1A(1)]monsters[@1A(0)] with them─fearsome creatures made all the more dangerous by their preternatural litheness! Why, the mere thought of stumbling upon their like on a narrow forest path is enough to turn my bowels to water─if you'll pardon the expression.","Soweit wir es beobachten konnten, sind sie schwer gepanzert - genau wie die Gerüchte besagen. Und noch dazu haben sie magisch beeinflusste Bestien bei sich, die ebenso flink wie hinterhältig sind. Keine leichten Gegner auf den unübersichtlichen Waldwegen ...","Les histoires sur les Garlemaldais ne mentaient pas, ils sont ef[@16]fec[@16]ti[@16]ve[@16]ment équipés d'armes puissantes, mais malheureusement, ce n'est pas tout. Ils ont avec eux des monstres féroces, agiles et rapides, par[@16]fai[@16]te[@16]ment adaptés aux attaques dans les chemins étroits de la forêt. Je n'ose pas imaginer le sort de ceux qui leur tomberaient dessus par hasard.",据说帝国兵身上装备着传说中的强力武器。[@CR]而且他们身边还跟着凶残又敏捷的怪物。[@CR]在森林中的窄路上战斗的话，对我们不利啊。
10,「キャンプ・エメラルドモス」の辺りだ。[@CR]その近くにロイシアがいるんで、心配でね……。[@CR]あんた、腕に自信があるなら、討伐を手伝ってくれ。,"They were seen in the vicinity of Camp Emerald Moss, where Roysia is at present. Gods, if any ill should befall her, I...I know not whether I could go on. I'd hunt down the imperial whoresons myself, but like as not I'd end up tripping over a tree root and impaling myself on my own paring knife. Ah, if only some valiant souls would volunteer in my stead, there'd be no end to my gratitude.","In der Nähe von Camp Smaragdmoos. Und dort hält sich auch Roysia auf ... Ich mache mir wirklich Sorgen. Wenn du Vertrauen in deine Fähigkeiten hast, eile ihr zu Hilfe, bevor es zu spät ist!","Ils ont été vus aux alentours du camp de Moussémeraude, alors je m'inquiète vraiment pour Roysia. Si vous savez vous battre, je vous en prie, allez là-bas, ils vont avoir besoin de tout l'aide disponible pour repousser les Impériaux.",洛伊西娅在“翠玉藓营地”附近，我有些担心她啊……[@CR]如果你对自己的能力有自信的话，就去帮忙消灭怪物吧。
11,聞いて！　重装備のガレマール帝国兵を見かけたの！,"Hear me, everyone! It's the imperials! The imperials are near!","Hör mir zu! Ich habe Garlear hier gesehen, bis an die Zähne bewaffnet!",Les Impériaux[@1D]! Les Impériaux sont proches[@1D]!,听着！我们发现了带有重装备的加雷马帝国兵！
12,木陰に潜むガレマール帝国兵を見たの。[@CR]キャンプを襲撃しようとしているのかもしれないわ。,"Hear me, friend! Heavily armored imperial troopers have infiltrated the Twelveswood. I saw them with my own two eyes. I'd wager they have designs on our camps, and are but waiting for the perfect moment to strike.","Im Schatten der Bäume halten sie sich versteckt, man hört sie überall rascheln. ... Oder spielen mir meine Sinne schon einen Streich?","Je les ai vus, revêtus d'armures lourdes, cachés dans l'ombre des arbres alentour. Ils s'apprêtent cer[@16]tai[@16]ne[@16]ment à attaquer notre camp[@1D]!",加雷马帝国兵潜伏在树荫之中，他们可能会袭击营地。
13,木陰に潜んでいるから、兵数はわからなかったわ。[@CR]敵は、細い道が入り組む地形を利用して隠れているから[@CR]探し出して撃退する必要がありそうね……。,"I'm afraid the dense foliage and twisting terrain prevented me from discerning their numbers. At any rate, we can't allow them to roam the Twelveswood─[@1A(1)]our[@1A(0)] Twelveswood─unchecked! Something [@1A(1)]must[@1A(0)] be done!","Wir wissen nicht, wie viele sie sind, sie nutzen die Unübersichtlichkeit des Waldes geschickt aus. Wir werden sie aufstöbern müssen, bevor sie sich zum Angriff formiert haben.","La forêt est trop dense, je n'ai pas pu les compter. Ils utilisent les petits sentiers pour se déplacer et se cachent dans les broussailles. Nous ne pouvons pas les laisser rôder dans la Sylve sans faire quelque chose[@1D]!",因为他们潜伏在树荫之中，所以不知道人数是多少。[@CR]以为敌人潜伏在狭窄的道路中，所以我们要把他们找出来击败他们。
14,見かけた兵士は、かなりの重武装だったわ。[@CR]もちろん帝国自慢の軍用魔物も連れて。[@CR]森の細道で戦うとなると、厄介な相手でしょうね。,"The troopers were heavily armed and armored both, and as if that weren't enough, they had fearsome war beasts at their heels! Certainly not the kind of crew you'd want to encounter upon a narrow forest path.","Ich kann nur von denen sprechen, die ich selbst gesehen habe, aber diese wenigen waren schwer bewaffnet. Und sie haben ihre Monster bei sich, mit denen wir schon sehr schmerzhaften Kontakt hatten ...","Ils étaient armés jusqu'aux dents, et se déplacent accompagnés de bêtes de guerre féroces. Pas le genre que vous aimeriez rencontrer au détour d'un chemin, croyez-moi.",被发现的士兵身上有着重型装备，他们还带着帝国引以为傲的军用怪物。[@CR]如果在森林的窄路上战斗，对我们来说会不利。
15,ここから西の辺りよ。[@CR]帝国兵は細い道が入り組んだ地形を利用して、潜んでいるわ。[@CR]殲滅するには、敵を探し回って撃退する必要がありそうよ。,"I spotted the imperials some way west of here. They're a wily lot, exploiting the lay of the land so as to remain hidden from plain sight. If you've a mind to engage them, you'll first have to track them down.","Westlich von hier. Ich bin mir sicher, dass sie das Camp angreifen werden. Sie verstecken sich geschickt, wir müssen also die gesamte Gegend durchkämmen und sie aufscheuchen.","Je les ai aperçus à l'ouest d'ici. Ils utilisent le terrain à leur avantage, il vous faudra les traquer et les débusquer si vous voulez les combattre.",帝国兵潜伏在西边的窄路上，我们要把他们找出来消灭他们。
16,みんな、朗報よ！　ガレマール帝国兵は撤退したらしいわ！,"Glad tidings, everyone! The imperials have withdrawn!","Hört, Leute, hört! Eine freudige Botschaft! Wir haben gesiegt! Die Garlear sind auf dem Rückzug!","Bonne nouvelle, tout le monde[@1D]! Ces poltrons de Garlemaldais ont battu en retraite[@1D]!",各位，好消息！
17,警戒を解いても大丈夫よ。[@CR]潜伏していたガレマール帝国兵は、追い払われたらしいから。,"You can rest easy now, friend. The imperials have been driven out of the Twelveswood.","Wir können aufatmen - fürs Erste. Die Vorhut der Garlear haben wir vertrieben, aber wer weiß ...","Il n'y a plus rien à craindre pour le moment, nous avons réussi à chasser les Impériaux.",警备解除了。潜伏的加雷马帝国兵好像被赶跑了。
18,何を尋ねる？,Inquire further?,Wonach willst du fragen?,Que voulez-vous savoir[@1D]?,要问什么？
19,撃退したのか？,We defeated the imperial forces?,Wir haben sie also wirklich besiegt?,Les Impériaux se sont repliés[@1D]?,被击退了吗？
20,この後はどうなる？,What happens now?,Und was passiert jetzt?,Qu'est-ce qu'on fait maintenant[@1D]?,之后要做些什么？
21,勇気と実力ある冒険者たちが駆けつけて、敵を撃退してくれたそうよ。[@CR]でも、見通しが悪い戦場だったから負傷者も多いみたい……。[@CR]身を挺して、敵の攻撃を防いでくれた人たちに、感謝ね。,Aye! A courageous band of adventurers flushed the imperials out of hiding and sent them scurrying back whence they came![@CR]...Yet victory was not won lightly. The close confines of the wood saw to that. A great many of ours were wounded in the chaos. We can but pray for their swift recovery.,"Ja, mit Hilfe einiger beherzter Abenteurer konnten sie zurückgedrängt werden, aber es hat viele Verletzte gegeben. Wir sind wirklich dankbar, dass sie ihr Leben für uns aufs Spiel gesetzt haben.","Oui[@1D]! De braves aventuriers se sont lancés à l'attaque et les ont fait fuir. La bataille a été terrible et la victoire a coûté cher. Il y a de nombreux blessés, certains très graves. Nous leur devons beaucoup, et je prie les dieux qu'ils se remettent rapidement.",好像是勇气和实力兼备的冒险者跑到那里把敌人击退了。[@CR]不过因为战场视野不好，有很多人受伤了……[@CR]我们要感谢那些挺身而出的人们啊。
22,腕の立つ勇士たちの活躍のおかげで、事なきを得たとはいえ[@CR]……帝国がおとなしく諦めるなんてことはないと思うわ。[@CR]この辺りは狙われてるみたいだから、気をつけなきゃね。,"For the time being, we can rest easy...but I seriously doubt we've seen the last of the imperials. They've targeted this area before, and they'll do so again, you mark my words. I just hope another band of adventurers will be on hand to help when they do.","Dank einiger furchtloser Abenteurer haben wir erst einmal etwas Luft. Aber bald werden sie zurückschlagen, und wir stehen hier ganz genau in der Schusslinie. Mach keine unüberlegten Schritte!","Grâce à l'aide de courageux combattants, les Impériaux ont été repoussés, mais la trêve sera cer[@16]tai[@16]ne[@16]ment de courte durée. Ils reviendront sûrement à la charge.",多亏有实力的勇士们将这次事件给平息了，不过我觉得帝国不会善罢甘休的。[@CR]他们好像一直盯着这边，要小心啊。
23,みんな！　もう大丈夫！　ガレマール帝国兵は撤収したみたいよ！,"Be at ease, everyone! The imperials have withdrawn!",Kameraden! Kämpferinnen! Wir haben gesiegt! Die Garlear haben sich zurückgezogen!,"Bonne nouvelle, tout le monde[@1D]! Les Impériaux sont partis[@1D]!",各位，已经没事了！加雷马帝国兵好像已经撤退了！
24,ガレマール帝国兵が撤収してくれたらしいわ。[@CR]ほっとして、力が抜けそう……。,"Rest easy, friend! The Garleans have pulled out! Ah, I near fainted when I heard the tidings, so great was my relief!","Offenbar haben die Garlear zum Rückzug geblasen! Ach, was bin ich erleichtert, nach all diesen Ängsten ...","Nous ignorons pourquoi, mais les Garlemaldais ont quitté la Sylve. Je me suis presque évanouie de soulagement lorsque j'ai entendu la nouvelle...",加雷马帝国兵好像已经撤退了。
25,勇気と実力ある冒険者たちが駆けつけて、敵を撃退してくれたそうよ。[@CR]帝国側が優勢だったのに、帝国兵の方から撤収してくれたらしいの。[@CR]いったい、何がしたかったのかしら……,"Aye! A courageous band of adventurers tracked down the imperials, and a fierce battle ensued. Apparently, the enemy retreated soon after.[@CR]...The odd thing is, some of those who witnessed the battle from afar swore that the Garleans withdrew just as they seemed to be gaining the upper hand. What could they have been hoping to achieve?","Ja! Eine Schar un[@16]erschro[@16]ckener Abenteurer ist uns zu Hilfe gekommen, und obwohl die imperialen Truppen in der Überzahl waren, konnten wir die Oberhand gewinnen. Sie haben sich zurückgezogen ... Aber was hatten sie nur vor?",Ils sont partis alors qu'ils avaient l'avantage sur les aventuriers qui les combattaient. C'est pour le moins curieux...,好像是勇气和实力兼备的冒险者跑到那里把敌人击退了。[@CR]明明是帝国那边处于优势，却撤退了。他们到底有什么打算？
26,帝国兵が自ら引き上げたところを見ると、本当の目的は[@CR]陽動だったのかもしれないわ。警戒を怠らないようにしなくちゃね。,"I know little about the ways of war, but the way the imperials seem to come and go as they please makes me think they're planning something. Something we've not yet grasped. One thing's for sure, though─we can't afford to lower our guard for so much as a moment, lest the Garlean devils take us unawares.","Tja, das kann ich dir auch nicht sagen ... Sicher ist nur, dass sich die garleischen Truppen fürs Erste zurückgezogen haben, aber dass es so einfach ging, deutet vielleicht auf ein Ablenkungsmanöver hin. Sicher kommen sie bald aus ihren Löchern ... mit Verstärkung.","Les Impériaux se sont retirés alors qu'ils avaient l'avantage. Peut-être que tout ceci n'était qu'une diversion, mais il vaut mieux rester sur ses gardes...",帝国兵自己撤退了，搞不好他们真正的目的是声东击西。[@CR]我们可得小心。
27,皆さん！　ガレマール帝国兵が現れたようですよ！　私が、詳しい話をお聞かせしましょう！,"Hearken to me, one and all! Imperial troopers have been sighted in the region!","Leute! Garlear wurden gesichtet! Aber keine Panik, hört mir zu!",Ecoutez-moi tous[@1D]! La vermine impériale ose se montrer dans la région[@1D]!!,各位！加雷马帝国兵出现了！我来详细给你们说一下！
28,おや、あなたも、ガレマール帝国兵の動向が気になるのですね？,"Well met, friend. You desire to know about the imperial troopers, I take it? I should be glad to share with you all I know.",Sei gegrüßt! Du bist auch beunruhigt über die imperialen Vorstöße? Ich kann dir wichtige Details verraten.,"Vous aussi, vous aimeriez en savoir plus sur les troupes impériales[@1D]?",你也想了解帝国兵的动向吗？
29,仲間の情報では、敵が分散していて、規模まではわからないそうです。[@CR]……ですが、不利な戦闘で活躍すれば、あなたの名も売れるはず。[@CR]あなたも、参戦をお考えになってはいかがですか？,"My source tells me the Garleans have spread their numbers across a wide area, rendering it problematic to estimate the size of their force. The situation is grim, to be sure, but is it not in the grimmest of circumstances that the greatest of heroes are born? I daresay an adventurer like you could garner considerable renown by distinguishing yourself in battle against these imperial interlopers.","Meine Kundschafter berichten, dass sie sich in mehrere Trupps aufgeteilt haben. Wie viele es also in der Summe sind, ist schwer einzuschätzen. Hast du genug Ehrgeiz, deinen Namen in aller Welt bekannt zu machen? Das ist die Gelegenheit dazu - eine Schlacht unter schwierigsten Bedingungen.","D'après les in[@16]for[@16]ma[@16]tions de mes camarades, les Garlemaldais se sont dispersés dans la région, ce qui rend difficile l'estimation de leur nombre total. Mais c'est dans les situations désespérées que naissent les héros, n'est-ce pas[@1D]? [@IF($E9(4),Une aventurière,Un aventurier)] comme vous pourrait se faire un nom en combattant ces envahisseurs.",根据同伴发来的情报，因为敌人比较分散，所以不清楚数量。[@CR]不过你要是能在不利的战斗中有所作为，也比较容易出名。[@CR]你也参战吧？
30,ガレマール帝国ご自慢の、重武装だったそうですよ。[@CR]もちろん、悪名高い軍用の魔物も引き連れていたそうです。[@CR]広大な戦場での戦闘だと、苦しい戦いになるでしょうね……。,"The Garleans were heavily armed, as is their wont. Oh, and I mustn't neglect to mention the fearsome beasts they command. I would not care to be caught out in the open with such disagreeable company.","Rüstung? Bis an die Zähne waren sie bewaffnet, wie nicht anders zu erwarten war. Und natürlich waren sie von ihren berüchtigten militärisch gedrillten Monstern begleitet. Auf einem weiten Schlachtfeld ohne Deckung wird das ein harter Kampf.","Ils sont tous lourdement armés, et ont avec eux leurs célèbres monstres spé[@16]cia[@16]le[@16]ment entraînés pour les combats en terrain découvert.",据说他们有着加雷马帝国引以为傲的重型装备。[@CR]还带着臭名昭著的军用怪物，要是在这么大的战场上战斗，估计会是一场苦战。
31,「キャンプ・グローリー」付近だそうです。[@CR]クルザス東部低地にまで、戦線を拡大するとは……[@CR]ガレマール帝国は、いったい何を企んでいるのでしょうね？,"If it is imperial blood you seek, Camp Glory is where you are like to find it. It chills me to think the Empire has come as far as the eastern lowlands of Coerthas. What they mean to do next, only the Twelve know.",Willst du gleich auf die Suche gehen? Sie sind in der Nähe von Camp Ehre. Dass sich die Kämpfe bis ins östliche Tiefland von Coerthas ausdehnen würden ... Was haben die Garlear nur vor?,Ils sont près du camp de la Gloire. C'est effrayant de penser que l'Empire a réussi à avancer jusqu'aux basses terres du Coerthas oriental. Les dieux seuls savent ce qu'ils mijotent.,听说他们在“荣誉野营地”附近，没想到战线会扩大到库尔札斯东部低地来……[@CR]加雷马帝国到底在计划什么？
32,おーい！　みんな、聞いたかい！？　またもや、ガレマール帝国兵が現れたってさ！,"Prick up yer ears, friends! The bloody imperials are at it again!",Hört! Hört! Die Garlear kommen wieder aus ihren Löchern gekrochen!,Alerte[@1D]! Les Garlemaldais reprennent leurs opérations[@1D]!!,喂！大家都听说了吗？加雷马帝国兵出现了！
33,またもや、ガレマール帝国兵が現れたってさ！[@CR]こいつは重大ニュースだよ！,Dire news! Imperial troopers've been spotted close by!,Schlechte Nachrichten! Die garleischen Hunde sind wieder da! Sie sind wieder aufgetaucht!,"Les nouvelles sont mauvaises, [@IF($E9(4),aventurière,aventurier)][@1D]! Les Impériaux envahissent la région[@1D]!",加雷马帝国兵出现了！这可是重大新闻！
34,俺の自慢の秘密情報網をもってしても、現状、わかっていないんだ。[@CR]広い戦地に敵が分散してるらしくて、兵数は予測不可能なんだって。[@CR]こればっかりは、仕方ないね。,"'Fraid yer guess is as good as mine on that front, [@IF($E9(4),lass,mate)]. The imperials've spread 'emselves right across the region, if what I'm hearin's true, an' there ain't no tellin' how many of the buggers are out there.","Ich schätze, da wissen wir beide in etwa gleich viel. Sogar mein feines Netz an Informanten konnte das nicht herausfinden. Was wir aber wissen, ist, dass sich der Feind über die gesamte Region verteilt hat.","Je n'en sais pas plus que vous, malheureusement. Ils se sont rapidement dispersés et personne n'est arrivé à faire le compte exact de leurs troupes.",我虽然有得意的情报网，但是还不清楚现在的情况。[@CR]听说敌人分散在广阔的战场中，无法预测数目。没办法，只有这么点情报。
35,それならバッチリ、役に立つ情報を掴んでるよ。[@CR]ガレマール帝国おなじみの重装備だったってさ。[@CR]今回は、軍用魔物のお供つきだよ。,"The imperials are sportin' that hefty bloody armor they like so much. Aye, the kind we all know an' hate. And what's more, they've got hordes of nasty beasties in tow.","Das kann ich dir genau sagen: Sie sind gepanzert wie Sardinenbüchsen, klassische garleische Rüstung. Aber was noch schlimmer ist: Sie haben diesmal auch ernsthaft gefährliche Monster im Schlepptau.","Ils sont équipés comme des Impériaux, c'est à dire lourdement[@1D]! Et en plus, ils ont avec eux des bêtes féroces, spé[@16]cia[@16]le[@16]ment entraînées pour le combat en terrain découvert.",关于这个我们得到了有力的情报。[@CR]就是加雷马帝国依然持有重型装备，还带着军用怪物。
36,クルザス地方の「キャンプ・グローリー」の辺りだよ。[@CR]百聞は一見にしかず。ここからなら、そう遠くないし[@CR]今からでも駆けつけて、討伐隊に加わってみれば？,"Have a mind t' trade blows with the imperials, do ye? Aye, that maniacal grin ye're wearin' says as much. Well, ye'll want t' make for Camp Glory, out in Coerthas, then. I'm told the imperials're somewhere thereabouts.","Du latschst ihnen doch nicht direkt in die Arme, wenn ich dir das sage, oder? ... Aha, du [@1A(1)]hast[@1A(0)] es also vor![@CR]Na, für Hilfe sind wir immer dankbar. Sie sind in der Nähe von Camp Ehre, in Coerthas also. Weit ist es nicht, aber dafür auch nur einen Schritt vom Jenseits entfernt.","Ils sont proches du camp de la Gloire, dans les basses terres du Coerthas oriental. Ce n'est pas loin d'ici, si jamais vous avez en tête d'aider à les repousser.",战场就是库尔札斯的“荣誉野营地”附近。百闻不如一见。[@CR]从这里出发也不算远，你也去参加战斗吧？
37,注目！　またしても、ガレマール帝国兵が現れたぞ！,Grave tidings! The imperial bastards have come to plague us again!,Seid auf der Hut! Die Garlear sind doch wieder da!,"Mauvaise nouvelle, tout le monde, ces scélérats d'Impériaux sont de retour[@1D]!",注意了！加雷马帝国兵又出现了！
38,おのれ、こしゃくな。[@CR]またしても、ガレマール帝国兵が現れおった。,"Twelve take the accursed Garleans! They're back, and in greater force than before!","Sie sind zurück! Rette sich, wer kann!",Ces maudits Garlemaldais sont dans la région[@1D]!,你不要自大，加雷马帝国兵又出现了。
39,広大な戦地に兵が分散しており、規模の把握はかなわなかったという。[@CR]戦況は、極めて不利……。それでも、腕に覚えがあるのならば[@CR]戦場へと駆け付けるのが人情というもの。お主は、そう思わんか？,"Wish I could tell you. The Garleans have fanned themselves out across the field, and there's no reliable way to determine their numbers. As it stands, the odds are stacked heavily against us. But I, for one, am not worried─deep in my heart, I know that any adventurer with even a [@1A(1)]thimble[@1A(0)] of honor won't hesitate to rush to Eorzea's defense.","Ich wünschte, ich könnte es dir sagen - aber die Garlear haben sich aufgeteilt, sodass wir ihre Zahl nicht einmal annäherungsweise abschätzen können. Fest steht, dass sie in der Überzahl sind, und sie sind als Erste am Zug. Die Lage ist alles andere als rosig.[@CR]Mit anderen Worten, du musst uns helfen. Das wirst du doch, oder?","Si seulement je le savais[@1D]! Ils ont choisi d'éparpiller leurs troupes, nous n'avons donc aucun moyen fiable de les comptabiliser. Mais une chose est sûre, ils ont l'avantage[@1D]! Il y a encore de l'espoir, cela dit. Je suis certain que les aventuriers ayant un tant soit peu d'honneur ne vont pas hésiter à nous aider... Je me trompe[@1D]?",听说敌人分散在广阔的战场中，无法预测数目。[@CR]战况对我们来说极为不利，如果你有信心的话就去参战吧。[@CR]帮助击退敌人也是人之常情啊，对吧？
40,任務遂行のためなら、死をも恐れぬ気概の兵たちだという。[@CR]軍用魔物までもが、見事に統率されているらしい。[@CR]忠誠心こそ、最も恐るべき武器なり。,"The Garleans bore mighty arms and were accompanied by ferocious, battle-trained fiends. If you were to ask me to identify their single most formidable weapon, however, it would have to be their unquestioning loyalty─the willingness to die for their cause.","Bei den garleischen Truppen herrscht eiserne Disziplin, die schwer gepanzerten Soldaten sind unbeirrbar in der Erfüllung ihrer Pflicht. Sogar die sonst unberechenbaren Kriegsbestien, die sie mitführen, sind gehorsam bis in den Tod.","Ils portent des armures lourdes, brandissent des armes puissantes, et sont accompagnés de monstres sauvages dressés pour le combat en terrain découvert.",据说那些帝国兵非常英勇，为了完成任务连死也不怕。[@CR]他们还统帅着军用怪物。忠诚是最可怕的武器。
41,クルザス地方は「キャンプ・グローリー」付近なり。[@CR]憤怒、使命感、道義心……少しでも心動いたなら[@CR]急ぎ現地へ向かわれよ。これぞ、冒険者のあるべき姿。,"You will find the invaders in the vicinity of Camp Glory, in Coerthas.[@CR]Duty, justice, vengeance─if any of these things move you, then be moved now to strike a blow against the Empire. This, my friend, is what it means to be an adventurer.","Soweit wir wissen, in der Nähe von Camp Ehre.[@CR]Ja, Ehre ... oder Gerechtigkeit, Pflichtbewusstsein, Vergeltung - wenn sich irgendetwas davon in deiner Brust regt, solltest du dich schleunigst auf den Weg dorthin machen.","Vous voulez participer à la défense de la région[@1D]? Si c'est le cas, allez au camp de la Gloire dans les basses terres du Coerthas oriental.",在库尔札斯的“荣誉野营地”附近。[@CR]愤怒、使命感、道德感……如果你被此触动的话就前往当地吧。[@CR]这才是冒险者该做的。
42,緊急事態発生！　緊急事態発生！　ガレマール帝国軍を確認！,Emergency! Emergency! Imperial presence detected!,Alarm! Alarm! Die Garlear sind da!,"Aux armes, aux armes[@1D]! Les Garlemaldais sont proches[@1D]!",出现紧急事态！出现紧急事态！[@CR]发现了加雷马帝国军队！
43,緊急事態発生よ！[@CR]ガレマール帝国軍を確認！　速やかに警戒態勢に入って！,Imperial presence has been detected in the vicinity! Sound the alarum! To arms! To arms!,"Es ist passiert, die imperialen Truppen sind hier ganz in der Nähe! Alarmstufe Rot!","Les Impériaux se rapprochent, nous avons déclaré l'état d'urgence[@1D]!",出现紧急事态！发现了加雷马帝国军队！[@CR]马上进入警戒状态！
44,兵が広範囲に分散していて、全体数は把握できなかった。[@CR]しかし、目視にて、相当数を確認したわ。[@CR]迎え撃つ兵をなるべく多く集めねば……,"I cannot say. Imperial troopers seemed to be everywhere, and yet nowhere. I suspect they have spread their numbers out across a large area, the better to incite panic. We must mobilize our forces and neutralize the threat without delay!","Wir können es nicht genau sagen, sie sind überall und nirgendwo, aufgeteilt auf ein weites Gebiet und geschickt verborgen. Dass sie in der Überzahl sind, hatten wir schon geahnt, doch mit Schrecken wurde uns nun das volle Ausmaß ihrer Überlegenheit klar. Wir müssen uns bereithalten und ihr Vordringen um jeden Preis verhindern.","Je n'en sais rien, on dirait qu'ils sont partout et nulle part à la fois[@1D]! Je pense qu'ils ont éparpillé leurs troupes dans la région pour inciter à la panique. Nous devons nous mobiliser et les repousser[@1D]!",士兵比较分散，无法把握整体数量。[@CR]不过大致可以看到有不少人。我们要召集更多的人手去迎击……
45,ガレマール帝国軍の最新型重武装と予測されるわ。[@CR]軍用魔物にも、改良が施されている可能性が高い。[@CR]この戦い……新兵器の性能確認も兼ねているのかもしれないわ。,"The Garleans appeared to be equipped with the latest arms and armor. Why, even their war beasts looked more menacing than those we have encountered in the past. It makes one wonder... Might their objective be to test their new weaponry?","Die Garlear sind mit modernsten Waffen und Rüstungen ausgestattet. Auch ihre Monster haben sie höchst[@16]wahr[@16]scheinlich mit magischen Mitteln gestärkt.[@CR]Womöglich hat diese Schlacht sogar den Zweck, neue Waffen und Monster an uns zu testen ...","Ils sont équipés des meilleures armes et armures de l'Empire, et les monstres qui les ac[@16]com[@16]pa[@16]gnent sont dressés pour le combat en terrain découvert. Ça ne va pas être facile de les repousser.",据预测，他们备有加雷马帝国军的最新型重装备。[@CR]军用怪物也可能进行了改良。他们可能通过这场战斗来确认新兵器的性能。
46,ここからすぐ東よ。[@CR]可能なら、あなたにも討伐の応援を要請したいわ。[@CR]敵の兵数がわからないから、なるべく多くの兵を集めたいの。,"You mean to join the defensive effort? Twelve bless you, adventurer! Head due east, and you will soon come upon the imperial force. Be reminded, though, that we have no way of knowing the enemy's true numbers. Do take care out there.","Gleich in der Nähe von hier, du musst nur ein Stück nach Osten gehen. Ich würde dich dringend um deine Mithilfe bitten. Aber riskier nicht zu viel!","Vous êtes [@IF($E9(4),prête,prêt)] à nous aider[@1D]? Que les Douze vous bénissent[@1D]! Les forces impériales sont à l'est d'ici. Faites attention quand même, nous ne savons pas combien ils sont.",就在离这里很近的东部。希望你也能参加讨伐。[@CR]因为不清楚敌人有多少，所以我们要尽可能多召集人手。
47,帝国兵、撤退！　帝国兵、撤退！　……緊急警戒態勢を解除してもいいわよ。,"The Empire has withdrawn! I repeat, the Empire has withdrawn! You may go about your business as usual!",Juhuuu! Sieg! Sieg! Die Garlear sind abgerückt! Nun können wir die Alarmstufe herabsetzen.,Les Garlemaldais ont battu en retraite[@1D]! Victoire[@1D]! L'état d'urgence a été levé[@1D]!,帝国兵撤退了！帝国兵撤退了！[@CR]紧急事态可以解除了。
48,ガレマール帝国兵の完全撤退を確認。[@CR]おかげで、警戒レベルは緩和されたわ。,The Empire has withdrawn from the area. Feel free to go about your business.,Die garleischen Soldaten haben sich aus dem Gebiet zurückgezogen. Wir haben die Alarm[@16]bereit[@16]schaft herabgesetzt.,Nous avons forcé les Impériaux à battre en retraite. L'état d'urgence est enfin levé.,经确认加雷马帝国兵已经撤退了。[@CR]警备等级也得到了缓和。
49,志願兵の活躍により、ガレマール帝国兵は撤退した。[@CR]しかし、広範囲にわたっての激戦が繰り返され、こちらの被害も少なくない。[@CR]態勢の立て直しが急務だ。,"The imperial troopers were driven back by a band of adventurers, believe it or not. It stirs my heart to see so many brave souls willingly take grievous wounds in defense of those less able to protect themselves. But now is not the time for self[@1F]congratulation. Our priority is to regroup that we might be ready to repel any further act of aggression by the Empire.","Einige beherzte Freiwillige haben geholfen, die imperialen Truppen zurückzudrängen. Aber noch dürfen wir uns nicht auf unseren Lorbeeren ausruhen. Wir mussten empfindliche Verluste hinnehmen. Jetzt heißt es, sich neu zu formieren und die Strategie zu überdenken.","De nombreux volontaires ont participé à la bataille, et les soldats de l'Empire ont pu être repoussés. Mais ça n'a pas été sans mal, et il y a eu de nombreuses victimes. Nous n'avons pas le temps de pleurer nos morts, cela dit, la priorité est de se préparer contre un nouvel assaut.",由于志愿军的努力，加雷马帝国兵撤退了。[@CR]不过这次激战的范围很大，所以伤亡也比较大。[@CR]现在首要任务是重整旗鼓。
50,志願兵の応援により、ガレマール帝国兵は排除できた。[@CR]しかし、帝国軍反撃の可能性を排除することはできない。[@CR]この辺りは狙われてる……気を緩めること、なきように。,"We bested the Empire this day, true, yet it is far too early for celebration. The Empire will be at our throats again, sure as night follows day, and we must not allow ourselves to grow complacent.","Diesmal konnten wir die Garlear aufhalten, doch was nächstes Mal ist, kann niemand wissen. Und dass sie zurückschlagen werden, steht außer Zweifel.","Les Impériaux se sont repliés aujourd'hui, mais nous avons simplement gagné une bataille, pas la guerre. Ils reviendront...",由于志愿军的支援，加雷马帝国兵已经撤退了。[@CR]不过他们很有可能会进行反击。[@CR]看样子他们一直盯着这边，所以不能懈怠。
51,帝国兵、撤退！　帝国兵、撤退！　付近の当面の安全は確保された！,The Empire has withdrawn! The Empire has withdrawn! The area is now secure!,Die Garlear haben sich zurückgezogen! Wir haben gesiegt! Das Gebiet ist gesichert!,Les Garlemaldais se sont repliés[@1D]! Ils ont quitté la région[@1D]!,帝国兵撤退了！帝国兵撤退了！[@CR]附近已经安全了。
52,ガレマール帝国兵が、突然、撤退した。[@CR]敵が優勢だっただけに、命拾いしたわ。,"Right in the heat of battle, the imperial troopers shouldered arms and withdrew. While it troubles me that I cannot offer an explanation for their sudden departure, I cannot help but be glad of it.","Die Garlear sind ganz plötzlich abgerückt ... Erstaunlich, wo sie doch die ganze Zeit über die Oberhand hatten. Aber mein Leben ist erst mal außer Gefahr, da will ich nicht lange nachfragen.","Les troupes impériales se sont repliées sou[@16]dai[@16]ne[@16]ment alors qu'elles avaient l'avantage. Leur conduite est inexplicable, mais pour l'instant, je suis juste soulagée de leur départ.",加雷马帝国兵突然撤退了。[@CR]他们还处于优势，我们真是捡了条命啊。
53,勝利とはいいがたいわ。[@CR]志願兵の応援虚しく、敗色が濃くなり始めた矢先に[@CR]帝国兵の方から退いていった。帝国の真意が気になるところよ。,"The Garleans withdrew, aye, but it was not by our doing. No, so few were the defenders, we had no hope from the first. Yet at the very instant the battle was thought lost, the imperial troopers about-turned and retreated. What could possibly be their true objective?","Ja, die Garlear sind weg - aber es war nicht unser Verdienst. Wir konnten unsere Niederlage schon kommen sehen, als sie sich auf einmal von sich aus zurückgezogen haben. Was haben sie nur vor?","Les Impériaux sont partis, mais on peut dif[@16]fi[@16]ci[@16]le[@16]ment appeler ça une victoire. Ils avaient clairement l'avantage, malgré le courage des volontaires qui participaient à la défense de la région. Ils se sont repliés alors même qu'ils étaient sur le point de vaincre. Leur attitude est incom[@16]pré[@16]hen[@16]si[@16]ble... Quel était leur véritable but[@1D]?",不能说是我们胜利了，当志愿军快要坚持不住的时候，[@CR]帝国兵却自己撤退了。很在意他们真正的目的啊。
54,帝国兵が自ら撤退したところを見ると、[@CR]その目的は、陽動だったのかもしれない。[@CR]当面は警戒レベルを下げても問題ないだろうが、油断は禁物だ。,"The Garleans withdrew of their own volition, this much is plain. Whether it was simply a diversionary tactic or a prelude to something more sinister, all we can do now is prepare as best we can for whatever else the Empire might have in store.","Dass die weit überlegenen imperialen Truppen aufgegeben hätten, ist völlig undenkbar, es muss sich um ein Ablenkungsmanöver handeln. Und das bedeutet für uns allerhöchste Wachsamkeit. Wir müssen versuchen, ihre nächsten Schritte vorauszuahnen ...","Les Garlemaldais ne sont pas partis parce qu'ils perdaient, bien au contraire. Je commence à croire que leur attaque n'était en fait qu'une diversion, ou le prélude de quelque chose de bien plus sinistre. Tout ce que nous pouvons faire maintenant, c'est de nous préparer contre leur prochaine attaque...",帝国兵自行撤退很有可能是声东击西。[@CR]暂时可以缓和一下警备，不过不能大意。
55,大変だ！　ガレマール帝国兵が攻めてきたぞ！,Grave news from the front! The godsdamned Garleans have launched an attack!,Hilfe! Die Garlear kommen! Sie kommen!,Les Garlemaldais[@1D]! Les Garlemaldais avancent[@1D]!,帝国兵自行撤退很有可能是声东击西。[@CR]暂时可以缓和一下警备，不过不能大意。
56,ロイシアから連絡が入った。[@CR]ガレマール帝国兵が、リムサ・ロミンサへ向かって攻め込んできているらしい。,Heed me! Roysia sends word that the Garlean devils have invaded with a powerful army! They march toward Limsa Lominsa even as we speak!,Roysia hat mich gewarnt. Die garleischen Soldaten rücken auf Limsa Lominsa vor!,J'ai reçu un message de Roysia nous prévenant que les Impériaux marchent sur Limsa Lominsa[@1D]!,帝国兵自行撤退很有可能是声东击西。[@CR]暂时可以缓和一下警备，不过不能大意。
57,リムサ・ロミンサから南東の海岸に[@CR]ガレマール帝国の飛空戦艦が現れたらしい。[@CR]そこから、ガレマール帝国兵が多数、降下してきたというんだ！,A fleet of flying warships appeared in the sky to the southeast of Limsa Lominsa. They descended to ground and disgorged massive numbers of imperial soldiers!,An der Küste südöstlich der Stadt sind feindliche Luftschiffe gesichtet worden. Und unzählige Garlear sollen bereits gelandet sein!,Leurs troupes ont débarqué d'une escadre d'aéronefs au sud-est de la Cité maritime.,帝国兵自行撤退很有可能是声东击西。[@CR]暂时可以缓和一下警备，不过不能大意。
58,ロイシアが見た限りは、噂どおりの強力な兵器で武装してたらしい。[@CR]これ以上、リムサ・ロミンサに近づかれると、犠牲は計り知れない。[@CR]急いで多くの兵を集めて迎え撃たなければ！,"Roysia saw the Garleans with her own eyes, and the rumors that they are armed with powerful weapons appear to be true. If those devils are allowed to reach Limsa Lominsa, even the gods themselves couldn't count the victims. 'Tis time for men and women of courage and honor to stand and fight!","Roysia hat die Garlear mit ihren eigenen Augen gesehen, sie sind schwer bewaffnet. Wenn sie bis vor Limsas Tore marschieren, ist nicht abzusehen, wie viele Opfer es geben wird. Wir müssen alle Kräfte mobilisieren und sie abwehren.","Roysia les a vus de ses propres yeux, et les rumeurs étaient justes, ils ont avec eux des armes destructrices[@1D]! S'ils atteignent Limsa Lominsa, même les dieux ne pourront pas compter les victimes. Tout homme ou femme de courage se doit de les combattre pour empêcher le pire[@1D]!",帝国兵自行撤退很有可能是声东击西。[@CR]暂时可以缓和一下警备，不过不能大意。
59,すでに「キャンプ・ビアデッドロック」の南にまで迫ってきてるらしい。[@CR]その辺りで、ロイシアも帝国の来襲を知らせてるから、心配だ。[@CR]あんた、腕に自信があるなら、討伐を手伝ってくれ。,"The imperial army is to the south of Camp Bearded Rock, and may soon overrun the place. Brave Roysia is still there, sending reports on their movements. If you are the honorable [@IF($E9(4),woman,man)] I take you for, you will hurry to the battlefield and help drive off the menace.","Die Truppen sind schon bis südlich von Bartelfels vorgedrungen, Roysia hält dort immer noch die Stellung, um uns über die letzten Bewegungen der Garlear auf dem Laufenden zu halten. Wenn du als [@IF($E9(4),Abenteurerin,Abenteurer)] etwas auf dich hältst, geh dorthin und stell dich ihnen entgegen!","Ils sont maintenant au sud du camp de Roc barbu, et sont sur le point de l'envahir. Roysia est encore là-bas, et je m'inquiète pour elle. Si vous savez vous battre, je vous en prie, allez là-bas, ils vont avoir besoin de toute l'aide disponible pour repousser les Impériaux.",帝国兵自行撤退很有可能是声东击西。[@CR]暂时可以缓和一下警备，不过不能大意。
60,聞いて！　重装備のガレマール帝国兵を見かけたの！,"Hear me, everyone! It's the imperials! The imperials are near!","Hört mir zu! Es sind die Garlear, bis an die Zähne bewaffnet! Ich habe sie gesehen!",Les Impériaux[@1D]! Les Impériaux sont proches[@1D]!,帝国兵自行撤退很有可能是声东击西。[@CR]暂时可以缓和一下警备，不过不能大意。
61,南の海岸上空で、黒い飛空戦艦を見たのよ！[@CR]そこから、沢山のガレマール帝国兵が降下していたわ！[@CR]リムサ・ロミンサを強襲しようとしているのかもしれない！！,"Hear me, friend. Black warships menace the skies above the southern coast, and they come laden with heavily armored imperial troopers! They mean to attack Limsa Lominsa itself!","Über der Felsenküste im Süden schweben ihre schwarzen Panzer-Luftschiffe, die ersten Garlear steigen sogar schon herab! Sie werden womöglich versuchen, Limsa direkt anzugreifen!","Je les ai vus débarquer en grand nombre d'aéronefs de guerre sur la côte sud[@1D]! Ils s'apprêtent à attaquer Limsa Lominsa, ça ne fait aucun doute[@1D]!",帝国兵自行撤退很有可能是声东击西。[@CR]暂时可以缓和一下警备，不过不能大意。
62,南の海岸で飛空戦艦を見かけて、[@CR]慌ててここへ来てしまったから、正確な人数はわからないの。[@CR]でも、あの一瞬だけでも、相当な人数が降下してたのは確かよ！,"The moment I spotted the warships landing imperial troopers on the southern shores, I raced back here to give warning. I don't know how many there are, but even in that one glimpse, I saw scores upon scores. It is no small raiding force!","Ich weiß nicht, ich hatte nicht genug Zeit zu sehen, wie viele es genau waren. Sofort, als ich die Truppen am Strand habe landen sehen, bin ich zum Camp zurückgerannt. Ich rede hier nicht von einer Handvoll Soldaten!","J'ai couru jusqu'ici pour avertir tout le monde dès que j'ai aperçu les aéronefs en train de débarquer les troupes. Je ne sais donc pas exactement combien ils sont, mais pour le peu que j'ai vu, il ne s'agit pas de simples éclaireurs[@1D]!",帝国兵自行撤退很有可能是声东击西。[@CR]暂时可以缓和一下警备，不过不能大意。
63,降下してきた兵士は、かなりの重武装だったわ。[@CR]こっちも多くの兵を集めて、迎え撃たなくちゃ！[@CR]でないと、リムサ・ロミンサが攻め落とされてしまうわ！,The troopers were heavily armed and armored both. We must meet them with a substantial force and stop them in their tracks...elsewise Limsa Lominsa herself may fall!,"Es waren viele und allesamt waren sie schwer bewaffnet und ebenso schwer gepanzert.[@CR]Wenn wir sie aufhalten wollen, müssen wir etwas Entsprechendes dagegenhalten! Sonst wird Limsa fallen!","Les soldats portaient des armures lourdes et ils étaient armés jusqu'aux dents. Il n'y a pas de temps à perdre[@1D]! Il faut im[@16]mé[@16]dia[@16]te[@16]ment réunir suf[@16]fi[@16]sam[@16]ment de gens pour leur résister, ou Limsa Lominsa est perdue[@1D]!",帝国兵自行撤退很有可能是声东击西。[@CR]暂时可以缓和一下警备，不过不能大意。
64,ここから南へ行けば、迎撃できるはず。[@CR]もう、リムサ・ロミンサの目前まで迫ってるかも！[@CR]お願い！　急いで向かって、なんとしても追い返して！！,"You would help us drive away the enemy? You have my gratitude, brave adventurer! The Garleans will be easy enough to find―head south from here and you're bound to run into them. Oh, but do hurry─they advance on Limsa Lominsa even as we speak!","Wenn wir von hier aus nach Süden gehen, laufen sie uns direkt in die Arme. Oder wir ihnen. Jedenfalls müssen wir schnell handeln, wer weiß, wie weit sie schon vorgerückt sind!","Vous êtes prêt[@IF($E9(4),e,)] à nous aider[@1D]? Alors partez vite en direction du sud, vous n'aurez pas de mal à les trouver[@1D]! Dépêchez-vous, ils marchent sur Limsa Lominsa en ce moment même[@1D]!",帝国兵自行撤退很有可能是声东击西。[@CR]暂时可以缓和一下警备，不过不能大意。
65,みんな、朗報よ！　ガレマール帝国兵は撤退したらしいわ！,"Glad tidings, everyone! The imperials are defeated!","Hört, Leute, hört! Eine freudige Botschaft! Wir haben gesiegt! Die Garlear sind auf dem Rückzug!","Bonne nouvelle, tout le monde[@1D]! Ces poltrons de Garlemaldais ont battu en retraite[@1D]!",帝国兵自行撤退很有可能是声东击西。[@CR]暂时可以缓和一下警备，不过不能大意。
66,もう、警戒を解いても大丈夫よ。[@CR]攻め込んできたガレマール帝国兵は、追い払われたらしいから。,"You can rest easy now, friend. The imperial troops have fled to their warships.","Wir können aufatmen - fürs Erste. Die Vorhut der Garlear haben wir vertrieben, aber wer weiß ...","Il n'y a plus rien à craindre pour le moment, nous avons réussi à chasser les Impériaux.",帝国兵自行撤退很有可能是声东击西。[@CR]暂时可以缓和一下警备，不过不能大意。
67,勇気と実力ある冒険者たちが駆けつけて、敵を撃退してくれたそうよ。[@CR]でも、敵の数が多かったから負傷者も多いみたい……。[@CR]身を挺してリムサ・ロミンサを守ってくれた勇士たちに、感謝ね。,"Aye! A courageous band of adventurers met the imperials as they marched, and a fierce battle ensued. Yet, against such numbers, the victory was not won lightly. A great many of our champions were wounded in the struggle. We can but pray for their swift recovery―by their sacrifice did they save Limsa Lominsa.","Ja, mit Hilfe einiger beherzter Abenteurer konnten sie zurückgedrängt werden, aber es hat viele Verletzte gegeben. Wir sind wirklich dankbar, dass sie ihr Leben für uns aufs Spiel gesetzt haben.","Oui[@1D]! De braves aventuriers se sont lancés à l'attaque et les ont fait fuir. La bataille a été terrible et la victoire a coûté cher. Il y a de nombreux blessés, certains très graves. Limsa Lominsa leur doit beaucoup, et je prie les dieux qu'ils se remettent rapidement.",帝国兵自行撤退很有可能是声东击西。[@CR]暂时可以缓和一下警备，不过不能大意。
68,腕の立つ勇士たちの活躍のおかげで、[@CR]事なきを得たとはいえ……帝国がおとなしく諦めるとも思えないわ。[@CR]いつまたリムサ・ロミンサへ攻めてくるか知れないから、気をつけなきゃね。,"The enemy was driven away empty-handed and licking its wounds...but the Garleans are nothing if not stubborn. They will come at us again, as surely as night follows day. Only constant vigilance will keep Limsa Lominsa free from their clutches.","Dank einiger furchtloser Abenteurer haben wir erst einmal etwas Luft. Aber bald werden sie zurückschlagen, und wir stehen hier ganz genau in der Schusslinie. Wir können uns keine Fehler erlauben.","Grâce à l'aide de courageux combattants, les Impériaux ont été repoussés, mais la trêve sera cer[@16]tai[@16]ne[@16]ment de courte durée. Ils reviendront sûrement à l'attaque de Limsa Lominsa.",帝国兵自行撤退很有可能是声东击西。[@CR]暂时可以缓和一下警备，不过不能大意。
69,みんな！　もう大丈夫！　ガレマール帝国兵は撤収したみたいよ！,"Be at ease, everyone! The imperials have withdrawn.",Kameraden! Kämpferinnen! Wir haben gesiegt! Die Garlear haben sich zurückgezogen!,"Bonne nouvelle, tout le monde[@1D]! Les Impériaux ont abandonné le combat[@1D]!",帝国兵自行撤退很有可能是声东击西。[@CR]暂时可以缓和一下警备，不过不能大意。
70,ガレマール帝国兵が撤収してくれたらしいわ。[@CR]ほっとして、力が抜けそう……。,"Rest easy, friend! The Garleans have pulled out! Ah, I near fainted when I heard the tidings, so great was my relief!",Wir können aufatmen - fürs Erste. Die Vorhut der Garlear haben wir vertrieben ...,"Nous ignorons pourquoi, mais les Garlemaldais ont quitté la région. Je me suis presque évanouie de soulagement lorsque j'ai entendu la nouvelle...",帝国兵自行撤退很有可能是声东击西。[@CR]暂时可以缓和一下警备，不过不能大意。
71,勇気と実力ある冒険者たちが駆けつけて、敵を撃退してくれたそうよ。[@CR]帝国側が優勢だったのに、敵の方から撤収してくれたらしいの。[@CR]いったい、何がしたかったのかしら……,"Aye! A courageous band of adventurers met the imperials as they marched, and a fierce battle ensued. Apparently, the enemy retreated soon after.[@CR]...The odd thing is, all those who witnessed the battle from afar swore that the Garleans withdrew just as they seemed to be gaining the upper hand. What could they have been hoping to achieve?","Ja! Eine Schar un[@16]erschro[@16]ckener Abenteurer ist uns zu Hilfe gekommen, aber trotzdem behielten die imperialen Truppen die Oberhand ... bis sie sich plötzlich zurückzogen. Ich frage mich, was sie bloß erreichen wollten?",Ils sont partis alors qu'ils avaient l'avantage sur les aventuriers qui les combattaient. C'est pour le moins curieux...,帝国兵自行撤退很有可能是声东击西。[@CR]暂时可以缓和一下警备，不过不能大意。
72,帝国兵が自ら引き上げたところを見ると、[@CR]本当の目的は陽動だったのかもしれないわ。[@CR]リムサ・ロミンサを守りぬくためには、警戒を怠らないようにしなくちゃね。,"I know little of war and strategy, but when I heard that the imperials withdrew so rapidly, I could not help but wonder if the attack was a diversion of some kind. We cannot afford to let down our guard, lest the Garlean devils attack again―for next time, it might be in earnest.","Tja, das kann ich dir auch nicht sagen ... Sicher ist nur, dass sich die garleischen Truppen fürs Erste zurückgezogen haben.[@CR]Aber dass es so einfach ging, deutet vielleicht auf ein Ablenkungsmanöver hin. Sicher kommen sie bald aus ihren Löchern ... mit Verstärkung.","Les Impériaux se sont retirés alors qu'ils avaient l'avantage. Peut-être que tout ceci n'était qu'une diversion, mais il vaut mieux rester sur ses gardes...",帝国兵自行撤退很有可能是声东击西。[@CR]暂时可以缓和一下警备，不过不能大意。
73,皆さん！　ガレマール帝国兵が現れたようですよ！　私が、詳しい話をお聞かせしましょう！,"Hearken to me, one and all! Imperial troopers have been sighted in the region!","Leute! Garlear wurden gesichtet! Aber keine Panik, hört mir zu!",Ecoutez-moi tous[@1D]! La vermine impériale ose se montrer dans la région[@1D]!!,帝国兵自行撤退很有可能是声东击西。[@CR]暂时可以缓和一下警备，不过不能大意。
74,よくぞ声をかけてくれました。[@CR]どうやらガレマール帝国兵は、グリダニアを強襲するつもりのようですよ。,"Well met, friend. When the dark hand of the Garlean Empire threatens our lands, I am always pleased to expound the virtues of duty and honor to adventurers.","Sei gegrüßt! Beunruhigt über die imperialen Vorstöße? Mit Recht ... und wenn ich dir die Details verrate, wirst du wissen, wieso.","Vous aussi, vous aimeriez en savoir plus sur les troupes impériales[@1D]? Je suis toujours content d'informer les aventuriers qui se dressent contre la menace garlemaldaise.",帝国兵自行撤退很有可能是声东击西。[@CR]暂时可以缓和一下警备，不过不能大意。
75,仲間からの情報では、帝国兵は相当な数のようです。[@CR]クルザスからグリダニアへと続く、ファーラインが、[@CR]帝国兵で埋め尽くされるほどの勢いだったとか。,"My source tells me the Garleans have amassed a large force and are marching from Coerthas toward Gridania. At night, the campfires and torches can be seen stretching across the Furline from horizon to horizon.","Meine Kundschafter berichten, dass sie sich in mehrere Trupps aufgeteilt haben. Die ganze Pelzstraße entlang, die sich von Coerthas bis Gridania erstreckt, scheint von ihnen belagert zu sein, aber wie viele es in der Summe sind, ist schwer einzuschätzen.","D'après les in[@16]for[@16]ma[@16]tions de mes camarades, les Garlemaldais sont partis du Coerthas en grand nombre et marchent en ce moment sur Gridania. On peut voir leurs feux de camp la nuit tout au long de la route de la fourrure.",帝国兵自行撤退很有可能是声东击西。[@CR]暂时可以缓和一下警备，不过不能大意。
76,帝国ご自慢の、重武装だそうですよ。[@CR]敵に、都市内にまで攻め込まれてしまったら[@CR]犠牲は計り知れません！,"The Garleans are heavily armed, as is their wont, and if they should breach the city walls and be allowed to run amok within, well, there is no telling the devastation that would ensue.","Die Soldaten waren alle mit schweren garleischen Rüstungen gepanzert, und wenn sie erst einmal bis zur Stadt vorgedrungen sind, wird sie nichts mehr aufhalten können!","Bien évidemment, ils portent tous des armures lourdes et sont armés jusqu'aux dents. Je n'ose pas imaginer ce qu'il adviendra de la Cité s'ils parviennent à l'atteindre.",帝国兵自行撤退很有可能是声东击西。[@CR]暂时可以缓和一下警备，不过不能大意。
77,クルザス方面から、ファーラインを南下中とのこと。[@CR]今頃は、もう「再生の根株」まで達しているかもしれません。[@CR]これ以上の侵入を許すわけにはいきません。なんとしても食い止めなければ！,"They march south from Coerthas by way of the Furline. They may have already reached Lifemend Stump, and we cannot allow them to advance further. We must unite, Gridanians and adventurers both, if we are to staunch the flood of invasion!","Sie marschieren von Coerthas aus nach Süden, die Pelzstraße entlang. Es kann sein, dass sie sogar schon beim Mogry-Stubben angelangt sind. Noch weiter dürfen sie auf keinen Fall vordringen. Wir müssen sie aufhalten, koste es, was es wolle.","Il sont partis du Coerthas, et suivent en ce moment la route de la fourrure. Ils ont pro[@16]ba[@16]ble[@16]ment déjà atteint la souche de résurrection. Nous ne pouvons pas leur permettre d'avancer plus avant dans la Sylve[@1D]! Les Gridaniens et les aventuriers doivent se battre de front pour les repousser[@1D]!",帝国兵自行撤退很有可能是声东击西。[@CR]暂时可以缓和一下警备，不过不能大意。
78,おーい！　みんな、落ち着いて聞いてくれ！！　またもや、ガレマール帝国兵が攻めてきたぞ！,"Prick up yer ears, friends! The bloody imperials are at it again!",Leute! Kameraden! Hört mir zu! Die verdammten Drecksgarlear kriechen näher!,Alerte[@1D]! Les Garlemaldais reprennent leurs opérations[@1D]!!,帝国兵自行撤退很有可能是声东击西。[@CR]暂时可以缓和一下警备，不过不能大意。
79,ガレマール帝国兵が、クルザス方面からファーラインを南下中らしい！[@CR]もしかすると、グリダニアを強襲するつもりかもしれない！[@CR]戦える人は、四の五の言わず、討伐を手伝ってくれ！,Those thrice-cursed imperial devils are marchin' from Coerthas and headin' straight through the southern Furline regions. Looks to me they're fixin' to invade Gridania itself! We need adventurers who're willin' to pick up a sword an' stop the whoresons in their tracks!,"Die dreimal verfluchten Teufel marschieren von Coerthas die Pelzstraße entlang, und wenn du mich fragst: die wollen Gridania einnehmen und nichts sonst! Wir brauchen jeden klapprigen Greis, jedes schwächliche Weib, um sie aufzuhalten! Und wenn wir sie mit Steinen bewerfen müssen!",Les Impériaux viennent du Coerthas par la route de la fourrure[@1D]! Ils ont cer[@16]tai[@16]ne[@16]ment l'intention d'attaquer Gridania[@1D]! Tous ceux capables de se battre doivent s'unir pour leur résister[@1D]!,帝国兵自行撤退很有可能是声东击西。[@CR]暂时可以缓和一下警备，不过不能大意。
80,俺の自慢の情報網によると、兵の数は、とにかく多いらしい！[@CR]帝国兵がファーラインを埋め尽くすほどの勢いって話だ！[@CR]敵に踏みつけられた道は、すっかりぬかるんでドロドロらしいぞ。,"My sources tell me―an' ye should know they're the best in all of Gridania―that the army's immense, bigger than anythin' seen this side of Eorzea. The imperials've left a muddy track of the Furline in their passin', and picked the land clean like a swarm of locusts!",Wie viele es sind? Das kann ich dir genau sagen: Es sind verdammt noch mal viel zu viele![@CR]Wie ein Schwarm von Milben haben sie die Pelzstraße völlig kahlgetrampelt.,"Selon mes sources, qui sans me vanter sont les mieux informées de Gridania, les colonnes de leur armée s'étirent à perte de vue sur la route de la fourrure.",帝国兵自行撤退很有可能是声东击西。[@CR]暂时可以缓和一下警备，不过不能大意。
81,かなりの重武装だったらしい。[@CR]このまま、グリダニアが襲われるようなことがあれば、犠牲は計り知れないよ！,"The imperials are sportin' that hefty armor they like so much. If those bloody troopers get into the city proper, it'd be like the seven hells themselves've been let loose.","Rate mal! Natürlich sind sie in ihre garleischen Spezialrüstungen eingedost und bewaffnet bis an die Zähne. Wenn wir sie ohne Gegenwehr bis nach Gridania kommen lassen, na, dann gute Nacht!","Ils portent ces armures lourdes qu'ils semblent tant aimer. S'ils arrivent jusqu'à la Cité, les Gridaniens sont fichus[@1D]!",帝国兵自行撤退很有可能是声东击西。[@CR]暂时可以缓和一下警备，不过不能大意。
82,ここから北西だ。もう、「再生の根株」辺りまで迫ってるかも。[@CR]急がないと、グリダニアの白狼門に到達されてしまうぞ！[@CR]頼むから、誰か、帝国兵を撃退してくれ！,"Head northwest of here─ye can't miss 'em. They might be at Lifemend Stump already, which means ye don't have much time. Drive 'em back to whichever one of the seven hells they crawled out of!","Nordwestlich von hier. Du wirst sie garantiert nicht verfehlen. Vielleicht sind sie sogar schon beim Mogry-Stubben, und wenn du dich nicht beeilst, stürmen sie bald durch die Weißwolf-Pforte!","Ils sont au nord-ouest d'ici, à la souche de résurrection. Si nous ne trouvons pas assez de soldats pour leur faire face, ils atteindront sûrement la porte du loup blanc avant [@IF($E3($E9(11),12),[@IF($E3($E9(11),4),le jour,la nuit)],[@IF($E3($E9(11),17),la nuit,le jour)])][@1D]! Dépêchez-vous[@1D]!!",帝国兵自行撤退很有可能是声东击西。[@CR]暂时可以缓和一下警备，不过不能大意。
83,おーい！　みんな、喜べ！！　ガレマール帝国兵が撤退したみたいだぞ！！,"Raise a toast and celebrate, friends! The Garleans have been chased off, tails between their legs!",Heeeeee! Ihr alle! Wir haben sie zurückgedrängt!,Réjouissez-vous tous[@1D]! Les Garlemaldais se sont repliés[@1D]!,帝国兵自行撤退很有可能是声东击西。[@CR]暂时可以缓和一下警备，不过不能大意。
84,グリダニアに向かって進軍してた[@CR]ガレマール帝国兵は、撤退したみたいだぞ。[@CR]今回は、かなり危なくて、ヒヤッとしたけど、これで一安心だな。,"The Garlean forces've been driven off! It was touch and go for a while, aye, but in the end the day was ours.","Die Garlear sind zurückgeschlagen! Es war um Haaresbreite, aber wir haben sie fertiggemacht, diese Dreckskerle! Mit eingekniffenem Schwanz sind sie davongerannt!",L'armée impériale qui marchait sur Gridania s'est repliée[@1D]! On l'a échappé belle[@1D]!,帝国兵自行撤退很有可能是声东击西。[@CR]暂时可以缓和一下警备，不过不能大意。
85,もちろん！　多くの勇士が駆けつけてくれて、[@CR]ガレマール帝国兵を完全に撃退してくれたそうだ。[@CR]かなりの激戦で、被害も多いらしいけど、グリダニアが無事でなによりだね。,"Ye bet yer velvet breeches! A brave band of adventurers made them turn tail and flee, and gave chase to the stragglers for good measure. It was hard fought, though, I'll make no bones about it─many of ours were badly hurt.","Da kannst du aber dein Hemd drauf wetten, [@IF($E9(4),Schätzchen,Freund)]! Eine Horde Abenteurer hat ihnen die Hölle heiß gemacht, verdammt, das war vielleicht ein Anblick! Aber wir haben auch große Verluste einstecken müssen, leider.","Des aventuriers courageux sont venus à la rescousse et les ont repoussés. La bataille a été terrible et il y a de nombreux blessés, mais Gridania est saine et sauve[@1D]!",帝国兵自行撤退很有可能是声东击西。[@CR]暂时可以缓和一下警备，不过不能大意。
86,駆けつけてくれた勇士のおかげで、ガレマール帝国兵は排除できた。[@CR]でも、いつまた帝国がグリダニアを狙ってくるか、わからない。[@CR]今まで以上に、警戒しておかないとね！,"We outfought the Garleans today, but we can't be thinkin' the war's over. The imperials may attack at any time, and we needs be ready when they do!","Heute haben wir gesiegt - nächstes Mal sind [@1A(1)]wir[@1A(0)] vielleicht die, die ins Gras beißen. Der Krieg geht weiter und wer weiß, wann sie ihre gierigen Finger wieder nach Gridania ausstrecken.","Grâce à l'aide de courageux combattants, les Impériaux ont été repoussés, mais la trêve sera cer[@16]tai[@16]ne[@16]ment de courte durée. Ils reviendront sûrement à l'attaque de Gridania.",帝国兵自行撤退很有可能是声东击西。[@CR]暂时可以缓和一下警备，不过不能大意。
87,おーい！　みんな、もう大丈夫だ！　ガレマール帝国兵が撤退したらしいぞ！,"Raise a toast and celebrate, friends! The Garleans have withdrawn and the threat is lifted!",Feiert! Jubelt! Die garleischen Hunde sind weg!,"Bonne nouvelle, tout le monde[@1D]! Les Impériaux sont partis[@1D]!",帝国兵自行撤退很有可能是声东击西。[@CR]暂时可以缓和一下警备，不过不能大意。
88,ガレマール帝国兵の方から、撤退していったらしいんだ。[@CR]とにかく、グリダニアが攻め込まれずに済んで、なによりだね。,"The Garlean army stopped the march and fell back to whatever hellhole they'd crawled out of. Gridania's safe, leastways for now.","Wir haben sie bremsen können, wir haben sie in die Hölle zurück[@16]geschickt, aus der sie gekrochen sind! Gridania ist in Sicherheit! Hoch lebe Gridania!","Nous ignorons pourquoi, mais les Garlemaldais se sont repliés. Gridania est saine et sauve[@1D]!",帝国兵自行撤退很有可能是声东击西。[@CR]暂时可以缓和一下警备，不过不能大意。
89,諸手を挙げての勝利……って感じじゃないようだ。[@CR]多くの勇士が加勢してくれたけど、帝国軍に押され気味だったらしい。[@CR]向こうから退いてくれて、命拾いしたってところだね。,"I'm not sure I'd call it a real victory, not as such. A lot of brave adventurers fought in the battle, but they never stood a chance from the first─the imperials were too many. It looked like we were done for.","Sie haben sich zwar zurückgezogen, aber es kommt mir fast so vor, als ob das gar nicht an uns gelegen hätte. Die Garlear waren von Anfang an hoch überlegen und es sah schlecht für uns aus - bis sich das Blatt auf einmal wendete.","Ils sont partis alors qu'ils avaient l'avantage sur les aventuriers qui les combattaient. C'est étrange, non[@1D]?",帝国兵自行撤退很有可能是声东击西。[@CR]暂时可以缓和一下警备，不过不能大意。
90,帝国兵が自ら撤退してったってことは、[@CR]もしかすると、陽動が目的だったのかもしれないよ。[@CR]今まで以上に、警戒しておかないとね！,"The imperials up and withdrew on their own accord―we sure as hells didn't drive 'em back. Makes me think this was just a diversion. Ye know, so they can catch us nappin' elsewhere. And if I'm right, we'd best be stayin' on high alert.","Sie haben sich genauso plötzlich wie grundlos zurückgezogen ... aber das alles sieht verdächtig nach einer Falle aus. Ein Ablenkungsmanöver vielleicht, oder weiß der Kapgeier, was sie sonst vorhaben.[@CR]Wir bleiben besser wachsam, wenn wir den Perlenklee nicht von unten betrachten wollen!","Les Impériaux se sont retirés alors qu'ils avaient l'avantage. Peut-être que tout ceci n'était qu'une diversion, mais il vaut mieux rester sur ses gardes.",帝国兵自行撤退很有可能是声东击西。[@CR]暂时可以缓和一下警备，不过不能大意。
91,注目！　またしても、ガレマール帝国兵が現れたぞ！,Grave tidings! The imperial bastards have come to plague us again!,Seid auf der Hut! Die Garlear sind doch wieder da!,"Mauvaise nouvelle, tout le monde, ces scélérats d'Impériaux sont de retour[@1D]!",帝国兵自行撤退很有可能是声东击西。[@CR]暂时可以缓和一下警备，不过不能大意。
92,おのれ、こしゃくな！[@CR]またしても、ガレマール帝国兵が現れおった。[@CR]今回は、ウルダハを強襲するつもりらしい。,"Twelve take the accursed Garleans! They're back, and in greater force than before! And this time, they mean to take Ul'dah!","Mögen die Zwölf die garleischen Hunde vernichten! Sie sind zurück - mit mehr Männern als je zuvor, und sie wollen Ul'dah einnehmen!",Ces maudits Garlemaldais sont dans la région[@1D]! Et ils ont l'air de vouloir attaquer Ul'dah[@1D]!,帝国兵自行撤退很有可能是声东击西。[@CR]暂时可以缓和一下警备，不过不能大意。
93,荒野に見渡す限り、兵がひしめいていたというから、相当な数だろう。[@CR]戦況は、極めて不利……。だが、敵の突破を許せば、被害は甚大。[@CR]武器を持つ者なら、何をおいても戦場へ駆けつけよ！,"Their host stretches across the wilderness from one horizon to another―we tried to count them, but there were too many... It's not to our advantage to meet them on open ground, but we have little choice, and I know that any adventurer with even a [@1A(1)]thimble[@1A(0)] of honor won't hesitate to rush to the nation's defense.","Soweit man den Blick schweifen lässt, nur garleische Soldaten - wir konnten sie gar nicht zählen, so viele waren es. Wenn wir uns ihnen auf offenem Feld stellen, haben wir kaum Chancen. Aber ihnen den ersten Schlag zu überlassen, wäre ein großer Fehler!","Leur armée s'étend d'un bout à l'autre de l'horizon dans le désert, la situation est critique. Les attaquer de front n'est pas à notre avantage, mais nous n'avons pas d'autre choix si nous voulons éviter la dévastation de la Cité. Espérons que tous les aventuriers ayant un peu d'honneur se joindront à nous[@1D]!",帝国兵自行撤退很有可能是声东击西。[@CR]暂时可以缓和一下警备，不过不能大意。
94,任務遂行のためなら、[@CR]死をも恐れぬ気概の兵だという。忠誠心こそ、最も恐るべき武器なり。[@CR]われらも、決死の覚悟をもって、都市を守らねばならん！,"The Garleans are armed with mighty weapons and a fanatical sense of loyalty. I would say the latter is more fearsome of the two, but it is something we can match. Whoever faces them must be prepared to die for the sake of the nation!",Sie sind mit ihren Magitek-Waffen sehr gut gerüstet. Aber ihre stärkste Waffe ist wahrscheinlich ihre fanatische Loyalität dem Kaiserreich gegenüber. Dem können wir nur mit einem mindestens ebenso großen Einsatz für unsere Heimat begegnen! Kämpfen wir für die Zukunft!,"Les soldats impériaux sont lourdement armés, mais c'est leur fanatisme qui les rend dangereux. Ceux qui les affronteront doivent être prêts à mourir pour notre nation[@1D]!",帝国兵自行撤退很有可能是声东击西。[@CR]暂时可以缓和一下警备，不过不能大意。
95,ウルダハ北方より都市を目指して、進軍している。[@CR]今頃はもう、「アラグ星道」に到達しているやもしれぬ。[@CR]敵を迎え撃つ気概を持つならば、急ぎ「アラグ星道」を北上せよ。,"They are marching on Ul'dah from the north, and may well be closing on the Royal Starway by now. That's where you need to be if you mean to meet the host and strike a blow against the Empire!","Sie marschieren von Norden her auf Ul'dah zu. Vielleicht sind sie sogar schon auf dem Allagischen Sternenweg. Wenn wir sie aufhalten wollen, müssen wir ihnen entgegenrennen!","Ils marchent sur Ul'dah par le nord, et ont pro[@16]ba[@16]ble[@16]ment atteint la voie royale des Etoiles à l'heure qu'il est. C'est là que vous devez aller si vous avez l'intention de participer à notre défense.",帝国兵自行撤退很有可能是声东击西。[@CR]暂时可以缓和一下警备，不过不能大意。
96,緊急事態発生！　ガレマール帝国軍を確認！ 勇なき者は避難を！　勇ある者は加勢を！　,Emergency! Emergency! Imperial presence detected!,"Alarm! Alarm! Die Garlear sind hier! Rette sich, wer kann! Und irgendwer rette uns!","Aux armes, aux armes[@1D]! Les Garlemaldais sont proches[@1D]! Que les lâches se replient et que les braves se joignent au combat[@1D]!",帝国兵自行撤退很有可能是声东击西。[@CR]暂时可以缓和一下警备，不过不能大意。
97,緊急事態発生よ！[@CR]ガレマール帝国軍を確認！[@CR]ウルダハを強襲する可能性が高いわ！　速やかに迎撃態勢に入って！,An imperial presence has been detected in the vicinity! Sound the alarum! To arms! To arms!,"Jetzt ist es wirklich passiert. Die Garlear sind zurück, sie sind ganz in der Nähe! Zu den Waffen!","Les Impériaux se rapprochent d'Ul'dah, nous avons déclaré l'état d'urgence[@1D]!",帝国兵自行撤退很有可能是声东击西。[@CR]暂时可以缓和一下警备，不过不能大意。
98,詳細までは把握できなかったが、[@CR]目視にて、相当数の兵がひしめくのを確認したわ。[@CR]敵を迎え撃つには、こちらも、相当な数の兵をかき集めなければ！,"It is difficult to say, but the imperial troopers seem to be everywhere. It is a sizeable force, and we must mobilize quickly and meet it in numbers!","Wir können es nicht genau sagen, sie sind überall und nirgendwo, aufgeteilt auf ein weites Gebiet und geschickt verborgen. Dass sie in der Überzahl sind, hatten wir schon geahnt, doch mit Schrecken wurde uns nun das volle Ausmaß ihrer Überlegenheit klar. Wir müssen uns bereithalten und ihr Vordringen um jeden Preis verhindern.","C'est difficile à dire, mais les troupes impériales semblent être partout[@1D]! Nous devons absolument nous regrouper pour les affronter[@1D]!",帝国兵自行撤退很有可能是声东击西。[@CR]暂时可以缓和一下警备，不过不能大意。
99,帝国兵の装備が優れているのは、周知のとおり。[@CR]加えて、あの兵数では、こちらも数をそろえなければ、苦戦は必至。[@CR]あなたにも、ぜひ討伐の応援を要請したいわ。,"More alarming, though, is the size of their host. They have us outnumbered, and handily. It will be a hard fight, even if all who can wield a weapon are marshaled to our cause.","Die Garlear sind mit modernsten Waffen und Rüstungen ausgestattet, das weiß jeder. Und dann noch in dieser Truppenstärke ... Es wird ein wirklich harter Kampf werden, und sein Ausgang ist ungewiss. ","Ils sont lourdement armés, comme d'habitude, mais cette fois-ci, ils ont plus de soldats[@1D]! Il est impératif que tous ceux capables de tenir une arme viennent se joindre à nous[@1D]!",帝国兵自行撤退很有可能是声东击西。[@CR]暂时可以缓和一下警备，不过不能大意。
100,北ザナラーンの方から攻め込んできていたわ。[@CR]今頃はもう、「アラグ星道」に到達しているかもしれない。[@CR]これ以上、ウルダハへ近づけるわけにはいかない。敵を食い止めなければ。,"They are attacking from northern Thanalan and may well have reached the Royal Starway by now. They cannot be allowed to get any closer to Ul'dah―we must stop them, and soon.","Sie greifen von Nord-Thanalan her an. Wenn sie mit unvermindertem Tempo vorgerückt sind, müssten sie jetzt schon auf dem Allagischen Sternenweg sein. Wir dürfen sie nicht näher an Ul'dah herankommen lassen.","Ils arrivent du Thanalan septentrional, et ont sûrement déjà atteint la voie royale des Etoiles. Nous ne pouvons pas les laisser s'approcher d'Ul'dah plus avant[@1D]!",帝国兵自行撤退很有可能是声东击西。[@CR]暂时可以缓和一下警备，不过不能大意。
101,帝国兵、撤退！　帝国兵、撤退！　……緊急警戒態勢を解除してもいいわよ。,"The Empire has withdrawn! I repeat, the Empire has withdrawn! You may go about your business as usual!",Die Garlear haben sich zurückgezogen! Endlich kann der Alltag wieder einkehren.,Les Garlemaldais ont battu en retraite[@1D]! Victoire[@1D]! L'état d'urgence a été levé[@1D]!,帝国兵自行撤退很有可能是声东击西。[@CR]暂时可以缓和一下警备，不过不能大意。
102,ガレマール帝国兵の完全撤退を確認。[@CR]おかげで、警戒態勢は解かれた。,The Empire has withdrawn from the area. Feel free to go about your business.,Die garleischen Truppen konnten zurückgedrängt werden. Wir können wieder normal und ohne Angst leben.,Nous avons forcé les Impériaux à battre en retraite. L'état d'urgence est enfin levé.,帝国兵自行撤退很有可能是声东击西。[@CR]暂时可以缓和一下警备，不过不能大意。
103,危険を顧みず、参じてくれた勇士の活躍により、帝国兵は撤退した。[@CR]しかし、広範囲にわたる激戦で、こちらの被害も少なくないという。[@CR]次なる攻撃に備え、態勢の立て直しを急がねば。,"Our brave adventurers threw themselves into the fray, with little thought for their own safety. The fierce battle raged across a broad front, and many of our champions suffered grievous wounds. But now is not the time for self[@1F]congratulation. Our priority is to regroup that we might be ready to repel any further act of aggression by the Empire.","Dank einiger mutiger Abenteuer, die sich für uns in die Schlacht geworfen haben, konnten wir den Feind zurückwerfen. Doch der Kampf auf offenem Feld hat auch auf unserer Seite viele Opfer gefordert. Wir müssen zusehen, dass wir unsere Reihen schnell wieder ordnen und uns bereit machen.","De nombreux volontaires ont participé à la bataille, et les soldats de l'Empire ont pu être repoussés. Mais ça n'a pas été sans mal, et il y a eu de nombreuses victimes. Nous n'avons pas le temps de pleurer nos morts, cela dit, la priorité est de se préparer à un nouvel assaut.",帝国兵自行撤退很有可能是声东击西。[@CR]暂时可以缓和一下警备，不过不能大意。
104,勇士の加勢により、ガレマール帝国兵は排除できた。[@CR]が、疲弊しているこの瞬間を狙い、再び敵が仕掛けてくる可能性がある。[@CR]これ以上、敵軍の侵入を許すわけにはいかない。,"We bested the Empire this day, true, yet it is far too early for celebration. Mark my words, the Empire will be at our throats the instant they see us relax our vigil. We must not allow ourselves to grow complacent.","Mit gemeinsamen Kräften haben wir zwar vorerst einen Sieg errungen, doch bei der ersten Gelegenheit, da wir ihnen eine Schwachstelle bieten, werden sie gnadenlos angreifen. Wir dürfen nicht zulassen, dass sie noch weiter vorrücken!","Les Impériaux se sont repliés aujourd'hui, mais nous avons simplement gagné une bataille, pas la guerre. Ils reviendront...",帝国兵自行撤退很有可能是声东击西。[@CR]暂时可以缓和一下警备，不过不能大意。
105,帝国兵、撤退！　帝国兵、撤退！　付近の当面の安全は確保された！,The Empire has withdrawn! The Empire has withdrawn! The area is now secure!,"Die Garlear haben sich zurückgezogen, die Gegend ist wieder sicher!",Les Garlemaldais se sont repliés[@1D]! Ils ont quitté la région[@1D]!,帝国兵自行撤退很有可能是声东击西。[@CR]暂时可以缓和一下警备，不过不能大意。
106,ガレマール帝国兵が、突然、撤退した。[@CR]敵が優勢だっただけに、命拾いしたわ。,"Right in the heat of battle, the imperial troopers shouldered arms and withdrew. They clearly held the winning hand, but they threw it on the table before it was played.","Mitten im Gefecht haben die Garlear plötzlich ihre Waffen eingesteckt und sich zurückgezogen. Und das, obwohl sie die Oberhand hatten. Wissen die Zwölf, was sie damit bezwecken ...","Les troupes impériales se sont repliées sou[@16]dai[@16]ne[@16]ment alors qu'elles avaient l'avantage. Leur conduite est inexplicable, mais pour l'instant, je suis juste soulagée d'en être débarrassée.",帝国兵自行撤退很有可能是声东击西。[@CR]暂时可以缓和一下警备，不过不能大意。
107,勝利とは言いがたいわ。[@CR]勇士の加勢虚しく、敗色が濃くなり始めた矢先に[@CR]帝国兵の方から退いていったらしい。敵の真意が気になるところね。,"We survived, aye, but I would not call it “victory.” We did not have enough defenders, and our lines were close to breaking―and would have, if the foes had not turned and fled at their moment of triumph.","Gewonnen haben wir zwar, aber es war ein geschenkter Sieg. Obwohl wir kurz vor dem Zusammenbruch waren, hat der Feind plötzlich das Schlachtfeld verlassen. Wie seltsam.","Les Impériaux sont partis, mais on peut dif[@16]fi[@16]ci[@16]le[@16]ment appeler ça une victoire. Ils avaient clairement l'avantage, malgré le courage des volontaires qui participaient à la défense de la région. Ils se sont repliés alors même qu'ils étaient sur le point de vaincre. Leur attitude est incom[@16]pré[@16]hen[@16]si[@16]ble... Quel était leur véritable but[@1D]?",帝国兵自行撤退很有可能是声东击西。[@CR]暂时可以缓和一下警备，不过不能大意。
108,帝国兵が、自ら撤退したところを見ると、[@CR]その目的は、陽動の可能性が高い。ならば、正念場はこれからだ。[@CR]これ以上、敵軍の侵入を許すわけにはいかない。,"The Garleans withdrew of their own volition, this much is plain. Whether it was simply a diversionary tactic or a prelude to something more sinister, all we can do now is prepare for whatever else the Empire might be plotting.","Tja, wenn man bedenkt, dass die Garlear aus freien Stücken gewählt haben, abzurücken, kann man das nur als Ablenkungsmanöver interpretieren. Das bedeutet, dass sie zum eigentlichen Schlag wohl erst ausholen werden.[@CR]Wissen die Zwölf, was da auf uns zukommen mag ... Wir müssen zuschlagen, bevor sie es tun.","Les Garlemaldais ne sont pas partis parce qu'ils perdaient, bien au contraire. Je commence à croire que leur attaque n'était en fait qu'une diversion, ou le prélude de quelque chose de bien plus sinistre. Tout ce que nous pouvons faire maintenant, c'est de nous préparer à leur prochaine attaque...",帝国兵自行撤退很有可能是声东击西。[@CR]暂时可以缓和一下警备，不过不能大意。
