 ,0,1,2,3,4
 ,str,str,str,str,str
1,リムサ・ロミンサという名の広い海原を巡る[@CR]潮の流れ……「都市転送網」のご利用を受け付けます。,"Like a hidden web of ceaseless currents, the aethernet nourishes the broad sea that is Limsa Lominsa.","Willkommen, [@IF($E9(4),Abenteurerin,Abenteurer)]. Möchtest du das limsische Ätheryten-Netz verwenden?","Bonjour[@1D]! Bienvenue au réseau urbain de transport éthéré, qui vous emmènera tel un courant qui traverse l'océan qu'est Limsa Lominsa.",
2,それでは、転送を開始しますね！,May you arrive safely at your destination.,Also gut. Ich aktiviere nun den Teleport ...,"Vous êtes prêt[@IF($E9(4),e,)][@1D]!? J'y vais[@1D]!",
3,"この「都市転送網」は、重要な軍事設備のひとつ。[@CR]「黒渦団」の施設課が、シャーレアンの技術を応用して構築しました。[@CR]ご利用には、「[@SWITCH([@SHEET(itemData,$E8(1),41)],[@COLOR(#fff3f3f3)],[@COLOR(#ffc0ffa0)],[@COLOR(#ff60c8ff)],[@COLOR(#ffb38cff)],[@COLOR(#ffffa666)],[@COLOR(#ffe5dd7e)])][@EDGECOLOR(#ff262626)][@SHEET(xtx/itemName,$E8(1),4)][@EDGECOLOR($EC)][@COLOR($EC)]」が必要になります。","The aethernet is a most important military boon, built by Maelstrom engineers with Sharlayan knowledge. If you wish to sail the aether, you must present [@SWITCH([@SHEET(itemData,$E8(1),41)],[@COLOR(#fff3f3f3)],[@COLOR(#ffc0ffa0)],[@COLOR(#ff60c8ff)],[@COLOR(#ffb38cff)],[@COLOR(#ffffa666)],[@COLOR(#ffe5dd7e)])][@EDGECOLOR(#ff262626)][@SHEETEN(xtx/itemName,1,$E8(1),1,1)][@EDGECOLOR($EC)][@COLOR($EC)].","Das Ätheryten-Netz ist eine wichtige militärische Einrichtung des Mahlstroms. Dank der Technologie aus Sharlayan, die uns die Exegeten zur Verfügung gestellt haben, konnte dieses Teleportsystem errichtet werden.[@CR]Um das Ätheryten-Netz nutzen zu können, benötigst du [@SWITCH([@SHEET(itemData,$E8(1),41)],[@COLOR(#fff3f3f3)],[@COLOR(#ffc0ffa0)],[@COLOR(#ff60c8ff)],[@COLOR(#ffb38cff)],[@COLOR(#ffffa666)],[@COLOR(#ffe5dd7e)])][@EDGECOLOR(#ff262626)][@SHEETDE(xtx/itemName,1,$E8(1),1,4,1)][@EDGECOLOR($EC)][@COLOR($EC)].","Notre réseau urbain de transport éthéré est un important dispositif à usage militaire. L'unité de recherche & technologie du Maelstrom l'a développé en se basant sur une technologie venue de Sharlayan. Pour l'utiliser, vous devez avoir [@SWITCH([@SHEET(itemData,$E8(1),41)],[@COLOR(#fff3f3f3)],[@COLOR(#ffc0ffa0)],[@COLOR(#ff60c8ff)],[@COLOR(#ffb38cff)],[@COLOR(#ffffa666)],[@COLOR(#ffe5dd7e)])][@EDGECOLOR(#ff262626)][@SHEETFR(xtx/itemName,1,$E8(1),1,1)][@EDGECOLOR($EC)][@COLOR($EC)].",
4,ちなみに、そのパスでしたら[@CR]「黒渦団」軍令部にて、ナット甲曹長が軍票と交換していますよ。[@CR]ですが、闇市場にも出回っているようで……嘆かわしく思います。,"These writs of permission are available from Storm Sergeant Grizzly Gnat. He stands on duty in Maelstrom Command, and will furnish you with one in exchange for company seals. Sadly, such is the state of discipline that aetherpasses are also traded on the black market.",Dieses Dokument kannst du dir im Mahlstrom-Flotten[@16]kommando bei Sturmmaat Mücke gegen eine Flottentaler-Gebühr ausstellen lassen.[@CR]Auf dem Schwarzmarkt sollen die Pässe auch erhältlich sein ... bedauerlicherweise.,"Pour obtenir ce passe, vous devez vous adresser au sergent-major Grizzly Gnat qui vous l'échangera contre des sceaux de compagnie. Il paraît aussi qu'on en trouve sur le marché noir. Quelle honte[@1D]!",
5,先ごろ、黒渦団で開発された新技術、そいつがこの兵隊輸送装置だ。[@CR]まだ実験中で動作はちょいと不安定だが、効果のほどは折り紙つき。[@CR]さあさあ、500ギルでどこへでも飛ばしてやるぜ。,"Perhaps you have heard of the technological marvel the Maelstrom has built. Well, this is it: a device for transporting troops in the blinking of an eye. Being a prototype still, it can be unstable at times, but don't let that put you off! No accidents have been reported...yet. Anyroad, it'll be 500 gil if you wish to use it.","Dies ist das brandneue Transportsystem, das der Mahlstrom mit technologischem Know-how aus Sharlayan installiert hat. Allerdings befindet sich das System noch in der Testphase. Eine Gelbjacke ist angeblich beim Transportieren mit einer Kriebelmücke verschmolzen ...[@CR]Haha, nein. Ich mach doch nur Spaß! Für 500 Gil schick ich dich ans andere Ende der Stadt.","Il s'agit d'un dispositif de téléportation développé tout récemment par le Maelstrom. Il est encore en phase de test et pas com[@16]plè[@16]te[@16]ment stable, mais il fonctionne. Pour seulement 500 gils, vous pouvez aller où vous voulez[@1D]!",
6,おうよ、行ってきな。,Off you go then!,Alles klar. Dann wünsche ich eine gute Reise!,"Vous êtes prêt[@IF($E9(4),e,)]... C'est parti[@1D]!",
7,おうおう、タダじゃあ使わせらんねえぜ。,Uh-uh. I'm not running a charity.,Umsonst kann ich dich leider nicht teleportieren lassen. Die Kriegskasse muss schließlich irgendwie gefüllt werden.,"Hé là[@1D]! On ne transporte pas les gens gratuitement, je regrette[@1D]!",
8,兵隊輸送利用許可証がねえ奴には、使わせちゃなんねえ決まりなんだ。[@CR]悪いが出直してくんな。,"Look, if you don't have an aetherpass, you can't use the device. Rules are rules.","Ohne einen gültigen Pass, der dich als Mitglied des Mahlstroms ausweist, kann ich dir die Nutzung des Ätheryten-Netzes nicht gestatten. Das System wurde ja schließlich nicht für Zivilisten errichtet.","Je regrette, mais seules les personnes ayant une au[@16]to[@16]ri[@16]sa[@16]tion en bonne et due forme peuvent utiliser ce dispositif.",
9,グリダニアという名の巨木を支えながらも、潤いを巡らす……[@CR]おおいなる根「都市転送網」をご利用ですか？,"Like roots reaching deep into the soil, the aethernet supports and nourishes the great tree that is Gridania.","Möchtest du das Ätheryten-Netz benutzen, das wie die Wurzeln eines riesigen Baumes unsere Waldstadt durchzieht?","Bienvenue au réseau urbain de transport éthéré, qui parcourt et relie telle une racine l'immense arbre qu'est Gridania. Voulez-vous être téléporté[@IF($E9(4),e,)][@1D]?",
10,ぼちぼち、転送を始めますわ！,Prepare to enter the aether!,Dann wollen wir dich mal durch den Äther jagen ...,"Attention, je vais lancer le processus de transfert.",
11,"この「都市転送網」は、シャーレアンの技術者と[@CR]「双蛇党」青狢隊が協力して構築した重要な設備。[@CR]ご利用には、「[@SWITCH([@SHEET(itemData,$E8(1),41)],[@COLOR(#fff3f3f3)],[@COLOR(#ffc0ffa0)],[@COLOR(#ff60c8ff)],[@COLOR(#ffb38cff)],[@COLOR(#ffffa666)],[@COLOR(#ffe5dd7e)])][@EDGECOLOR(#ff262626)][@SHEET(xtx/itemName,$E8(1),4)][@EDGECOLOR($EC)][@COLOR($EC)]」が必要ですわ。","This device is the fruit of collaboration between Sharlayan science and the industrious men and women of the Blue Badgers. You must present [@SWITCH([@SHEET(itemData,$E8(1),41)],[@COLOR(#fff3f3f3)],[@COLOR(#ffc0ffa0)],[@COLOR(#ff60c8ff)],[@COLOR(#ffb38cff)],[@COLOR(#ffffa666)],[@COLOR(#ffe5dd7e)])][@EDGECOLOR(#ff262626)][@SHEETEN(xtx/itemName,1,$E8(1),1,1)][@EDGECOLOR($EC)][@COLOR($EC)] to use it.","Das Ätheryten-Netz entstand in Zusammenarbeit von Ingenieuren aus Sharlayan, die den Exegeten angehören, und den Blauen Dachsen aus unserer Bruderschaft.[@CR]Wenn du dieses Transportsystem benutzen möchtest, musst du [@SWITCH([@SHEET(itemData,$E8(1),41)],[@COLOR(#fff3f3f3)],[@COLOR(#ffc0ffa0)],[@COLOR(#ff60c8ff)],[@COLOR(#ffb38cff)],[@COLOR(#ffffa666)],[@COLOR(#ffe5dd7e)])][@EDGECOLOR(#ff262626)][@SHEETDE(xtx/itemName,1,$E8(1),1,4,1)][@EDGECOLOR($EC)][@COLOR($EC)] vorweisen.","Notre réseau a été développé par des techniciens sharlayanais en col[@16]la[@16]bo[@16]ra[@16]tion avec l'escadron des Blaireaux bleus. C'est un important dispositif à usage militaire. Pour l'utiliser, vous devez avoir [@SWITCH([@SHEET(itemData,$E8(1),41)],[@COLOR(#fff3f3f3)],[@COLOR(#ffc0ffa0)],[@COLOR(#ff60c8ff)],[@COLOR(#ffb38cff)],[@COLOR(#ffffa666)],[@COLOR(#ffe5dd7e)])][@EDGECOLOR(#ff262626)][@SHEETFR(xtx/itemName,1,$E8(1),1,1)][@EDGECOLOR($EC)][@COLOR($EC)].",
12,そのパスは、「双蛇党」統合司令部にて[@CR]オルテル牙曹長が軍票と交換してますわ。ただ……[@CR]許可証の不正取引が後を絶たず、てんやわんやですわ。,"These writs of permission can be obtained in exchange for company seals from Serpent Sergeant Haurtelle in the Adders' Nest. Unfortunately, they have somehow found their way to the black market. We have no idea how many there are in circulation.","Dieses Dokument kannst du dir im Abaton der Bruderschaft bei der Ersten Schlangenjüngerin Sorainne ausstellen lassen.[@CR]Ein paar Ordenstaler wird die bequeme Art zu Reisen ja sicherlich wert sein. Leider kursieren die Pässe inzwischen auch schon auf dem Schwarzmarkt ... Na, das braucht dich nicht zu kümmern.","Pour obtenir ce passe, vous devez vous adresser au sergent-major Sorainne Haurtelle qui vous l'échangera contre des sceaux de compagnie. On raconte aussi que certains s'en procurent par des moyens bien moins honorables... Quelle honte[@1D]!",
13,このたび、双蛇党では兵隊輸送装置なるものを開発いたしました。[@CR]まだまだ動作が不安定なので、実験的に配備している段階ですが、[@CR]500ギルいただければご利用いただけますよ。,"The Order of the Twin Adder has built a contraption to transport its troops. Is it working perfectly? Well, no, not yet. But it will take you where you need to go. With all your appendages intact. For a price. That is, 500 gil.","Diese Anlage wurde von der Bruderschaft der Morgenviper mit technologischem Know-how aus Sharlayan errichtet, um eine schnellst[@16]mögliche Truppenaufstellung im Falle einer Belagerung zu gewährleisten.[@CR]Das Transportsystem befindet sich noch in der Testphase, aber gegen eine Gebühr von 500 Gil kannst du gerne aktiv als Ver[@16]suchs[@16]ka[@16]nin[@16]chen an dessen Verbesserung mitwirken.","Notre réseau de téléportation a été développé tout récemment par les Immortels. Il est encore en phase expérimentale et a été ouvert à titre de test. Pour seulement 500 gils, vous pouvez l'utiliser.",
14,いってらっしゃいまし。,Good luck to you.,Viel Glück. Und tschüss ...,A bientôt[@1D]!,
15,失礼ですが、お足が足りないようですね。,Can't pay your way? Then here you stay.,Umsonst kann ich dich leider nicht teleportieren lassen. Die Kriegskasse muss schließlich irgendwie gefüllt werden.,"Je regrette, mais on dirait que vous n'avez pas les fonds nécessaires.",
16,兵隊輸送利用許可証のない方にはご利用いただけません。[@CR]申し訳ありませんが、お引き取りください。,Everyone needs an aetherpass to travel the aethernet─that includes you. I'm going to have to ask you to move along.,"Ohne einen gültigen Pass, der dich als Mitglied der Bruderschaft ausweist, kann ich dir die Nutzung des Ätheryten-Netzes nicht gestatten. Das System wurde ja schließlich nicht für Zivilisten errichtet.","Je regrette, mais seules les personnes ayant une au[@16]to[@16]ri[@16]sa[@16]tion en bonne et due forme peuvent utiliser ce dispositif.",
17,ウルダハにみなぎる、富と情報が流れる動脈……[@CR]「都市転送網」を利用したいとおっしゃいますのね？,"Like veins nourishing our flesh with lifeblood, the aethernet bears wealth and knowledge to all corners of Ul'dah.","Genauso, wie Informationen und Devisen durch unsere Han[@16]dels[@16]me[@16]tro[@16]po[@16]le fließen, durchzieht auch das Äther-Netz unsere Stadt.[@CR]Möchtest du dich teleportieren lassen?","Souhaitez-vous utiliser le réseau urbain de transport éthéré, qui vous transportera partout dans Ul'dah, telle une artère parcourant la Cité de l'abondance et de la con[@16]nais[@16]san[@16]ce[@1D]?",
18,早速、転送を開始いたします。,Prepare to fly the aether.,Verstanden. Dann leite ich ohne weitere Umschweife den Teleport ein.,"Attention, je vais lancer le processus de transfert.",
19,"こちらの「都市転送網」は、シャーレアンの技術を利用して[@CR]「不滅隊」工兵大隊が設置した……重要な軍事設備ですの。[@CR]ご利用でしたら「[@SWITCH([@SHEET(itemData,$E8(1),41)],[@COLOR(#fff3f3f3)],[@COLOR(#ffc0ffa0)],[@COLOR(#ff60c8ff)],[@COLOR(#ffb38cff)],[@COLOR(#ffffa666)],[@COLOR(#ffe5dd7e)])][@EDGECOLOR(#ff262626)][@SHEET(xtx/itemName,$E8(1),4)][@EDGECOLOR($EC)][@COLOR($EC)]」をご提示くださいませ。","The aethernet was built by Immortal Flames engineers with the guidance of Sharlayan science. It plays a vital role in the nation's defense, and you will need [@SWITCH([@SHEET(itemData,$E8(1),41)],[@COLOR(#fff3f3f3)],[@COLOR(#ffc0ffa0)],[@COLOR(#ff60c8ff)],[@COLOR(#ffb38cff)],[@COLOR(#ffffa666)],[@COLOR(#ffe5dd7e)])][@EDGECOLOR(#ff262626)][@SHEETEN(xtx/itemName,1,$E8(1),1,1)][@EDGECOLOR($EC)][@COLOR($EC)] if you wish to use it.","Dank der Technologie, die uns die Exegeten zur Verfügung gestellt haben, konnten die Pioniere der Legion das Ätheryten-Netz in Ul'dah errichten.[@CR]Wenn du diese militärische Einrichtung benutzen möchtest, dann musst du [@SWITCH([@SHEET(itemData,$E8(1),41)],[@COLOR(#fff3f3f3)],[@COLOR(#ffc0ffa0)],[@COLOR(#ff60c8ff)],[@COLOR(#ffb38cff)],[@COLOR(#ffffa666)],[@COLOR(#ffe5dd7e)])][@EDGECOLOR(#ff262626)][@SHEETDE(xtx/itemName,1,$E8(1),1,4,1)][@EDGECOLOR($EC)][@COLOR($EC)] vorzeigen.","Notre réseau a été développé par des techniciens sharlayanais en col[@16]la[@16]bo[@16]ra[@16]tion avec la division d'ingénierie des Immortels. C'est un important dispositif à usage militaire. Pour l'utiliser, vous devez avoir [@SWITCH([@SHEET(itemData,$E8(1),41)],[@COLOR(#fff3f3f3)],[@COLOR(#ffc0ffa0)],[@COLOR(#ff60c8ff)],[@COLOR(#ffb38cff)],[@COLOR(#ffffa666)],[@COLOR(#ffe5dd7e)])][@EDGECOLOR(#ff262626)][@SHEETFR(xtx/itemName,1,$E8(1),1,1)][@EDGECOLOR($EC)][@COLOR($EC)].",
20,問題のパスでしたら、「不滅隊」作戦本部にて[@CR]ラツ闘曹長が、軍票と交換していますわ。ですが、価値ある特権のため[@CR]闇市場に流れているようで……目を光らせてはいますが、追いつきませんの。,"These writs of permission may be obtained from Flame Sergeant Rahz at the Hall of Flames in exchange for company seals. Regrettably, the high demand for passes has led to their being traded on the black market. There is precious little we can do to stop it.","Das Dokument erhältst du in der Ewigen Halle, bei der Legionsgefreiten 1. Klasse U'sanzi Benha. Die geringe Gebühr in Form von Legionstalern sollte dir deine Bequemlichkeit schon wert sein.[@CR]Auf dem Schwarzmarkt sollen die Pässe auch schon im Umlauf sein, aber in einer Stadt wie Ul'dah war das ja nicht anders zu erwarten ...","Pour obtenir ce passe, vous devez vous adresser au sergent-major U'sanzi Rahz qui vous l'échangera contre des sceaux de compagnie. On raconte aussi qu'il en circule sur le marché noir... comme beaucoup d'objets qui font la convoitise des personnes mal in[@16]ten[@16]tion[@16]nées.",
21,不滅隊のびっくりどっきり新技術、兵隊輸送装置のご紹介ね！[@CR]効果はテキメン、都市の中をひとっとび！[@CR]お代はたったの500ギルよ！　さあ払うね！,The newfangled doodah before you was built by Immortal Flames scholarlies. It can teleport you to any corner of the city quicker than you can say “Bahamut's backside”...and all for the bargain price of 500 gil!,Dem Pionier-Korps der Legion ist dank neuster technologischer Erkenntnisse aus Sharlayan die Errichtung eines neuen Transportsystems gelungen![@CR]Für nur 500 Gil kannst du dich durch das Ätheryten-Netz in Nullkommanichts zum anderen Ende der Stadt teleportieren lassen.,"Bienvenue au réseau urbain de transport éthéré d'Ul'dah[@1D]! Un moyen de transport à couper le souffle[@1D]: vous fermez les yeux, et pouf, vous êtes arrivé[@IF($E9(4),e,)] à destination[@1D]! Tout ça pour seulement 500 gils[@1D]!",
22,飛んでけー！　ぴゅうっ！,Fly like the wind!,Dann aktiviere ich sogleich den Teleport.,"Et une, et deux, et troiiiis[@1D]! Pouf[@1D]!",
23,バハムートの機嫌も金次第！[@CR]貧乏人は歩くといいね！,"Bahamut can't live on good wishes and a smile, so why should I? Beggars can walk.","Umsonst ist in Ul'dah nicht einmal der Tod![@CR]Wer nicht bezahlen kann, der läuft.","Je regrette, mais pas de gils, pas de téléportation[@1D]! Marchez, ça vous fera les pieds[@1D]!",
24,兵隊輸送利用許可証ない人は、さよならお断り！[@CR]残念無念！　とっとと帰りゃんせよ！,"You don't have permission, so it's no use begging. Go, begone with you!","Ohne einen gültigen Pass, der dich als Mitglied der Legion ausweist, kann ich dir die Nutzung des Ätheryten-Netzes nicht gestatten. Das System wurde ja schließlich nicht für Zivilisten errichtet.","Pas de passe, pas de téléportation[@1D]! Revenez quand vous en aurez un, et en attendant, marchez, ça vous fera les pieds[@1D]!",
25,リムサ・ロミンサという名の広い海原を巡る[@CR]潮の流れ……「都市転送網」のご利用を受け付けるであります！,"Like a hidden web of ceaseless currents, the aethernet nourishes the roiling sea that is Limsa Lominsa.","Das Ätheryten-Netz durchzieht unsere Meeres[@16]metro[@16]pole wie die Reusen von Wawalagos Fischern die Galadion-Bucht.[@CR]Wenn du dich zum anderen Ende der Stadt teleportieren lassen möchtest, brauchst du es nur zu sagen.","Bonjour[@1D]! Bienvenue au réseau urbain de transport éthéré, qui vous emmènera tel un courant qui traverse l'océan qu'est Limsa Lominsa.",
26,転送開始であります！,May the aether fill your sails!,Und ab geht die Post!,Téléportation en cours[@1D]!,
27,"こちらの「都市転送網」を利用するには[@CR]「[@SWITCH([@SHEET(itemData,$E8(1),41)],[@COLOR(#fff3f3f3)],[@COLOR(#ffc0ffa0)],[@COLOR(#ff60c8ff)],[@COLOR(#ffb38cff)],[@COLOR(#ffffa666)],[@COLOR(#ffe5dd7e)])][@EDGECOLOR(#ff262626)][@SHEET(xtx/itemName,$E8(1),4)][@EDGECOLOR($EC)][@COLOR($EC)]」の携帯が必須であります。[@CR]非常時に兵を即時、展開するために構築された転送網であるからです。","The aethernet was created first and foremost for the swift conveyance of soldiers in times of peril. You need to present a writ of permission called [@SWITCH([@SHEET(itemData,$E8(1),41)],[@COLOR(#fff3f3f3)],[@COLOR(#ffc0ffa0)],[@COLOR(#ff60c8ff)],[@COLOR(#ffb38cff)],[@COLOR(#ffffa666)],[@COLOR(#ffe5dd7e)])][@EDGECOLOR(#ff262626)][@SHEETEN(xtx/itemName,1,$E8(1),1,1)][@EDGECOLOR($EC)][@COLOR($EC)] if you wish to use it.","Du kannst das Ätheryten-Netz nur benutzen, wenn du [@SWITCH([@SHEET(itemData,$E8(1),41)],[@COLOR(#fff3f3f3)],[@COLOR(#ffc0ffa0)],[@COLOR(#ff60c8ff)],[@COLOR(#ffb38cff)],[@COLOR(#ffffa666)],[@COLOR(#ffe5dd7e)])][@EDGECOLOR(#ff262626)][@SHEETDE(xtx/itemName,1,$E8(1),1,4,1)][@EDGECOLOR($EC)][@COLOR($EC)] mit dir führst.[@CR]Schließlich wurde dieses Transportsystem für Gelbjacken errichtet, falls die Garlear unsere Stadt direkt attackieren sollten.","Pour utiliser le réseau urbain de transport éthéré, vous devez être en possession d'[@SWITCH([@SHEET(itemData,$E8(1),41)],[@COLOR(#fff3f3f3)],[@COLOR(#ffc0ffa0)],[@COLOR(#ff60c8ff)],[@COLOR(#ffb38cff)],[@COLOR(#ffffa666)],[@COLOR(#ffe5dd7e)])][@EDGECOLOR(#ff262626)][@SHEETFR(xtx/itemName,1,$E8(1),1,1)][@EDGECOLOR($EC)][@COLOR($EC)]. Sachez qu'il a été conçu pour permettre de déployer nos unités en urgence à tout moment.",
28,そのパスは、「黒渦団」軍令部にて[@CR]ナット甲曹長が軍票と交換しているであります。[@CR]しかし、昨今、闇市場へ横流しする不遜な輩もいるようで……,"Aetherpasses can be obtained from Storm Sergeant Grizzly Gnat at Maelstrom Command in exchange for company seals. But I hear grasping scoundrels also sell them on the black market, damn their hides.","Das notwendige Dokument kannst du dir bei Sturmmaat Mücke im Mahlstrom-Flotten[@16]kommando ausstellen lassen. Ein paar Flottentaler kostet die Bequemlichkeit halt.[@CR]Gerüchten zufolge sind die Pässe auch schon auf dem Schwarzmarkt erhältlich. Na ja, bei all den Piraten im Mahlstrom hab ich ehrlich gesagt auch nichts anderes erwartet ...","Pour obtenir ce passe, vous devez vous adresser au sergent-major Grizzly Gnat qui vous l'échangera contre des sceaux de compagnie. Il paraît aussi qu'on en trouve sur le marché noir...",
29,グリダニアという名の巨木を支えながらも、潤いを巡らす……[@CR]おおいなる根「都市転送網」のご利用を受け付けます。,"Like roots reaching deep into the soil, the aethernet supports and nourishes the great tree that is Gridania.","Wenn du das Transportsystem der Bruderschaft der Morgenviper in Anspruch nehmen möchtest, brauchst du es nur zu sagen.","Bienvenue au réseau urbain de transport éthéré, qui parcourt et relie telle une racine l'immense arbre qu'est Gridania. Vous pouvez vous faire téléporter ici.",
30,では、転送を開始します！,Time to fly the aether!,Sehr wohl. Ich aktiviere nun den Teleport ...,"Attention, je vais lancer le processus de transfert.",
31,"「[@SWITCH([@SHEET(itemData,$E8(1),41)],[@COLOR(#fff3f3f3)],[@COLOR(#ffc0ffa0)],[@COLOR(#ff60c8ff)],[@COLOR(#ffb38cff)],[@COLOR(#ffffa666)],[@COLOR(#ffe5dd7e)])][@EDGECOLOR(#ff262626)][@SHEET(xtx/itemName,$E8(1),4)][@EDGECOLOR($EC)][@COLOR($EC)]」をお持ちでない方は[@CR]こちらの「都市転送網」をご利用いただけません。","Anyone who wants to travel the aethernet must have [@SWITCH([@SHEET(itemData,$E8(1),41)],[@COLOR(#fff3f3f3)],[@COLOR(#ffc0ffa0)],[@COLOR(#ff60c8ff)],[@COLOR(#ffb38cff)],[@COLOR(#ffffa666)],[@COLOR(#ffe5dd7e)])][@EDGECOLOR(#ff262626)][@SHEETEN(xtx/itemName,1,$E8(1),1,1)][@EDGECOLOR($EC)][@COLOR($EC)]. No exceptions.","Wenn du dich nicht ausweisen kannst, kann ich dich nicht gewähren lassen.[@CR]Ohne [@SWITCH([@SHEET(itemData,$E8(1),41)],[@COLOR(#fff3f3f3)],[@COLOR(#ffc0ffa0)],[@COLOR(#ff60c8ff)],[@COLOR(#ffb38cff)],[@COLOR(#ffffa666)],[@COLOR(#ffe5dd7e)])][@EDGECOLOR(#ff262626)][@SHEETDE(xtx/itemName,1,$E8(1),1,4,1)][@EDGECOLOR($EC)][@COLOR($EC)] wird hier niemand teleportiert.","Pour utiliser le réseau urbain de transport éthéré, vous devez être en possession d'[@SWITCH([@SHEET(itemData,$E8(1),41)],[@COLOR(#fff3f3f3)],[@COLOR(#ffc0ffa0)],[@COLOR(#ff60c8ff)],[@COLOR(#ffb38cff)],[@COLOR(#ffffa666)],[@COLOR(#ffe5dd7e)])][@EDGECOLOR(#ff262626)][@SHEETFR(xtx/itemName,1,$E8(1),1,1)][@EDGECOLOR($EC)][@COLOR($EC)].",
32,そして、こちらを利用するためのパスは[@CR]「双蛇党」統合司令部にて、軍票を納めることで支給されます。[@CR]ところが最近、パスの不正な取引が増えており、頭を悩ませております。,These writs of permission are distributed at the Adder's Nest in exchange for company seals. But some scoundrels have taken to trading them on the black market. Does their greed know no bounds!?,"Einen Pass, der dich als Mitglied der Bruderschaft ausweist und zur Benutzung berechtigt, kannst du dir gegen ein paar Ordenstaler im Abaton ausstellen lassen.[@CR]Inzwischen sollen die Pässe ja auch schon auf dem Schwarzmarkt erhältlich sein, aber ich hoffe mal, dass das nur ein Gerücht ist.","Pour obtenir ce passe, vous devez vous adresser au sergent-major Sorainne Haurtelle qui vous l'échangera contre des sceaux de compagnie. On raconte aussi que certains s'en procurent par des moyens bien moins honorables... Quelle honte[@1D]!",
33,ウルダハにみなぎる、富と情報が流れる動脈……[@CR]「都市転送網」を、どしどしご利用ください。,"Like veins nourishing our flesh with lifeblood, the aethernet bears wealth and knowledge to all corners of Ul'dah.",Bist du im Auftrag der Sultana unterwegs? Dann empfehle ich die Nutzung des Ätheryten-Netzes.,"Souhaitez-vous utiliser le réseau urbain de transport éthéré, qui vous transportera partout dans Ul'dah, telle une artère parcourant la Cité de l'abondance et de la con[@16]nais[@16]san[@16]ce[@1D]?",
34,さくっと転送……始めます！,I trust you are ready?,"Ehe du dich versiehst, bist du auch schon am Ziel ...","Attention, je vais lancer le processus de transfert.",
35,"「[@SWITCH([@SHEET(itemData,$E8(1),41)],[@COLOR(#fff3f3f3)],[@COLOR(#ffc0ffa0)],[@COLOR(#ff60c8ff)],[@COLOR(#ffb38cff)],[@COLOR(#ffffa666)],[@COLOR(#ffe5dd7e)])][@EDGECOLOR(#ff262626)][@SHEET(xtx/itemName,$E8(1),4)][@EDGECOLOR($EC)][@COLOR($EC)]」がないと……[@CR]こちらの「都市転送網」はご使用いただけません。[@CR]緊急事態に備え、迅速に兵を配備するために用意された転送網なのです。","No [@SWITCH([@SHEET(itemData,$E8(1),41)],[@COLOR(#fff3f3f3)],[@COLOR(#ffc0ffa0)],[@COLOR(#ff60c8ff)],[@COLOR(#ffb38cff)],[@COLOR(#ffffa666)],[@COLOR(#ffe5dd7e)])][@EDGECOLOR(#ff262626)][@SHEETEN(xtx/itemName,3,$E8(1),1,1)][@EDGECOLOR($EC)][@COLOR($EC)]? Then you cannot use the aethernet. It is reserved for emergencies, when we need to move soldiers, and fast.","Hm, ohne [@SWITCH([@SHEET(itemData,$E8(1),41)],[@COLOR(#fff3f3f3)],[@COLOR(#ffc0ffa0)],[@COLOR(#ff60c8ff)],[@COLOR(#ffb38cff)],[@COLOR(#ffffa666)],[@COLOR(#ffe5dd7e)])][@EDGECOLOR(#ff262626)][@SHEETDE(xtx/itemName,1,$E8(1),1,4,1)][@EDGECOLOR($EC)][@COLOR($EC)] kannst du dieses Transportsystem leider nicht benutzen.[@CR]Schließlich handelt es sich um eine militärische Einrichtung zur schnellst[@16]möglichen Mobilmachung der Stadtgarde in Notfällen. Zivilisten ist auch in Friedenszeiten die Nutzung strengstens untersagt.","Pour utiliser le réseau urbain de transport éthéré, vous devez être en possession d'[@SWITCH([@SHEET(itemData,$E8(1),41)],[@COLOR(#fff3f3f3)],[@COLOR(#ffc0ffa0)],[@COLOR(#ff60c8ff)],[@COLOR(#ffb38cff)],[@COLOR(#ffffa666)],[@COLOR(#ffe5dd7e)])][@EDGECOLOR(#ff262626)][@SHEETFR(xtx/itemName,1,$E8(1),1,1)][@EDGECOLOR($EC)][@COLOR($EC)]. Je regrette, mais je ne peux téléporter une personne n'ayant pas ce justificatif. Notre réseau a été conçu pour permettre de déployer nos unités en urgence à tout moment, il ne peut être utilisé à la légère.",
36,パスの支給をお望みなら、「不滅隊」作戦本部にて[@CR]ラツ闘曹長へ軍票を納めてください。パスは貴重品ですから、闇市場でも[@CR]人気沸騰のようで……悪徳商人と「不滅隊」の知恵比べが続いています。,"If you want an aetherpass, go to the Hall of Flames and speak to Flame Sergeant Rahz. It will cost you a payment in company seals. Unfortunately, the passes have become valuable commodities on the black market, and profiteering remains rampant despite our best efforts.","Wenn du dir einen Pass ausstellen lassen möchtest, dann sprich mit U'sanzi in der Ewigen Halle. Gegen ein paar Legionstaler wird sie dir einen ausstellen.[@CR]Auf dem Schwarzmarkt sind die Dokumente auch schon im Umlauf. Aber wir können ja schlecht Händler in Ul'dah verhaften lassen ...","Pour obtenir ce passe, vous devez vous adresser au sergent-major U'sanzi Rahz qui vous l'échangera contre des sceaux de compagnie. On raconte aussi qu'il en circule sur le marché noir... Des escrocs croient toujours pouvoir s'en tirer à bon compte avec ce genre de contrebande honteuse[@1D]!",
37,どこへ移動する？,Name your port of call.,Wohin möchtest du teleportiert werden?,Choisissez une destination[@1D]:,
38,やめておく,Quit.,Ich möchte hier bleiben.,Rester ici.,
39,エーテライトプラザ,Aetheryte Plaza.,Zum Ätherytplatz.,Place de l'Ethérite.,
40,溺れた海豚亭,The Drowning Wench.,Zur ertränkten Sorge.,Auberge du Dauphin noyé.,
41,レストラン「ビスマルク」,The Bismarck.,Zum Bismarck.,Restaurant le Bismarck.,
42,フェリードック,Ferry Docks.,Zum Fährensteiger.,L'embarcadère.,
43,網倉,Fisherman's Bottom.,Nach Fischers Bodden.,L'Escale du pêcheur.,
44,八分儀広場,The Octant.,Zum Oktant.,L'Octant.,
45,鯵刺大橋,Procession of Terns.,Zur Prozession der Möwen.,Avenue des Sternes.,
46,ゼファー陸門,Zephyr Gate.,Zum Zephir-Tor.,Porte de Zéphyr.,
47,あなたの所持金はXXXXギルです。[@CR]500ギルを支払って輸送してもらいますか？,Pay 500 gil to travel through the aether? (You have XXXX gil.),Möchtest du 500 Gil bezahlen und dich teleportieren lassen?,Vous avez ac[@16]tu[@16]el[@16]le[@16]ment un certain nombre de gils. Payer 500 gils pour vous faire téléporter[@1D]?,
48,やめておく,Quit.,"Nein, ich möchte hier bleiben.",Rester ici.,
49,エーテライトプラザ,Aetheryte Plaza.,"Ja, und zwar zum Ätherytplatz.",Place de l'Ethérite.,
50,溺れた海豚亭,The Drowning Wench.,"Ja, und zwar zur ertränkten Sorge.",Auberge du Dauphin noyé.,
51,レストラン「ビスマルク」,The Bismarck.,"Ja, und zwar zum Bismarck.",Restaurant le Bismarck.,
52,フェリードック,Ferry Docks.,"Ja, und zwar zum Fährensteiger.",L'embarcadère.,
53,網倉,Fisherman's Bottom.,"Ja, und zwar nach Fischers Bodden.",L'Escale du pêcheur.,
54,八分儀広場,The Octant.,"Ja, und zwar zum Oktant.",L'Octant.,
55,鯵刺大橋,Great Tern Bridge.,"Ja, und zwar zur Prozession der Möwen.",Avenue des Sternes.,
56,ゼファー陸門,Zephyr Gate.,"Ja, und zwar zum Zephir-Tor.",Porte de Zéphyr.,
57,どこへ移動する？,Where will you go?,Wohin möchtest du teleportiert werden?,Choisissez une destination[@1D]:,
58,やめておく,Quit.,Ich möchte hier bleiben.,Rester ici.,
59,エーテライトプラザ,Aetheryte Plaza.,Zum Ätherytenplatz.,Place de l'Ethérite.,
60,カーラインカフェ,The Carline Canopy.,Zu Miounnes Hexenstübchen.,Café “Aux Feuilles de carline”.,
61,アトリエ「フェン・イル」,Atelier Fen[@1F]Yll.,Zu Fen-Yll Lederwaren.,Atelier Fen-Yll.,
62,口笛粉屋,The Whistling Miller.,Zum trällernden Müller.,Le Meunier sifflotant.,
63,神勇隊司令砦,Quiver's Hold.,Zur Kleinen Waldschanze.,Le Carquois.,
64,鬼哭隊屯所,Wailing Barracks.,Zur Großen Waldschanze.,La Caserne des vigiles.,
65,ミスタル連橋,Mistalle Bridges.,Zu Mistalles Brücken.,Les ponts de Mistalle.,
66,ベルラン連橋,Berlends Bridges.,Zu Berlends Brücken.,Les ponts de Berlend.,
67,あなたの所持金はXXXXギルです。[@CR]500ギルを支払って輸送してもらいますか？,Pay 500 gil to take a trip on the aethernet? (You have XXXX gil.),Möchtest du 500 Gil bezahlen und dich teleportieren lassen?,Vous avez ac[@16]tu[@16]el[@16]le[@16]ment un certain nombre de gils. Payer 500 gils pour vous faire téléporter[@1D]?,
68,やめておく,Quit.,"Nein danke, da laufe ich dann doch lieber.",Rester ici.,
69,エーテライトプラザ,Aetheryte Plaza.,"Ja, und zwar zum Ätherytenplatz.",Place de l'Ethérite.,
70,カーラインカフェ,The Carline Canopy.,"Ja, und zwar zu Miounnes Hexenstübchen.",Café “Aux Feuilles de carline”.,
71,靴屋「フェン・イル」,Atelier Fen[@1F]Yll.,"Ja, und zwar zu Fen-Yll Lederwaren.",Les Atours de Fen-Yll.,
72,口笛粉屋,The Whistling Miller.,"Ja, und zwar zum trällernden Müller.",Le Meunier sifflotant.,
73,神勇隊司令砦,Quiver's Hold.,"Ja, und zwar zur Kleinen Waldschanze.",Le Carquois.,
74,鬼哭隊屯所,Wailing Barracks.,"Ja, und zwar zur Großen Waldschanze.",La Caserne des vigiles.,
75,ミスタル連橋,Mistalle Bridges.,"Ja, und zwar zu Mistalles Brücken.",Les ponts de Mistalle.,
76,ベルラン連橋,Berlends Bridges.,"Ja, und zwar zu Berlends Brücken.",Les ponts de Berlend.,
77,どこへ移動する？,Where will you go?,Wohin möchtest du teleportiert werden?,Choisissez une destination[@1D]:,
78,やめておく,Quit.,Ich möchte lieber hier bleiben.,Rester ici.,
79,エーテライトプラザ,Aetheryte Plaza.,Zum Ätherytenplatz.,Place de l'Ethérite.,
80,クイックサンド,The Quicksand.,Zur Pension Treibsand.,Les Sables mouvants.,
81,フロンデール薬学院,Frondale's Phrontistery.,Zu Frondales Physiatrischer Akademie.,L'Académie médicale de Frondale.,
82,オニキスレーン,Onyx Lane.,Zur Onyxgasse.,Rue d'onyx.,
83,ゴールドコート（商業層）,Gold Court.,Zum Platz der Sultana (Ebene der Händler).,Cour dorée.,
84,アルダネス聖櫃堂,Arrzaneth Ossuary.,Zum Arr[@16]za[@16]neth-Os[@16]sari[@16]um.,L'Ossuaire d'Arrzaneth.,
85,ナル大門,Gate of Nald.,Zum Tor des Nald.,Porte de Nald.,
86,ザル大門,Gate of Thal.,Zum Tor des Thal.,Porte de Thal.,
87,あなたの所持金はXXXXギルです。[@CR]500ギルを支払って輸送してもらいますか？,Pay 500 gil to use the doodah? (You have XXXX gil.),Möchtest du 500 Gil bezahlen und dich teleportieren lassen?,Vous avez ac[@16]tu[@16]el[@16]le[@16]ment un certain nombre de gils. Payer 500 gils pour vous faire téléporter[@1D]?,
88,やめておく,Quit.,"Nein, ich möchte hier bleiben.",Rester ici.,
89,エーテライトプラザ,Aetheryte Plaza.,"Ja, und zwar zum Ätherytplatz.",Place de l'Ethérite.,
90,クイックサンド,The Quicksand.,"Ja, und zwar zur Pension Treibsand.",Les Sables mouvants.,
91,フロンデール薬学院,Frondale's Phrontistery.,"Ja, und zwar zu Frondales Physiatrischer Akademie.",L'Académie médicale de Frondale.,
92,オニキスレーン,Onyx Lane.,"Ja, und zwar zur Onyxgasse.",Rue d'onyx.,
93,ゴールドコート（商業層）,Gold Court.,"Ja, und zwar zum Platz der Sultana.",Cour dorée.,
94,アルダネス聖櫃堂,Arrzaneth Ossuary.,"Ja, und zwar zum Arr[@16]za[@16]neth-Os[@16]sari[@16]um.",L'Ossuaire d'Arrzaneth.,
95,ナル大門,Gate of Nald.,"Ja, und zwar Tor des Nald.",Porte de Nald.,
96,ザル大門,Gate of Thal.,"Ja, und zwar Tor des Thal.",Porte de Thal.,
98,グリダニアの都市が、不測の事態に見舞われたとき[@CR]速やかに兵を派遣するための設備です。緊急時に備え[@CR]平時から、利用者を制限しているのです。,"When unforeseen peril threatens, this device transports our soldiers quickly to the source. We can't have every man and his dog clogging up the aether byways at such a time. Hence the need for aetherpasses.","Das System wurde für Notfälle eingerichtet. Wenn plötzlich die Ixal oder die Garlear vor einem der Stadttore auftauchen, können wir dank des Ätheryten-Netzes auf schnellstem Wege Pikeniere dorthin schicken.[@CR]Da es sich um eine militärische Einrichtung handelt, ist die Benutzung Zivilisten auch zu Friedenszeiten untersagt.","Voyez-vous, notre réseau a été développé pour permettre de déployer nos unités en urgence à tout moment. Nous nous devons donc d'en limiter l'accès aux personnes autorisées.",
