 ,0,1,2,3,4
 ,str,str,str,str,str
2,いらっしゃい！[@CR]こちらは、リムサ・ロミンサ交易商会です。,"Greetings, and welcome to the Lominsan Mercantile House!",Herzlich willkommen im Handelshaus von Limsa Lominsa!,Bienvenue[@1D]! Vous êtes à la maison du commerce de Limsa Lominsa. Vous avez besoin de quelque chose[@1D]?,
3,いらっしゃい！[@CR]こちらは、グリダニア交易商会です。,Welcome to the Gridanian Mercantile House! How might we be of service?,Willkommen im Handelshaus von Gridania!,Bienvenue[@1D]! Vous êtes à la maison du commerce de Gridania. Vous avez besoin de quelque chose[@1D]?,
4,いらっしゃい！[@CR]こちらは、ウルダハ交易商会です。,The Ul'dahn Mercantile House welcomes you!,Ich heiße dich im Handelshaus von Ul'dah willkommen!,Bienvenue[@1D]! Vous êtes à la maison du commerce d'Ul'dah. Vous avez besoin de quelque chose[@1D]?,
5,いらっしゃいませ。[@CR]こちら、リムサ・ロミンサ交易商会となっております。,"Greetings, and welcome to the Lominsan Mercantile House!",Das Handelshaus von Limsa Lominsa heißt dich willkommen! Sieh dich in Ruhe um.,Vous êtes à la maison du commerce de Limsa Lominsa. En quoi puis-je vous aider[@1D]?,
6,いらっしゃいませ。[@CR]こちら、グリダニア交易商会となっております。,Welcome to the Gridanian Mercantile House! How might we be of service?,Einen wunderschönen guten Tag! Was führt dich in das Handelshaus von Gridania?,Vous êtes à la maison du commerce de Gridania. En quoi puis-je vous aider[@1D]?,
7,いらっしゃいませ。[@CR]こちら、ウルダハ交易商会となっております。,The Ul'dahn Mercantile House welcomes you!,"Willkommen, [@IF($E9(4),werte Abenteurerin,werter Abenteurer)], im Handelshaus von Ul'dah!",Vous êtes à la maison du commerce d'Ul'dah. En quoi puis-je vous aider[@1D]?,
8,いらっしゃい。[@CR]ここは、リムサ・ロミンサ交易商会だ。,May your visit to the Lominsan Mercantile House prove fruitful.,Ich grüße Euch! Das Handelshaus von Limsa Lominsa steht euch jederzeit offen.,Bienvenue à la maison du commerce limséenne. Tu cherches quelque chose[@1D]?,
9,いらっしゃい。[@CR]ここは、グリダニア交易商会だ。,"Well met and well come, friend, to the Gridanian Mercantile House.","Seid gegrüßt, [@IF($E9(4),werte Dame,werter Herr)]! Möget Ihr hier im Handelshaus von Gridania das finden, was Ihr begehrt.",Bienvenue à la maison du commerce gridanienne. Tu cherches quelque chose[@1D]?,
10,いらっしゃい。[@CR]ここは、ウルダハ交易商会だ。,"Whatever your heart's desire, the Ul'dahn Mercantile House shall endeavor to see it fulfilled.","Was auch immer Euer Herz begehrt, hier im Handelshaus von Ul'dah werdet Ihr es finden.",Bienvenue à la maison du commerce uldienne. Tu cherches quelque chose[@1D]?,
11,いらっしゃい。[@CR]ここは、リムサ・ロミンサ交易商会よ。,May your visit to the Lominsan Mercantile House prove fruitful.,Herzlich willkommen. Womit kann Euch das Handelshaus von Limsa Lominsa zu Diensten sein?,Tu cherches quelque chose[@1D]? La maison du commerce limséenne peut peut-être t'aider.,
12,いらっしゃい。[@CR]ここは、グリダニア交易商会よ。,"Well met and well come, good [@IF($E9(4),madam,sir)], to the Gridanian Mercantile House.",Das Handelshaus von Gridania heißt Euch willkommen!,Tu cherches quelque chose[@1D]? La maison du commerce gridanienne peut peut-être t'aider.,
13,いらっしゃい。[@CR]ここは、ウルダハ交易商会よ。,"Whatever your heart's desire, the Ul'dahn Mercantile House shall endeavor to see it fulfilled.","Hier im Handelshaus von Ul'dah, wird euer Herzenswunsch in Erfüllung gehen!",Tu cherches quelque chose[@1D]? La maison du commerce uldienne peut peut-être t'aider.,
14,いらっしゃい！[@CR]ここは、リムサ・ロミンサ交易商会だよ。,I bid you welcome to the Lominsan Mercantile House!,Hallo und willkommen im Handelshaus von Limsa Lominsa!,"[@IF($E3($E9(11),12),[@IF($E3($E9(11),4),Bonsoir,Bonjour)],[@IF($E3($E9(11),17),Bonjour,Bonsoir)])] et bienvenue à la maison du commerce de Limsa Lominsa[@1D]!",
15,いらっしゃい！[@CR]ここは、グリダニア交易商会だよ。,"Hail, friend. You've come to the Gridanian Mercantile House.","Hallo, [@IF($E9(4),meine Liebe,mein Freund)]! Wie schön, dass du uns hier im Handelshaus von Gridania besuchst.","[@IF($E3($E9(11),12),[@IF($E3($E9(11),4),Bonsoir,Bonjour)],[@IF($E3($E9(11),17),Bonjour,Bonsoir)])] et bienvenue à la maison du commerce de Gridania[@1D]!",
16,いらっしゃい！[@CR]ここは、ウルダハ交易商会だよ。,"Here at the Ul'dahn Mercantile House, we help you find the object of your desire!","Hereinspaziert! Überzeuge dich mit eigenen Augen davon, was das Handelshaus von Ul'dah zu bieten hat!","[@IF($E3($E9(11),12),[@IF($E3($E9(11),4),Bonsoir,Bonjour)],[@IF($E3($E9(11),17),Bonjour,Bonsoir)])] et bienvenue à la maison du commerce d'Ul'dah[@1D]!",
17,いらっしゃいませ！[@CR]こちら、リムサ・ロミンサ交易商会となっております！,I bid you welcome to the Lominsan Mercantile House!,Willkommen im Handelshaus von Limsa Lominsa!,"[@IF($E3($E9(11),12),[@IF($E3($E9(11),4),Bonsoir,Bonjour)],[@IF($E3($E9(11),17),Bonjour,Bonsoir)])][@1D]! Je travaille pour la maison du commerce de Limsa Lominsa. Vous cherchez...[@1D]?",
18,いらっしゃいませ！[@CR]こちら、グリダニア交易商会となっております！,"Hail, friend. You've come to the Gridanian Mercantile House.",Hallo! Was führt deinen Weg ins Handelshaus von Gridania?,"[@IF($E3($E9(11),12),[@IF($E3($E9(11),4),Bonsoir,Bonjour)],[@IF($E3($E9(11),17),Bonjour,Bonsoir)])][@1D]! Je travaille pour la maison du commerce de Gridania. Vous cherchez...[@1D]?",
19,いらっしゃいませ！[@CR]こちら、ウルダハ交易商会となっております！,"Here at the Ul'dahn Mercantile House, we help you find the object of your desire!","Hallo! Hier, im Handelshaus von Ul'dah, wirst du genau das finden, wonach du suchst!","[@IF($E3($E9(11),12),[@IF($E3($E9(11),4),Bonsoir,Bonjour)],[@IF($E3($E9(11),17),Bonjour,Bonsoir)])][@1D]! Je travaille pour la maison du commerce d'Ul'dah. Vous cherchez...[@1D]?",
20,らっしゃい！[@CR]ここは、リムサ・ロミンサ交易商会だ！,Hello there. This here's the Lominsan Mercantile House.,Hallo! Du bist hier im Handelshaus von Limsa Lominsa. Wonach suchst du?,"Salut, c'est la maison du commerce limséenne ici.",
21,らっしゃい！[@CR]ここは、グリダニア交易商会だ！,"Greetings, friend. You stand within the Gridanian Mercantile House.",Hallo! Du bist hier im Handelshaus von Gridania gelandet.,"Salut, c'est la maison du commerce gridanienne ici.",
22,らっしゃい！[@CR]ここは、ウルダハ交易商会だ！,"Lookin' for somethin'? 'Cause if it ain't at the Ul'dahn Mercantile House, it ain't nowhere else, neither!","Suchst du etwas Bestimmtes? Wenn du es hier im Handelshaus von Ul'dah nicht findest, dann existiert es wahrscheinlich nicht!","Salut, c'est la maison du commerce uldienne ici.",
23,いらっしゃいませにゃ。[@CR]ここは、リムサ・ロミンサ交易商会だにゃ。,Welcome to the Lominsan Mercantile House. It shall be my pleasure to serve you!,Ich heiße dich im Handelshaus von Limsa Lominsa willkommen! Was darrrf ich dir zeigen?,"[@IF($E3($E9(11),12),[@IF($E3($E9(11),4),Bonsoirrr,Bonjourrr)],[@IF($E3($E9(11),17),Bonjourrr,Bonsoirrr)])], sois [@IF($E9(4),la bienvenue,le bienvenu)] à la maison du commerce de Limsa Lominsa[@1D]! Je peux t'aider en quoi que ce soit[@1D]?",
24,いらっしゃいませにゃ。[@CR]ここは、グリダニア交易商会だにゃ。,"Here at the Gridanian Mercantile House, we unite people with the objects of their desire!","Hier, im Handelshaus von Grrridania werden Wünsche wahr! Wonach begehrt dein Herrrz?","[@IF($E3($E9(11),12),[@IF($E3($E9(11),4),Bonsoirrr,Bonjourrr)],[@IF($E3($E9(11),17),Bonjourrr,Bonsoirrr)])], sois [@IF($E9(4),la bienvenue,le bienvenu)] à la maison du commerce de Gridania[@1D]! Je peux t'aider en quoi que ce soit[@1D]?",
25,いらっしゃいませにゃ。[@CR]ここは、ウルダハ交易商会だにゃ。,Got an itch for an certain item? Have it scratched right here at the Ul'dahn Mercantile House!,"Oh, wie schön! Du bist hier im Handelshaus von Ul'dah genau rrrichtig! Glaub mir, du wirrrst hier finden, was du suchst.","[@IF($E3($E9(11),12),[@IF($E3($E9(11),4),Bonsoirrr,Bonjourrr)],[@IF($E3($E9(11),17),Bonjourrr,Bonsoirrr)])], sois [@IF($E9(4),la bienvenue,le bienvenu)] à la maison du commerce d'Ul'dah[@1D]! Je peux t'aider en quoi que ce soit[@1D]?",
26,何をする？,What would you like to do?,Was möchtest du tun?,Que faire[@1D]?,
27,アイテムサーチ,Search for an item.,Nach einem Gegenstand suchen.,Une recherche d'objets.,
28,"アイテムサーチ解除(現在:[@SWITCH([@SHEET(itemData,$E8(1),41)],[@COLOR(#fff3f3f3)],[@COLOR(#ffc0ffa0)],[@COLOR(#ff60c8ff)],[@COLOR(#ffb38cff)],[@COLOR(#ffffa666)],[@COLOR(#ffe5dd7e)])][@EDGECOLOR(#ff262626)][@SHEET(xtx/itemName,$E8(1),4)][@EDGECOLOR($EC)][@COLOR($EC)])","Cancel search. ([@2B([@SWITCH([@SHEET(itemData,$E8(1),41)],[@COLOR(#fff3f3f3)],[@COLOR(#ffc0ffa0)],[@COLOR(#ff60c8ff)],[@COLOR(#ffb38cff)],[@COLOR(#ffffa666)],[@COLOR(#ffe5dd7e)])][@EDGECOLOR(#ff262626)][@SHEETEN(xtx/itemName,3,$E8(1),1,1)][@EDGECOLOR($EC)][@COLOR($EC)])])","Die Suche nach [@SWITCH([@SHEET(itemData,$E8(1),41)],[@COLOR(#fff3f3f3)],[@COLOR(#ffc0ffa0)],[@COLOR(#ff60c8ff)],[@COLOR(#ffb38cff)],[@COLOR(#ffffa666)],[@COLOR(#ffe5dd7e)])][@EDGECOLOR(#ff262626)][@SHEETDE(xtx/itemName,1,$E8(1),1,3,1)][@EDGECOLOR($EC)][@COLOR($EC)] beenden.","Annuler la recherche [@SWITCH([@SHEET(itemData,$E8(1),41)],[@COLOR(#fff3f3f3)],[@COLOR(#ffc0ffa0)],[@COLOR(#ff60c8ff)],[@COLOR(#ffb38cff)],[@COLOR(#ffffa666)],[@COLOR(#ffe5dd7e)])][@EDGECOLOR(#ff262626)][@SHEETFR(xtx/itemName,8,$E8(1),2,1)][@EDGECOLOR($EC)][@COLOR($EC)].",
29,やめる,Nothing.,Nichts weiter.,Rien en particulier.,
