 ,0,1,2,3,4
 ,str,str,str,str,str
1,冒険者たちよ、聞いてくれ！[@CR]不審者に気をつけてもらいたい！,"Hearken, adventurers of Eorzea! Ware you the venomous words of false prophets!","Hergehört! Hergehört![@CR]Kommt näher, liebe Leute und hört mich an! Euch zu warnen, ist mir von Belang! ♪","Un conseil, [@IF($E9(4),aventurière,aventurier)], méfiez-vous des oiseaux de mauvais augure qui traînent dans le coin[@1D]!",
2,不審者に気をつけてくれ！[@CR]冒険者は特に、十分に注意を払ってくれ！,Adventurer! I ask that you heed not the foul lies of those who would claim knowledge of future happenings!,"Nehmt Euch vor verdächtigen Gestalten in Acht, die behaupten, die Zukunft zu kennen! Besonders auf euch Abenteurer haben sie es abgesehen!","Faites attention aux oiseaux de mauvais augure, [@IF($E9(4),aventurière,aventurier)][@1D]!",
3,何を尋ねる？,Inquire further?,Hast du eine Frage?,Que voulez-vous demander[@1D]?,
4,不審者とは？,Knowledge of future happenings? Who are these people?,Verdächtige Gestalten? Wen meinst du damit?,Des oiseaux de mauvais augure[@1D]?,
5,気をつけてもらいたいこととは？,Are we in any danger?,Wovor genau soll ich mich in Acht nehmen?,Pourquoi dois-je faire attention[@1D]?,
6,最近、エーテライトの近辺に現れる奴のことさ。[@CR]ブツブツと妙な事を呟いていて、薄気味悪いのなんの……[@CR]不用意に関わると、事件に巻き込まれるかもしれないぞ。,"They appear near aetheryte camps, bedraped in shadowy robes, preaching their untruths to any and all who will listen. Keep your distance, traveler, lest you become tangled in their web of deceit.","Ich spreche von den Personen, die jüngst in der Nähe der Ätheryten erschienen sind.[@CR]Auf ihre unheimliche Art und Weise murmeln sie unentwegt unheilvolle Geschichten vor sich hin ... Wenn [@IF($E9(4),eine Abenteurerin,ein Abenteurer)] wie Ihr sich nicht vorsieht, wird [@IF($E9(4),sie,er)] schnell in Dinge hineingezogen, mit denen [@IF($E9(4),sie,er)] eigentlich gar nichts zu tun haben will!",Il y a de drôles de types qui rôdent près des éthérites ces derniers temps. Ils passent leur temps à marmonner des absurdités sinistres. Ne vous approchez pas d'eux si vous ne voulez pas d'ennuis.,
7,「この世が破滅する」なんて話をされたら、不安になるだろう？[@CR]あの怪しい奴は、みんなの不安につけ込もうという魂胆なのさ。[@CR]怪しげなローブなんか着て、いにしえの賢者でも気取っているのかね。,"We are [@1A(1)]all[@1A(0)] in danger, friend, for fear can drive men to deeds most terrible, and it is the seeds of fear that these false prophets wish to sow in the hearts and minds of every one of us! They are not the Archons of legend. They are not our saviors. They are fomenters of unrest.","Vor Geschichten, die vom nahenden Ende der uns bekannten Welt künden, sollt Ihr Euch in Acht nehmen! Diese dubiosen Gestalten haben es sich zum Ziel gesetzt, unsere Herzen mit Angst zu erfüllen.[@CR]In ihrer Vorgehensweise sind sie äußerst raffiniert: Die Tatsache, dass sie in Roben gekleidet sind, wie sie seinerzeit die Gelehrten des Altertums zu tragen pflegten, hat sich schnell herum[@16]ge[@16]sprochen und verhilft ihnen zu unverdienter Glaubwürdigkeit!","Ces faux prophètes racontent à qui veut l'entendre que la fin du monde approche. Je ne sais pas ce qu'ils cherchent à faire, à effrayer les gens comme ça. Ils portent même des robes, comme celles des Preux des légendes. Non, mais ils se prennent pour qui, hein[@1D]? Personne ne sait ce qu'ils veulent, alors je vous recommande la prudence si vous les approchez.",
8,みんな聞いて！[@CR]キャンプはみんなの場所、礼義を守りましょう！,Hear ye! Our aetheryte camps are under attack! Let it be known that those who defile these monuments to liberty shall be punished without mercy!,"Hört mich an, ihr feinen Abenteurer![@CR]Ich bitte euch, im Camp die Regeln zu befolgen, die der Anstand gebietet.","Oyez, oyez[@1D]! La discipline dans les camps doit être respectée[@1D]!",
9,キャンプは、あなたたちにとっても重要な拠点でしょう？[@CR]だから、あなたも呼びかけに参加してくれない？,"Aetheryte camps are important outposts that not only maintain peace throughout the region, but also serve as hubs for travelers and traders across the realm. This is why we simply cannot allow the disruption of their operation. Might you lend us your aid in ensuring the camps remain safe?","Wenn euch eure Camps so wichtig sind wie ich denke, dann werdet ihr mich sicherlich lautstark unterstützen!","Les camps sont essentiels pour les gens comme vous, n'est-ce pas[@1D]? Alors n'hésitez pas à interpeller les gens qui en troublent l'ordre.",
10,何を尋ねる？,Inquire further?,Hast du eine Frage?,Que voulez-vous demander[@1D]?,
11,何かあったのか？,What exactly is amiss?,Was ist denn passiert?,Que se passe-t-il[@1D]?,
12,呼びかけとは？,How can I help?,Lautstark unterstützen?,Des fauteurs de troubles[@1D]?,
13,キャンプ近辺で、ばか騒ぎをする人が多くて。[@CR]まったく、近頃の若い人ときたら。呆れてしまうわ。,"Each day we receive reports of suspicious characters loitering about the camps spinning absurd tales of impending doom. Their dark words are driving away visitors, and have the local guard on edge.",Immer mehr Dummköpfe machen in der Umgebung der Camps viel Geschrei um nichts.[@CR]Besonders die Motive der noch jungen Abenteurer vermag ich nicht zu verstehen.,"Il y a des excités qui provoquent de l'agitation aux environs des camps récemment. Ah, les jeunes d'aujourd'hui, je vous jure...",
14,「キャンプでは行儀よく、なかよくしましょう！」[@CR]……といった呼びかけよ。だって、ばか騒ぎする人たちの中には[@CR]「この世の破滅だ！」なんて、いかれた事を叫んでる人もいるのよ？,"You can start by spreading the word that the city[@1F]state will not tolerate this type of behavior. Tell these dastardly peddlers of terror that if they do not desist, they shall be thrown into a cell so far underground that even rats will have cause to look down upon them.","„Besonders in den Camps - Orten der Begegnung - sollte man vor seinem Gegenüber auf seine Manieren achten.“[@CR]Wenn du helfen willst, solltest du derartige Ermahnungen laut ausrufen und damit das Gezeter vom Ende der Welt übertönen!","Oui, des excentriques essaient de terroriser les gens dans les camps avec des histoires de fin du monde. Comme si on n'avait pas assez de problèmes avec l'Empire...",
15,不審者にご注意ください！,Ware the woeful whisperings of wicked wayfarers!,Nehmt euch vor verdächtigen Personen in Acht!,Ne prêtez pas l'oreille aux fariboles des faux prophètes[@1D]! Et méfiez-vous des gens à l'allure étrange dans les régions reculées.,
16,不審者にご注意ください！[@CR]エーテライト付近、エーテライトから離れた僻地、[@CR]どちらにおいても、不審者にご注意ください！,"In addition to accounts of questionable characters convening close to aetheryte camps, we have received reliable reports that remote regions of the realm are rife with rabble-rousing ruffians repeating repugnant rumors.","Hütet euch vor den dubiosen Gestalten, die immer häufiger in der Nähe der Camps und auch in abgelegenen Gegenden, weit entfernt von den Ätheryten, anzutreffen sind.",N'écoutez pas les charlatans qui profèrent des mensonges éhontés dans les camps[@1D]! Et prenez garde aux individus suspects dans les régions reculées.,
17,何を尋ねる？,Inquire further?,Hast du eine Frage?,Que voulez-vous demander[@1D]?,
18,エーテライト付近の不審者とは？,Who are these characters convening near the camps?,Von welchen dubiosen Gestalten sprichst du?,Des charlatans[@1D]?,
19,僻地の不審者とは？,Who are these rabble-rousing ruffians?,Welche abgelegenen Gegenden meinst du?,Des individus suspects[@1D]?,
20,最近エーテライトの近辺に、不審者が出没しているんだ。[@CR]すっぽりとローブをかぶっていて、見るからに怪しい奴だよ。[@CR]奴の話には耳を貸すんじゃないぞ。,"Veiled in vile vestments, the vexatious vermin appear at the aetherytes and proceed to preach perturbing prophecies of coming catastrophe. If you are unfortunate enough to encounter one, I urge you to ignore him.","In der Nähe der Camps werden immer öfter Gestalten gesichtet, die - in lange, ominöse Roben gekleidet - wie aus einer anderen Zeit anmuten.[@CR]Hängt Euch nicht an ihre Lippen, schenkt ihnen niemals Euer Gehör!","Oui, de soi-disant devins s'amusent à prédire la fin du monde depuis quelque temps. Même leur allure est suspecte, tout dissimulés qu'ils sont dans leur robe.",
21,各地で目撃証言があがっている。[@CR]山賊や盗賊とは思えない、恐ろしい手練れたちだ。[@CR]エオルゼアへ潜入した、ガレマール帝国兵かもしれないぞ。,"Next to naught is known, and none are rumored to resemble any robber, raider, or reaver ever reported in the region. Certain sagacious souls suspect them of operating in the employ of the Empire...","Von fast überall erhalten wir Augenzeugenberichte über Gestalten, die zu anmutig für Banditen, zu gewandt für einen gemeinen Räuber sind.[@CR]Womöglich handelt es sich bei jenen um Spione des garleischen Kaiserreichs, die bereits mit der Infiltration Eorzeas begonnen haben.","Des voyageurs et des aventuriers ont témoigné avoir vu des étrangers à l'air dangereux dans certaines régions reculées, et dont l'allure n'est pas celle de brigands. Nous pensons qu'il pourrait s'agir de soldats impériaux.",
22,menu,Town Crier Menu,Town Crier Menu,Town Crier Menu,
23,なにもしない,Exit.,Exit.,Exit.,
24,depop,Despawn NPC.,Despawn NPC.,Depop NPC?,
25,shout interval,Adjust shout interval.,Adjust shout interval.,Adjust shout interval.,
26,depop?,Despawn NPC?,Despawn NPC?,Depop NPC?,
27,ok,Yes.,Yes.,Yes,
28,cancel,Cancel.,Cancel.,cancel,
29,shout interval,Adjust Shout Interval,Adjust Shout Interval,Adjust Shout Interval,
30,stop,Stop.,Stop.,stop,
31,1 minutes,1 minute.,1 minute.,1 minute,
32,3 minutes,3 minutes.,3 minutes.,3 minutes,
33,ガレマール帝国が攻めてきたぞ！！,"Gods preserve us, the Empire has come! Run! Run for your lives!",Althyk behüte! Das Kaiserreich hat uns angegriffen! Rennt um euer Leben!,L'empire de Garlemald nous attaque[@1D]!,
34,ガレマール帝国の兵が攻めてきてるぞ。[@CR]命が惜しけりゃ、隠れてな。,"We're under attack from imperial troopers! If you have a care for life and limb, quit this place at once!","Garleische Soldaten marschieren auf uns zu! Versteck dich oder such das Weite, wenn dir dein Leben lieb ist!","Des soldats impériaux nous attaquent[@1D]! Si vous tenez à la vie, mettez-vous à l'abri[@1D]!",
35,何を尋ねる？,Inquire further?,Weitere Fragen stellen?,Que voulez-vous demander[@1D]?,
36,兵数は？,How many do they number?,Ist etwas über ihre Truppenstärke bekannt?,Combien y a-t-il de soldats[@1D]?,
37,武装は？,How were they armed?,Wie sind die feindlichen Soldaten bewaffnet?,Comment sont-ils équipés[@1D]?,
38,場所は？,Where were they seen?,Wo wurden die Garlear gesichtet?,Où sont-ils[@1D]?,
39,敵は小隊規模に見えたが、一向に減る気配がなかった。[@CR]後背に、もっと大きな部隊がいる可能性もある。[@CR]とにかく、あのままでは応戦中の部隊は全滅するかもしれん。,"It was only a small unit─or so it seemed at first─but no sooner did we strike one of them down than another appeared to take his place. The only conceivable explanation is that a larger force is nearby, feeding their numbers. The defending contingent is putting on a brave show, of course, but I fear the worst.","Es war nur eine kleine Einheit, zumindest sah es auf den ersten Blick so aus ... aber jeder Soldat, den sie verloren, wurde sofort durch einen neuen ersetzt. Die einzige Erklärung dafür ist, dass es sich dabei bloß um die Vorhut einer größeren Legion handelt.[@CR]Unsere verteidigenden Truppen schlagen sich wacker, aber ich rechne mit dem Schlimmsten ...","On aurait pu croire qu'il s'agissait de petits escadrons, mais leur nombre n'avait pas l'air de décroître. Et si ce n'était qu'une avant-garde[@1D]? Nos unités de défense seraient alors décimées.",
40,噂通り、強力な兵器で武装してたぞ。[@CR]そのうえ、凶暴な魔物まで引き連れていた。[@CR]いったい、どんな手を使ってやがる……。,"The Garleans bore arms the likes of which I have never seen, and never wish to see again. And as if that weren't daunting enough, they brought [@1A(1)]monsters[@1A(0)] with them! Truly, it was the stuff of nightmares.","Die Waffen der Garlear sind genauso zerstörerisch wie man es bisher gerüchteweise zu hören bekam. Und als ob dies nicht genug wäre, lassen sie angeblich auch grausame Bestien für sich kämpfen, die ihnen wie Haustiere gehorchen! Es ist, als ob all unsere Albträume Realität würden!","D'après les rumeurs, ils étaient vêtus de solides armures. On raconte aussi qu'ils étaient accompagnés de monstres.",
41,キャンプ・ブラッドショアのすぐ近くだ。[@CR]おい、まさか自分から火事場に飛び込むつもりか！？[@CR]なら、無事に戻った時に、話を聞かせてくれ。,"It was in the vicinity of Camp Bloodshore that the skirmish broke out, but why are you ask─[@CR]Egads! You mean to join the fray, don't you? The crazed glint in your eyes tells me so. Well, I won't deny a [@IF($E9(4),woman her,man his)] death wish, but should you live to tell the tale, I want to be the first to hear it. Be careful out there, do you hear?","Es war in der Nähe von Camp Rotgischt, wo die Gefechte ausbrachen, aber warum fragst du?[@CR]Du willst dich doch nicht etwa ins Schlachtgetümmel werfen?! Der Zorn von Rhalgr wird dich treffen! Aber falls du tatsächlich überleben solltest, würde ich gerne alles über die Schlacht aus erster Hand von dir erfahren.","C'est tout près des Rives sanglantes. Quoi[@1D]? Vous voulez vous jeter dans la gueule du loup et aller là-bas[@1D]? Dans ce cas, je compte sur vous pour tout me raconter dès votre retour.",
42,キャンプ・トランキルのすぐ近くだ。[@CR]おい、まさか自分から火事場に飛び込むつもりか！？[@CR]なら、無事に戻った時に、話を聞かせてくれ。,"It was in the vicinity of Camp Tranquil that the fighting broke out, but why are you ask─[@CR]Egads! You mean to join the fray, don't you? The crazed glint in your eyes tells me so. Well, I won't deny a [@IF($E9(4),woman her,man his)] death wish, but should you live to tell the tale, I want to be the first to hear it. Be careful out there, do you hear?","Es war in der Nähe von Camp Seelenruhe, wo die Gefechte ausbrachen, aber warum fragst du?[@CR]Du willst dich doch nicht etwa ins Schlachtgetümmel werfen?! Der Zorn von Rhalgr wird dich treffen! Aber falls du tatsächlich überleben solltest, würde ich gerne alles über die Schlacht aus erster Hand von dir erfahren.","C'est tout près du camp des Sentes tranquilles. Quoi[@1D]? Vous voulez vous jeter dans la gueule du loup et aller là-bas[@1D]? Dans ce cas, je compte sur vous pour tout me raconter dès votre retour.",
43,キャンプ・ホライズンの北辺りだ。[@CR]おい、まさか自分から火事場に飛び込むつもりか！？[@CR]なら、無事に戻った時に、話を聞かせてくれ。,"It was just north of Camp Horizon that the fighting broke out, but why─ <gasp> You mean to enter the fray, don't you? The look in your eye makes it plain. Well, I won't deny a [@IF($E9(4),woman her,man his)] death wish, but should you live to tell the tale, I want to be the first to hear it. Just be careful out there, you hear?","Es war im Norden von Camp Horizont, wo die Gefechte ausbrachen, aber warum fragst du?[@CR]Du willst dich doch nicht etwa ins Schlachtgetümmel werfen?! Der Zorn von Rhalgr wird dich treffen! Aber falls du tatsächlich überleben solltest, würde ich gerne alles über die Schlacht aus erster Hand von dir erfahren.","C'est vers le nord du camp Horizon. Quoi[@1D]? Vous voulez vous jeter dans la gueule du loup et aller là-bas[@1D]? Dans ce cas, je compte sur vous pour tout me raconter dès votre retour.",
44,みんな逃げて！　ガレマール帝国の襲撃よ！！,"Run, everyone! Th-The Empire... <pant> The Empire is invading!",Rennt um euer Leben! [@1A(1)]keuch[@1A(0)] Das Garleische Kaiserreich hat mit der Invasion begonnen!!!,"Vite[@1D]! Fuyez, fuyez tous[@1D]! L'Empire nous attaque[@1D]!",
45,早くどこかへ逃げた方がいいわよ。[@CR]ガレマール帝国の兵が攻めてきてるの！,"The Empire strikes! Back, back the way you came, I say, before it's too late!","Die Garlear kommen mit jeder Minute näher! Beeil dich und flieh oder versteck dich irgendwo ... aber mach [@1A(1)]irgendwas[@1A(0)], bevor es zu spät ist!",Vous devriez fuir au plus vite[@1D]! Des soldats impériaux nous ont attaqués[@1D]!,
46,小規模っぽかったけど、どんなに攻撃しても、敵が全然減らないの！[@CR]あのままじゃ、応戦している部隊が全滅しちゃうかもしれないわ。,"They seemed but a modest squad, yet no matter how many imperials we cut down, their numbers seemed not to dwindle in the slightest. Our defenders fight on, and valiantly, but they cannot stay such a relentless offensive for long.","Scouts berichteten von einer kleinen Einheit, aber sie berichteten auch von etwas Merkwürdigem: Die Zahl der garleischen Soldaten nimmt scheinbar nicht ab, egal, wie viele von ihnen die Verteidiger zur Strecke bringen ... Wenn es so weiter geht, werden die Verteidiger trotz ihres heldenhaften Kampfes schon bald unterliegen.","On aurait dit de petits escadrons, mais leur nombre ne diminue pas malgré nos attaques répétées[@1D]! C'est terrible[@1D]! Notre armée va être décimée, si ça continue comme ça[@1D]!",
47,噂通りの強力な武器を使ってたわ。[@CR]そのうえ、魔物も引き連れてたの！[@CR]あんなのに襲われたら、どんな勇敢な戦士も怖気づいちゃうでしょうね。,"The imperials were armed with mighty weapons, just as the rumors described...but that was only the half of it. They had packs of feral beasts─aye, [@1A(1)]beasts[@1A(0)]─at their heels! It chills my spine just to recall the sight of them...","Die Garlear sind mit furcht[@16]er[@16]re[@16]gen[@16]den Waffen ausgerüstet, wie sie in all den Gerüchten beschrieben wurden.[@CR]Aber das ist nicht alles! Sie führen Rudel von fürchterlichen Bestien mit sich, die sie für sich kämpfen lassen. Einer der Scouts hat am ganzen Leib vor Angst gezittert, als er davon berichtete ...","La rumeur disait vrai[@1D]! Ils utilisaient des armes puissantes[@1D]! En plus, ils étaient accompagnés de monstres. Le plus courageux des soldats serait terrifié s'il se faisait attaquer par de telles abo[@16]mi[@16]na[@16]tions[@1D]!",
48,キャンプ・ブラッドショアの辺りよ。[@CR]……あなた、見に行こうなんて思ってる？　やめときなさい。[@CR]危ないわよ。でも……もし行くなら、後でお話聞かせてね。,"It was not far from Camp Bloodshore that I staggered from the scene of the carnage. Why do you ask? Are you...thinking what I think you're thinking? Because if you are, I'd [@1A(1)]strongly[@1A(0)] advise you to reconsider. My account is but a pale reflection of the true horror currently unfolding. Anyway, I've given you due warning, so don't come crying to me if you end up dead.","Das letzte Blutbad wurde bei Camp Rotgischt beobachtet. Aber warum fragst du? Du denkst doch nicht das, was ich denke, was du gerade denkst?! Wenn dem so sein sollte, dann schlage ich vor, dass du noch mal genau darüber nachdenkst![@CR]Falls du dich wirklich an den Kämpfen beteiligen willst, dann komm nicht her und heul mir die Ohren voll, wenn du stirbst!","C'est dans les environs des Rives sanglantes. Quoi[@1D]? Vous pensez aller sur place[@1D]? Vous n'y pensez pas, voyons, c'est dangereux[@1D]! Enfin... si vous y allez, racontez-moi quand vous reviendrez, d'accord[@1D]?",
49,キャンプ・トランキルの辺りよ。[@CR]……あなた、見に行こうなんて思ってる？　やめときなさい。[@CR]危ないわよ。でも……もし行くなら、後でお話聞かせてね。,"It was not far from Camp Tranquil that I stumbled from the scene of the carnage. Why do you ask? Are you...thinking what I think you're thinking? Because if you are, I'd [@1A(1)]strongly[@1A(0)] advise you to reconsider. My account is but a pale reflection of the true horror currently unfolding. Anyway, I've given you due warning, so don't come crying to me if you end up dead.","Das letzte Blutbad wurde bei Camp Seelenruhe beobachtet. Aber warum fragst du? Du denkst doch nicht das, was ich denke, was du gerade denkst?! Wenn dem so sein sollte, dann schlage ich vor, dass du noch mal genau darüber nachdenkst![@CR]Falls du dich wirklich an den Kämpfen beteiligen willst, dann komm nicht her und heul mir die Ohren voll, wenn du stirbst!","C'est tout près du camp des Sentes tranquilles. Quoi[@1D]? Vous pensez aller sur place[@1D]? Vous n'y pensez pas, voyons, c'est dangereux[@1D]! Enfin... si vous y allez, racontez-moi quand vous reviendrez, d'accord[@1D]?",
50,キャンプ・ホライズンの北よ。[@CR]……あなた、見に行こうなんて思ってる？　やめときなさい。[@CR]危ないわよ。でも……もし行くなら、後でお話聞かせてね。,"It was not far north of Camp Horizon that I finally emerged from amid the carnage. Why do you ask? Are you...thinking what I think you're thinking? Because if you are, I'd [@1A(1)]strongly[@1A(0)] advise you to reconsider. My account is but a pale reflection of the true horror currently unfolding. Anyway, I've given you due warning, so don't come crying to me if you end up dead.","Das letzte Blutbad wurde nördlich von Camp Horizont beobachtet. Aber warum fragst du? Du denkst doch nicht das, was ich denke, was du gerade denkst?! Wenn dem so sein sollte, dann schlage ich vor, dass du noch mal genau darüber nachdenkst![@CR]Falls du dich wirklich an den Kämpfen beteiligen willst, dann komm nicht her und heul mir die Ohren voll, wenn du stirbst!","C'est au nord du camp Horizon. Quoi[@1D]? Vous pensez aller sur place[@1D]? Vous n'y pensez pas, voyons, c'est dangereux[@1D]! Enfin... si vous y allez, racontez-moi à l'occasion, d'accord[@1D]?",
51,喜べ！　ガレマール帝国との衝突が収束したぞ！,Hurrah! The imperial dogs have withdrawn!,Hurra! Die garleischen Schweinehunde haben sich zurückgezogen!,Camarades[@1D]! Réjouissez-vous[@1D]! L'attaque impériale a été repoussée[@1D]!,
52,心配いらない。もう安全だ。[@CR]ガレマール帝国との衝突は収束した。,"There's no more call for worry, friend. The Garleans have withdrawn, and the area is secure.",Es gibt vorerst keinen Grund zur Sorge. Die Garlear haben sich zurückgezogen und das Areal ist wieder unter unserer Kontrolle.,"Ne vous inquiétez pas[@1D]! Tout va bien, maintenant. L'attaque impériale a été repoussée[@1D]!",
53,何を尋ねる？,Inquire further?,Weitere Fragen stellen?,Que voulez-vous demander[@1D]?,
54,撃退したのか？,We defeated the imperial forces?,Wir haben die garleischen Truppen besiegt?,L'ennemi a-t-il vraiment été refoulé[@1D]?,
55,この後はどうなる？,What happens now?,Womit müssen wir als Nächstes rechnen?,Que va-t-il se passer[@1D]?,
56,知らせを聞いて駆け付けた勇士たちが、見事に撃退してくれたそうだ。[@CR]精鋭が揃ったにもかかわらず、戦いは壮絶を極めたらしい。[@CR]命を惜しまず立ち向かってくれた勇士たちに感謝しよう。,"Aye, I'm given to understand that a crew of brave adventurers─Twelve bless their hearts─leaped into the fray with steel singing and spells scorching! A fierce struggle ensued, which ended in victory for the defenders. Ah, what I wouldn't give to have witnessed it all!","Soweit ich weiß, haben mutige Abenteurer - möge der Segen der Zwölf immer mit ihnen sein - auf Seiten der Verteidiger ihren Stahl singen und ihre Zauber fliegen lassen! Die blutige Schlacht endete mit einem Sieg der Verteidiger.[@CR][@1A(1)]seufz[@1A(0)] Hach, was gäbe ich dafür, selbst als Zeuge dabei gewesen sein zu können ...",Il semble que des braves qui ont entendu l'alerte ont brillamment repoussé l'attaque ennemie. C'étaient des troupes d'élite et la lutte a été dure. Nos vaillants combattants ont lutté sans peur pour nous défendre[@1D]!,
57,今回は、勇士たちのおかげで勝利したが、[@CR]このまま帝国が引き下がるとは思えない。[@CR]警戒は緩めずにいた方がいいだろうな。,"Victory is ours, but don't believe for a moment that the Garleans have finished with us. They'll soon be at our throats again, sure as night follows day, and we must be ready to repel them.","Wir haben vielleicht eine Schlacht gewonnen, aber noch lange keinen Krieg. Das Kaiserreich wird sich nicht geschlagen geben. Vielmehr werden sie mit aller Härte zurückschlagen! Wir müssen auf der Hut bleiben und jederzeit mit erneuten Angriffen rechnen.","Nous avons remporté cette bataille, mais j'ignore si l'Empire va se retirer aussi facilement. Nous ne devons pas relâcher notre vigilance.",
58,みんな安心して！　ガレマール帝国との衝突が終わったわ！,"Be at ease, everyone! The skirmish with the imperials is over!","Ihr könnt euch wieder entspannen, Leute. Die Kampf[@16]hand[@16]lun[@16]gen mit den Garlearn sind fürs Erste vorüber!","Réjouissez-vous, mes amis[@1D]! L'assaut est terminé[@1D]!",
59,安心して。もう大丈夫よ。[@CR]帝国兵は、撤退したみたい！,You can rest easy now. The imperials have withdrawn.,"Keine Sorge, die Welt ist wieder in Ordnung. Die garleischen Hunde haben die Schwänze eingekniffen und sich zurückgezogen.","Les troupes impériales se sont retirées[@1D]! Tout va bien, maintenant[@1D]!",
60,勇気と実力ある冒険者たちが駆け付けて、敵を撃退してくれたそうよ。[@CR]でも、乱戦で多くの人が傷ついたらしいわ。[@CR]身を削って戦ってくれた人たちに感謝しなくちゃね。,"Aye! Praise the Twelve, and praise the selfless band of adventurers who helped us rout the enemy! Those brave men and women hurled themselves into the jaws of danger with nary a care for their own safety. It brings a tear to my eye to think of the hurt they willingly endured that we might live to see another sun... <sniff>","Oh, ich danke den Zwölf und ich danke den selbstlosen Abenteurern, die auf dem Schlachtfeld erschienen und sich gegen die Garlear stellten! Diese braven Männer und Frauen haben dem Tod ins Angesicht gelacht und gegen unsere schauderhaften Feinde den Sieg errungen. Es rührt mich zu Tränen, wenn ich daran denke, wie viele von ihnen ihr Leben gaben, damit wir eine neue Sonne aufgehen sehen ... [@1A(1)]schnief[@1A(0)]",Des aventuriers ont répondu présents et ont repoussé nos ennemis. Il paraît que c'était une bataille sanglante et qu'il y a eu beaucoup de blessés[@1D]! Nous devons être re[@16]con[@16]nais[@16]sants envers ceux qui ont risqué leurs vies pour nous défendre.,
61,ガレマール帝国が、やられたまま黙っているとも思えないし、[@CR]スキあらば、きっとまた攻めてくるんじゃないかしら。[@CR]本当の戦いは、これからなのかも……。,"Today, the imperials turned tail and fled, but as the old saying goes: “Ware the wounded beast.” I'm loath to give voice to my concerns lest they become reality, but I fear the Empire will be back and in greater strength. We relax our guard at our own cost.","Heute haben wir die Garlear nach Hause geschickt, aber wie sagt das Sprichwort: „Ein verwundetes Biest ist am gefährlichsten.“ Ich wage es gar nicht, daran zu denken, aber die Garlear werden wiederkommen, stärker als zuvor. Wir müssen immer auf der Hut sein!","Mais l'Empire ne va sûrement pas en rester là... Ils vont sûrement nous attaquer de nouveau quand ils en auront l'occasion. La véritable bataille ne fait que commencer, je le crains.",
62,もう心配ない！　帝国兵が退却したぞ！,Worry no more! The imperial dogs have withdrawn!,Es gibt keinen Anlass mehr zur Sorge. Die garleischen Hunde haben die Schwänze eingekniffen und sich zurückgezogen!,"Rassurez-vous, camarades[@1D]! Les unités impériales se sont repliées[@1D]!",
63,もう心配いらない。[@CR]ガレマール帝国兵は退却したそうだ。,"The Garleans have withdrawn, thank the Twelve. We may rest easy for a time.","Den Zwölf sei's gedankt, die Garlear haben sich zurückgezogen! Fürs Erste sollten wir vor ihnen sicher sein.",Ne vous inquiétez plus[@1D]! Les troupes impériales se sont repliées.,
64,知らせを聞いて駆け付けた勇士たちが、なんとか敵を蹴散らしたようだ。[@CR]だが、明らかに優勢だった帝国兵の方から、退いていったという話だ。[@CR]もしかすると、これは陽動なのかもしれない……。,"Aye, I'm told we owe it all to the heroics of selfless adventurers who came and bolstered the defense.[@CR]Yet, for all my gladness, something sits ill with me. Reports suggest that the Garleans withdrew of their own accord, when clearly they had the upper hand. Some manner of machination is afoot, depend upon it.","Mir wurde gesagt, wir alle ständen tief in der Schuld heldenhafter Abenteurer, die den Verteidigern in der Stunde größter Not zur Hilfe geeilt kamen.[@CR]Allerdings lassen Reporte über den Schlachtverlauf vermuten, dass die Garlear trotz klarer Überlegenheit den Rückzug antraten. Fast so, als ob sie plötzlich ein neues Angriffsziel vor Augen hätten ...","Il semble que des braves qui ont entendu l'alerte ont réussi à repousser l'attaque ennemie avec difficulté. Mais les troupes impériales étaient clairement supérieures. On dit même que nos ennemis auraient décidé d'eux-mêmes de se retirer, sans réelle nécessité de le faire. Cette attaque était peut-être une diversion...",
65,帝国兵は自ら引き上げたというから、またすぐ攻めてくる可能性もある。[@CR]いつでも迎え撃てるよう、準備をしておいた方がいいだろう。,If the reports are true─that the Garleans retreated voluntarily─it is more than conceivable that they will strike again. We mustn't allow ourselves to be lulled into a false sense of security.,"Sollten sie ihren Angriff wirklich aus freien Stücken abgebrochen haben, könnten sie jeden Augenblick wieder gegen uns aufmarschieren ...[@CR]Wir dürfen uns auf keinen Fall in Sicherheit wiegen!","Enfin, même s'ils se sont retirés cette fois, ils pourraient très bien revenir à la charge dans un avenir proche. Nous ne devons pas relâcher notre vigilance et être prêts à tout moment.",
66,みんな！　もう大丈夫！　ガレマール帝国の兵が退散したって！,"All is well, everyone! The imperials have withdrawn!",Alle hergehört! Die Garlear haben sich zurückgezogen!,"Mes amis[@1D]! Réjouissez-vous, les soldats impériaux se sont retirés[@1D]!",
67,もう、怯えなくても大丈夫。[@CR]ガレマール帝国の兵は、退散したそうよ。,We need cower no more! The Empire has retreated!,"Kein Grund mehr, sich zu verstecken! Die Garlear haben den Rückzug angetreten.","Vous n'avez plus rien à craindre[@1D]! Tout va bien, maintenant[@1D]!",
68,駆け付けた冒険者たちが、なんとか追い払ってくれたそうよ。[@CR]でも、勝利したわけではないみたい。帝国兵の方から[@CR]退散していったらしいの。何か裏がありそうね。,"Indeed so, though by the narrowest of margins. Apparently, our defenders were on the verge of breaking when a band of adventurers came to their aid. A rather scrappy affair followed, which culminated in the enemy's retreat.[@CR]Now, I'd like to give those brave souls full credit for the victory─truly I would─but one thing gnaws at my mind... You see, witness accounts suggest that the imperials withdrew with uncanny abruptness, as if the battle no longer held any interest for them. I daresay there's more to all this than meets the eye.","Alle reden von der Schlacht. Gerade als die Verteidigungslinien davor waren, vollständig aufgerieben zu werden, kamen Abenteurer zu ihrer Hilfe geeilt! Nach hartem Kampf zogen sich die Garlear zurück, doch auch wenn alles nach einem Sieg aussehen mag, mir gefällt die Sache nicht.[@CR]Ein Augenzeuge erzählte mir, dass die überlegenen Gegner sich ganz plötzlich zurückzogen, als ob sie komplett das Interesse an dieser Schlacht verloren hätten ...","Des aventuriers ont répondu présents et ont repoussé les troupes impériales, quoiqu'avec beaucoup de difficulté. Mais nous n'avons pas gagné pour autant[@1D]: il semble que les soldats impériaux se soient retirés d'eux-mêmes. C'est louche...",
69,帝国兵の方が優勢だったのに、向こうから退散していったらしいわ。[@CR]地域の制圧か、単なる陽動か……帝国の目的は分からないけど、[@CR]体勢を整えたら、また攻めてくるんじゃないかしら。,"I would dearly love to be able to say that we could all go back to our daily lives...but I doubt this is over. Why? Well, witnesses remarked that the imperials withdrew at the very moment the tide of battle seemed to be shifting decisively in their favor. It's as if they were...testing us. I know not what treachery the Empire is brewing, but whatever it is, we must be fully prepared for the day it boils over.","Ein Augenzeuge erzählte mir, dass die überlegenen Gegner sich ganz plötzlich zurückzogen, als ob sie komplett das Interesse an dieser Schlacht verloren hätten ...[@CR]Ich weiß nicht, was für ein Spiel sie mit uns treiben, aber über die wahren Absichten des Kaiserreichs ist noch immer wenig bekannt. Wir sollten jedenfalls jeden Tag auf einen neuen Überfall vorbereitet sein!","Ils avaient l'avantage, et se sont tout de même retirés. Peut-être voulaient-ils effectuer une simple recon[@16]nais[@16]san[@16]ce du terrain, ou peut-être que c'était une diversion. Tout cela n'est pas clair, mais en tout cas, nous devrions nous préparer à subir une nouvelle attaque pro[@16]chai[@16]ne[@16]ment. Qui sait s'ils ne vont pas bientôt frapper de nouveau[@1D]?",
70,敵だ！　敵が現れたぞ！,M-Monsters are attacking! A whole legion of them! Twelve save us all!,Monster greifen uns an! Sie sind überall! Nur die Zwölf können uns jetzt noch retten!!!,Attention[@1D]! L'ennemi est là[@1D]!,
71,命が惜しけりゃ、身を隠した方がいい。[@CR]敵が現れたぞ！,"M-Monsters are attacking! A whole legion of them! If you have a care for life and limb, quit this place at once!","Monster! Unzählige!!![@CR]Lauf, wenn dir dein Leben lieb ist!","Si vous tenez à la vie, mettez-vous à l'abri, vite[@1D]! Des unités ennemies aient fait leur apparition.",
72,何を尋ねる？,What will you say?,Was möchtest du entgegnen?,Que voulez-vous demander[@1D]?,
73,落ち着いてくれ,Pull yourself together!,"Reiß dich zusammen, Mann!",Calmez-vous.,
74,場所は？,Where exactly are these monsters?,Wo sind die Monster jetzt?,Où ça[@1D]?,
75,そ、それもそうだな。すまない。[@CR]突然、戦いに出くわしたから、慌てて逃げてきたんだ。[@CR]あれは、帝国兵の一部に間違いなかったぞ。,"Apocalypse! Armageddon! Fire and brim─[@CR]Ahem. I'm sorry. That was rather...unbecoming of me. Such were the horrors I witnessed, I took leave of all reason and fled like a man possessed. Having regained command of my mental faculties, however, I'd swear on Grandmama's grave that the Empire is behind this. A pox on the imperial dogs, and their nefarious ways!","Überall nur Tod und Verderb... Ähem ... [@1A(1)]hust[@1A(0)][@CR]Da sind wohl die Chocobos etwas mit mir durchgegangen. Aber wenn du gesehen hättest, was ich sah, hättest du auch die Hände über dem Kopf zusammengeschlagen und lauthals schreiend das Weite gesucht. Ich bin mir sicher, dass die Garlear dahinterstecken. Der Zorn von Rhalgr soll sie treffen!","Ah[@1D]! Oui, pardon, je suis confus. La bataille s'est déclarée d'un coup, alors je me suis enfui précipitamment. Il ne fait aucun doute qu'il s'agissait d'un escadron impérial.",
76,キャンプ・ブラッドショアの辺りだ。[@CR]もしかして、行くつもりなのか？[@CR]相手は帝国だ。何が起きるか分からないから、気をつけろよ。,"It was in the vicinity of Camp Bloodshore that the fiends appeared, though I cannot imagine why you would want to kn─ [@1A(1)]Oh![@1A(0)] You...you mean to [@1A(1)]engage[@1A(0)] the fell creatures, don't you!? I can see it in your eyes. Well, far be it from me to come between you and your death wish! Of course...should you somehow live to tell the tale, I would be very glad to hear it. Do be careful out there, won't you?","Es war in der Nähe von Camp Rotgischt, wo die Hölle über uns hereinbrach ... Aber warum fragst du?[@CR]Dieses verrückte Glitzern in deinen Augen kenne ich doch. Alle Abenteurer haben diesen Blick, bevor sie sich in den sicheren Tod stürzen. Aber ich will dich nicht aufhalten, sondern nur um etwas bitten: Erzähl mir von der Schlacht, wenn du mit heiler Haut davonkommen solltest, ja?","C'est vers les Rives sanglantes. Vous pensez aller sur place[@1D]? Attention, on ne sait pas de quoi les soldats impériaux sont capables. Redoublez de prudence[@1D]!",
77,キャンプ・トランキルの辺りだ。[@CR]もしかして、行くつもりなのか？[@CR]相手は帝国だ。何が起きるか分からないから、気をつけろよ。,"It was in the vicinity of Camp Tranquil that the fiends appeared, though I cannot imagine why you would want to kn─ [@1A(1)]Oh![@1A(0)] You don't seriously intend to tackle the fell beasts!? Gods! You [@1A(1)]do[@1A(0)]! I can see it in your eyes. Well, far be it from me to stand in the way of your death wish! That said, if you somehow live to tell the tale, I should be mightily glad to hear it. Just you be careful, alright?","Es war in der Nähe von Camp Seelenruhe, wo die Hölle über uns hereinbrach ... Aber warum fragst du?[@CR]Dieses verrückte Glitzern in deinen Augen kenne ich doch. Alle Abenteurer haben diesen Blick, bevor sie sich in den sicheren Tod stürzen. Aber ich will dich nicht aufhalten, sondern nur um etwas bitten: Erzähl mir von der Schlacht, wenn du mit heiler Haut davonkommen solltest, ja?","C'est vers le camp des Sentes tranquilles. Vous pensez aller sur place[@1D]? Attention, on ne sait pas de quoi les soldats impériaux sont capables. Redoublez de prudence[@1D]!",
78,みんな逃げて！　敵が来るわ！！,"Run, everyone! Monsters... <pant> Monsters are coming!","Rennt, Leute, rennt! [@1A(1)]schnauf[@1A(0)] Die Monster kommen!!!","Fuyez tous[@1D]! L'ennemi approche, on nous attaque[@1D]!",
79,気をつけて！　ここも危険かもしれない。[@CR]敵が出たのよ！！,"Monsters are coming! It's not safe here! Run! Hide! Do [@1A(1)]something[@1A(0)], before it's too late!","Eine riesige Horde Monster wird kommen! Hier ist es nicht sicher. Flieh oder versteck dich, bevor es zu spät ist!",Attention[@1D]! L'endroit est peut-être dangereux[@1D]! Nos ennemis ont fait leur apparition[@1D]!,
80,あら、ごめんなさい。[@CR]帝国兵に出くわしてしまって、命からがら逃げてきたものだから。[@CR]あんなに近くで見たの初めて。思い出すだけで震えが来るわ……,"P-Please forgive my flustered state. In my defense, one seldom stumbles into a horde of ravenous fiends, unleashed into our midst to do the Empire's vile bidding. It's a wonder I managed to find my legs and flee the scene. Why, the mere recollection of the experience is enough to─ <shudder> ...Oh dear me.","Verzeih mir bitte, es kommt nicht oft vor, dass ich die Fassung verliere. Aber man stolpert auch nicht oft in eine Horde höllischer Biester, die von den Garlearn auf einen losgelassen werden ...[@CR]Es ist ein Wunder, dass ich überhaupt lebend dort weggekommen bin. Wenn diese Viecher mich erwischt hätten ... [@1A(1)]schauder[@1A(0)]",Pardonnez-moi... je suis tombée sur des unités impériales et je me suis enfuie. C'était la première fois que j'en voyais de si près.,
81,キャンプ・ブラッドショアの辺りよ。[@CR]ちょっと、あなた、見に行こうなんて思っちゃだめよ！[@CR]睨みつけられただけで、動けないほど恐ろしいんだから！,"It was near Camp Bloodshore that I had the misfortune to meet with the monstrosities. Why do you ask? Waaait...you're not thinking what I think you're thinking, are you? Because if you are, I'd [@1A(1)]strongly[@1A(0)] advise you to reconsider. So terrible were the creatures, their gaze alone would fair petrify a man. Well, I've given you due warning, so don't come crying to me if you end up dead.","Es war irgendwo bei Camp Rotgischt, als die Norne mir den kranken Streich spielte, mich Zeuge des grausamen Überfalls werden zu lassen. Aber warum fragst du?[@CR]Du wirst doch nicht? Du solltest dir ganz genau überlegen, ob du bereits alt genug bist, um aus dieser Welt zu scheiden! Na ja, alt genug, um diese Entscheidung alleine treffen zu können, scheinst du mir jedenfalls zu sein. Ich habe dich jedenfalls gewarnt. Der Tod durch die Klauen dieser Monster wird kein angenehmer ...","C'est aux environs des Rives sanglantes. Quoi[@1D]? Vous voulez aller voir[@1D]? Vous n'y pensez pas, voyons, c'est dangereux[@1D]! Leur regard suffit à vous tétaniser d'effroi[@1D]!",
82,キャンプ・トランキルの辺りよ。[@CR]ちょっと、あなた、見に行こうなんて思っちゃだめよ！[@CR]睨みつけられただけで、動けないほど恐ろしいんだから！,"It was near Camp Bloodshore that I had the misfortune to meet with the monstrosities. Why do you ask? Waaait...you're not thinking what I think you're thinking, are you? Because if you [@1A(1)]are[@1A(0)] thinking what I think you're thinking, I'd [@1A(1)]strongly[@1A(0)] advise you to stop thinking it. You must understand, a single [@1A(1)]look[@1A(0)] from one of these creatures would be enough to petrify a man! Well, I've given you due warning, so don't come crying to me if you end up dead.","Es war irgendwo bei Camp Seelenruhe, als die Norne mir den kranken Streich spielte, mich Zeuge des grausamen Überfalls werden zu lassen. Aber warum fragst du?[@CR]Du wirst doch nicht? Du solltest dir ganz genau überlegen, ob du bereits alt genug bist, um aus dieser Welt zu scheiden! Na ja, alt genug, um diese Entscheidung alleine treffen zu können, scheinst du mir jedenfalls zu sein. Ich habe dich jedenfalls gewarnt. Der Tod durch die Klauen dieser Monster wird kein angenehmer ...","C'est aux environs du camp des Sentes tranquilles. Quoi[@1D]? Vous voulez aller voir[@1D]? Vous n'y pensez pas, voyons, c'est dangereux[@1D]! Leur regard suffit à vous tétaniser d'effroi[@1D]!",
83,喜べ！　ガレマール帝国の攻撃を退けたぞ！,Hurrah! The Garleans have been beaten back like the dogs they are!,Es gibt einen Grund zum Feiern! Die Garlear haben ihre Offensive abgebrochen!,Réjouissez-vous[@1D]! L'Empire a été repoussé[@1D]!,
84,喜べ！　ガレマール帝国の攻撃を退けたぞ。,Wonderful tidings! The imperial offensive is repelled!,"Ist das nicht wundervoll, [@IF($E9(4),holde Abenteurerin,mein Freund)]? Die Offensive der Garlear ist zum Erliegen gekommen!",Réjouissez-vous[@1D]! L'Empire a été repoussé[@1D]!,
85,何を尋ねる？,Inquire further?,Weitere Fragen stellen?,Que voulez-vous demander[@1D]?,
86,撃退したのか？,We defeated the imperial forces?,Wir haben die garleischen Truppen besiegt?,L'ennemi a-t-il vraiment été refoulé[@1D]?,
87,この後はどうなる？,What happens now?,Womit müssen wir als Nächstes rechnen?,Que va-t-il se passer[@1D]?,
88,もちろんだ。[@CR]集まった冒険者の活躍のおかげで、敵は見事に撃退されたぞ。[@CR]参戦者から、戦いの詳しい話を聞いてみたいもんだ。,"Aye, and we owe it all to the dauntless adventurers who chanced to be nearby and engaged the enemy with nary a thought for their own safety. I could kiss each and every one of our saviors on the mouth! Ah, what I wouldn't give to have witnessed the epic struggle!","Ja, und zu verdanken haben wir alles einer Gruppe tapferer Abenteurer![@CR]Wie bitte? Du warst einer derjenigen, die die Feinde zurückgeschlagen haben? Dann rede ich hier die ganze Zeit mit [@IF($E9(4),einer Heldin,einem Helden)] und merke es nicht einmal ... Du musst mir irgendwann mal alles ausführlich bei einem kühlen Bier darüber erzählen.","Bien sûr, l'attaque a été repoussée grâce au soutien des aventuriers. J'aimerais que l'un d'entre eux me raconte la bataille en détail, à l'occasion.",
89,近くに帝国の軍勢は見当たらないらしいし、もう大丈夫だろう。[@CR]これに懲りて、帝国が諦めてくれるといいのだが。[@CR]前哨戦でないことを願おう。,"Our latest reports say the area has been purged of all imperial presence. And who knows? Even the most persistent suitor will eventually concede defeat if he's spurned often enough...assuming he's not the obsessive sort. Let's hope the Empire doesn't fall into that category, eh!?","Wenn man den neusten Berichten Glauben schenken kann, wurde das Areal komplett von garleischen Truppen gesäubert.[@CR]Ein kluger General weiß, wann er verloren hat und zu seiner Niederlage stehen muss. Hoffen wir einfach mal, dass die Prätoren des Kaiserreiches wenigstens so intelligent sind, dass dies auch auf sie zutrifft.","On n'aperçoit pas d'unités ennemies dans les environs, les choses semblent s'être calmées. Espérons que ça découragera l'Empire de revenir nous attaquer. Et prions pour que ce ne soit pas une escarmouche annonciatrice de plus grosses attaques[@1D]!",
90,もう安全よ！　ガレマール帝国の攻撃が終わったわ！,All is well! The imperials harry us no more!,Alles hat ein gutes Ende genommen! Die Garlear haben ihre Angriffe eingestellt!,"Tout va bien, maintenant[@1D]! L'offensive de l'Empire est terminée[@1D]!",
91,怖かったわね……。でも、もう安心よ。[@CR]帝国の攻撃が終わったそうだから。,"The imperial invasion ranks among the most harrowing times of my life. Oh, how my heart soared to hear their assault had ceased!","Meine Güte, diese garleische Invasion war eines der traumatisierendsten Ereignisse in meinem Leben. Was meinst du wie froh ich darüber bin, dass sie ihre Offensive eingestellt und die Zelte abgebrochen haben!!!","Oh, j'ai eu si peur[@1D]! Mais tout va bien, maintenant. L'offensive est terminée.",
92,ええ。心ある勇士たちが駆け付けて、敵を倒してくれたそうよ。[@CR]参戦した人から、その時の話を詳しく聞いてみたいわ。[@CR]私の兄と一緒にね。,"Wonderful, is it not? I'm told a crew of fearless adventurers appeared and smote the fiends with a fury that'd make Halone proud! I'd so love the chance to hear a first-hand account of the encounter, and I'm certain I speak for my brother as well.","Ja, das sag ich doch! Mir wurde erzählt, besonders tapfere Abenteurer hätten die Garlear zurückgeschlagen.[@CR]Wie bitte? Du gehörst zu den Helden, die den Gegnern den Garaus gemacht haben!? Ich hätte es an deiner Aura erkennen müssen. Aber du siehst viel zu gutmütig aus, als dass ich dich für einen solchen Todesengel des Schlachtfeldes hätte halten können. Verzeih mir.","Oui, des braves ont repoussé l'ennemi. Mon frère et moi nous aimerions vraiment que l'un d'entre eux nous raconte la bataille en détail[@1D]!",
93,戦闘があった辺りには、ガレマール帝国の軍勢は見当たらないそうよ。[@CR]でも最近、帝国の奇襲がエオルゼア各地で増えてるらしいの。[@CR]いつ帝国が攻めてくるか、分かったものじゃないわ……。,"The latest scout reports say that the Garleans have been driven from the area. But with imperial activity on the rise across Eorzea, who can say where they will strike next?","Unsere Scouts haben berichtet, dass alle garleischen Truppen das Areal verlassen haben. Allerdings vermehren sich die Aktivitäten der Garlear in ver[@16]schie[@16]den[@16]sten Gegenden ganz Eorzeas, so dass wir nicht mit Bestimmtheit sagen können, wann und wo sie als nächstes zuschlagen werden ...","Apparemment, il n'y a plus d'unités ennemies là où a eu lieu l'attaque, les choses semblent s'être calmées. Mais les offensives impériales se multiplient ces derniers temps en Eorzéa... qui sait quand ils reviendront nous attaquer[@1D]?",
94,ガレマール帝国の兵士がいたらしいぞ！,Imperial troopers have been sighted!,Garleische Truppen wurden gesichtet!,Attention[@1D]! Il y a des soldats impériaux[@1D]!,
95,知ってるか？　ガレマール帝国の兵士が現れたらしいぞ。[@CR]いったい、何を企んでやがる……。,"Have you heard, friend? Garlean troopers have been sighted in the area!",Hast du schon gehört? Man hat Truppen des garleischen Kaiserreichs in diesem Areal gesichet!,Vous avez entendu[@1D]? Il paraît qu'il y a des soldats impériaux qui ont été repérés dans les environs. Qu'est-ce qu'ils peuvent bien mijoter[@1D]?,
96,何を尋ねる？,Inquire further?,Weitere Fragen stellen?,Que voulez-vous demander[@1D]?,
97,どんな奴らだ？,What kind of troopers?,Was weißt du über die Truppengattung?,A quoi ressemblent-ils[@1D]?,
98,場所は？,Where were they sighted?,Wo hat man die Feinde gesichtet?,Où se trouvent-ils[@1D]?,
99,数は少ないんだが、そのうちのひとりが禍々しい鎧を装備してるらしい。[@CR]だとすると、そいつはかなりの大物かもしれないが、断定するには情報が[@CR]足りない。もし君が見かけたら、話を聞かせてくれ。,"They were but a few, all of them unremarkable...save one clad in a suit of armor strange and menacing. Clearly a brass hat, that one, and not to be taken lightly. What dastardly scheme could the whoresons possibly be plotting? Gods, what I wouldn't give to find out! Should you cross paths with the imperial dogs on your travels, I would thank you to tell me of it.","Es waren nicht viele und alle von unscheinbarer Erscheinung, bis auf einen ... Mitten unter ihnen ist einer, der eine Unheil verheißende Rüstung trägt und schon von seiner Statur her ein formidabler, ja sogar angsteinflößender Gegner zu sein scheint![@CR]Ich würde so gerne wissen, was diese Dreckschweine vorhaben! Wenn du auf deinen Reisen ihren Weg kreuzen solltest, dann lass es micht bitte wissen, ja?","Ils ne sont pas nombreux, mais l'un d'entre eux porte une armure sinistre, à ce qu'on dit. Ça voudrait dire que c'est quelqu'un d'important, mais nous n'en savons pas assez pour découvrir de qui il s'agit. Si jamais vous l'apercevez, dites-le-moi.",
100,今のところ、各地のキャンプ周辺で、よく目撃されてるようだ。[@CR]わざわざ存在を誇示してる節もあるし、罠かもしれないぞ。[@CR]気をつけろよ。,"Sightings have been reported at camps all across Eorzea. The Garleans are said to come and go with nary a care for discretion, brazenly parading themselves for all and sundry to see. Either this is a trap, or I'm a faerie. You'd do well to practice caution, friend.","Berichte über die Gruppe um den einen unheilvollen Krieger hört man aus Camps überall in Eorzea. Die Garlear bemühen sich überhaupt nicht mehr um Geheimhaltung, sondern wollen vielmehr zeigen, was sie haben, um uns gehörig Angst einzujagen. Vielleicht wollen sie unsere Truppen auch aufs Schlachtfeld locken, aber das ist mit Sicherheit eine Falle. Sei immer auf der Hut!","Apparemment on les a aperçus à plusieurs reprises aux environs des camps. Il est possible qu'ils se soient laissés apercevoir exprès, et que tout ceci soit une feinte, alors faites très attention si vous les approchez.",
101,ガレマール帝国の兵士が現れたらしいわ！,Imperials have been sighted!,Garleische Truppen wurden gesichtet!,"Oyez, camarades[@1D]! Des soldats impériaux ont été aperçus dans les environs[@1D]!",
102,聞いて、聞いて！[@CR]ガレマール帝国の兵士が現れたらしいの。,Troubling news! Imperial troopers have been sighted in the area!,Es gibt besorgniserregende Neuigkeiten. Truppen der Garlear wurden in diesem Areal gesichtet!,"Ecoutez-moi, camarades[@1D]! Il paraît que des soldats de l'Empire ont été repérés dans les environs.",
103,兵士を連れた指揮官らしき奴が、禍々しい鎧を着ているらしくって。[@CR]これが本当なら、そいつは幹部クラスの重要人物よ。でも、なんで[@CR]そんな大物が、わざわざ出向いてきたのかしら？,"Though but a handful in number, there is one among them whose distinctive armor marks him out as some kind of dignitary. That the Empire would dispatch its high-ranking officers here can only bode ill...","Gesehen wurde nur eine Handvoll garleischer Soldaten, aber bei ihnen war ein Krieger mit sehr auffälliger, Unheil verkündender Rüstung.[@CR]Warum schickt das Kaiserreich einen hohen Offizier hierher?","On dirait qu'il s'agit d'un officier et de son escorte. Il porte une armure sinistre, à ce qu'on dit. Cela voudrait dire que c'est un haut gradé de l'armée ennemie. Mais pourquoi un militaire de haut rang se déplacerait en première ligne[@1D]?",
104,今のところ、エーテライトの周辺での目撃談が多いわ。[@CR]でも、ずっと張り込んでるけど、全然見かけないの。[@CR]もし、あなたが見かけたら、私にも教えてね。,"The imperials are most often seen in the vicinity of aetheryte camps, or so I hear. I've been keeping vigil over the area in hopes of espying them, but they're proving far more elusive than reports suggest. Should you chance to catch sight of them, be sure to let me know.","Ich habe gehört, dass man die Garlear immer häufiger nahe den Ätheryten-Camps sichtet. Ich habe schon nach ihnen Ausschau gehalten, konnte sie aber bisher nicht erspähen. Wenn du sie siehst, dann lass es mich bitte wissen.","Apparemment on les aurait aperçus tout récemment aux environs des éthérites. Mais j'ai eu beau surveiller sans relâche, je n'ai pas pu les voir. Si vous les apercevez, dites-le-moi.",
105,真実を求める者よ……どうか、ご傾聴ください……「第七の浄化」は、多くを飲みこむでしょう……曇りを拭い……嘲りに見返ることなく……真実を求めなさい……,"Hearken unto me, ye seekers of truth, and through my words be saved! The seventh Moon's shade shall smother all things! Seek truth alone, letting nor brume of scorn nor cruel disdain cloud thine eye!","Begehrt es euch danach, die Wahrheit zu erfahren? So höret mir aufmerksam zu, ihr ehrbaren Abenteurer.[@CR]Ein Sturm zieht auf, und dieses Menetekel sei euch Warnung, denn der Schatten des siebten Mondes wird alles erdrücken ...",Vous qui êtes en quête de vérité... Ecoutez-moi... La “septième purification” engloutira nombre d'âmes... Ne l'oubliez pas... ne la prenez pas à la légère... et cherchez la vérité...,
106,『六の陽没し　七の月輝きしとき……[@CR]　群雲より　紅き炎降り　奈落より　黒き闇湧かん……』,"[@1A(1)]Ne'er till land consumes sun can sea bear moons,[@CR]Heavens spew crimson flame, hells seep black dooms.[@1A(0)]","[@1A(1)]Bald sinkt herab die sechste Sonne, indes der silbern überfang'ne Mond[@CR]Zum siebten Lauf ein Schimmern sendet -[@CR]Da glüht herab ein Lohenregen, aus Wolken, denen Höllenchaos innewohnt,[@CR]Und unheilvolle Düsternis aus tiefen Schlünden, die nie endet ...[@1A(0)]",“Lorsque le sixième soleil se sera couché et que la septième lune brillera dans le ciel... [@CR]L'océan de nuages déversera une pluie de flammes ardentes et des ombres funestes jailliront du plus profond de la terre...”,
107,『然れど　古き灰に　新しき種は蒔かれり……[@CR]　其は汝　魔断つ勇の剣　獣畏る優の灯なり……』,"[@1A(1)]Stray seeds quicken in ash's grey embrace,[@CR]Valiant blades forged under the Twelve's good grace.[@1A(0)]","[@1A(1)]Doch kalte Asche birgt schon ferner Tage Keim,[@CR]Ihr selbst seid es! Ein Schwertstreich, der mit Todesmut[@CR]Dämonen tilgt; Ein sanfter Lichterschein,[@CR]den Bestien so scheuen wie ihr eigen Blut.[@1A(0)]","“Mais sous les cendres encore tièdes déjà l'espoir fleurira, le salut de tout un monde, de tout un peuple, c'est vous[@1D]![@CR]De votre courageuse épée, un jour, le mal vous pourfendrez, et devant la lueur de votre pureté les ténèbres ne pourront que reculer...”",
108,恐るべき異変が、世界に迫っています……[@CR]来たる混乱に備え、目覚める時です……[@CR]未来を変えましょう……貴方がたの力で……,"A shadow hangeth o'er the realm, growing blacker with each passing day! Rise from thy waking slumber! See the nightmare for reality, and ready thyself for the coming chaos! Darkness descendeth, but surrender not to despair! For the future is forged in the flames of the present!","Ein Schatten liegt wie ein Tuch über dem Land und mit jedem Tag wird er dunkler![@CR]Die Zeit ist gekommen, aus Träumereien zu erwachen, und sich für das nahende Chaos zu rüsten! Eure Kraft allein vermag es, die sich in ständigem Wandel befindliche Zukunft zum Guten zu wenden!","Un grand trouble va s'abattre sur le monde, un changement terrifiant... Le temps de l'éveil est venu[@1D]! Vous devez vous préparer pour le chaos qui approche. L'avenir peut être réécrit... car vous pouvez encore le changer...",
109,何を尋ねる？,Inquire further?,Willst du Fragen an Urianger stellen?,Que voulez-vous demander[@1D]?,
110,目覚めとは？,Awakening?,Erwachen?,Qu'est-ce que l'éveil[@1D]?,
111,これから何が起こるのか？,What is going to happen?,Was wird mit uns geschehen?,Que va-t-il se passer au juste[@1D]?,
112,感覚を研ぎ澄まし……[@CR]すべての事象に……この世の真理を見い出すこと……,"Temper thy sense, whet thy judgment, and so armed, divide truth from falsehood in myriad creation.","Ich bin einer derjenigen, die als Erste aus ihren Träumereien erwachten. Mir ist es vorherbestimmt, von der in Mezayas Prophezeiung beschriebenen Siebten Katastrophe zu predigen.[@CR]Schärft eure Sinne und euer Urteilsvermögen und nutzt diese Waffen, um die Wahrheit von all den Lügen zu unterscheiden.",L'éveil consiste à transcender sa perception et éveiller ses sens à tous les phénomènes qui nous entourent... et discerner la Vérité de cette existence...,
113,自分が今……[@CR]何をすべきかに気づき……行動すること……,Bend thee to the light within. Let its unflickering brilliance be thy guide.,"Besinnt euch auf das Licht in eurem Innern. Lasst euer Handeln von seinem steten, hellen Schein leiten.","L'éveil, c'est percevoir ce que l'on doit faire à présent... et agir...",
114,あなたがたの心次第……預言を大難にするも……[@CR]小異にするも……あなたがたの想いと行動だけ……,"Though prophecy cannot be stayed, it may yet be swayed. By your deeds alone shall its design be made.","Mein Begehr ist es, allen die Augen zu öffnen, bevor es keine Rettung mehr gibt.[@CR]Die Prophezeiung nimmt bereits ihren Lauf, aber ihr Ausgang ist noch immer beeinflussbar. Nur eure Taten können einen solchen Einfluss bewirken.",Ce qui arrivera dépendra de vous... Une grande catastrophe... ou un événement mineur... tout ne tient qu'à vos âmes et vos actes...,
115,キャンプ・ホライズンの北だ。[@CR]もしかして、行くつもりなのか？[@CR]相手は帝国だ。何が起きるか分からないから、気をつけろよ。,"It was a little way north of Camp Horizon that the fiends appeared, though I cannot imagine why you would want to kn─ [@1A(1)]Oh![@1A(0)] You don't seriously mean to face the fell beasts!? Gods! You [@1A(1)]do[@1A(0)]! I can see it in your eyes. Well, far be it from me to deny a [@IF($E9(4),woman her,man his)] death wish! That said, if you somehow live to tell the tale, I should be very glad to hear it. Just be careful, though, alright?","Es war nördlich von Camp Horizont, wo die Hölle über uns hereinbrach ... Aber warum fragst du?[@CR]Dieses verrückte Glitzern in deinen Augen kenne ich doch. Alle Abenteurer haben diesen Blick, bevor sie sich in den sicheren Tod stürzen. Aber ich will dich nicht aufhalten, sondern nur um etwas bitten: Erzähl mir von der Schlacht, wenn du mit heiler Haut davonkommen solltest, ja?","C'est au nord du camp Horizon. Vous pensez aller sur place[@1D]? Attention, on ne sait pas de quoi les soldats impériaux sont capables. Redoublez de prudence[@1D]!",
116,キャンプ・ホライズンの辺りよ。[@CR]ちょっと、あなた、見に行こうなんて思っちゃだめよ！[@CR]睨みつけられただけで、動けないほど恐ろしいんだから！,"It was near Camp Horizon that I had the misfortune to set eyes upon the horrors. Why do you ask? Waaait...you're not thinking what I think you're thinking, are you? Because if you are, I'd [@1A(1)]strongly[@1A(0)] advise you to reconsider. These creatures are so unspeakably abominable, their gaze alone would petrify a man! Hmph, not that you'll listen. Well, don't say I didn't warn you.","Es war irgendwo bei Camp Horizont, als die Norne mir den kranken Streich spielte, mich Zeuge des grausamen Überfalls werden zu lassen. Aber warum fragst du?[@CR]Du wirst doch nicht? Du solltest dir ganz genau überlegen, ob du bereits alt genug bist, um aus dieser Welt zu scheiden! Na ja, alt genug, um diese Entscheidung alleine treffen zu können, scheinst du mir jedenfalls zu sein. Ich habe dich jedenfalls gewarnt. Der Tod durch die Klauen dieser Monster wird kein angenehmer ...","C'est aux environs du camp Horizon. Quoi[@1D]? Vous voulez aller voir[@1D]? Vous n'y pensez pas, voyons, c'est dangereux[@1D]! Leur regard suffit à vous tétaniser d'effroi[@1D]!",
117,うぅぅ、いったい、どうなってるんだ……小月「ダラガブ」が鮮血のように朱に染まってしまったよ。あの月の如く、ボクらも血に染まるんだね……。,"Dear gods, Dalamud appears as if bathed in blood...[@CR]C-Could this presage approaching perils?","Aaaah bei Menphina! Dalamud sieht aus, als wäre er in Blut getränkt! Das ist kein gutes Omen.[@CR]Es ist also so weit ...","Oh là là, mais qu'est-ce que ça veut dire... Dalamud est subitement devenue rouge comme le sang... c'est sûrement un mauvaise présage[@1D]! Nous aussi allons être teintés de sang...",
118,うぅぅ、白ネズミのヤツらめぇ……[@CR]これはきっと「ダラガブ」の呪い……[@CR]小月「ダラガブ」の呪いなんだぁ……,Grrr! Curse those ratbag rodents thrice over! Th-The curse of Dalamud...it was more than a myth!,"Verdammt seien diese nichtsnutzigen Nagetiere, diese fahlweiße heimtückische Plage! Sie sind der Fluch Dalamuds, der Fluch des minderen Mondes ...","Ces souris blanches... c'est sûrement une malédiction de Dalamud[@1D]! Oui, Dalamud nous a maudits...",
119,何を尋ねる？,Inquire further?,Genaueres erfragen?,Que voulez-vous demander[@1D]?,
120,何があったのか？,Is something the matter?,Was ist denn passiert?,Que s'est-il passé[@1D]?,
121,「ダラガブ」とは？,Dala-who?,Wer ist Dalamud?,Qu'est-ce que Dalamud[@1D]?,
122,白ネズミとは？,Rodent trouble?,Welche Nagetiere?,Que sont les souris blanches[@1D]?,
123,うぅぅ、聞いておくれよ、ひどい話なんだ！[@CR]ボクは「彫金師ヨルドウィン」様の弟子のひとり、ノルモ・リルモ。,"I am Nolmo Lilmo, adroit apprentice to the great goldsmith Joldewin. Hearken to my harrowing history!","Ach, hör mich an, [@IF($E9(4),meine einzige Vertraute,mein einziger Freund)]! Es ist so furchtbar![@CR]Ich bin Nolmo Lilmo, Goldschmied-Lehrling von Meister Joldewin.","Oh, si vous saviez[@1D]! Une histoire horrible[@1D]! Je me nomme Nolmo Lilmo et je suis un des disciples de maître Joldewin, le fameux orfèvre.",
124,でもね、納品先の各都市「ＡＢＵ支部」へと配送中、[@CR]作ったアクセサリを全部、盗まれてしまったんだよ！[@CR]大きくてすばしっこい、その……真っ白なネズミに……！,"Alas, our pleasure proved to be passing. But a few bells after the delivery caravans departed, we received word that pure-white packs of rapacious rodents had run off with every last crate of our costly cargo!","Wir haben uns also an die Arbeit gemacht, aber gerade als wir die erste Ladung der Schmuckstücke an die Kaskadeure ausliefern wollten, wurde alles gestohlen! Bis auf das letzte Stück![@CR]Von diesen ... diesen ... miesen Mäusen!","Mais il se trouve qu'au cours de la livraison, nos créations ont été odieusement volées[@1D]! Et par... des souris blanches[@1D]!",
125,うぅぅ、その目つき。キミも、ボクをホラ吹き扱いするんだね？[@CR]納期に間に合わないから、出来の悪い作り話をこしらえたって……[@CR]この汚名を晴らさないと、ボクたちは身投げするしかないよ！,"That disbelieving demeanor... You suspect me of spinning this sad story to save my own skin! Well, nothing could be further from the fact. Monstrous mice [@1A(1)]did[@1A(0)] appropriate our articles, and now [@1A(1)]we[@1A(0)] must bear the burden of a ruined reputation for failing to furnish our clients with the promised products.","Du glaubst mir wohl nicht? Nagetiere seien nicht interessiert an nicht nagbaren Ziergegenständen?[@CR]Ja, das haben alle gesagt ... Jeder denkt, ich hätte das alles erfunden, um die schlechte Qualität meiner Arbeit zu vertuschen. [@1A(1)]seufz[@1A(0)][@CR]Aber das werde ich nicht auf mir sitzen lassen! Ich arbeite fleißig und genau!","A voir votre regard, on dirait que vous croyez que je raconte cette histoire à dormir debout parce que je n'ai pas pu terminer la commande à temps[@1D]? Ah[@1D]! Quel malheur[@1D]! Si même mon nom est souillé, alors je n'ai plus qu'à me jeter dans les ondes[@1D]!",
126,"そうだ！　いきなりだが、キミにお願いしちゃおう！[@CR]もし、妙な動きをする白いネズミを見つけたら、盗まれた[@CR]アクセサリ「[@SWITCH([@SHEET(itemData,9030020,41)],[@COLOR(#fff3f3f3)],[@COLOR(#ffc0ffa0)],[@COLOR(#ff60c8ff)],[@COLOR(#ffb38cff)],[@COLOR(#ffffa666)],[@COLOR(#ffe5dd7e)])][@EDGECOLOR(#ff262626)][@SHEET(xtx/itemName,9030020,4)][@EDGECOLOR($EC)][@COLOR($EC)]」を取り戻してくれないかな？","<sigh> Truth be told, though, I no longer care about my cargo─nor my client's credit, come to that. It's the thought of those rotten rodents running rampant that riles me. I ache to afflict them with awful agonies, but such strenuous stuff suits me not. You, on the other hand─","Aber um ehrlich zu sein, ist mir die Lieferfrist inzwischen ziemlich egal. Ich will es nur mehr diesen rufschädigenden Ratten heimzahlen![@CR]Du siehst aus, als hättest du Sinn für Gerechtigkeit. Kannst du mir helfen, [@SWITCH([@SHEET(itemData,9030020,41)],[@COLOR(#fff3f3f3)],[@COLOR(#ffc0ffa0)],[@COLOR(#ff60c8ff)],[@COLOR(#ffb38cff)],[@COLOR(#ffffa666)],[@COLOR(#ffe5dd7e)])][@EDGECOLOR(#ff262626)][@SHEETDE(xtx/itemName,2,9030020,2,4,1)][@EDGECOLOR($EC)][@COLOR($EC)] von den weißen Mäusen zurückzuholen und sie im Namen des Mondes zu bestrafen?","Je sais[@1D]! Pardon de vous demander ça aussi abruptement, mais accepteriez-vous de m'aider[@1D]? Si vous trouvez des souris blanches au com[@16]por[@16]te[@16]ment bizarre, essayez de leur reprendre les [@SWITCH([@SHEET(itemData,9030020,41)],[@COLOR(#fff3f3f3)],[@COLOR(#ffc0ffa0)],[@COLOR(#ff60c8ff)],[@COLOR(#ffb38cff)],[@COLOR(#ffffa666)],[@COLOR(#ffe5dd7e)])][@EDGECOLOR(#ff262626)][@SHEETFR(xtx/itemName,12,9030020,2,1)][@EDGECOLOR($EC)][@COLOR($EC)] qu'elles nous ont volées[@1D]!",
127,元々、あのアクセサリは、冒険者への褒賞品。[@CR]取り戻せたら、キミの所有物にしてもらって構わないからさ。[@CR]もう納期は過ぎてるし、ボクたちは名誉が取り戻せれば、それでいいんだ。,"<gasp> [@1A(1)]You[@1A(0)] could corner the vile vermin, and learn them a lesson in lamentation! If you're even remotely as ruthless as I reckon, this task should pose you no problems. No doubt the prospect of roughing up the rodents is reward enough, but by way of an added incentive, you're free to keep any earrings you recover. After all, they were intended to adorn adventurers from the first.","Den Schmuck, den du dabei findest, kannst du behalten. Der war sowieso für euch Abenteurer gedacht.","A l'origine, ces boucles d'oreilles devaient servir de cadeau aux aventuriers[@1D]! D'ailleurs, si vous en récupérez, je veux bien que vous en gardiez une. Moi, tout ce que je veux, c'est rétablir notre réputation en montrant qu'on avait bel et bien terminé notre ouvrage[@1D]!",
128,あれ、知らないの。「ダラガブ」とは、小月のことだよ。[@CR]ほらほら、大月の側に、もうひとつ小さな月があるでしょ？[@CR]あれは、月の女神メネフィナ様の番犬「ダラガブ」なのさ。,"You're unfamiliar with Dalamud? Gaze up at the night sky, friend, and you'll spy a small celestial sphere, servant to the moon. That there is Dalamud, loyal hound of the moon goddess Menphina.","Du weißt nicht, wer Dalamud ist? Ehrlich?[@CR]Hast du deinen Blick schon mal nach oben gerichtet? Dort am nächtlichen Firmament siehst du den kleinen Mond Dalamud, den treuen Wachhund der Mondgöttin Menphina.","Quoi[@1D]? Vous ne connaissez pas Dalamud[@1D]? C'est le nom d'une de nos deux lunes. Vous savez, à côté de la grosse lune, il y en a une plus petite[@1D]? Hé bien, elle s'appelle Dalamud[@1D]; on dit que c'est le chien de garde de la Déesse de la lune, Menphina. Un surnom qui convient bien à un satellite[@1D]!",
129,衛星である月の周囲を回る、孫衛星だって説もあるけど、違うと思うね！[@CR]だって最近、「ダラガブ」は急に、血の色に染まってしまったんだから！[@CR]きっと、女神に仇なす魔物に噛みついたんだよ。,"Some so-called scholars submit that Dalamud is but a rock revolving 'round another rock, but I ignore such idiocy. I mean, how else can one explain Dalamud's sanguine stain save that he's bathed in the blood of the fiend that made to maim his mistress?","Angeblich ist es nur ein lebloser Himmelskörper, der den Hauptmond umkreist, doch ich sage dir - alles pseudowissenschaftlicher Quatsch![@CR]Nur ein Blinder hätte nicht bemerkt, wie rot Dalamud seit kurzem leuchtet - du zum Beispiel. Gerade als ob er in Blut getränkt wäre! Und zwar weil er versuchte, seine Gebieterin vor gefährlichen Bestien zu schützen. Genau!","On suppose même qu'elle orbite autour de la grosse lune, et non autour de notre planète. Un satellite secondaire, en somme. Enfin, moi, je n'y crois pas[@1D]! Après tout, Dalamud s'est subitement teintée de rouge[@1D]! C'est sûrement la Déesse qui a lâché son chien de garde sur quelque monstre malfaisant...",
130,そして、ボクたちも同じ運命に……[@CR]ああ、盗みにネズミを使う大盗賊「マウスボーイ」が[@CR]本当にいただなんて、いったい、誰が信じてくれるっていうんだよ？,...And now that selfsame bloody business will befall us all. <shudder>,"Das ist ein Zeichen ... Und uns wird dasselbe Schicksal ereilen ...[@CR]Die Geschichten vom Rattenfänger sind also wahr. Wer hätte das gedacht, dass jemand wirklich Nagetiere dressieren und für seine Zwecke nutzen könnte?","Et nous voilà maintenant nous aussi frappés par le destin... Ô malheur[@1D]! Il existe des histoires parlant d'un voleur capable de dresser des souris à voler comme lui, mais qui me croira, si j'affirme qu'il existe vraiment[@1D]?",
131,ボクたちが丹精を凝らして作ったアクセサリを[@CR]盗んでいった、白くて大きなネズミたちのことだよ。[@CR]ネズミを訓練して盗みに使うという大盗賊「マウスボーイ」は、実在したんだ！,"Quite right! Rotten rodents ran off with all the earrings my peers and I labored so long and lustily to make! What's more, they did so under the direction of their dire doyen, the Lord of the Rats! I had dismissed the miscreant as myth, but now I feel like a fine fool to find out that the tales were [@1A(1)]true[@1A(0)]!","Jedenfalls erklärt das, warum sich die Mäuse so für die Ohrringe interessierten, die wir im Schweiße unseres Angesichts hergestellt haben. Der Rattenfänger hat die Mäuse abgerichtet und als diebische Handlanger missbraucht.",Ce sont les souris blanches qui nous ont volé ces bijoux si fins que nous avions réalisés avec tant d'efforts. Je suis sûr que tout ceci est l'œuvre du voleur dresseur de souris dont parlent certains récits.,
132,えっ、ネズミはどこにいるのかって？[@CR]ラノシアで襲われたキャラバンの御者によれば[@CR]「レッドルースター農場」の方に走り去ったらしいんだけど……。,"Where are the rodents, you ask? According to the captain of the caravan, the vexatious vermin scuttled off in the direction of Red Rooster Stead. Not a single soul sought to give chase, though, so we know precious little else.",Wo die Mäuse jetzt seien? Sie müssten inzwischen in der Nähe der Gockelburg angelangt sein. Die überfallene Karawane hat die Nager jedenfalls in diese Richtung davonrennen sehen.,"Où se trouvent les souris[@1D]? D'après le cocher de la caravane qui s'est fait attaquer à la Noscea alors qu'elle trans[@16]por[@16]tait notre ouvrage, elles seraient parties en direction de la ferme du coq rouge...",
133,えっ、ネズミはどこにいるのかって？[@CR]ラノシアで襲われたキャラバンの御者によれば[@CR]「ハーフストーン入植地」の方に走り去ったらしいんだけど……。,"Where are the rodents, you ask? According to the captain of the caravan, the vexatious vermin scuttled off in the direction of Halfstone. Not a single soul sought to give chase, though, so we know precious little else.","Wo die Mäuse jetzt seien? Ich bin sicher, dass sie inzwischen in der Nähe von Gut Halbstein sind. Die überfallene Karawane hat die Nager in diese Richtung davonrennen sehen.","Où se trouvent les souris[@1D]? D'après le cocher de la caravane qui s'est fait attaquer à la Noscea alors qu'elle trans[@16]por[@16]tait notre ouvrage, elles seraient parties en direction de Demiepierre...",
134,あぁ、なんということなの……小月「ダラガブ」が放つ、あの赤い光の禍々しいこと。あの月のように、いずれ私も血に染まるのね……,"Oh, Twelve keep us! Dalamud is bathed in blood, and soon [@1A(1)]we[@1A(0)] will be too!","Oh, mögen die Zwölf uns beistehen! Dalamud, der kleine Mond, funkelt in unheilbringendem, blutigem Rot!","Ah, quel malheur[@1D]! C'est la lugubre lumière rouge de Dalamud qui nous a maudits[@1D]! Nous aussi, nous allons finir couverts de sang, comme la petite lune...",
135,あぁ、これはきっと「ダラガブ」の呪い……。[@CR]白ネズミに、私たちの未来を盗まれるなんて……[@CR]……小月「ダラガブ」の呪いに違いないわ……,Those accursed rodents rrrobbing us of our livelihood... <sob>[@CR]There's not a shred of doubt─the curse of Dalamud is upon us!,Das muss der Fluch Dalamuds sein ...[@CR]Die weißen Mäuse haben uns unserer Zukunft beraubt! Die Rache Dalamuds ist Realität.,Ô malheur[@1D]! Ô cruelle Dalamud[@1D]! Notre avenir a été ruiné par des souris[@1D]! Je suis sûre que tout ceci est une malédiction du satellite...,
136,あぁ、冒険者さん、私の話を聞いてくれるの？[@CR]私は「彫金師ヨルドウィン」様の弟子のひとり、エ・カワウ。[@CR],"Y-You would listen to my plight, adventurerrr? Pray allow me to introduce myself. E'qawhau is my name, and I'm an aspiring goldsmith apprenticed to Joldewin. My story begins well enough, but ends miserably.","Oh, [@IF($E9(4),liebliche Abenteurerin,liebster Abenteurer)], hör meine tragische Geschichte! Ich bin E'qawhau, Goldschmiede-Schülerin von dem großen Meister Joldewin.","Ah[@1D]! [@IF($E3($E9(11),12),[@IF($E3($E9(11),4),Bonsoir,Bonjour)],[@IF($E3($E9(11),17),Bonjour,Bonsoir)])], [@IF($E9(4),aventurière,aventurier)]. Voudriez-vous écouter mon histoirrre[@1D]? Je m'appelle E'qawhau Mhoya et je suis une des disciples de Joldewin, le fameux orfèvre.",
137,納品先の「ＡＢＵグリダニア支部」へと配送する途中に[@CR]完成したアクセサリを、すべて奪われてしまったの！[@CR]大きくてズル賢い、その……真っ白なネズミに……。,"Words cannot descrrribe the elation I felt as I tenderly stowed the final piece, and sealed the last crate for immediate delivery. But alas, misfortune soon visited us in the form of overgrown white rodents who assailed the caravan and made off with everything we had striven so hard to crrreate.","Kannst du dir vorstellen, wie froh und erleichtert ich war, als ich den letzten Ohrring fein säuberlich verstaut und verpackt hatte?[@CR]Und dann geschah das Unglück. Als wir die wertvolle Ladung zu den Kaskadeuren schicken wollten, wurde alles gestohlen!","Mais au courrrs de la livraison vers Gridania, nos créations ont été volées[@1D]! Par de vilaines, sournoises, odieuses... souris blanches[@1D]!",
138,……その眼差し……冒険者さんも、この話を疑うのね？[@CR]皆のように、「納期に間に合わなかったから嘘をついている」と？[@CR]ああ、この汚名をそそがないことには、私たちは身投げするよりないわ！,"...Your narrowed eyes tell me that you laborrr to swallow this tale. But I swear on my honor, I've spoken only the truth. Giant rodents stole the accessories, and now my fellow goldsmiths and I must sufferrr a tainted reputation for failing to make good on the contract.","Von weißen Mäusen.[@CR]Oh nein, nein! Sieh mich nicht so an! Ich bin keine Lügnerin, das schwöre ich dir![@CR]Ich weiß ... Alle glauben, dass wir nur den Liefertermin nicht einhalten konnten - aber da würde ich mir doch wenigstens eine glaubwürdigere Geschichte ausdenken, oder etwa nicht?",Je lis dans vos yeux que vous ne me crrroyez pas... vous pensez que je raconte cette histoire parce que nous avons été incapables de livrer la commande dans les temps[@1D]! Je sais ce qu'il me rrreste à faire... me livrer à la fureur des ondes pour laver mon honneur[@1D]!,
139,"そうだ！　私たちを助けてくれない？[@CR]もし、おかしな動きの白いネズミを見つけたら、[@CR]盗まれたアクセサリ「[@SWITCH([@SHEET(itemData,9030020,41)],[@COLOR(#fff3f3f3)],[@COLOR(#ffc0ffa0)],[@COLOR(#ff60c8ff)],[@COLOR(#ffb38cff)],[@COLOR(#ffffa666)],[@COLOR(#ffe5dd7e)])][@EDGECOLOR(#ff262626)][@SHEET(xtx/itemName,9030020,4)][@EDGECOLOR($EC)][@COLOR($EC)]」を取り戻してほしいの。","The earrings were meant to be rewards for you adventurers, but now they're doubtless decorating the rodents' fetid nest. Of course, Master Joldewin [@1A(1)]did[@1A(0)] propose a solution, hoping to rescue his good name...but it seemed so fanciful that it was all I could do not to laugh!","Es ist wahr. Und nur du kannst beweisen, dass ich die Wahrheit spreche.[@CR]Bitte, hilf mir, [@SWITCH([@SHEET(itemData,9030020,41)],[@COLOR(#fff3f3f3)],[@COLOR(#ffc0ffa0)],[@COLOR(#ff60c8ff)],[@COLOR(#ffb38cff)],[@COLOR(#ffffa666)],[@COLOR(#ffe5dd7e)])][@EDGECOLOR(#ff262626)][@SHEETDE(xtx/itemName,2,9030020,2,4,1)][@EDGECOLOR($EC)][@COLOR($EC)] von den weißen Mäusen zurückzuholen.","Je sais[@1D]! Vous allez m'aider[@1D]! Si jamais vous aperrrcevez des souris blanches au com[@16]por[@16]te[@16]ment étrange, essayez de leur reprendre les [@SWITCH([@SHEET(itemData,9030020,41)],[@COLOR(#fff3f3f3)],[@COLOR(#ffc0ffa0)],[@COLOR(#ff60c8ff)],[@COLOR(#ffb38cff)],[@COLOR(#ffffa666)],[@COLOR(#ffe5dd7e)])][@EDGECOLOR(#ff262626)][@SHEETFR(xtx/itemName,12,9030020,2,1)][@EDGECOLOR($EC)][@COLOR($EC)] qu'elles nous ont volées[@1D]!",
140,元々、あのアクセサリは、冒険者さんたちへの褒賞品。[@CR]取り戻すことができたなら、貴方の所有物としても構わないわ。[@CR]もう納期は過ぎているし、私たちは名誉を取り戻せるだけでいいのだから。,"“Have the adventurers slay the rodents,” he said, “and let them keep the earrings they find.”[@CR]<snicker> Have you ever heard anything so rrridiculous? You know, despite the hopelessness of our plight, the mere thought of it is enough to raise a smile!","Du kannst auch alles behalten, was du findest. Die Ohrringe stehen dir sicher hervorragend! Sie waren ja sowieso für euch Abenteurer gedacht. Alles, was ich will, ist meinen Ruf als angehende Goldschmiedin wie[@16]der[@16]her[@16]zu[@16]stel[@16]len.","A l'origine, ces boucles d'oreilles étaient des cadeaux destinés aux aven[@16]tu[@16]rrriers[@1D]! D'ailleurs, si vous en récupérez une, je veux bien que vous la gardiez. Moi, tout ce que je veux, c'est laver notre honneur en montrant qu'on avait bel et bien terminé notre ouvrage[@1D]!",
141,あら、知らないの？　「ダラガブ」って、小月のことよ？[@CR]ほら、大きな月の側に、もうひとつ小さな月があるでしょ？[@CR]あれこそ、月の女神メネフィナ様の番犬「ダラガブ」なの。,"Oh? You've not heard of Dalamud? He is the faithful hound who forever attends to his mistress Menphina, whom you may know as the goddess who appearrrs to us mortals as the moon.","Wie, du hast noch nie von Dalamud gehört? Das ist doch der kleine Nebenmond, der um den hellen Hauptmond kreist. In der Mythologie ist Dalamud der Wachhund, der die Mondgöttin Menphina beschützt.","Quoi[@1D]? Vous ne connaissez pas Dalamud[@1D]? C'est le nom d'un astre. Vous savez, à côté de la grrrosse lune, il y en a une plus petite[@1D]? Elle s'appelle Dalamud et on dit que c'est le chien de garde de la Déesse de la lune, Menphina. Aprrrès tout, un satellite est un “gardien”, à l'origine.",
142,衛星である「月」の周囲を巡る孫衛星だ……って[@CR]言う人もいるけど、それは嘘よ。,"There are some who would have us believe that Menphina and Dalamud are just rocks, the latter in orbit around the former, but such talk is outright sacrilege!","Die Wissenschaftler sagen natürlich, dass es nichts weiter als ein natürlicher Satellit sei, ein Steinbrocken ohne Leben und Seele. Aber das will ich nicht glauben!","On suppose même qu'il s'agirait en fait d'un satellite secondaire, d'une lune de la grosse lune. Mais j'y crrrois pas une seule seconde[@1D]!",
143,ああ、でも、私たちもいずれ同じ運命に……。[@CR]まったく、盗みにネズミを使う盗賊がいるだなんて[@CR]……いったい、誰が信じてくれるというの？,"This is an ill omen, I tell you. It's only a matter of time before the same evil befalls us─before we, too, are made to bathe in blood.","Und nun ereilt uns dasselbe Schicksal! Wie furchtbar![@CR]Wer hätte je geglaubt, dass jemand tatsächlich Nagetiere abrichtet, um sie für ihn stehlen zu lassen? Das ist doch absurd! Und doch die Wahrheit.","Nous aussi, nous serrrons un jour frappés par le même sort... Tout le monde connaît l'histoire du voleur capable de dresser des souris à voler à sa place, mais qui me croira, si j'affirme qu'il existe vraiment[@1D]?",
144,私たちが丹精を込めて作ったアクセサリを[@CR]盗んでいった、大きな白いネズミたちのことよ。[@CR]訓練したネズミを手先とするという、噂の盗賊の仕業に違いないわ。,"Aye! A pack of overgrown white rodents made off with the earrings my peers and I labored so long and hard to make! The creatures that carried out the heinous deed were too organized by half, which leads me to believe that someone had orchestrated their actions. What evidence we have implicates the notorious Lord of the Rats...but who would believe such a fantastical tale?","Also - aber wehe, du lachst.[@CR]Weiße Mäuse haben unsere Menphina-Schmuckkollektion gestohlen - und ich bin keineswegs betrunken. Es gibt diesen ominösen Rattenfänger also wirklich, der Mäuse auf Diebstahl trainiert und sie für sich arbeiten lässt!",Ce sont les sourrris blanches qui nous ont volé ces fins bijoux que nous avions réalisés avec tant d'efforts. Je suis sûre que tout ceci est l'œuvre du voleur dresseur de souris dont parle la rrrumeur[@1D]!,
145,えっ、そのネズミはどこかですって？[@CR]黒衣森の「バスカロン監視所」付近で白いネズミを[@CR]見かけたという話を、さっき耳にしたけれど……。,You wish to know where the white rodents might be found? I've heard it said that the sly creatures have infested an area of the Twelveswood near Buscarron's Fold.,"Wo die Mäuse sind?[@CR]Ich bin sicher, dass sie im Finsterwald in der Nähe von Buscarrons Horst sind, zumindest hat vorhin irgendjemand von weißen Nagern dort berichtet ...","Où se trrrouvent les souris[@1D]? J'ai entendu dire qu'elles auraient été aperçues vers l'enclos Buscarron, près de la forêt de Sombrelinceul...",
146,えっ、そのネズミはどこかですって？[@CR]黒衣森の「ホウソーン家の山塞所」付近で白いネズミを[@CR]見かけたという話を、さっき耳にしたけれど、まさかね……。,You wish to know where the white rodents might be found? I've heard it said that the sly creatures have infested an area of the Twelveswood by the Hawthorne Hut.,"Wo die Mäuse sind?[@CR]Ich bin sicher, dass sie im Finsterwald bei der Jagdhütte der Hawthornes sind, zumindest hat vorhin irgendjemand von weißen Nagern dort berichtet ...","Où se trrrouvent les souris[@1D]? J'ai entendu dire qu'elles auraient été aperçues vers la hutte des Hawthorne, près de la forêt de Sombrelinceul...",
147,おお、なんということだ……見よ、あの小月「ダラガブ」を！　あの月の如く、いずれ私も朱に染まるのだ……,"I say, what in the seven hells is going on? That the celestial hound Dalamud should be drenched in blood can only bode ill...","Verflucht seist du, blutiger Dalamud, und mit dir deine dreckigen Handlanger![@CR]Sollen wir alle in Blut gebadet enden wie du, minderer Mond?!","Ah, quel malheur[@1D]! Regardez Dalamud et sa maudite lueur[@1D]! Moi aussi, je vais finir souillé, écarlate comme le sang...",
148,くそっ、あの白ネズミめ！[@CR]ああ、これは「ダラガブ」の呪いだ……小月「ダラガブ」の呪いに違いない……,"Curse the hoary rodents, and curse the vile wretch pulling their strings! This is Dalamud's curse, else I'm a blacksmith's by-blow![@CR]...Hm? I don't believe I know you, but if I don't vent soon, someone's going to get hurt! Now, stand absolutely still while I talk your ears off.","Diese verdammten weißen Drecksnager, in allen Höllen mögen sie braten![@CR]Dalamud, wenn du uns mit einem Fluch belegen willst, nur zu! Ich werde nicht klein beigeben, niemals!","Maudites souris blanches[@1D]! J'en suis sûr, tout ceci est une malédiction de la petite lune... une malédiction de Dalamud[@1D]!",
149,おお、聞いてくれ、通りすがりの者よ。[@CR]私は彫金師のヨルドウィン。対怪獣特殊部隊「ＡＢＵ」から依頼を受け、[@CR]「双月の女神」を題材にしたアクセサリを、弟子と作っていたのだが……,"I am Joldewin, master goldsmith extraordinaire. My fame is such that nary a day passes by that my talents aren't called upon. Most recently, an order came in from the Cascadiers─aye, those scantily clad merrymakers. They required of me a prodigious quantity of earrings honoring the goddess Menphina, to be used as rewards for adventurers.","Was ist, du [@IF($E9(4),schadenfrohes Weib,mieser Gaffer)]? Stehst du hier rum, um dich an meinem Unglück zu weiden?[@CR]... Dabei hat es mit einem so kapitalen Auftrag begonnen ... eine Kollektion zu Ehren Menphinas für die Kaskadeure zu entwerfen, welch eine Ehre!","Ecoutez-moi, [@IF($E9(4),l'amie,l'ami)][@1D]! Je suis Joldewin, orfèvre de mon état. J'avais reçu une commande de la Brigade Anti-Bombardo et nous avions fabriqué, mes disciples et moi, des accessoires en l'honneur de la Déesse des lunes...",
150,納品先の各都市「ＡＢＵ支部」へと配送中、すべて奪われてしまったのだ！[@CR]大きくて賢い、その……真っ白なネズミにな。,"My two apprentices and I set about our work, burning the midnight oil for nigh on a fortnight in order to fulfill the order. The joyous day finally dawned when the last earring was completed, and the three of us stood watch as the fruits of our labor were borne away by delivery caravans.","Alles ging glatt, bis wir die fertige Ware verschicken wollten.[@CR]Da haben uns die Mäuse alles gestohlen, bis auf das letzte Stück.","Mais au cours de la livraison vers chacune des villes où se trouvent les agents de la B.A.B., nos créations ont été volées[@1D]! Par d'abominables, sournoises et odieuses... souris blanches[@1D]!",
151,なんだ、その目は？　貴公も、この話を疑うのか？[@CR]私が間に合わなかったからホラを吹いてる、と皆が糾弾する。[@CR]この汚名をそそがぬことには、私は身投げするよりあるまい！,"...But then fate came and spat in our faces. No more than a few bells had passed when word arrived that packs of white rodents had set upon the caravans and taken everything we'd labored so hard to create. Thus was my hard-earned reputation undone in the space of a moment. Now, not even paupers will do business with me─[@1A(1)]me[@1A(0)], by the Twelve! The same Joldewin who was─who [@1A(1)]is[@1A(0)] the greatest goldsmith of our time!","Vermaledeite Viecher.[@CR]Was? Aber ja! Lach dich nicht schlapp! Ich schwöre, es waren Horden von weißen Mäusen.","Quoi[@1D]? Que signifie cette expression sur votre visage[@1D]? Vous ne me croyez pas, c'est ça[@1D]? Vous pensez que je raconte cette histoire parce que nous avons été incapables de livrer la commande dans les temps[@1D]! Je sais ce qu'il me reste à faire... me jeter dans un lac pour laver cet affront à mon honneur d'orfèvre[@1D]!",
152,"そこでだ……恥を忍んで、貴公に頼みがある。[@CR]もし、挙動のおかしな白いネズミを見つけたら[@CR]アクセサリ「[@SWITCH([@SHEET(itemData,9030020,41)],[@COLOR(#fff3f3f3)],[@COLOR(#ffc0ffa0)],[@COLOR(#ff60c8ff)],[@COLOR(#ffb38cff)],[@COLOR(#ffffa666)],[@COLOR(#ffe5dd7e)])][@EDGECOLOR(#ff262626)][@SHEET(xtx/itemName,9030020,4)][@EDGECOLOR($EC)][@COLOR($EC)]」を取り戻してもらいたい。","...But I refuse to suffer this humiliation. My reputation can yet be restored...with [@1A(1)]your[@1A(0)] help. You've listened to my tale, and now I ask that you hear my plea. I need you to seek out the thieving rodents, adventurer, and slaughter them like the...like the...ahem, [@1A(1)]rats[@1A(0)] they are. And should you find an earring upon one of their carcasses, you may consider it yours to keep.","Du kannst es gerne selbst nachprüfen, wenn du es nicht glaubst. Ja, mach nur! Ich würde den dreckigen Biestern das Fell mit Freuden über die Ohren ziehen, aber ich lass dir gerne den Vortritt.","Voilà, j'aimerais que vous nous aidiez à récupérer ce qui nous a été dérobé. Si jamais vous voyez des souris blanches au com[@16]por[@16]te[@16]ment étrange, essayez de leur reprendre les [@SWITCH([@SHEET(itemData,9030020,41)],[@COLOR(#fff3f3f3)],[@COLOR(#ffc0ffa0)],[@COLOR(#ff60c8ff)],[@COLOR(#ffb38cff)],[@COLOR(#ffffa666)],[@COLOR(#ffe5dd7e)])][@EDGECOLOR(#ff262626)][@SHEETFR(xtx/itemName,12,9030020,2,1)][@EDGECOLOR($EC)][@COLOR($EC)][@1D]!",
153,元々、あのアクセサリは、冒険者への褒賞。[@CR]取り戻してくれたなら、貴公の所有物としてもらって構わない。[@CR]もう納期は過ぎたし、私は名誉が取り戻せれば、それでいいのだ。,"That way, the earring will have reached its intended recipient, thus sparing my good name the oathbreaker's taint. My logic is flawless, as I am sure you will agree.[@CR]Now, without further ado, you must go forth and cull as many of the wretched white rats as possible. Do me this favor, friend, and my eternal gratitude will be yours...in the form of said earring.","Falls du auf Ohrringe stehst, kannst du auch alles behalten, was du bei den Ratten findest - war ohnehin für euch Abenteurer gedacht.","A l'origine, ces boucles d'oreilles étaient des cadeaux destinés aux aven[@16]tu[@16]rrriers[@1D]! Vous pouvez en garder une, si vous en retrouvez. Moi, tout ce que je veux, c'est sauver ma réputation[@1D]!",
154,知らんのか？　「ダラガブ」とは、小月のことだ。[@CR]ほら、大月の側に、もうひとつ小さな月があるだろう？[@CR]あれは、月の女神メネフィナ様の番犬「ダラガブ」なんだよ。,"What? You know not of Dalamud? What lightless hole have you been living in, [@IF($E9(4),woman,man)]!? <sigh> Being an upstanding citizen, I [@1A(1)]suppose[@1A(0)] I'm obligated to edify you...","Hä? Du kennst die Geschichte von Dalamud nicht? Dalamud ist der kleine, rote Mond, der den Hauptmond umkreist. Man sagt, dass es der Wachhund Dalamud ist, der seine Gebieterin Menphina beschützt.","Vous ne connaissez pas Dalamud[@1D]? C'est le nom d'un astre. Vous savez, à côté de la grosse lune, il y en a une plus petite[@1D]? Elle s'appelle Dalamud et on dit que c'est le chien de garde de la Déesse de la lune, Menphina.",
155,「ダラガブ」のことを、衛星である月を回っている孫衛星だと[@CR]抜かす者もいるが……それは眉唾ものだ。,"Now, you [@1A(1)]do[@1A(0)] know that the moon is the embodiment of the goddess Menphina, yes? Well, the smaller celestial body that keeps an eternal vigil over her is Dalamud, her loyal hound.","Klar, die meisten behaupten, es sei einfach ein lebloser Gesteinsbrocken, den die Gravitation in eine Umlaufbahn um den Hauptmond zwang, ein bedeutungsloser Trabant des Trabanten.","On suppose même qu'il s'agirait en fait d'un satellite secondaire, d'une lune de la grosse lune. Mais cette hypothèse est ridicule[@1D]!",
156,私もいずれ、そうなるだろう……。[@CR]ああ、盗みにネズミを使う盗賊がいるだなんて[@CR]いったい、どこの誰が信じてくれるというのだ？,"The affairs of the gods may be beyond our knowing, but this much is clear: something wicked this way comes.","Das wird auch mein Schicksal sein ...[@CR]Und ich habe immer gelacht, wenn wieder mal jemand von dem „Rattenfänger“ faselte, der angeblich Nagetiere dressierte und zu Diebeszügen ausschickte.","Moi, peut-être que le même destin m'attend. Vous savez, j'ai déjà entendu parler d'un voleur capable de dresser des souris à voler, mais qui me croira, si j'affirme qu'il existe vraiment[@1D]?",
157,私たちが、丹精を凝らして作ったアクセサリを[@CR]かっぱらっていった、白いネズミどものことだよ。[@CR]噂によれば、盗みにネズミを使う盗賊がいるというから、それかもしれん。,"Aye! A pack of thieving white rodents stole an entire shipment of earrings that I'd toiled weeks to make! Gods know I'd happily see them showered in burning brimstone, though they'd probably enjoy the stench! Ah, but as for the one they say is pulling the strings─the self-styled “Lord of the Rats” who claims dominion over all rodents─I've much and more in mind.","Welche Nagetiere, fragst du? Erbärmliche weiße Mäuse, die all unsere Mühen zunichte gemacht haben. Die Menphina-Schmuckkollektion haben sie gestohlen, und jetzt ist die Lieferfrist verstrichen.[@CR]Der „Rattenfänger“ muss sie abgerichtet haben, damit sie für ihn Schmuck stehlen, ganz sicher.",Ces souris blanches nous ont volé les fins bijoux que nous avions réalisés avec tant d'efforts. C'est peut-être l'œuvre du voleur dresseur de souris dont parle la rumeur.,
158,……なに、襲われた場所？[@CR]ああ、ザナラーンの旅亭「コッファー＆コフィン」の近くさ。[@CR]あそこで旅人を待ち伏せては、ネズミをけしかけてるんだろう。,"Hm? You wish to know where the incident took place? It was right by the Coffer & Coffin, or so I was told. I'd wager my reputation that the rodents lie in ambush nearby, just waiting to pounce upon unsuspecting travelers.","Wo? Diese Frage sagt mir, dass du mir helfen willst, meinen Ruf wie[@16]der[@16]her[@16]zu[@16]stel[@16]len. Sehr schön.[@CR]In Thanalan natürlich, in der Nähe des Außenpostens „Zum Würfel & Becher“. Wenn du dich dort als Wanderer getarnt auf die Lauer legst, werden sie sicher bald auftauchen.","Où se trouvent les souris[@1D]? Il semblerait qu'elles soient placées en embuscade près de l'auberge “le Coffre et le Cercueil”, dans le Thanalan.",
159,……なに、襲われた場所？[@CR]ああ、ザナラーンの「8号霊銀試掘場」の近くさ。[@CR]あそこで旅人を待ち伏せては、ネズミをけしかけてるんだろう。,"Hm? You wish to know where the incident took place? It was right by Mythril Pit T[@1F]8, or so I was told. I'd wager my reputation that the rodents lie in ambush nearby, just waiting to pounce upon unsuspecting travelers.","Wo? Diese Frage sagt mir, dass du mir helfen willst, meinen Ruf wie[@16]der[@16]her[@16]zu[@16]stel[@16]len. Sehr schön.[@CR]In Thanalan natürlich, in der Nähe der Mithril-Grube Nr. 8. Wenn du dich dort als Wanderer getarnt auf die Lauer legst, werden sie sicher bald auftauchen.","Où se trouvent les souris[@1D]? Il semblerait qu'elles soient placées en embuscade près du puits de mithril T-8, dans le Thanalan.",
160,対怪獣特殊部隊「ＡＢＵ」から依頼を受けて[@CR]「双月の女神」を題材にしたアクセサリを、親方と作っていたんだけど……,"My fellows and I had been blessed with a lucrative contract to produce a large shipment of earrings themed upon Menphina, goddess of the moon. Though the deadline was tight, we were committed to our task, working like a storm and around the clock to fulfill the contract.","Meine Kollegen und ich haben einen großen Auftrag von den Kaskadeuren bekommen: Wir sollten eine Kollektion von Schmuckstücken anfertigen, die Menphina, der Göttin des Mondes, gewidmet ist. Wir arbeiteten pausenlos und mit vollem Einsatz, denn die Frist war knapp.","Suite à une commande de la Brigade Anti-Bombardo, nous avions crrréé un accessoire en l'honneur de la Déesse des lunes...",
161,だって最近、あの「ダラガブ」が[@CR]急に、血の色みたいに染まっちゃったんだから。[@CR]女神に仇なす魔物をやっつけて、返り血を浴びたに違いないわ！,"If you require proof of his true form, you need only turn your eyes towards the night sky. The crimson hue that veils him of late─it is the lifeblood of the wicked creature that sought to harrrm his mistress, whom Dalamud bravely vanquished.","Die Geschichte mit dem treu ergebenen Beschützer Dalamud finde ich viel poetischer. Und außerdem - ist es nicht ein komischer Zufall, dass Dalamud seit kurzem so scharlachrot leuchtet, wie in Blut getränkt? Als ob er im Kampf verwundet worden wäre, als er seine Gebieterin verteidigen wollte ...","Après tout, Dalamud s'est subitement teintée de rouge[@1D]! Je suis sûre qu'elle a dû mordre un monstre pour défendrrre sa maîtresse, et qu'elle s'est ainsi fait asperger de sang.",
162,現に見よ！[@CR]ダラガブは、鮮血のごとき朱色に染まってしまったではないか！[@CR]あれはきっと、ダラガブが女神に仇なす魔物に噛みついたからに相違ない！,"Great changes are afoot, however, and I fear they are not for the better. Dalamud has taken on a vivid crimson hue of late, you see, as if he were drenched in blood. Has an enemy of the goddess made an attempt on her life, that her hound Dalamud should be forced to spill blood in her defense?","Aber das kann nicht die ganze Wahrheit sein.[@CR]Sieh doch mal hoch! Scharlachrot funkelt er, wie frisch vergossenes Blut - das Blut von Dalamud, der verwundet wurde, als er seine Herrin mit allen Kräften zu schützen versuchte.","Il suffit de voir la couleur de Dalamud pour s'en rendre compte[@1D]! Il ne fait aucun doute que le “gardien” de la Déesse a attaqué sauvagement un monstre pour la défendre, et s'est ainsi teinté de sang.",
163,対怪獣特殊部隊「ＡＢＵ」から依頼を受けて[@CR]「双月の女神」を題材にしたアクセサリを、いっしょに作っていたんだ……,"You see, the scantily clad Cascadiers had commissioned us to craft a considerable consignment of earrings themed upon Menphina, the Keeper of the Twin Moons. My peers and I labored long, scarcely sleeping, that we might deliver them by the decreed date. And oh, how richly relieved we were when the deed was done!","Die Kaskadeure haben mich und unsere Schmiede beauftragt, eine Kollektion speziell für das Mondfest zu entwerfen, um die Göttin Menphina zu ehren.","Suite à une commande de la Brigade Anti-Bombardo, nous avions créé un accessoire en l'honneur de la Déesse des lunes...",
164,……む、冒険者か。[@CR]こんな僻地の農場に何用だ？,"What brings you out this way, adventurer?","Was führt [@IF($E9(4),eine Abenteurerin,einen Abenteurer)] in diese abgeschiedene Gegend?","[@IF($E9(4),Une aventurière,Un aventurier)], dans ces contrées reculées... Qu'est-ce qui t'amène dans les parages[@1D]?",
165,ここにいた妙な詩人なら、騒乱罪の容疑で[@CR]我々イエロージャケットが拘束させてもらったぞ。[@CR]今頃はコーラルタワーの牢獄の中だろう。,"If you're looking for that vagabond minstrel, we arrested him on charges of inciting mayhem. He's probably rotting in the brig beneath the Coral Tower as we speak.",Suchst du etwa diesen fahrenden Musikanten? Den haben wir wegen Störung der öffentlichen Ordnung festgenommen. Vermutlich schmachtet er bereits im Kerker des Korallenturms.,"Si c'est cet étrange ménestrel que tu cherches, on s'est chargé de l'arrêter, nous les casaques jaunes. Il doit croupir dans les geôles de la tour de Corail en ce moment. C'est le châtiment qu'on réserve à ceux qui troublent l'ordre public.",
166,ガレマール帝国の侵攻、そして小月「ダラガブ」の異変……[@CR]ただでさえ、世間に不安が広がっているというのに、[@CR]不気味な詩で人心を惑わすなど許せんヤツだ。,Limsa has troubles enough without some charlatan inflaming the populace with his ominous poetry.,"Wegen der Garlear und Dalamud herrscht in Eorzea schon genug Unruhe. Da hat uns ein aufrührerischer Scharlatan, der mit seinen Liedern die Angst der Leute schürt, gerade noch gefehlt.","Il perturbait les gens avec ces poèmes bizarres, alors que les Eorzéens ont déjà bien assez de soucis. Comme si les invasions garlemaldaises et Dalamud ne nous suffisaient pas...",
167,君も、あの「異邦の詩人」とやらに[@CR]妙なことを吹き込まれたわけじゃないだろうな？,"You're not going to tell me you actually bothered to [@1A(1)]listen[@1A(0)] to him, are you?","Du hast ihm doch nicht etwa ernsthaft zugehört und seinen verderbten Worten geglaubt, oder?","Mais dis donc, toi... tu te serais pas fait endoctriner pas ce type, par hasard[@1D]?",
168,異邦の詩人の言葉を聞いた？,Did you listen to the minstrel's words?,Hast du dem fahrenden Musikanten zugehört?,Tu as déjà parlé à ce ménestrel errant[@1D]?,
169,はい,Yes.,"Ja, warum auch nicht?",Oui.,
170,いいえ,No.,"Nein, ich doch nicht.",Non.,
171,うむ、それなら良い。[@CR]今後とも、あんな怪しげな輩の言葉に[@CR]耳を傾けるのではないぞ。,"[@IF($E9(4),I'm glad to hear it, lass,Good lad)]. Only a fool would lend an ear to the ravings of such an obvious lunatic.",Dann is' ja gut. Solchen Irren sollte man auf keinen Fall sein Ohr leihen.,Parfait. Fais bien attention à ne pas prêter l'oreille à ce genre de tordus à l'avenir.,
172,なんだと！？[@CR]まさか君は、あの「異邦の詩人」の戯言を[@CR]信じたわけではあるまいな？,But...why? Next you'll be telling me you actually [@1A(1)]believed[@1A(0)] his drivel!,Wie bitte?! Hast du diesem Unruhestifter etwa auch noch geglaubt?,Pardon[@1D]?! Ce ménestrel t'a donc fait part de tout son beau discours[@1D]?,
173,異邦の詩人の言葉を信じた？,Did you believe the minstrel's words?,Hast du dem fahrenden Musikanten geglaubt?,Et tu as cru à ces sornettes[@1D]?,
174,はい,Yes.,"Ja, er klang ganz vernünftig.",Oui.,
175,いいえ,No.,"Nein, er hat nur irres Zeug gefaselt.",Non.,
176,うむ、それなら良い。[@CR]今後とも、あんな怪しげな輩の言葉に[@CR]耳を傾けるのではないぞ。,"[@IF($E9(4),I'm glad to hear it, lass,Good lad)]. Only a fool would credit the ravings of such an obvious lunatic.",Dann is' ja gut. Solchen Irren darf man auf keinen Fall Glauben schenken.,Parfait. Fais bien attention à ne pas prêter l'oreille à ce genre de tordus à l'avenir.,
177,ま、まさか君は、ヤツと同じ危険分子なのか！？,[@1A(1)]What!?[@1A(0)] You would align yourself with an enemy of the peace!?,Steckst du mit diesem Aufrührer unter einer Decke?!,"C'est pas vrai[@1D]! Tu es donc un élément perturbateur, toi aussi[@1D]?!",
178,これは最後の警告だぞ。[@CR]「異邦の詩人」の言葉を信じるというなら、[@CR]君も騒乱罪の容疑で牢獄送りだ！,"This is your first and final warning. If you declare your adherence to the fallacies of that minstrel one more time, I'll have you dragged to the brig on the same charges before you can spit.","Das ist deine erste und letzte Warnung. Wenn du weiterhin darauf bestehst, dass dieser fahrende Musikant die Wahrheit spricht, landest du im Kerker, bevor du mit der Wimper zucken kannst.","Ecoute-moi bien, ce sera ton dernier avertissement. Crois-tu vraiment les inepties de ce ménestrel[@1D]? Si c'est le cas, tu seras [@IF($E9(4),arrêtée,arrêté)] pour trouble de l'ordre, toi aussi...",
179,牢獄送りでもいい？,Declare your belief and surrender yourself into custody?,Gestehst du deine Schuld?,Souhaites-tu vraiment aller en prison[@1D]?,
180,はい,Yes.,"Ja, ich bin schuldig.",Oui.,
181,いいえ,No.,"Nein, ich bin unschuldig.",Non.,
182,うむ、それなら良い。[@CR]今後とも、あんな怪しげな輩の言葉に[@CR]耳を傾けるのではないぞ。,"Very well, then. Don't let me hear you speaking such foolishness again, or it'll be off to the dungeons with you.","Dann is' ja gut. Ich will nie wieder solch einen Blödsinn von dir hören, sonst landest du im Kerker!",Parfait. Fais bien attention à ne pas prêter l'oreille à ce genre de tordus à l'avenir.,
183,よし、いいだろう。[@CR]君のようなホラ吹きを野放しにはできない！[@CR]お望みどおり、牢獄送りだ！,"That settles that, then. We can't let you wander around free, stirring up trouble. It's off to the dungeons with you.","In Ordnung, du hast es nicht anders gewollt. Wir können dich nicht frei herumlaufen und Ärger stiften lassen. Ab in den Kerker mit dir!","Tu l'auras voulu. Je ne peux pas laisser [@IF($E9(4),une hurluberlue,un hurluberlu)] dans ton genre se balader dans la nature. Allez, en prison[@1D]!",
