 ,0,1,2,3,4
 ,str,str,str,str,str
1,霊災を語る「賢者」。噂を聞きたいなら、お話しするわ！,Tidings! I bear tidings of the Archon who prophesies the end of days! Speak with me if you would know more!,"Die Weisen und die Siebte Katastrophe! Willst du was darüber hören? Ich kenne die allerneuesten Gerüchte, da kannst du sicher sein!","Des nouvelles, j'ai des nouvelles sur le Preux qui a prédit la venue du septième fléau[@1D]! Venez me parler si vous souhaitez en apprendre plus[@1D]!",
2,ガレマール帝国……[@CR]強大な軍事力を誇る、帝国が警戒している「ローブの男」。[@CR]噂くらいは、聞いたことがあるでしょう？,"Greetings and well met, friend. If I might speak plain, you are evidently a worldly sort. I doubt not that you've already heard tell of the Garlean Empire and the mysterious prophet it pursues.","Ich sag's dir sowieso, also sperr die Ohren auf: Die Garlear - ihre Armee ist doch so überlegen. Und trotzdem gibt es jemanden, den sie fürchten. Einzelne Gestalten ... Einzelgänger mit Roben, die im Wind flattern ... Von denen hast du doch sicher schon gehört?","[@IF($E3($E9(11),12),[@IF($E3($E9(11),4),Bonsoir,Bonjour)],[@IF($E3($E9(11),17),Bonjour,Bonsoir)])], l'ami[@IF($E9(4),e,)][@1D]! Vous êtes [@IF($E9(4),une aventurière,un aventurier)], à ce que je vois. Vous avez cer[@16]tai[@16]ne[@16]ment entendu parler du mystérieux prophète que même l'Empire semble craindre[@1D]?",
3,その男……古の十二賢者になぞらえて[@CR]「賢者」と呼ぶ人もいるけど、本当のところはどうなんだか……。[@CR]でも、彼の正体がどうあれ、帝国が行方を捜していることは確かよ。,"If rumors can be believed, the prophet is one of the twelve Archons of legend. While I can ill attest to the truth of this, one thing is certain: the Garleans mean to apprehend the man, and pursue him with the fervor of bloodhounds who have scented their prey.","Manche nennen sie „Weise“, angelehnt an die zwölf Weisen der alten Zeit, die Saliah. Wie viele es wirklich sind und ob sie sich wirklich nur ganz harmlos und weise mit der Auslegung von Prophezeiungen beschäftigen? Die Garlear drehen jedenfalls auf der Suche nach ihnen jeden Stein um.","Les Garlemaldais, avec toute leur puissance et leur technologie, n'ont toujours pas réussi à mettre la main dessus. Certains disent qu'il s'agit d'un des douze Preux de jadis, mais au fond personne ne sait si c'est vrrrai ou pas.",
4,追う者と追われる者……繰り広げられた寸劇。[@CR]その幕は、「賢者」が雲隠れをして引かれた……。,"Hearing their baying, the Archon reportedly went to ground, and naught more was heard of him. Until now, that is. It seems something has transpired that compelled him to come out of hiding in spite of the risk.","Sind sie Verfolger oder Verfolgte? Aus sicherer Entfernung sieht das aus wie eine lustige Hatz, hahaha! Tut mir leid, ich kann nie ernst sein, damit nerve ich alle meine Freunde. Jedenfalls hat sich jetzt ein Vorhang über den Akteur der Tragödie gesenkt - den armen Exegeten!","Les Impériaux et le prophète ont joué au chat et à la souris pendant plusieurs mois, jusqu'à ce qu'il décide de disparaître pour de bon.",
5,真実を逃した帝国。しかし……[@CR]「賢者」もまた、真実を書きとめた手帳を失ったとか……。[@CR]手帳を捜し求める「賢者」の姿を、目にした人がいるそうよ。,"To hear the talk, the Archon was parted from his journal. Quite how he came to lose it, I know not, but the fervor with which the man seeks to recover the thing bespeaks its great worth.","Er hat nämlich das Buch verloren, in dem seine Wahrheit festgehalten steht. Manche sagen, sie hätten ihn suchen sehen ...","Mais il a été obligé de refaire surface pour partir à la recherche de son journal. J'ignore ce qu'il y a dedans, mais la ferveur avec laquelle il tente de le retrouver laisse à penser que son contenu est de la plus haute importance.",
6,貴方は冒険者。探し物は得意でしょう？[@CR]手帳は、帝国の手に渡ってしまったかもしれないけど、そうね……[@CR]その一片くらいは見つかるかも。仲間同士で情報交換してみてね。,"The secrets it holds are a mystery, to be sure, but my instincts tell me we do not want them falling into Garlean hands. In short, an intrepid soul is required to recover the journal before the Empire can. If you would do your part to frustrate their plans for Eorzea, you might consider proffering the Archon a helping hand.","Du hast doch so einen unstillbaren Drang nach Abenteuern. Und du verstehst dich darauf, Verlorenes wiederzufinden. Dann such doch mal diese Aufzeichnungen! Vielleicht sind sie ja den Garlearn bereits in die Hände gefallen, aber das würde ja noch mehr Abenteuer bedeuten, haha! Scherz. Ich meine, jede Seite, jeder Fetzen davon kann interessant sein. Du kannst dich ja mit deinen Freunden austauschen, vielleicht wissen die etwas.",Et mon petit doigt me dit qu'il vaut mieux pour nous que les Garlemaldais ne tombent pas dessus avant lui. Que diriez-vous de mettre des bâtons dans les roues à l'Empire en aidant le Preux[@1D]?,
7,「賢者」の行方。不確かだけれど……[@CR]「キャンプ・ビアデッドロック」の西にある洞窟を抜けた先の岬で[@CR]海を見つめていることがあるようよ。ふふ……出会えるといいわね。,"As the man never lingers in one place, his precise whereabouts are difficult to ascertain. I'm given to understand, however, that he has been observed in meditation upon the headland accessible via the cave west of Camp Bearded Rock.","Wo der Weise ist? Niemand weiß es. Auf der Landzunge nach der Höhle westlich von Camp Bartelfels starrt er angeblich oft auf die offene See ... Vielleicht solltest du dich da auch mal hinstellen und abwarten, hehe.","Il ne reste jamais longtemps au même endroit, il n'est donc pas toujours facile à dénicher, mais j'ai cru comprrrendre qu'on l'avait vu en train de méditer au promontoire qui surplombe la mer à l'ouest du camp de Roc barbu. On y accède en passant par une caverne.",
8,「賢者」の行方。不確かだけれど……[@CR]「妖精の火床」と「タムタラの墓所」の道中にある洞窟へ[@CR]入る姿を見た人がいるようよ。ふふ……出会えるといいわね。,"As the man never lingers in one place, his precise whereabouts are difficult to ascertain. I'm given to understand, however, that he has been observed stealing into a cave situated along the road between Humblehearth and the Tam[@1F]Tara Deepcroft.","Der Weise ist untergetaucht ... Man sagt, er gehe in einer Höhle ein und aus, die zwischen dem Herd der Waldfee und dem Totenacker Tam-Tara liegt. Vielleicht bist du ja mal zufällig in der Gegend!","Il ne reste jamais longtemps au même endroit, il n'est donc pas toujours facile à dénicher, mais j'ai cru comprrrendre qu'on l'avait vu entrer dans une caverne qui se trouve entre Humblefoyer et l'Hypogée de Tam-Tara.",
9,「賢者」の行方。不確かだけれど……[@CR]「キャンプ・ブラックブラッシュ」の北西、北ザナラーンへは通じて[@CR]いない洞窟付近での目撃談が多いわ。ふふ……出会えるといいわね。,"As the man never lingers in one place, his precise whereabouts are difficult to ascertain. I'm given to understand, however, that he has been observed in the vicinity of a cave to the north and west of Camp Black Brush.","Wo der Weise sich nur verborgen hält ...? Es heißt, dass er oft bei einer düsteren Höhle gesichtet wird, zu der man gelangt, wenn man von Camp Kohlenstaub nordwestlich nach Nord-Thanalan geht. Na, wer weiß - vielleicht stimmen die Gerüchte ja sogar!","Il ne reste jamais longtemps au même endroit, il n'est donc pas toujours facile à dénicher, mais j'ai cru comprrrendre qu'on l'avait vu près d'une caverne au nord-ouest du camp de Roncenoire.",
10,「賢者」と出会えた？[@CR]そう……そういう巡りあわせだったのね。,"You were able to meet with the Archon!? If I weren't a skeptic by nature, I would say that fate has plans for you, friend.","Hast du den Weisen wirklich getroffen?[@CR]Hmmm ... na, da hast du aber eine Menge dazugelernt, was? Haha.","Vous êtes parvenu[@IF($E9(4),e,)] à rencontrer le Preux[@1D]? Les dieux ont peut-être des desseins particuliers pour vous.",
11,「第七霊災」の話なら、知っているわ。[@CR]小月ダラガブをあがめる「最後の群民」も、その言葉を口にする。[@CR]「賢者」が同じことを言うのなら、あながち嘘でもなさそうね。,"Though I cannot claim conversance with the Seventh Umbral Era, the warnings of the Lambs of Dalamud─aye, those unsavory cultists─and those of the Archon strike me as identical, give or take a few words. That unrelated sources are in accord lends weight to their claims, troubling though they may be.","Aber Scherz beiseite - das Gerede von der Siebten Katastrophe habe ich auch schon gehört. Nur dachte ich, es seien nur die Kultisten von den „Letzten Zeugen“, die davon predigten. Die beten ja den Nebenmond Dalamud an. Wenn aber der Weise tatsächlich auch davon spricht, kann es wohl keine Lüge sein ... oder?","Les prophéties sur le septième fléau ne me sont bien sûr pas inconnues. Je ne sais pas trop quoi en penser, bien que je sois trrroublée par la similitude des prédictions du Preux et de celles du culte des Survivalistes en ce qui concerne Dalamud.",
12,そうね……私も調べを進めてみるわ。[@CR]新しい情報を手に入れるまで。少しの間、お別れよ……。,"Thank you for sharing these tidings with me. I do believe I will delve further into this matter. Till we meet again, may the Twelve bless you and keep you.","Hmm ... Ich werde mich wohl noch einmal umhören müssen. Bis dahin viel Glück auf deinen Wegen, [@IF($E9(4),Abenteurerin,Abenteurer)], und danke für das Anheizen der Gerüchteküche!","Merci en tout cas d'avoir partagé ces nouvelles avec moi. Je vais continuer à faire des recherches de mon côté. En espérant vous revoir, que les Douze veillent sur vous.",
