 ,0,1,2,3,4
 ,str,str,str,str,str
2,ここは、リムサ・ロミンサのグランドカンパニー「黒渦団」の軍令部だ。[@CR]我らは常に、秩序と正義のために戦う猛者を歓迎している。,"This is Maelstrom Command, headquarters of Limsa Lominsa's provisional armada, the Maelstrom. Our doors are open to all who would fight on the side of order and justice.","Hier ist das Mahlstrom-Flotten[@16]kommando. Unsere Pforten stehen jenen offen, die an unserer Seite für Freiheit und Gerechtigkeit kämpfen wollen.","[@IF($E3($E9(11),12),[@IF($E3($E9(11),4),Bonsoir,Bonjour)],[@IF($E3($E9(11),17),Bonjour,Bonsoir)])], ici c'est le quartier général du Maelstrom, la grande compagnie de Limsa Lominsa. Nous accueillons à bras ouverts les braves qui sont prêts à se battre pour l'ordre et la justice.",这里是利姆萨·罗敏萨的大国防联军“黑涡团”的司令部。[@CR]我们非常欢迎为秩序和正义而战的勇士。
3,しかし……残念だ。[@CR]今のお主には、「黒渦団」の任務が手に余るだろう。[@CR]心意気は認めよう。腕を磨いた後に、再び、ここを訪れたまえ。,"By [@1A(1)]all[@1A(0)], however, I mean [@1A(1)]those of tempered steel[@1A(0)]─and you, my friend, have the feel of freshly excavated iron ore about you. While I commend your enthusiasm, we have no need of one so raw. Come back when you have forged a reputation for yourself.","Dabei beziehe ich mich auf jene, die hart wie geschmiedeter Stahl sind. Du jedoch - verzeih meine Direktheit - siehst mir eher nach einem Stück Eisenerz aus, das sie gerade erst aus den Giwamo-Staubminen gefördert haben ...[@CR]Komm wieder, wenn du deine Fertigkeiten gestählt und dir einen Ruf erarbeitet hast.","Mal[@16]heu[@16]reu[@16]se[@16]ment, je n'ai pas de mission à te confier étant donné ton niveau actuel. Reviens donc me voir quand tu auras acquis un peu plus d'expérience.",不过……很可惜，[@CR]凭现在的你应该无法完成“黑涡团”的任务吧。[@CR]我承认你的勇气，你锻炼锻炼再到这里来吧。
4,ここは、リムサ・ロミンサのグランドカンパニー「黒渦団」の軍令部だ。[@CR]我らは常に、秩序と正義のために戦う猛者を歓迎している。,"This is Maelstrom Command, headquarters of Limsa Lominsa's provisional armada, the Maelstrom. Our doors are open to all who would fight on the side of order and justice.","Hier ist das Mahlstrom-Flotten[@16]kommando. Unsere Pforten stehen jenen offen, die an unserer Seite für Freiheit und Gerechtigkeit kämpfen wollen.","[@IF($E3($E9(11),12),[@IF($E3($E9(11),4),Bonsoir,Bonjour)],[@IF($E3($E9(11),17),Bonjour,Bonsoir)])], ici c'est le quartier général du Maelstrom, la grande compagnie de Limsa Lominsa. Nous accueillons à bras ouverts les braves qui sont prêts à se battre pour l'ordre et la justice.",这里是利姆萨·罗敏萨的大国防联军“黑涡团”的司令部。[@CR]我们非常欢迎为秩序和正义而战的勇士。
5,ここは、グリダニアのグランドカンパニー「双蛇党」の統合司令部です。[@CR]共にグリダニアを支え、導く志のある方を歓迎いたします。,"You are come to the Adders' Nest, command center of the Order of the Twin Adder. Ever do we welcome they who would toil in the elementals' name for the survival and well-being of our forest nation.","Du bist im Abaton der Bruderschaft, dem Hauptquartier der Bruderschaft der Morgenviper. Sei uns willkommen, wenn du den Pfad der Gebieter beschreitest und bereit bist, mit aller Hingabe für das Wohlergehen unseres Waldes und seiner Kinder einzustehen.","Vous êtes au quartier général de l'Ordre des deux vipères, la glorieuse grande compagnie de Gridania. Je suis Syro Fulke, lieutenant du serpent. Nous accueillons à bras ouverts les braves qui sont prêts à apporter leur soutien à notre beau pays.",这里是格里达尼亚的大国防联军“双蛇党”的蛇巢司令部。[@CR]我们非常欢迎能够支撑并且引导格里达尼亚走向光明的勇士。
6,しかし、あなたはまだ「双蛇党」の依頼をこなす用意がないご様子。[@CR]己を磨き、新たな道をうち開く力を身につけまして……[@CR]再び、ここを訪れることをお待ちしています。,"The whispers reveal to me that you are yet a sapling, where our Order has need of stout oaks. You must grow stronger if you are to entwine your roots─and destiny─with ours. Prove you have the fortitude to weather the fiercest of storms─for none is fiercer than that now brewing─and thence return here once more.","Das Flüstern der Gebieter verrät mir, dass du noch ein bloßer Sprössling bist, wo wir doch nach Mitstreitern suchen, die stramm wie die immergrünen Eichen sind.[@CR]Beweise dort draußen erst mal, dass du aus dem richtigen Holz geschnitzt bist, und komm wieder, wenn du stark genug bist, nicht beim ersten Sturm abzuknicken. Denn der Sturm, der auf uns zuzieht, ist einer, wie du ihn nie zuvor gesehen hast ...","Je crains hélas de ne pouvoir vous confier de mission à votre niveau actuel. Lorsque vous serez plus aguerri[@IF($E9(4),e,)], n'hésitez pas à revenir me voir.",不过你看起来好像还无法胜任“双蛇党”的委托。[@CR]不断地磨练自己，让自己具备开拓新道路的能力……[@CR]然后再来这里吧。
7,ここは、グリダニアのグランドカンパニー「双蛇党」の統合司令部です。[@CR]共にグリダニアを支え、導く志のある方を歓迎いたします。,"You are come to the Adders' Nest, command center of the Order of the Twin Adder. Ever do we welcome they who would toil in the elementals' name for the survival and well-being of our forest nation.","Du bist im Abaton der Bruderschaft, dem Hauptquartier der Bruderschaft der Morgenviper. Sei uns willkommen, wenn du den Pfad der Gebieter beschreitest und bereit bist, mit aller Hingabe für das Wohlergehen unseres Waldes und seiner Kinder einzustehen.","Vous êtes au quartier général de l'Ordre des deux vipères, la glorieuse grande compagnie de Gridania. Je me nomme Syro Fulke, je suis lieutenant du serpent. Nous accueillons à bras ouverts les braves qui sont prêts à apporter leur soutien à notre beau pays.",这里是格里达尼亚的大国防联军“双蛇党”的蛇巢司令部。[@CR]我们非常欢迎能够支撑并且引导格里达尼亚走向光明的勇士。
8,ここは、ウルダハのグランドカンパニー「不滅隊」の作戦本部だ。[@CR]我らは常に、不滅なる闘志の持ち主を歓迎している。,"You stand within the Hall of Flames, the burning heart of operations for the Immortal Flames. We're always seeking kindred souls possessed of unquenchable spirit to join our cause.","Du befindest dich in der Ewigen Halle, dem Hauptquartier der Legion der Unsterblichen. Wir sind immer auf der Suche nach verwandten Seelen, die von einem unbeugsamen Willen getrieben die Feinde Ul'dahs in den Staub der Wüste treten.","[@IF($E3($E9(11),12),[@IF($E3($E9(11),4),Bonsoir,Bonjour)],[@IF($E3($E9(11),17),Bonjour,Bonsoir)])], [@IF($E9(4),aventurière,aventurier)]. Tu te trouves au quartier général des Immortels, la grande compagnie d'Ul'dah. Nous accueillons avec plaisir ceux dont l'esprit combatif est aussi indéfectible que notre nom.",这里是乌尔达哈的大国防联军“恒辉队”的作战总部。[@CR]我们非常欢迎拥有昂扬斗志的勇士。
9,残念だが、今の君は「不滅隊」からの依頼をこなすには力不足のようだ。[@CR]君自身が有能な冒険者と自負するほどの実力をつけたとき、[@CR]再びここを訪れると信じているぞ。,"I sense something of a fire within you, but it flickers as candle light. Such a tenuous flame cannot long withstand an evening gust, let alone survive the coming storm. Stoke this inner fire till it becomes a raging inferno, then let us speak again.","Hm ... Ich kann das Feuer in dir spüren, aber es flackert nur wie eine Kerze im Wind. Um deinem Namen in unserer Legion Unsterblichkeit zu verleihen, bedarf es weit mehr. Du musst noch viele Kämpfe bestreiten und das Feuer in deinem Inneren schüren, bevor du wieder hier erscheinst.","Je regrette, mais tu m'as tout l'air d'[@IF($E9(4),une aventurière,un aventurier)] sans grande expérience. Nous n'acceptons pas de bleusaille dans nos rangs. Reviens nous voir lorsque tu te seras [@IF($E9(4),entraînée,entraîné)] un peu plus sé[@16]rieu[@16]se[@16]ment.",很遗憾，现在的你还不具备接受“恒辉队”委托的能力。[@CR]等你成为一名有才能的冒险者的时候，[@CR]我相信你会再来这里的。
10,ここは、ウルダハのグランドカンパニー「不滅隊」の作戦本部だ。[@CR]我らは常に、不滅なる闘志の持ち主を歓迎している。,"You stand within the Hall of Flames, the burning heart of operations for the Immortal Flames. We're always seeking kindred souls possessed of unquenchable spirit to join our cause.","Du befindest dich in der Ewigen Halle, dem Hauptquartier der Legion der Unsterblichen. Wir sind immer auf der Suche nach verwandten Seelen, die von einem unbeugsamen Willen getrieben die Feinde Ul'dahs in den Staub der Wüste treten.","[@IF($E3($E9(11),12),[@IF($E3($E9(11),4),Bonsoir,Bonjour)],[@IF($E3($E9(11),17),Bonjour,Bonsoir)])], [@IF($E9(4),aventurière,aventurier)]. Tu te trouves au quartier général des Immortels, la grande compagnie d'Ul'dah. Nous accueillons avec plaisir ceux dont l'esprit combatif est aussi indéfectible que notre nom.",这里是乌尔达哈的大国防联军“恒辉队”的作战总部。[@CR]我们非常欢迎拥有昂扬斗志的勇士。
11,ここは、リムサ・ロミンサのグランドカンパニー「黒渦団」の軍令部だ。[@CR]仮配属といえども、「黒渦団」の名を背負っているのだ。[@CR]その名に恥じぬような活躍、期待しているぞ。,"The Maelstrom is an institution steeped in history, ours a proud name. All members─new recruits included─are expected to live up to its lofty reputation, and not fall so much as an ilm short. To say it plain: [@1A(1)]do not disappoint us[@1A(0)].","Der Mahlstrom blickt auf eine genauso lange wie glorreiche Geschichte zurück. Wir erwarten von allen Mitgliedern - auch den Aspiranten - dass sie diesem Ruf gerecht werden. Um es auf den Punkt zu bringen: Lass dir ja nicht einfallen, uns zu enttäuschen!","[@IF($E3($E9(11),12),[@IF($E3($E9(11),4),Bonsoir,Bonjour)],[@IF($E3($E9(11),17),Bonjour,Bonsoir)])], tu te trouves ici au quartier général du Maelstrom, la grande compagnie de Limsa Lominsa. Même si tu n'es encore qu'une recrue provisoire, tâche de ne rien faire qui risquerait d'entacher le nom de notre institution.",这里是利姆萨·罗敏萨的大国防联军“黑涡团”的司令部。[@CR]虽说是临时归属，但也背负着“黑涡团”的名誉。[@CR]期待你能有一番不辜负我们名誉的作为。
12,ここは、グリダニアのグランドカンパニー「双蛇党」の統合司令部です。[@CR]仮配属とはいえ、あなたの澄みきった意志こそ私どもに必要なもの。[@CR]「双蛇党」としてのご活躍、期待しています。,"Though you are but a new inductee, our Order places great hope in the promise of your deeds to come. Pray do not betray our faith in you.","Auch wenn du nur ein Aspirant sein magst, die Bruderschaft setzt große Hoffnungen in dich.[@CR]Ich werde zu den Zwölf beten, dass deine Taten dem Ruf unserer Bruderschaft zur Ehre gereichen werden.","Vous êtes au quartier général de l'Ordre des deux vipères, la glorieuse grande compagnie de Gridania. Même si votre enrôlement n'est encore que provisoire, nous reconnaissons vos capacités et votre bravoure, et espérons vous compter bientôt dans nos rangs de manière permanente. Sachez que nous avons besoin de personnes de votre trempe.",这里是格里达尼亚的大国防联军“双蛇党”的蛇巢司令部。[@CR]虽说是临时归属，我们也需要像你这样坚定的意志。[@CR]期待你作为“双蛇党”的一员能有一番作为。
13,ここは、ウルダハのグランドカンパニー「不滅隊」の作戦本部だ。[@CR]仮配属だろうと、君の栄光は「不滅隊」と共にあらん。[@CR]おおいなる活躍を期待しているぞ。,"You're still a stripling in our ranks, but know that the dishonor of an individual must be borne by all in [@IF($E9(4),her,his)] company. Let it be glory instead that you reap for the Immortal Flames.","Du bist als Aspirant neu in der Legion, aber denke ja nicht, dass diese Tatsache als Entschuldigung für etwaige von dir verschuldete Misserfolge herhalten könne! Mach uns bloß keine Schande, denn du würdest sie nicht nur über dich bringen, sondern über die ganze Legion.","[@IF($E3($E9(11),12),[@IF($E3($E9(11),4),Bonsoir,Bonjour)],[@IF($E3($E9(11),17),Bonjour,Bonsoir)])]. Ton enrôlement provisoire ne signifie pas que ton engagement l'est aussi. Nous comptons sur toi pour donner le meilleur de toi-même.",这里是乌尔达哈的大国防联军“恒辉队”的作战总部。[@CR]虽说是临时归属，你的荣耀也和“恒辉队”息息相关。[@CR]期待着你的活跃了。
14,ここは、リムサ・ロミンサのグランドカンパニー「黒渦団」の軍令部だ。[@CR]お主はすでに、他都市のグランドカンパニーに配属されておるな。[@CR]特に用がなければ、お引き取り願おう。,"This is Maelstrom Command, headquarters of Limsa Lominsa's provisional armada, the Maelstrom. If you have no business being here, then begone.","Hier ist das Mahlstrom-Flotten[@16]kommando.[@CR]He, du bist ja schon Mitglied in einer anderen Staatlichen Gesellschaft! Wenn du nicht aus gutem Grund hier bist, muss ich dich bitten zu gehen.","[@IF($E3($E9(11),12),[@IF($E3($E9(11),4),Bonsoir,Bonjour)],[@IF($E3($E9(11),17),Bonjour,Bonsoir)])], ici c'est le quartier général du Maelstrom, la grande compagnie de Limsa Lominsa. Les membres des autres compagnies n'ont rien à faire ici, je te demanderai de bien vouloir te retirer.",这里是利姆萨·罗敏萨的大国防联军“黑涡团”的司令部。[@CR]你已经所属于其他城市的大国防联军了啊。[@CR]如果没什么事的话就请回吧。
15,ここは、グリダニアのグランドカンパニー「双蛇党」の統合司令部です。[@CR]あなたはすでに、他都市のグランドカンパニーに配属されていますね。[@CR]特にご用がなければ、お引き取りください。,"You are come to the Adders' Nest, command center of the Order of the Twin Adder. If you haven't reason to be here, pray take your leave.","Du bist hier im Abaton der Bruderschaft, dem Hauptquartier der Bruderschaft der Morgenviper.[@CR]Ich sehe, du bist schon Mitglied in einer anderen Staatlichen Gesellschaft. Wenn du nichts Bestimmtes hier zu tun hast, dann verlasse bitte diesen Ort.","Vous êtes au quartier général de l'Ordre des deux vipères, la glorieuse grande compagnie de Gridania. Attendez, vous êtes [@IF($E9(4),enrôlée,enrôlé)] dans une autre compagnie, non[@1D]? Alors je vais vous demander de bien vouloir partir.",这里是格里达尼亚的大国防联军“双蛇党”的蛇巢司令部。[@CR]你已经所属于其他城市的大国防联军了啊。[@CR]如果没什么事的话就请回吧。
16,ここは、ウルダハのグランドカンパニー「不滅隊」の作戦本部だ。[@CR]君はすでに、他都市のグランドカンパニーに配属されているな。[@CR]特に用がなければ、お引き取り願おう。,"You stand within the Hall of Flames, the burning heart of operations for the Immortal Flames. Unless you've pertinent matters to discuss, I suggest that you remove yourself from these premises.","Du befindest dich in der Ewigen Halle, dem Hauptquartier der Legion der Unsterblichen.[@CR]He, [@IF($E9(4),Abtrünnige,Freundchen)], du bist ja Mitglied einer Konkurrenz-Gesellschaft! Wenn du aus keinem bestimmten Grund hier bist, dann empfehle ich dir, dass du dich schleunigst von hier entfernst.","[@IF($E3($E9(11),12),[@IF($E3($E9(11),4),Bonsoir,Bonjour)],[@IF($E3($E9(11),17),Bonjour,Bonsoir)])], [@IF($E9(4),aventurière,aventurier)]. Tu te trouves au quartier général des Immortels, la grande compagnie d'Ul'dah. Seuls ceux qui ont à faire ici sont les bienvenus, ce qui n'est pas ton cas puisque tu fais déjà partie d'une autre compagnie. Je te conseille donc de te retirer.",这里是乌尔达哈的大国防联军“恒辉队”的作战总部。[@CR]你已经所属于其他城市的大国防联军了啊。[@CR]如果没什么事的话就请回吧。
17,ここは、リムサ・ロミンサのグランドカンパニー「黒渦団」の軍令部である。[@CR]エオルゼアを導く信念、真紅の旗に恥じぬ活躍、期待しておるぞ。,Never forget that you fight under the Maelstrom's proud standard.,"Vergiss niemals, dass du unter der stolzen Flagge des Mahlstroms in den Kampf ziehst.","[@IF($E3($E9(11),12),[@IF($E3($E9(11),4),Bonsoir,Bonjour)],[@IF($E3($E9(11),17),Bonjour,Bonsoir)])], ici c'est le quartier général du Maelstrom, la grande compagnie de Limsa Lominsa. Je compte sur toi pour faire honneur à notre nom en tant que membre de notre compagnie.",这里是利姆萨·罗敏萨的大国防联军“黑涡团”的司令部。[@CR]我期待着你贯彻引导艾欧泽亚的信念，为我们鲜红的旗帜增光添彩。
18,ここは、グリダニアのグランドカンパニー「双蛇党」の統合司令部です。[@CR]エオルゼアの未来を信じ、共に歩んでまいりましょう。,We have every faith that you will do right by Gridania and the elementals both.,Wir haben großes Vertrauen in dich. Du wirst Großes für Gridania leisten.,"Vous êtes au quartier général de l'Ordre des deux vipères, la glorieuse grande compagnie de Gridania. Je compte sur vous pour faire honneur à notre nom, en tant que membre de l'Ordre.",这里是格里达尼亚的大国防联军“双蛇党”的蛇巢司令部。[@CR]坚信艾欧泽亚充满慈爱的未来一起奋斗吧。
19,ここは、ウルダハのグランドカンパニー「不滅隊」の作戦本部だ。[@CR]エオルゼアに黄金なる栄光をもたらす、おおいなる活躍、期待しているぞ。,Remember always that glory won for yourself is glory won for the Immortal Flames.,"Vergiss niemals: Viel Feind, viel Ehr! Jeglichen Ruhm, den du gewinnst, gewinnst du nicht nur für dich, sondern für die gesamte Legion!","[@IF($E3($E9(11),12),[@IF($E3($E9(11),4),Bonsoir,Bonjour)],[@IF($E3($E9(11),17),Bonjour,Bonsoir)])]. Tous nos membres sont tenus de nous faire honneur, et cela vaut également pour toi.",这里是乌尔达哈的大国防联军“恒辉队”的作战总部。[@CR]期待着你给艾欧泽亚带来黄金色的荣耀。
20,現在、「グランドカンパニー復古祭」期間であるため[@CR]特別手当として、軍票を払いだしている。有効に活用していただきたい。,"In the spirit of Foundation Day, the Maelstrom is issuing its members a special allowance in Storm Seals. See to it that you don't squander this largesse.","Anlässlich des Tages der Volksarmeen zahlt der Mahlstrom all seinen Mitgliedern einen besonderen Zuschuss in Form von Flottentalern aus. Sieh nur zu, dass du bei all unserer Großzügigkeit die Summe nicht gleich für etwas Sinnloses verschleuderst.","Durant la fête de la Restauration, nos membres se voient offrir un bonus ex[@16]cep[@16]tion[@16]nel de sceaux de compagnie. Fais-en bon usage.",因为现在是“大国防联军复古庆”期间，[@CR]作为特别福利发放军票。希望你能有效地使用它。
21,現在、「グランドカンパニー復古祭」期間ですので[@CR]特別手当として軍票を払いだしています。どうぞ、お役に立ててください。,"In the spirit of Foundation Day, members of our Order are being issued a special allowance in Serpent Seals. May it grant you a measure of joy.",Anlässlich des Tages der Volksarmeen erhalten Mitglieder unserer Bruderschaft einen besonderen Zuschuss in Form von Ordenstalern. Auf dass sie dir in diesen harten Zeiten etwas Glück und Harmonie bescheren mögen.,"Pendant la période de la fête de la Restauration, nous offrons ex[@16]cep[@16]tion[@16]nellement à nos membres des sceaux de compagnie. Tenez... J'espère qu'ils vous seront utiles.",因为现在是“大国防联军复古庆”期间，[@CR]作为特别福利发放军票。希望你能好好使用它。
22,現在、「グランドカンパニー復古祭」期間である。[@CR]そこで特別手当として、軍票を払いだしている。[@CR]使い道は、君次第。よく考えて使うことだ。,"In the spirit of Foundation Day, we're issuing Immortal Flames members a special allowance in Flame Seals. You're free to spend them as you see fit.","Anlässlich des Tages der Volksarmeen zahlt die Legion der Unsterblichen all ihren Mitgliedern einen besonderen Zuschuss in Form von Legionstalern aus. Wofür du sie ausgibst, bleibt dir freigestellt. Ich empfehle jedoch, dass du sie in deine Kampfkraft und damit in die Überlebenschance deiner Kameraden investierst!","Pour fêter la Restauration, nous offrons des sceaux à nos membres. Utilise-les comme bon te semble.",因为现在是“大国防联军复古庆”期间，[@CR]作为特别福利发放军票。[@CR]如何使用它就看你的了，好好想想吧。
23,"特別手当、[@FORMAT($E8(1),,)][@SWITCH($E8(2),LCS,GCS,UCS)]を手に入れた！","You receive a special allowance of [@FORMAT($E8(1),,)] [@IF($E4($E8(1),1),[@SWITCH($E8(2),Storm Seal,Serpent Seal,Flame Seal)],[@SWITCH($E8(2),Storm Seals,Serpent Seals,Flame Seals)])]!","Du erhältst einen speziellen Zuschuss von [@FORMAT($E8(1),.)] [@IF($E4($E8(1),1),[@SWITCH($E8(2),Flottentaler,Ordenstaler,Legionstaler)],[@SWITCH($E8(2),Flottentalern,Ordenstalern,Legionstalern)])]!","Vous obtenez une allocation spéciale de [@FORMAT($E8(1),[@1D])] [@SWITCH($E8(2),sceaux limséens,sceaux gridaniens,sceaux uldiens)][@1D]!","得到了特别福利——[@FORMAT($E8(1),,)][@SWITCH($E8(2),LCS,GCS,UCS)]！"
24,よく聞け。「グランドカンパニー復古祭」期間中は[@CR]各任務報酬に対して、特別手当が支給される。有効に活用することだな。,Missions completed during the Foundation Day celebration will earn you a special allowance on top of the standard reward. See to it that you don't squander this largesse.,"Wer am Tag der Volksarmeen Missionen für die Staatlichen Gesellschaften erfüllt, erhält einen besonderen Zuschuss zusätzlich zur normalen Vergütung. So eine Chance solltest du dir nicht entgehen lassen.","Pendant la période de la fête de la Restauration, un bonus est ajouté aux récompenses de nos missions. Je te conseille d'en profiter.",听好了，“大国防联军复古庆”活动期间，[@CR]会发放特别福利作为每个任务的报酬。[@CR]希望你能有效地使用它。
25,お喜びください。「グランドカンパニー復古祭」期間中は[@CR]各任務報酬に対して、特別手当が支給されます。有効にご活用ください。,"For the duration of the Foundation Day celebration, mission rewards will be augmented with a special allowance. May it grant you a measure of joy.","Freu dich! Denn wer am Tag der Volksarmeen Missionen für die Staatlichen Gesellschaften erfüllt, erhält einen besonderen Zuschuss zusätzlich zur normalen Vergütung.","Durant la fête de la Restauration, nous offrons de meilleures récompenses à ceux qui remplissent des missions pour nous. J'espère que vous saurez en profiter.",欢喜吧，“大国防联军复古庆”活动期间，[@CR]会发放特别福利作为每个任务的报酬。[@CR]希望你能有效地使用它。
26,「グランドカンパニー復古祭」期間中は[@CR]各任務報酬に対して、特別手当が支給される。有効に活用したまえ。,"During the Foundation Day celebration, a special allowance is being issued in addition to the standard mission reward. You're free to spend it as you see fit.","Wenn dich diese zusätzliche Vergütung nicht zu Höchstleistungen anspornt, dann bist du wahrscheinlich schon tot.",Un supplément est accordé aux récompenses de nos missions lors de la fête de la Restauration. Profites-en bien.,“大国防联军复古庆”活动期间，[@CR]会发放特别福利作为每个任务的报酬。[@CR]希望你能有效地使用它。
27,"ここは、リムサ・ロミンサのグランドカンパニー「黒渦団」の軍令部だ。[@CR]紅き旗に忠誠を誓いし同志、[@STRING($EB(1))][@IF($E1($E9(52),0),[@IF($E3($E9(52),127),[@SHEET(xtx/gcRank,$E9(52),3)],)],)][@IF($E1($E9(53),0),[@IF($E3($E9(53),127),[@SHEET(xtx/gcRank,$E9(53),4)],)],)][@IF($E1($E9(54),0),[@IF($E3($E9(54),127),[@SHEET(xtx/gcRank,$E9(54),5)],)],)]よ。[@CR]用向きを告げるがいい。","Ah, [@IF($E1($E9(52),0),[@IF($E3($E9(52),127),[@SHEET(xtx/gcRank,$E9(52),12)],)],)] [@SPLIT([@STRING($EB(1))], ,2)]. Ever a sight for sore eyes. What business brings you to Maelstrom Command?","Willkommen im Flotten[@16]kommando, [@IF($E3($E9(52),127),[@IF($E1($E9(52),0),[@IF($E4($E9(52),127),Aspirant,[@SHEET(xtx/gcRank,$E9(52),15)])],)],[@IF($E3($E9(53),127),[@IF($E1($E9(53),0),[@IF($E4($E9(53),127),Aspirant,[@SHEET(xtx/gcRank,$E9(53),16)])],)],[@IF($E3($E9(54),127),[@IF($E1($E9(54),0),[@IF($E4($E9(54),127),Aspirant,[@SHEET(xtx/gcRank,$E9(54),17)])],)],)])])] [@SPLIT([@STRING($EB(1))], ,2)]! Was kann ich für dich tun?","Bienvenue au quartier général du Maelstrom, [@IF($E3($E9(52),127),[@IF($E1($E9(52),0),[@IF($E4($E9(4),0),[@SHEET(xtx/gcRank,$E9(52),21)],[@SHEET(xtx/gcRank,$E9(52),22)])],)],[@IF($E3($E9(53),127),[@IF($E1($E9(53),0),[@IF($E4($E9(4),0),[@SHEET(xtx/gcRank,$E9(53),23)],[@SHEET(xtx/gcRank,$E9(53),24)])],)],[@IF($E3($E9(54),127),[@IF($E1($E9(54),0),[@IF($E4($E9(4),0),[@SHEET(xtx/gcRank,$E9(54),25)],[@SHEET(xtx/gcRank,$E9(54),26)])],)],)])])] [@SPLIT([@STRING($EB(1))], ,2)]. Que puis-je pour toi[@1D]?",“大国防联军复古庆”活动期间，[@CR]会发放特别福利作为每个任务的报酬。[@CR]希望你能有效地使用它。
28,"ここは、グリダニアのグランドカンパニー「双蛇党」の統合司令部。[@CR]清き意志持つ同志、[@STRING($EB(1))][@IF($E1($E9(52),0),[@IF($E3($E9(52),127),[@SHEET(xtx/gcRank,$E9(52),3)],)],)][@IF($E1($E9(53),0),[@IF($E3($E9(53),127),[@SHEET(xtx/gcRank,$E9(53),4)],)],)][@IF($E1($E9(54),0),[@IF($E3($E9(54),127),[@SHEET(xtx/gcRank,$E9(54),5)],)],)]よ。[@CR]何か困り事がおありですか。","[@IF($E1($E9(53),0),[@IF($E3($E9(53),127),[@SHEET(xtx/gcRank,$E9(53),13)],)],)] [@SPLIT([@STRING($EB(1))], ,2)]. You're ever welcome here at the Adders' Nest. Is there aught you need?","Willkommen im Abaton der Bruderschaft, [@IF($E3($E9(52),127),[@IF($E1($E9(52),0),[@IF($E4($E9(52),127),Aspirant,[@SHEET(xtx/gcRank,$E9(52),15)])],)],[@IF($E3($E9(53),127),[@IF($E1($E9(53),0),[@IF($E4($E9(53),127),Aspirant,[@SHEET(xtx/gcRank,$E9(53),16)])],)],[@IF($E3($E9(54),127),[@IF($E1($E9(54),0),[@IF($E4($E9(54),127),Aspirant,[@SHEET(xtx/gcRank,$E9(54),17)])],)],)])])] [@SPLIT([@STRING($EB(1))], ,2)]. Was kann ich für dich tun?","Vous êtes au quartier général de l'Ordre des deux vipères, la glorieuse grande compagnie de Gridania. [@STRING($EB(1))], [@IF($E3($E9(52),127),[@IF($E1($E9(52),0),[@IF($E4($E9(4),0),[@SHEET(xtx/gcRank,$E9(52),21)],[@SHEET(xtx/gcRank,$E9(52),22)])],)],[@IF($E3($E9(53),127),[@IF($E1($E9(53),0),[@IF($E4($E9(4),0),[@SHEET(xtx/gcRank,$E9(53),23)],[@SHEET(xtx/gcRank,$E9(53),24)])],)],[@IF($E3($E9(54),127),[@IF($E1($E9(54),0),[@IF($E4($E9(4),0),[@SHEET(xtx/gcRank,$E9(54),25)],[@SHEET(xtx/gcRank,$E9(54),26)])],)],)])])] à l'opiniâtreté sans faille, puis-je faire quelque chose pour vous venir en aide[@1D]?",“大国防联军复古庆”活动期间，[@CR]会发放特别福利作为每个任务的报酬。[@CR]希望你能有效地使用它。
29,"ここは、ウルダハのグランドカンパニー「不滅隊」の作戦本部だ。[@CR]栄光とともに歩む者、[@STRING($EB(1))][@IF($E1($E9(52),0),[@IF($E3($E9(52),127),[@SHEET(xtx/gcRank,$E9(52),3)],)],)][@IF($E1($E9(53),0),[@IF($E3($E9(53),127),[@SHEET(xtx/gcRank,$E9(53),4)],)],)][@IF($E1($E9(54),0),[@IF($E3($E9(54),127),[@SHEET(xtx/gcRank,$E9(54),5)],)],)][@CR]その来意を告げよ。","Ah, [@IF($E1($E9(54),0),[@IF($E3($E9(54),127),[@SHEET(xtx/gcRank,$E9(54),14)],)],)] [@SPLIT([@STRING($EB(1))], ,2)], a true servant of coin and country. What can I do for you this day?","Willkommen in der Ewigen Halle der Legion, [@IF($E3($E9(52),127),[@IF($E1($E9(52),0),[@IF($E4($E9(52),127),Aspirant,[@SHEET(xtx/gcRank,$E9(52),15)])],)],[@IF($E3($E9(53),127),[@IF($E1($E9(53),0),[@IF($E4($E9(53),127),Aspirant,[@SHEET(xtx/gcRank,$E9(53),16)])],)],[@IF($E3($E9(54),127),[@IF($E1($E9(54),0),[@IF($E4($E9(54),127),Aspirant,[@SHEET(xtx/gcRank,$E9(54),17)])],)],)])])] [@SPLIT([@STRING($EB(1))], ,2)]. Was kann ich für dich tun?","Bienvenue au quartier général des Immortels, [@IF($E3($E9(52),127),[@IF($E1($E9(52),0),[@IF($E4($E9(4),0),[@SHEET(xtx/gcRank,$E9(52),21)],[@SHEET(xtx/gcRank,$E9(52),22)])],)],[@IF($E3($E9(53),127),[@IF($E1($E9(53),0),[@IF($E4($E9(4),0),[@SHEET(xtx/gcRank,$E9(53),23)],[@SHEET(xtx/gcRank,$E9(53),24)])],)],[@IF($E3($E9(54),127),[@IF($E1($E9(54),0),[@IF($E4($E9(4),0),[@SHEET(xtx/gcRank,$E9(54),25)],[@SHEET(xtx/gcRank,$E9(54),26)])],)],)])])] [@SPLIT([@STRING($EB(1))], ,2)]. Que cherches-tu aujourd'hui[@1D]?",“大国防联军复古庆”活动期间，[@CR]会发放特别福利作为每个任务的报酬。[@CR]希望你能有效地使用它。
30,"その心がけやよし。[@CR]昇進申請には、貢献の証として軍票「[@SHEET(gcRank,$E8(2),2)]枚」を[@CR]上納してもらう決まりになっているが……よいか？","Have a mind to rise through our ranks, eh? Very well. For promotion to the next rank, I require you to submit [@FORMAT([@SHEET(gcRank,$E8(2),2)],,)] Storm Seals as proof of your contribution to the Maelstrom cause.","Das ist würdig und recht. Darf ich also annehmen, dass du die erforderlichen [@SHEET(gcRank,$E8(2),2)] Flottentaler für den Antrag auszugeben bereit bist?","Hmm, as-tu les [@FORMAT([@SHEET(gcRank,$E8(2),2)],[@1D])] sceaux de compagnie nécessaires pour prouver ta con[@16]tri[@16]bu[@16]tion à la cause du Maelstrom[@1D]?",“大国防联军复古庆”活动期间，[@CR]会发放特别福利作为每个任务的报酬。[@CR]希望你能有效地使用它。
31,"その強き意志……たしかに承りました。[@CR]昇進申請には、貢献の証として軍票「[@SHEET(gcRank,$E8(2),2)]枚」を[@CR]納めていただく決まりとなっております。よろしいですか？","Your unquenchable determination does my spirit well! To rise to the next rank, I require of you a submission of [@FORMAT([@SHEET(gcRank,$E8(2),2)],,)] Serpent Seals. This sum serves as proof of your contribution to the Order. Are you ready to make the ascent?","Das ist würdig und recht. Darf ich also annehmen, dass du die erforderlichen [@SHEET(gcRank,$E8(2),2)] Ordenstaler für den Antrag auszugeben bereit bist?","Votre diligence m'emplit de joie[@1D]! Sachez que pour obtenir cette promotion, nous vous demandons de fournir une con[@16]tri[@16]bu[@16]tion de [@FORMAT([@SHEET(gcRank,$E8(2),2)],[@1D])] sceaux de compagnie en gage de votre dévouement à notre Ordre. Cela ne vous pose pas de problème, je présume[@1D]?",“大国防联军复古庆”活动期间，[@CR]会发放特别福利作为每个任务的报酬。[@CR]希望你能有效地使用它。
32,"見上げた心がけだ。[@CR]昇進申請には、貢献の証として軍票「[@SHEET(gcRank,$E8(2),2)]枚」を[@CR]上納してもらう決まりになっている。よいな？","Such burning ambition is an inspiration to us all! I should be glad to carry out the paperwork on your behalf─after you've paid the sum of [@FORMAT([@SHEET(gcRank,$E8(2),2)],,)] Flame Seals, that is. Think of it as proof of your contribution to the war effort.","Das ist würdig und recht. Darf ich also annehmen, dass du die erforderlichen [@SHEET(gcRank,$E8(2),2)] Legionstaler für den Antrag auszugeben bereit bist?","Très bien, si tu as [@FORMAT([@SHEET(gcRank,$E8(2),2)],[@1D])] sceaux de compagnie pour prouver ta con[@16]tri[@16]bu[@16]tion à notre cause, tu pourras monter en grade.",“大国防联军复古庆”活动期间，[@CR]会发放特别福利作为每个任务的报酬。[@CR]希望你能有效地使用它。
33,なかなか意欲的ではないか。[@CR]いいだろう、その健闘を認めよう。,"Aye, that will suffice. You have earned your promotion beyond doubt.",Sehr schön! Dann nehme ich deinen Antrag entgegen.,Quel zèle[@1D]! Tu as cer[@16]tai[@16]ne[@16]ment mérité une promotion.,“大国防联军复古庆”活动期间，[@CR]会发放特别福利作为每个任务的报酬。[@CR]希望你能有效地使用它。
34,"[@STRING($EB(1))][@IF($E1($E9(52),0),[@IF($E3($E9(52),127),[@SHEET(xtx/gcRank,$E9(52),3)],)],)][@IF($E1($E9(53),0),[@IF($E3($E9(53),127),[@SHEET(xtx/gcRank,$E9(53),4)],)],)][@IF($E1($E9(54),0),[@IF($E3($E9(54),127),[@SHEET(xtx/gcRank,$E9(54),5)],)],)]！[@CR]その健闘をもって、只今より「[@SHEET(xtx/gcRank,$E8(1),3)]」に任命す！[@CR]今後、よりいっそうの研さんを期待しているぞ。","From this moment forth, you are [@SHEET(xtx/gcRank,$E8(1),9)]! Congratulations, my friend. With higher rank comes greater responsibility, but I am confident you will be equal to the task.","[@IF($E3($E9(52),127),[@IF($E1($E9(52),0),[@IF($E4($E9(52),127),Aspirant,[@SHEET(xtx/gcRank,$E9(52),15)])],)],[@IF($E3($E9(53),127),[@IF($E1($E9(53),0),[@IF($E4($E9(53),127),Aspirant,[@SHEET(xtx/gcRank,$E9(53),16)])],)],[@IF($E3($E9(54),127),[@IF($E1($E9(54),0),[@IF($E4($E9(54),127),Aspirant,[@SHEET(xtx/gcRank,$E9(54),17)])],)],)])])] [@SPLIT([@STRING($EB(1))], ,2)]! Hiermit befördere ich dich im Namen des Mahlstroms in den Rang [@SHEET(xtx/gcRank,$E8(1),15)]! Unsere Hoffnung ruht auf dir.","Fé[@16]li[@16]ci[@16]ta[@16]tions, tu es désormais [@IF($E9(4),[@SHEET(xtx/gcRank,$E8(1),22)],[@SHEET(xtx/gcRank,$E8(1),21)])][@1D]! Continue de faire honneur à notre compagnie.",“大国防联军复古庆”活动期间，[@CR]会发放特别福利作为每个任务的报酬。[@CR]希望你能有效地使用它。
35,がんばっていらっしゃるようですね。[@CR]よろしい、あなたの努力を認めましょう。,'Tis plain you have done much good in the name of the Order. A thoroughly deserved promotion!,Sehr schön! Dann nehme ich deinen Antrag entgegen.,Je vois que vos efforts se sont montrés à la hauteur de nos espérances. Il est temps pour nous de vous témoigner notre gratitude.,“大国防联军复古庆”活动期间，[@CR]会发放特别福利作为每个任务的报酬。[@CR]希望你能有效地使用它。
36,"[@STRING($EB(1))][@IF($E1($E9(52),0),[@IF($E3($E9(52),127),[@SHEET(xtx/gcRank,$E9(52),3)],)],)][@IF($E1($E9(53),0),[@IF($E3($E9(53),127),[@SHEET(xtx/gcRank,$E9(53),4)],)],)][@IF($E1($E9(54),0),[@IF($E3($E9(54),127),[@SHEET(xtx/gcRank,$E9(54),5)],)],)]に、[@CR]これより「[@SHEET(xtx/gcRank,$E8(1),4)]」を名乗ることを許可します。[@CR]栄光は精進とともにある。どうぞお忘れなきよう。","You have earned the right to be called [@SHEET(xtx/gcRank,$E8(1),10)]. Allow me to be the first to congratulate you. I pray you will strive to attain still greater heights, for the sake of Gridania and all who love peace.","[@IF($E3($E9(52),127),[@IF($E1($E9(52),0),[@IF($E4($E9(52),127),Aspirant,[@SHEET(xtx/gcRank,$E9(52),15)])],)],[@IF($E3($E9(53),127),[@IF($E1($E9(53),0),[@IF($E4($E9(53),127),Aspirant,[@SHEET(xtx/gcRank,$E9(53),16)])],)],[@IF($E3($E9(54),127),[@IF($E1($E9(54),0),[@IF($E4($E9(54),127),Aspirant,[@SHEET(xtx/gcRank,$E9(54),17)])],)],)])])] [@SPLIT([@STRING($EB(1))], ,2)]! Hiermit befördere ich dich im Namen der Bruderschaft in den Rang „[@SHEET(xtx/gcRank,$E8(1),16)]“! Unsere Hoffnung ruht auf dir.","Vous êtes promu[@IF($E9(4),e,)] au titre de [@IF($E9(4),[@SHEET(xtx/gcRank,$E8(1),24)],[@SHEET(xtx/gcRank,$E8(1),23)])]. Poursuivez votre combat, et n'oubliez jamais qu'assiduité et renoncement sont les clefs des portes de la gloire.",“大国防联军复古庆”活动期间，[@CR]会发放特别福利作为每个任务的报酬。[@CR]希望你能有效地使用它。
37,ほほう、よく励んでいるようだな。[@CR]よかろう、君の奮闘を認めよう。,"My, my! It seems someone's had [@IF($E9(4),her,his)] nose to the grindstone! I see no reason whatsoever to deny you your promotion.",Sehr schön! Dann nehme ich deinen Antrag entgegen.,Ces sceaux sont la preuve de ton dur labeur et de ta loyauté.,“大国防联军复古庆”活动期间，[@CR]会发放特别福利作为每个任务的报酬。[@CR]希望你能有效地使用它。
38,"[@STRING($EB(1))][@IF($E1($E9(52),0),[@IF($E3($E9(52),127),[@SHEET(xtx/gcRank,$E9(52),3)],)],)][@IF($E1($E9(53),0),[@IF($E3($E9(53),127),[@SHEET(xtx/gcRank,$E9(53),4)],)],)][@IF($E1($E9(54),0),[@IF($E3($E9(54),127),[@SHEET(xtx/gcRank,$E9(54),5)],)],)]、[@CR]その奮闘を称え「[@SHEET(xtx/gcRank,$E8(1),5)]」に任命する！[@CR]肩書に驕ることなく、よりいっそう努力せよ。以上、散開。","You came here today a [@IF($E1($E9(54),0),[@IF($E3($E9(54),127),[@SHEET(xtx/gcRank,$E9(54),14)],)],)]. You leave a [@SHEET(xtx/gcRank,$E8(1),11)]. Be reminded, though, that it is one thing to earn a rank, but another to wear it. See to it you conduct yourself in a manner befitting your new title.","[@IF($E3($E9(52),127),[@IF($E1($E9(52),0),[@IF($E4($E9(52),127),Aspirant,[@SHEET(xtx/gcRank,$E9(52),15)])],)],[@IF($E3($E9(53),127),[@IF($E1($E9(53),0),[@IF($E4($E9(53),127),Aspirant,[@SHEET(xtx/gcRank,$E9(53),16)])],)],[@IF($E3($E9(54),127),[@IF($E1($E9(54),0),[@IF($E4($E9(54),127),Aspirant,[@SHEET(xtx/gcRank,$E9(54),17)])],)],)])])] [@SPLIT([@STRING($EB(1))], ,2)]! Hiermit befördere dich im Namen der Legion der Unsterblichen in den Rang „[@SHEET(xtx/gcRank,$E8(1),17)]“! Unsere Hoffnung ruht auf dir.","Tu as bien mérité d'être promu[@IF($E9(4),e,)] au rang de [@IF($E9(4),[@SHEET(xtx/gcRank,$E8(1),26)],[@SHEET(xtx/gcRank,$E8(1),25)])]. Fé[@16]li[@16]ci[@16]ta[@16]tions[@1D]!",“大国防联军复古庆”活动期间，[@CR]会发放特别福利作为每个任务的报酬。[@CR]希望你能有效地使用它。
39,なかなか良い返事だが……少々、軍票が足りないようだな。[@CR]はやる気はわかるが、力の伴わぬ肩書に意味なぞない。[@CR]腕を磨いた後に、再び、ここを訪れたまえ。,"Your enthusiasm can't be faulted, but you don't have enough Storm Seals for the application. Let us speak of promotions once more after you have garnered sufficient seals to vouch for your worth.","Eine forsche Antwort, doch mit Verlaub - dein Vermögen an Flottentalern scheint nicht auszureichen. Tut mir leid, aber Titel ohne Verdienste können wir wirklich nicht verleihen.","C'est bien joli d'être [@IF($E9(4),motivée,motivé)], mais tu n'as pas assez de sceaux. Reviens me voir quand tu auras de quoi me prouver ta valeur.",“大国防联军复古庆”活动期间，[@CR]会发放特别福利作为每个任务的报酬。[@CR]希望你能有效地使用它。
40,ふむ……どうやら軍票が足りないご様子。[@CR]お気持ちはありがたいのですが、軍票を集めることも実力のひとつ。[@CR]新たな道を打ち開く力を身につけられましたのち、またお会いしましょう。,"Hmmm... It appears you lack the requisite amount of Serpent Seals. Without them, we are unable to verify the deeds you have performed in service to the Order. I'm afraid there are no two ways around it.","Eine forsche Antwort, doch mit Verlaub - dein Vermögen an Ordenstalern scheint nicht auszureichen. Ich verstehe ja, dass du schnell vorankommen willst, aber ich kann keine Ausnahmen machen.","Je regrette, mais il semblerait que vous ne possédiez pas assez de sceaux. Votre ardeur à l'ouvrage et votre motivation sont louables, mais sachez que nous devons nous baser sur des résultats concrets pour vous accorder cette promotion. Je vous enjoins donc à réitérer votre demande lorsque vous aurez trouvé la voie qui vous permettra de contribuer davantage à notre Ordre.",“大国防联军复古庆”活动期间，[@CR]会发放特别福利作为每个任务的报酬。[@CR]希望你能有效地使用它。
41,返事は立派だが、軍票が足りないぞ。[@CR]残念ながら、力の伴わぬ者の昇進を認めるわけにはいかない。[@CR]君が大いなる実力をつけたとき、再びここを訪れると信じているぞ。,"It appears you're short a few Flame Seals. The spirit may be willing, but when it comes to promotions, seals are all that matter. To be plain, if you don't have enough, you'd best get used to being a [@IF($E1($E9(54),0),[@IF($E3($E9(54),127),[@SHEET(xtx/gcRank,$E9(54),14)],)],)].","Eine forsche Antwort, doch mit Verlaub - dein Vermögen an Legionstalern scheint nicht auszureichen. Tut mir leid, ich kann keine Ausnahmen machen.","Dis donc, tu espères vraiment une promotion sans travailler[@1D]? Il va falloir en faire un peu plus pour espérer monter dans la hiérarchie[@1D]!",“大国防联军复古庆”活动期间，[@CR]会发放特别福利作为每个任务的报酬。[@CR]希望你能有效地使用它。
42,……いったい何をしに来たのかは知らんが、[@CR]暇を持て余しているならば、任務のひとつもこなしてきてはどうだ。,"Then why the hells are you wasting my precious time? Get out there and make yourself useful, soldier!","Es tut mir leid, aber dann weiß ich wirklich nicht, wozu du hergekommen bist. Verwende deine Zeit doch etwas sinnvoller.","Qu'est-ce que tu es [@IF($E9(4),venue,venu)] faire ici, exactement[@1D]? Si tu as trop de temps libre, je te conseille d'aller remplir une ou deux missions pour le Maelstrom.",“大国防联军复古庆”活动期间，[@CR]会发放特别福利作为每个任务的报酬。[@CR]希望你能有效地使用它。
43,何を尻込みなさっているのです？[@CR]軍票が足りないのならば、任務をこなしてきてはいかがでしょう。,"Ah, come now, there is no need to be coy. Perchance you have miscounted your seals. Might I suggest undertaking a mission or two in the service of the Order?","Willst du mich von der Arbeit abhalten? Falls deine Taler noch nicht ausreichen, solltest du noch einige Aufgaben für die Bruderschaft erfüllen.","Voyons, ne faites pas l'enfant. Si vous venez de vous rendre compte que vous n'aviez pas assez de sceaux, je vous invite à user de votre temps libre pour accomplir des missions et services pour la compagnie.",“大国防联军复古庆”活动期间，[@CR]会发放特别福利作为每个任务的报酬。[@CR]希望你能有效地使用它。
44,"ふざけているのか、[@STRING($EB(1))][@IF($E1($E9(52),0),[@IF($E3($E9(52),127),[@SHEET(xtx/gcRank,$E9(52),3)],)],)][@IF($E1($E9(53),0),[@IF($E3($E9(53),127),[@SHEET(xtx/gcRank,$E9(53),4)],)],)][@IF($E1($E9(54),0),[@IF($E3($E9(54),127),[@SHEET(xtx/gcRank,$E9(54),5)],)],)]！[@CR]口を動かす前に、体を動かさんか！　わかったら、駆け足ィ！","What is this? Some attempt at a jest? The Immortal Flames need soldiers, not comedians! Unless you have pertinent matters to discuss, begone from my sight!","Also mal ganz ehrlich, könntest du nicht wesentlich sinnvollere Dinge leisten, als hier meine Zeit zu stehlen?","Tu te moques de moi, [@IF($E3($E9(52),127),[@IF($E1($E9(52),0),[@IF($E4($E9(4),0),[@SHEET(xtx/gcRank,$E9(52),21)],[@SHEET(xtx/gcRank,$E9(52),22)])],)],[@IF($E3($E9(53),127),[@IF($E1($E9(53),0),[@IF($E4($E9(4),0),[@SHEET(xtx/gcRank,$E9(53),23)],[@SHEET(xtx/gcRank,$E9(53),24)])],)],[@IF($E3($E9(54),127),[@IF($E1($E9(54),0),[@IF($E4($E9(4),0),[@SHEET(xtx/gcRank,$E9(54),25)],[@SHEET(xtx/gcRank,$E9(54),26)])],)],)])])][@1D]? Ne me fais pas perdre mon temps, et utilise le tien plus utilement, en remplissant des missions pour les Immortels par exemple[@1D]!",“大国防联军复古庆”活动期间，[@CR]会发放特别福利作为每个任务的报酬。[@CR]希望你能有效地使用它。
45,"昇進とは、お主の肩書をひとつ上の階級へと上げることを言う。[@CR]お主の場合は「[@SHEET(xtx/gcRank,$E8(1),3)]」となり、そのためには「黒渦団」への[@CR]貢献の証として、軍票「[@SHEET(gcRank,$E8(2),2)]枚」を上納してもらわねばならぬ。","As a military organization, the Maelstrom is composed of a hierarchy through which its members may rise. No doubt you already know this, but promotions require a payment in Storm Seals. Your next rank being [@SHEET(xtx/gcRank,$E8(1),9)], a promotion will cost you [@FORMAT([@SHEET(gcRank,$E8(2),2)],,)] seals.","Beförderung? Das bedeutet, dass du in den nächsthöheren Rang innerhalb des Mahlstroms befördert wirst. In deinem Fall wäre das [@SHEET(xtx/gcRank,$E8(1),15)]. Gratis ist das aber nicht. Dafür brauchst du [@SHEET(gcRank,$E8(2),2)] Flottentaler.","Ceux qui font la preuve de leur valeur peuvent monter en grade, s'ils ont les sceaux pour attester du travail accompli au service de la compagnie. Dans ton cas, tu pourras devenir [@IF($E9(4),[@SHEET(xtx/gcRank,$E8(1),22)],[@SHEET(xtx/gcRank,$E8(1),21)])] avec [@FORMAT([@SHEET(gcRank,$E8(2),2)],[@1D])] sceaux limséens.",“大国防联军复古庆”活动期间，[@CR]会发放特别福利作为每个任务的报酬。[@CR]希望你能有效地使用它。
46,昇進すると、新たな任務が通達される他[@CR]軍票で交換できる品が増える……といった恩恵を受けられるだろう。,"Attaining a higher rank has myriad benefits. First of all, you will be trusted to undertake a wider range of missions. Second, you will be able to exchange your seals for a greater selection of items.","Ein höherer Rang bedeutet nicht nur, dass man dir mehr Respekt zollt. Vor allem bekommst du neue, ver[@16]ant[@16]wor[@16]tungs[@16]vollere Aufträge zugedacht und kannst bessere Gegenstände für deine Taler eintauschen.","Monter dans la hiérarchie offre des avantages, comme l'accès à de nouvelles missions, et un plus grand choix d'objets à échanger contre des sceaux.",“大国防联军复古庆”活动期间，[@CR]会发放特别福利作为每个任务的报酬。[@CR]希望你能有效地使用它。
48,ただし昇進するには、相応の実力が求められる。[@CR]積極的に任務をこなし、日々、腕を磨くがよかろう。,"Now, this goes without saying, but the higher you climb, the steeper it gets. Be prepared to work hard if you desire to rise to the upper echelons of the Maelstrom.",Aber stell dir das nicht zu einfach vor. Befördert wird nicht jeder Beliebige. Da muss man schon wirklich etwas leisten!,Il va te falloir travailler dur pour nous impressionner.,“大国防联军复古庆”活动期间，[@CR]会发放特别福利作为每个任务的报酬。[@CR]希望你能有效地使用它。
49,"昇進とは、あなたの肩書をひとつ上の階級へ上げることを言います。[@CR]あなたなら「[@SHEET(xtx/gcRank,$E8(1),4)]」となるわけですが、これには「双蛇党」への[@CR]貢献の証、軍票を「[@SHEET(gcRank,$E8(2),2)]枚」上納していただく決まりとなっています。","As with any military organization, the Order of the Twin Adder follows a strict hierarchy. A system has been established whereby members earn promotions via the payment of Serpent Seals. In your case, rising to the next rank─that is, [@SHEET(xtx/gcRank,$E8(1),10)]─requires that you submit [@FORMAT([@SHEET(gcRank,$E8(2),2)],,)] seals.","Beförderung? Das bedeutet, dass du in den nächsthöheren Rang innerhalb der Bruderschaft befördert wirst. In deinem Fall wäre das [@SHEET(xtx/gcRank,$E8(1),16)]. Gratis ist das aber nicht. Dafür brauchst du [@SHEET(gcRank,$E8(2),2)] Ordenstaler.","Si une promotion vous est accordée, vous monterez en grade au sein de notre grande compagnie. Dans votre cas, vous accéderez ainsi au rang de [@IF($E9(4),[@SHEET(xtx/gcRank,$E8(1),24)],[@SHEET(xtx/gcRank,$E8(1),23)])]. En guise de preuve de vos efforts, nous vous demanderons [@FORMAT([@SHEET(gcRank,$E8(2),2)],[@1D])] sceaux de compagnie.",“大国防联军复古庆”活动期间，[@CR]会发放特别福利作为每个任务的报酬。[@CR]希望你能有效地使用它。
50,昇進すると、新たな任務を受けられるようになる他[@CR]軍票と交換できる品物が増える……といった恩恵を受けられます。,"As you climb the ranks, you will earn new privileges befitting your standing. Not only will you be entrusted with missions of ever-increasing import, but a wider array of goods will be available to you in exchange for Serpent Seals.","Ein höherer Rang bedeutet nicht nur, dass man dir mehr Respekt zollt. Vor allem bekommst du neue, ver[@16]ant[@16]wor[@16]tungs[@16]vollere Aufträge zugedacht und kannst bessere Gegenstände für deine Taler bekommen.","En progressant dans la hiérarchie, vous vous verrez confier de nouveaux types de missions, et aurez accès à davantage d'objets en échange de vos sceaux.",“大国防联军复古庆”活动期间，[@CR]会发放特别福利作为每个任务的报酬。[@CR]希望你能有效地使用它。
52,ただし、昇進するには、それなりの力を示す必要があります。[@CR]積極的に任務をこなすなど、たえず努力なさることをおすすめします。,"Be reminded, though, that promotions do not come without effort─you must demonstrate your dedication to the cause by garnering Serpent Seals. As might be expected, the amount of seals required to attain a new rank is proportional to its seniority.",Aber stell dir das nicht zu einfach vor. Befördert wird nicht jeder Beliebige. Da muss man schon wirklich etwas leisten!,"Mais pour être promu[@IF($E9(4),e,)], vous devrez faire montre d'un certain degré d'aptitude. A cette fin, je ne saurais trop vous conseiller d'accomplir un maximum de missions et opérations sans relâcher vos efforts.",“大国防联军复古庆”活动期间，[@CR]会发放特别福利作为每个任务的报酬。[@CR]希望你能有效地使用它。
53,"昇進とはつまり、君の肩書をひとつ上の階級へと取りなすことだ。[@CR]君の場合は「[@SHEET(xtx/gcRank,$E8(1),5)]」となるわけだが、これには「不滅隊」への[@CR]貢献の証として、軍票を「[@SHEET(gcRank,$E8(2),2)]枚」上納してもらう決まりがある。","Just as one's standing in Ul'dahn society is determined by coin, one's standing within the Immortal Flames is determined by Flame Seals. In order to be considered for promotion to [@SHEET(xtx/gcRank,$E8(1),11)], your next rank, you'll need to hand over [@FORMAT([@SHEET(gcRank,$E8(2),2)],,)] seals.","Beförderung? Das bedeutet, dass du in den nächsthöheren Rang innerhalb der Legion der Unsterblichen befördert wirst. In deinem Fall wäre das [@SHEET(xtx/gcRank,$E8(1),17)]. Gratis ist das aber nicht. Dafür brauchst du [@SHEET(gcRank,$E8(2),2)] Legionstaler.","Tu peux monter en grade si ton travail pour la compagnie est jugé suffisant. Toi, il te faudra [@FORMAT([@SHEET(gcRank,$E8(2),2)],[@1D])] sceaux uldiens pour devenir [@IF($E9(4),[@SHEET(xtx/gcRank,$E8(1),26)],[@SHEET(xtx/gcRank,$E8(1),25)])].",“大国防联军复古庆”活动期间，[@CR]会发放特别福利作为每个任务的报酬。[@CR]希望你能有效地使用它。
54,昇進すると、新たな任務が通達される他[@CR]軍票で交換できる品が増えるなどといった恩恵を受けられる。,"By rising in rank, you will find yourself on the roster for a broader range of missions. In addition, you will be able to avail yourself of a greater variety of goods─assuming you have the Flame Seals to pay for them, of course.","Ein höherer Rang bedeutet nicht nur, dass man dir mehr Respekt zollt. Vor allem bekommst du neue, ver[@16]ant[@16]wor[@16]tungs[@16]vollere Aufträge zugedacht und kannst bessere Gegenstände für deine Taler bekommen.","Il y a bien sûr des avantages à avoir une meilleure position au sein des Immortels, comme par exemple la possibilité de remplir de nouvelles missions, ou l'accès à plus d'objets à acheter avec des sceaux.",“大国防联军复古庆”活动期间，[@CR]会发放特别福利作为每个任务的报酬。[@CR]希望你能有效地使用它。
56,ただし、昇進するには、それ相応の力というものが求められる。[@CR]日ごろから鍛錬を怠らず、積極的に任務をこなしていくといいだろう。,"As I'm sure you'll agree, our chosen system of promotion makes progress both tangible and tantalizing. As such, we expect rather more dedication than is commonly shown by members of lesser, seal-eschewing organizations.",Aber stell dir das nicht zu einfach vor. Befördert wird nicht jeder Beliebige. Da muss man schon wirklich etwas leisten!,"Ne t'imagine pas que ce sera chose facile, cependant. Il te faudra travailler très dur.",“大国防联军复古庆”活动期间，[@CR]会发放特别福利作为每个任务的报酬。[@CR]希望你能有效地使用它。
57,なかなか頑張っているようだな。[@CR]しかしこれだけでは、お主を「下士」と認めることはできん。[@CR]戦況は、刻々と苛烈の度を加えてきた。それを乗り越えられるか。,These Storm Seals speak volumes of the blood and sweat you've shed for the Maelstrom...but I'm afraid they alone will not suffice if you wish to make petty officer. The situation grows grimmer with each passing day. Is it within you to rise to the challenge?,"Du hast dich wirklich im Kampf bewährt, das muss ich sagen. Doch das alleine reicht nicht für die Beförderung aus. Das Schlachtfeld ist keine Spielwiese, heute weniger denn je. Zeig, dass du die Stärke hast, auch das härteste Gefecht zu überstehen.","Tes efforts sont remarquables. Cela dit, ce n'est pas suffisant pour devenir sous-officier. La situation militaire ne fait que s'aggraver, et nous avons besoin de soldats capables de faire face à ce qui nous attend.",“大国防联军复古庆”活动期间，[@CR]会发放特别福利作为每个任务的报酬。[@CR]希望你能有效地使用它。
58,……ふむ、お主の内に猛る、秩序と正義の炎を信じてみるか。[@CR]では、これを授けよう。,"Your sense of order and justice is strong, and I'm inclined to place my faith in you. Very well. Take this.","In dir brennt das Streben nach Freiheit und Gerechtigkeit, das sehe ich. Hier! Nimm dies.",Mais tu respires la force et le courage... Je crois que tu as bien mérité ceci en fin de compte.,“大国防联军复古庆”活动期间，[@CR]会发放特别福利作为每个任务的报酬。[@CR]希望你能有效地使用它。
59,なるほど、たしかに承りました。[@CR]しかしこれだけで、あなたを「下士」と認めるわけには参りません。[@CR]戦況は日々、切迫しております。それを超えるだけの力を示してもらわねば。,"You have done well to amass these Serpent Seals, yet their endorsement alone will not make you a petty officer of the Order. The flames of war creep ever closer and we require further reassurance that you will be ready to withstand their searing heat.","Du hast dich wirklich im Kampf bewährt, das muss ich sagen. Doch das alleine reicht nicht für die Beförderung aus. Das Schlachtfeld ist keine Spielwiese, heute weniger denn je. Zeig, dass du die Stärke hast, auch das härteste Gefecht zu überstehen.","Je vois que vous avez fourni les efforts nécessaires, mais sachez que ce n'est pas suffisant pour vous reconnaître comme sous-officier. La situation politico-militaire est de plus en plus tendue chaque jour, et nous avons besoin de personnes capables de nous prouver qu'elles peuvent faire face à cette adversité.",“大国防联军复古庆”活动期间，[@CR]会发放特别福利作为每个任务的报酬。[@CR]希望你能有效地使用它。
60,あなたの内より漏れいづる、清き美徳の光に従いまして[@CR]こちらを授けるといたしましょう。,"The light of virtue shines brilliantly within you, and I shall trust to its radiance. Here, please accept this.","In dir brennt das Streben nach Reinheit und Gerechtigkeit, das sehe ich. Hier! Nimm dies.",Nous vous remettons donc cette distinction au nom de la pureté de votre force morale et du potentiel que vous renfermez.,“大国防联军复古庆”活动期间，[@CR]会发放特别福利作为每个任务的报酬。[@CR]希望你能有效地使用它。
61,ほほう、励んでいるようだな。[@CR]しかしこれだけでは、君を「下士」と認めることはできない。[@CR]戦況は刻一刻と切迫していく。乗りこえるだけの力が、君にあるか……。,"This veritable bounty in Flame Seals is proof positive of your dedication to our cause, but dedication alone does not a petty officer make. To be deemed a suitable candidate for promotion, you must prove your mettle beyond doubt amidst the mounting chaos.","Du hast dich wirklich im Kampf bewährt, das muss ich sagen. Doch das alleine reicht nicht für die Beförderung aus. Das Schlachtfeld ist keine Spielwiese, heute weniger denn je. Zeig, dass du die Stärke hast, auch das härteste Gefecht zu überstehen.","Ton travail est sans conteste exemplaire, mais je crains que ce ne soit pas suffisant pour devenir sous-officier... La situation militaire actuelle exige le meilleur de chacun d'entre nous, et j'ignore si tu as ce qu'il faut pour surmonter les obstacles qui vont se dresser devant nous.",“大国防联军复古庆”活动期间，[@CR]会发放特别福利作为每个任务的报酬。[@CR]希望你能有效地使用它。
62,……君の闘志の輝きが[@CR]不滅であることを願い、これを授けよう。,"I present to you this, in hopes that nothing will ever quench the righteous flame that burns within you.","In dir brennt das Feuer des geborenen Kämpfers, das sehe ich am Leuchten in deinen Augen. Hier! Nimm dies.","Cependant, ton désir de combattre saute aux yeux... Très bien, je pense que tu mérites ceci après tout.",“大国防联军复古庆”活动期间，[@CR]会发放特别福利作为每个任务的报酬。[@CR]希望你能有效地使用它。
63,その炎がまことに、秩序と正義を称えるものであることを祈る。[@CR]では、行け。健闘を期待している。,"Go now, and do your part to wash away the chaos and injustice that ails the land.","Ich hoffe sehr, dass diese Flamme eine Schneise in den Morast aus Verrat und Verirrung brennen wird!",J'espère que tu feras honneur à cet insigne et ce qu'il représente.,“大国防联军复古庆”活动期间，[@CR]会发放特别福利作为每个任务的报酬。[@CR]希望你能有效地使用它。
64,その光こそ、あなたの強さの表れでもあるとわかっております。[@CR]それではお行きください。健闘を期待しております。,"Go now, and do your part to light the way for the people of Gridania.","Ich hoffe sehr, dass diese Flamme eine Schneise in das Dickicht aus Pietätlosigkeit und Zerstörung brennen wird!",Cette force vibre en vous et nous sommes convaincus que c'est le signe de votre force d'âme. Poursuivez votre chemin[@1D]; l'Ordre attend beaucoup de vos accomplissements futurs.,“大国防联军复古庆”活动期间，[@CR]会发放特别福利作为每个任务的报酬。[@CR]希望你能有效地使用它。
65,その輝きが、暁よりなお輝くものであると信じている。[@CR]さあ、行くがいい。健闘を期待しているぞ。,"Go now, and do your part to scorch a path towards a future of peace and prosperity for Ul'dah.","Ich hoffe sehr, dass dieses begeisterte Glänzen heller strahlen wird als das Glimmen der schwelenden Trümmer der allgegenwärtigen Zerstörung!",Je compte sur toi pour faire honneur à cet insigne.,“大国防联军复古庆”活动期间，[@CR]会发放特别福利作为每个任务的报酬。[@CR]希望你能有效地使用它。
66,どうする？,What do you want?,Was willst du tun?,Que voulez-vous[@1D]?,“大国防联军复古庆”活动期间，[@CR]会发放特别福利作为每个任务的报酬。[@CR]希望你能有效地使用它。
67,昇進申請を行う,I want to apply for a promotion.,Beförderung beantragen.,Postuler pour une promotion.,“大国防联军复古庆”活动期间，[@CR]会发放特别福利作为每个任务的报酬。[@CR]希望你能有效地使用它。
68,昇進申請について尋ねる,I'd like to know how promotions work.,"Fragen, wie die Beförderung funktioniert.",Demander des ren[@16]sei[@16]gne[@16]ments sur les promotions.,“大国防联军复古庆”活动期间，[@CR]会发放特别福利作为每个任务的报酬。[@CR]希望你能有效地使用它。
69,何も用はない,"Sorry, I seem to have forgotten.",Nichts Besonderes.,Rien.,“大国防联军复古庆”活动期间，[@CR]会发放特别福利作为每个任务的报酬。[@CR]希望你能有效地使用它。
70,"あなたが現在所持している軍票は、[@FORMAT($E8(3),,)][@SWITCH($E8(4),LCS,GCS,UCS)]です。[@CR]軍票[@SHEET(gcRank,$E8(2),2)]枚を上納しますか？","Hand over [@FORMAT([@SHEET(gcRank,$E8(2),2)],,)] company seals?[@CR](You currently possess [@FORMAT($E8(3),,)].)","[@SHEET(gcRank,$E8(2),2)] [@SWITCH($E8(4),Flottentaler,Ordenstaler,Legionstaler)] bezahlen? (Du hast momentan [@FORMAT($E8(3),.)].)","Lui remettre [@FORMAT([@SHEET(gcRank,$E8(2),2)],[@1D])] sceaux de compagnie[@1D]? (Vous avez [@IF($E2($E8(3),1),[@SWITCH($E8(4),[@FORMAT($E8(3),[@1D])] sceau limséen,[@FORMAT($E8(3),[@1D])] sceau gridanien,[@FORMAT($E8(3),[@1D])] sceau uldien)],[@FORMAT($E8(3),[@1D])] [@SWITCH($E8(4),sceaux limséens,sceaux gridaniens,sceaux uldiens)])].)",“大国防联军复古庆”活动期间，[@CR]会发放特别福利作为每个任务的报酬。[@CR]希望你能有效地使用它。
71,はい,Yes.,Ja.,Oui.,“大国防联军复古庆”活动期间，[@CR]会发放特别福利作为每个任务的报酬。[@CR]希望你能有效地使用它。
72,いいえ,No.,Nein.,Non.,“大国防联军复古庆”活动期间，[@CR]会发放特别福利作为每个任务的报酬。[@CR]希望你能有效地使用它。
73,「下士」へ昇格するには、「オルン・グインカム中甲士」から[@CR]クエスト『「コボルド軍野営」疲弊作戦』を受注し、[@CR]コンプリートする必要があります。,"Completion of the quest “The Weakest Link,” issued by First Storm Lieutenant Guincum, is required for promotion to Storm Sergeant Third Class.","„Sturmmaat 3. Klasse“ ist der unterste der Unteroffiziersränge. Um in diese neue Rangklasse aufsteigen zu können, musst du erst vom Ersten Sturmbootsmann Guincum den Auftrag „Ausbluten lassen“ annehmen und erfüllen. Dann lässt sich über die Sache reden.","Pour accéder au rang de sous-officier, vous devez accomplir la quête “Des in[@16]fil[@16]tra[@16]tions chez les Kobolds” donnée par le lieutenant des tempêtes Orn Guincum.",“大国防联军复古庆”活动期间，[@CR]会发放特别福利作为每个任务的报酬。[@CR]希望你能有效地使用它。
74,「下士」へ昇格するには、「シーロ・フルク中牙士」から[@CR]クエスト『「イクサル軍伐採所」急襲作戦』を受注し、[@CR]コンプリートする必要があります。,"Completion of the quest “You Don't Have the Rite,” issued by First Serpent Lieutenant Fulke, is required for promotion to Serpent Sergeant Third Class.","„Dritter Schlangenjünger“ ist der unterste der Unteroffiziersränge. Um in diese neue Rangklasse aufsteigen zu können, musst du erst vom Ersten Schlangenpriester Fulke den Auftrag „Party platzen lassen“ annehmen und erfüllen. Dann lässt sich über die Sache reden.","Pour accéder au rang de sous-officier, vous devez accomplir la quête “Raid sur le site de déboisage des Ixali” donnée par le lieutenant du serpent Syro Fulke.",“大国防联军复古庆”活动期间，[@CR]会发放特别福利作为每个任务的报酬。[@CR]希望你能有效地使用它。
75,「下士」へ昇格するには、「ホリン・オーブレイ中闘士」から[@CR]クエスト『「アマルジャ軍祭場」補給断絶作戦』を受注し、[@CR]コンプリートする必要があります。,"Completion of the quest “Gore a Lizard, Hurry!” issued by First Flame Lieutenant Aubrey is required for promotion to Flame Sergeant Third Class.","„Legionsgefreiter 3. Klasse“ ist der unterste der Unteroffiziersränge. Um in diese neue Rangklasse aufsteigen zu können, musst du erst vom Ersten Legionsfähnrich Aubrey den Auftrag „Den Hahn zudrehen“ annehmen und erfüllen. Dann können wir über deine Beförderung sprechen.","Pour accéder au rang de sous-officier, vous devez accomplir la quête “Descente à l'autel amalj'aa” donnée par le lieutenant des sables Aubrey.",“大国防联军复古庆”活动期间，[@CR]会发放特别福利作为每个任务的报酬。[@CR]希望你能有效地使用它。
91,"ファイターかソーサラーのレベルが22以上になると、[@CR]グランドカンパニークエスト「[@SWITCH($E8(1),賢者の秘密,賢者の刻印,賢者の策略)]」を[@CR]受注することができます。","The Grand Company quest “[@SWITCH($E8(1),The Price of Integrity,Breaking the Seals,Career Opportunities)]” is available to Disciples of War or Magic with a level of 22 or above.","Sobald du in einer Krieger- oder Magierklasse Stufe 22 erreicht hast, kannst du den Staatserlass „[@SWITCH($E8(1),Zwei Seiten der Wahrheit,Ich bin die Axt, ich bin die Flamme,Stolz und Vorurteil)]“ annehmen.","Seuls les disciples de la guerre ou de la magie de niveau 22 ou plus peuvent lancer la quête de grande compagnie “[@SWITCH($E8(1),Le secret des Preux,Les marques du Preux,La réponse du Preux)]”.",“大国防联军复古庆”活动期间，[@CR]会发放特别福利作为每个任务的报酬。[@CR]希望你能有效地使用它。
92,なんと、これほどの活躍を見せるとは……！[@CR]しかしこれだけでは、お主を「士官」と認めることはできん。,"You've shed blood and tears for the Maelstrom, I'll not deny it─but to be an officer takes more than mere strength.","Oh, deine Leistungen bisher sind wirklich nicht schlecht![@CR]Aber leider kann ich dich noch nicht in den Offizierskorps aufsteigen lassen.","Je dois dire que tes exploits dépassent ce que j'attendais. Mal[@16]heu[@16]reu[@16]se[@16]ment, ce que tu m'amènes ne suffit pas à t'accorder le rang d'officier.",“大国防联军复古庆”活动期间，[@CR]会发放特别福利作为每个任务的报酬。[@CR]希望你能有效地使用它。
93,これより先の階級に求められるは、力だけではない。[@CR]お主にはたして、司令官たる器が備わっているものか……。,"Prove to us that you have the stuff of leaders, and [@1A(1)]then[@1A(0)] we shall speak of promotions once more.",Du musst noch etwas Besonderes leisten ...,"Sache que pour accéder aux rangs supérieurs, la simple force ne suffit pas. Nous devons vérifier que tu as l'étoffe des officiers.",“大国防联军复古庆”活动期间，[@CR]会发放特别福利作为每个任务的报酬。[@CR]希望你能有效地使用它。
94,「士官」へ昇格するには「オルン・グインカム中甲士」から[@CR]クエスト『「グレートバッファロー」討伐作戦』を受注し、[@CR]コンプリートする必要があります。,"Completion of the quest “Patrol, Interrupted,” issued by First Storm Lieutenant Guincum, is required for promotion to Second Storm Lieutenant.","Um in die Rangkategorie des Offizierskorps aufzusteigen, musst du von Guincum den Auftrag „Offizier zur See“ annehmen und ausführen.","Pour accéder au grade d'officier, vous devez accomplir la quête “Le buffle se rebiffe”, proposée par le lieutenant des tempêtes Orn Guincum.",“大国防联军复古庆”活动期间，[@CR]会发放特别福利作为每个任务的报酬。[@CR]希望你能有效地使用它。
95,「交信雷波塔」でのご活躍……[@CR]なるほど、下士としては十分すぎる働きです。,"We are not unmindful of the valor you displayed at Castrum Novum, but you must do more if you would become an officer of the Order.","Du hast beim Sendeturm von Castrum Novum in der Tat Außerordentliches vollbracht. Das heißt, für einen Unteroffizier ist deine Leistung auf jeden Fall sehr zufriedenstellend.",Vous avez montré des résultats remarquables à Castrum Novum. Nous pouvons même dire que vous avez surpassé votre fonction de sous-officier.,“大国防联军复古庆”活动期间，[@CR]会发放特别福利作为每个任务的报酬。[@CR]希望你能有效地使用它。
96,しかしこれだけで、[@CR]あなたを「士官」と認めるわけには参りません。[@CR]これより先の階級では、人としての器の大きさが問われることでしょう。,You must needs prove beyond the shadow of a doubt that you have what it takes to be a leader of men. Then─and only then─can we consider your application for promotion.,Doch an Angehörige des Offizierskorps werden noch etwas höhere Ansprüche gestellt.,"Hélas, cela ne suffit pas pour vous promouvoir. Pour accéder aux rangs supérieurs, la simple force ne suffit pas, nous devons d'abord vérifier que vous avez réellement l'étoffe des officiers.",“大国防联军复古庆”活动期间，[@CR]会发放特别福利作为每个任务的报酬。[@CR]希望你能有效地使用它。
97,「士官」へ昇格するには「シーロ・フルク中牙士」から[@CR]クエスト『「太っ腹のホットポックス」討伐作戦』を受注し、[@CR]コンプリートする必要があります。,"Completion of the quest “Cure for the Common Pox,” issued by First Serpent Lieutenant Fulke, is required for promotion to Second Serpent Lieutenant.","Um in die Rangkategorie des Offizierskorps aufzusteigen, musst du von Fulke den Auftrag „Immun gegen Pocken und Narben“ annehmen und ausführen.","Pour accéder au grade d'officier, vous devez accomplir la quête “Les yeux plus gros que le ventru”, proposée par le lieutenant du serpent Syro Fulke.",“大国防联军复古庆”活动期间，[@CR]会发放特别福利作为每个任务的报酬。[@CR]希望你能有效地使用它。
98,君の活躍のほどは知っている。[@CR]「交信雷波塔」での戦い、あの死線を乗り越えた強さもな。,"While your exploits at Castrum Novum are testament to your dedication to our cause, dedication alone does not an officer make.","Wir haben deine Leistungen mit Interesse verfolgt, Phönixgefreiter. Auch dass du die Sendeanlage in Castrum Novum zerstört hast, haben wir gehört.",Je dois dire que tes exploits dépassent ce que j'attendais. Tu as même défié la mort à Castrum Novum...,“大国防联军复古庆”活动期间，[@CR]会发放特别福利作为每个任务的报酬。[@CR]希望你能有效地使用它。
99,だが、これだけで君を「士官」と認めるわけにはいかない。[@CR]これより先の階級には、他人を導く術がより重要となるだろう。,"To be deemed a suitable candidate for promotion, you must also prove that you are possessed of leadership.","Aber leider bist du noch nicht reif dafür, in die Ränge des Offizierskorps aufzusteigen.","Mal[@16]heu[@16]reu[@16]se[@16]ment, tout cela ne suffit pas à t'accorder le grade supérieur. Un officier se doit de guider ses subalternes, d'avoir l'étoffe d'un meneur.",“大国防联军复古庆”活动期间，[@CR]会发放特别福利作为每个任务的报酬。[@CR]希望你能有效地使用它。
100,「士官」へ昇格するには「ホリン・オーブレイ中闘士」から[@CR]クエスト『「エルダーモスホーン」討伐作戦』を受注し、[@CR]コンプリートする必要があります。,"Completion of the quest “Mess with the Goat, Get the Horns,” issued by First Flame Lieutenant Aubrey, is required for promotion to Second Flame Lieutenant.","Um in die Rangkategorie des Offizierskorps aufzusteigen, musst du von Aubrey den Auftrag „Ins Bockshorn gejagt“ annehmen und ausführen.","Pour accéder au grade d'officier, vous devez accomplir la quête “Avancer à coup de bélier”, proposée par le lieutenant des sables Hollin Aubrey.",“大国防联军复古庆”活动期间，[@CR]会发放特别福利作为每个任务的报酬。[@CR]希望你能有效地使用它。
101,良い心がけだが……[@CR]お主の「黒渦団」への貢献はいまだ十分とはいえぬ。[@CR]十分に任務をこなしたのちに、再び、ここを訪れたまえ。,"Your enthusiasm can't be faulted, but your contributions to the Maelstrom are somewhat lacking still. Let us speak of promotions again when you have done more to advance our cause.","Du bist voll Eifer und Einsatzwillen, wie ich sehe. Aber du hast eine wichtige Aufgabe für den Mahlstrom noch nicht erledigt. Komm wieder, wenn du erfüllt hast, was wir von dir erwarten.","Tu me vois ravi de voir que tu as de l'ambition, mais tes résultats ne justifient pas encore une promotion, il manque quelque chose. Reviens me voir quand tu auras davantage œuvré pour notre compagnie.",“大国防联军复古庆”活动期间，[@CR]会发放特别福利作为每个任务的报酬。[@CR]希望你能有效地使用它。
102,「士官」へ昇格するには「ジャキス・ライダー大闘佐」から[@CR]クエスト「勝利への行進」を受注し、コンプリートする必要があります。,Completion of one of the three “United We Stand” quests issued by High Flame Commander Jakys Ryder is required for promotion to Second Lieutenant.,"Um in die Rangkategorie des Offizierskorps aufzusteigen, musst du einen der von Jakys angebotenen „Auf der Siegerstraße“-Aufträgen annehmen und ausführen.","Pour accéder au grade d'officier, vous devez accomplir la quête “Les sentiers de la victoire”, proposée par le colonel Jakys Ryder.",“大国防联军复古庆”活动期间，[@CR]会发放特别福利作为每个任务的报酬。[@CR]希望你能有效地使用它。
103,たいへん申し訳ないのですが……[@CR]あなたが下士として果たした役割は、十分であるとはいえません。[@CR]任務をこなし、役割を十分に果たされたのち、またお会いしましょう。,I regret to say that your deeds performed in service to the Order suffice not to qualify you for promotion. You must give yet more of yourself if it is your desire to rise to the rank of officer.,"Es tut mir wirklich sehr leid, aber du hast offenbar eine Aufgabe noch nicht erfüllt, die für den Aufstieg unerlässlich ist. Komm wieder, wenn du vollbracht hast, was die Bruderschaft von einem würdigen Anwärter für die Offizierskorps-Ränge erwartet.","Je suis pro[@16]fon[@16]dé[@16]ment navré, mais vos résultats ne justifient pas ac[@16]tu[@16]el[@16]le[@16]ment qu'une promotion vous soit accordée. Revenez nous voir lorsque vous aurez davantage œuvré pour notre compagnie.",“大国防联军复古庆”活动期间，[@CR]会发放特别福利作为每个任务的报酬。[@CR]希望你能有效地使用它。
104,返事は立派なようだが……[@CR]君の実力を知るには、もう少々情報が足りない。[@CR]さらに任務をこなしたのちに、再び、ここを訪れてくれ。,"Your spirit may be willing, but we still lack the data to gauge your fitness for promotion. That's to say, you must spend more time out there, toiling in the name of the Immortal Flames.","Du traust dir viel zu, das ist gut. Doch ich sehe, dass du deine letzte Aufgabe als Unteroffizier noch nicht erfüllt hast. Komm erst wieder, wenn du diesen Beweis deines selbstlosen Einsatzes für die Legion erbracht hast!","Ton ardeur fait plaisir à voir, mais je vais être franc[@1D]: tes résultats ne justifient pas encore une promotion, il manque quelque chose. Reviens me voir quand tu auras davantage œuvré pour notre compagnie.",“大国防联军复古庆”活动期间，[@CR]会发放特别福利作为每个任务的报酬。[@CR]希望你能有效地使用它。
105,現在、「グランドカンパニー決起祭」期間であるため[@CR]特別手当として、[@VALUE($E8(1))]LCSを払いだしている。[@CR]有効に活用していただきたい。,"In the spirit of Foundation Day, the Maelstrom is issuing its members a special allowance of [@FORMAT($E8(1),,)] Storm Seals. See to it that you don't squander this largesse.",Zur Feier des Tages der Volksarmeen wird heute ein Bonus von [@VALUE($E8(1))] Flottentalern ausgezahlt. Den kannst du sicher gebrauchen.,"Le Maelstom offre ex[@16]cep[@16]tion[@16]nellement [@FORMAT($E8(1),[@1D])] sceaux limséens à ses membres pour commémorer la restauration des grandes compagnies. Fais-en bon usage.",“大国防联军复古庆”活动期间，[@CR]会发放特别福利作为每个任务的报酬。[@CR]希望你能有效地使用它。
106,現在、「グランドカンパニー決起祭」期間ですので[@CR]特別手当として、[@VALUE($E8(1))]GCSを払いだしています。[@CR]どうぞ、お役に立ててください。,"In the spirit of Foundation Day, members of our Order are being issued a special allowance of [@FORMAT($E8(1),,)] Serpent Seals. May it grant you a measure of joy.",Zur Feier des Tages der Volksarmeen wird heute ein Bonus von [@VALUE($E8(1))] Ordenstalern ausgezahlt. Möge er dir nützlich sein.,"Nous avons décidé de commémorer la restauration des grandes compagnies en gratifiant ex[@16]cep[@16]tion[@16]nellement nos membres de [@FORMAT($E8(1),[@1D])] sceaux gridaniens. J'espère qu'ils vous seront utiles.",“大国防联军复古庆”活动期间，[@CR]会发放特别福利作为每个任务的报酬。[@CR]希望你能有效地使用它。
107,現在、「グランドカンパニー決起祭」期間である。[@CR]そこで特別手当として、[@VALUE($E8(1))]UCSを払いだしている。[@CR]使い道は、君次第。よく考えて使うことだ。,"In the spirit of Foundation Day, we're issuing Immortal Flames members a special allowance of [@FORMAT($E8(1),,)] Flame Seals. You're free to spend them as you see fit.",Zur Feier des Tages der Volksarmeen wird heute ein Bonus von [@VALUE($E8(1))] Legionstalern ausgezahlt. Er steht dir zur freien Verfügung.,"Les Immortels font ex[@16]cep[@16]tion[@16]nellement cadeau de [@FORMAT($E8(1),[@1D])] sceaux uldiens à ses membres pour commémorer la restauration des grandes compagnies. Fais-en ce que tu voudras.",“大国防联军复古庆”活动期间，[@CR]会发放特别福利作为每个任务的报酬。[@CR]希望你能有效地使用它。
