 ,0,1,2,3,4
 ,str,str,str,str,str
1,3:34　私は鬼哭隊一番槍、探索班リデル。後続隊へ向けメモを残す。[@CR]洞内に浮遊する緑の光を「魔導フォトセル」と命名。収集を開始。,“First Spear Rydel[@CR]Toto[@1F]Rak Expedition Notes[@CR]1.) Strange lights sighted from just inside dungeon entrance. Creatures of the forest? Closer inspection reveals them to be man-made machines. Ashcrown Consortium technologist accompanying party believes them to be of Garlean design. Labels them 'magitek photocells.' Collect for further study.”,"„Toto-Rak-Expedition, Notizen[@CR]Pikenier-Leutnant des Klageregimentes, Grynnwald[@CR]1.) Seltsames Licht scheint im Inneren des Dungeons. Kreaturen des Waldes? Nähere Inspektion ergibt, dass das Licht von Maschinen stammt. Experte des Aschenhaupt-Konsortiums schätzt das Design garleisch ein. Maschinen tragen Beschriftung „Photozellen“. Sammeln Proben für weitere Untersuchungen ...“","Ridel, 1re Lance des Vigiles en expédition dans les Mille Gueules. Je laisse ici une note pour les troupes qui nous suivront.[@CR]3 h 34[@1D]: Nous avons découvert une étrange lumière flottante dans les grottes, qui s'est révélée être une machine. Nous l'avons nommée “cellule magitek” et avons décidé d'en chercher d'autres pour les étudier.",3:34 我是鬼哭队第一枪队、探索班的瑞德。我要为后续的队伍留下笔记。[@CR]将在洞内浮游的绿色的光命名为魔导感光器。收集开始。
2,3:55　4つめの「魔導フォトセル」を回収すると、各々が振動を開始。[@CR]フォトセルを分析するため、洞外へ持ち出したところ消滅した。,"“2.) Dramatic increase in light emitted by photocells observed upon collecting fourth. Dispatched two lancers to Gridania with orders to deliver the photocells to Stillglade Fane. Soon after their departure, received linkpearl transmission from pair reporting marked reduction in photocell glow as distance from Maws increased. Recalled lancers.”","„2.) Reaktion mit heftigem Energieanstieg beim Einsammeln der vierten Photozelle. Habe zwei Pikeniere mit Befehl entsandt, Photozellen in die Grotte der versunkenen Gedanken zu bringen. Kurz nach ihrem Aufbruch meldeten sie über die Kontaktperle einen Energieabfall in den Zellen, der mit steigender Entfernung von Toto-Rak immer augenfälliger wird.“","3 h 55[@1D]: Les cellules ont commencé à frémir lorsque nous avons mis la main sur une quatrième. Nous avons décidé de sortir des grottes pour les analyser, mais elles se sont autodétruites dès que nous avons mis un pied dehors.",3:55 收集到第四个魔导感光器后，将会发生震动。[@CR]为了分析感光器，在将它拿到洞外时消灭掉。
3,4:12　通路を遮断する青い光の壁を「魔導フィールド」と命名。[@CR]これは「魔導ターミナル」の起動によって消滅することを確認。,“3.) Lancer downed attempting to breach what Ashcrown technologist calls a 'magitek field.' Technologist advises that there should be a device in the vicinity powering the barrier. No choice but to look for it. Divided party into four teams to expedite search. Whisperings of discontent? No. Just my imagination.”,"„3.) Ein Pikenier verletzt bei dem Versuch, eine Barriere zu durchbrechen, die der Experte des Aschenhaupt-Konsortiums als „Magitek-Feld“ bezeichnet. Experte vermutet, dass das Feld von einer Vorrichtung aus mit Energie versorgt wird. Habe Expeditionsteam in vier Gruppen aufgeteilt, um danach zu suchen ...“",4 h 12[@1D]: Nous avons découvert un mur émettant une lueur bleuâtre qui bloque le passage. Nous l'avons appelé “champ magitek”. Nous avons trouvé un terminal qui selon toute probabilité devrait nous permettre de le faire disparaître.,4:12 将阻断道路的蓝色的光墙命名为魔导结界。[@CR]确认这是由于魔导终端的启动而消灭的。
4,4:36　｢魔導フィールド｣が再度、出現した時のために記す。[@CR]｢魔導ターミナル｣は、4つのフォトセルの振動によって起動可能。,"“4.) Device located, but one team yet to return. Barrier terminal unresponsive until technologist suggests applying set of four photocells. How does he know these things? Watch him. Lancer suggests locating missing team. Decide to press on.”","„4.) Vorrichtung ausfindig gemacht. Ein Suchtrupp ist noch nicht zurück. Terminal zum Steuern der Barriere zeigt keine Reaktion, bis auf Vorschlag des Experten hin vier Photozellen eingefügt werden. Wieso weiß er so viel? Habe entschieden, ihn genau beobachten zu lassen. Auf Anraten eines Pikeniers entscheide ich, nach dem vermissten Trupp zu suchen.“","4 h 36[@1D]: Après de nombreux essais infructueux, nous avons enfin découvert comment activer le terminal. Il suffit d'y insérer quatre cellules magitek.",4:36 为魔导结界再次出现时记录。[@CR]魔导终端，可能会因为4个感光器的震动而启动。
5,5:03　この先で通路が落ち込み、分断されている。[@CR]おそらく下りたら戻れない。後続隊は注意されたし。,"“5.) Encountered sheer drop several yalms down passage. Rock face looks treacherous but descent should be possible with ropes. Return climb may be troublesome─especially with the technologist slowing us down. Lancers seem uncertain. After consulting with second officer, have decided to proceed. Will send scouts to find alternate route back to entrance.”","„5.) Sind auf mehrere Yalme tiefe Abgründe gestoßen. Abstieg scheint schwierig, aber mithilfe von Seilen möglich. Rückkehr könnte sich als schwierig  erweisen. Experte verlangsamt unser Vorankommen. Habe mich entschlossen, den Abstieg fortzusetzen, und lasse Scouts nach alternativen Routen zurück zum Eingang suchen.“","5 h 03[@1D]: Nous sommes arrivés à une portion du passage qui s'est affaissée. La descente semble praticable, mais il est peu probable qu'il soit possible de remonter après. La prudence est donc de mise.",5:03 前方道路下沉，无法通行。[@CR]下降后有可能无法返回，后续部队注意。
6,5:45　再び強力な魔物と交戦。当方にも負傷者が出た。[@CR]これ以上の調査続行について、隊員と協議を続けている。,"“6.) Discovered mangled bodies of the missing team beyond the drop. Have lost linkpearl contact with the two scouts sent to find alternate route out. Presumed lost or deserted. Will continue expedition for now, but must consider retreat if situation worsens.”","„6.) Verunstaltete Leichname von Mitgliedern des vermissten Trupps am Boden des steilen Abstiegs gefunden. Verbindung zu den Kontaktperlen der Scouts ist abgerissen. Womöglich sind sie desertiert? Expedition wird fortgesetzt, aber Rückzug wird in Betracht gezogen, falls sich die Situation weiter verschlechtert.“","5 h 45[@1D]: Nous avons subi une nouvelle attaque de monstres par[@16]ti[@16]cu[@16]liè[@16]rement féroces et nous avons maintenant de nombreux blessés. Une partie de la troupe pense qu'il serait plus raisonnable de rebrousser chemin, mais j'ai décidé de continuer encore un peu nos recherches.",5:45 再次和强力的魔物交战。我方出现负伤者。[@CR]关于后续的调查，和队员协商进行。
7,6:22　咳き込む者、多数。原因は不明だが、私は撤退を決断。[@CR]メモはここまでとする。後続隊はくれぐれも注意されたし。,"“7.) Three lancers report difficulty breathing, as if something dank and heavy is clogging their lungs. Another two disappeared into the darkness, screaming. Technologist believes cause to be extreme levels of aetheric energy detected ahead. Lies. He has done something to us! The elementals warned me about him. Should have listened. Technologist suggests turning back. I see him for what he is now. Garlean worm is dead. Feel better. Pressing on.”","„7.) Drei Pikeniere klagen über Atembeschwerden. Irgendetwas würde ihnen die Luft abschnüren ... Zwei weitere Pikeniere verschwanden schreiend in der Dunkelheit. Experte des Konsortiums macht große Mengen ätherischer Energie für alles verantwortlich. Er lügt! Er hat irgendetwas mit uns gemacht. Experte empfahl Rückzug, aber wir setzen Expedition fort. Der garleische Wurm hat bekommen, was er verdient ...“","6 h 22[@1D]: Plusieurs membres de l'expédition ont des difficultés à respirer et sont pris de quintes de toux qui vont en s'empirant. Je n'ai aucune idée de la cause de ces symptômes et je pense qu'il est préférable de rentrer. Je laisse ici une dernière note pour ceux qui viendront après nous. Soyez prudents, qui que vous soyez.",6:22 多数队员咳嗽不止。原因不明。我决定撤退。[@CR]笔记到此为止。后续部队请多加注意。
14,何かを吸い込んでいる装置のようだ。,It appears to be some sort of magitek device designed to gather free-floating aetheric energy discharges.,"Dieser Apparat scheint dazu entworfen worden zu sein, Entladungen von freier ätherischer Energie aufzunehmen.",On dirait un appareil magitek destiné à absorber de l'énergie éthérée flottante.,好像是吸入了什么东西的装置。
15,何かの装置のようだ。,It appears to be some sort of magitek device.,Dies scheint eine Apparatur garleischer Bauart zu sein.,On dirait un appareil magitek.,好像是某个装置。
16,内部から駆動音が聞こえる……なにかを吸引しているようだ。,It appears to be some sort of magitek device designed to gather free-floating aetheric energy discharges.,"Dieser Apparat scheint dazu entworfen worden zu sein, Entladungen von freier ätherischer Energie aufzunehmen.",L'appareil émet un curieux bruit... il semble destiné à absorber de l'énergie éthérée flottante.,可以听到从内部发出的驱动的声音……好像吸入了什么东西。
