 ,0,1,2
 ,s32,u8,s32
0,0,1,0
101001,13000001,1,6000
101002,13000029,1,6000
101003,13000030,1,6000
101004,13000015,1,8000
101005,13000031,1,8000
101006,13000002,1,10000
101007,13000035,1,10000
101008,13000036,1,10000
101009,13000022,1,12000
101010,13000037,1,12000
102001,13000003,1,6000
102002,13000029,1,6000
102003,13000030,1,6000
102004,13000016,1,8000
102005,13000031,1,8000
102006,13000004,1,10000
102007,13000035,1,10000
102008,13000036,1,10000
102009,13000023,1,12000
102010,13000037,1,12000
103001,13000005,1,6000
103002,13000029,1,6000
103003,13000030,1,6000
103004,13000017,1,8000
103005,13000031,1,8000
103006,13000006,1,10000
103007,13000035,1,10000
103008,13000036,1,10000
103009,13000024,1,12000
103010,13000037,1,12000
104001,13000007,1,6000
104002,13000029,1,6000
104003,13000030,1,6000
104004,13000018,1,8000
104005,13000031,1,8000
104006,13000008,1,10000
104007,13000035,1,10000
104008,13000036,1,10000
104009,13000025,1,12000
104010,13000037,1,12000
105001,13000009,1,6000
105002,13000029,1,6000
105003,13000030,1,6000
105004,13000019,1,8000
105005,13000031,1,8000
105006,13000010,1,10000
105007,13000035,1,10000
105008,13000036,1,10000
105009,13000026,1,12000
105010,13000037,1,12000
106001,13000011,1,6000
106002,13000032,1,6000
106003,13000033,1,6000
106004,13000020,1,8000
106005,13000034,1,8000
106006,13000012,1,10000
106007,13000038,1,10000
106008,13000039,1,10000
106009,13000027,1,12000
106010,13000040,1,12000
107001,13000013,1,6000
107002,13000032,1,6000
107003,13000033,1,6000
107004,13000021,1,8000
107005,13000034,1,8000
107006,13000014,1,10000
107007,13000038,1,10000
107008,13000039,1,10000
107009,13000028,1,12000
107010,13000040,1,12000
108001,2000124,1,5000
108002,2000110,1,5000
108003,2000116,1,5000
108004,2000114,1,5000
108005,2000128,1,5000
108006,2000115,1,5000
108007,2000120,1,5000
108008,13000094,1,6000
108009,13000075,1,8000
108010,13000081,1,10000
108011,13000085,1,12000
108012,1000009,1,300
108013,1000010,1,300
108014,1000011,1,300
108015,1000012,1,300
108016,1000013,1,300
108017,1000014,1,300
109001,2000109,1,5000
109002,2000108,1,5000
109003,2000128,1,5000
109004,2000116,1,5000
109005,2000115,1,5000
109006,13000087,1,6000
109007,13000076,1,8000
109008,13000100,1,10000
109009,13000083,1,12000
109010,1000009,1,300
109011,1000010,1,300
109012,1000011,1,300
109013,1000012,1,300
109014,1000013,1,300
109015,1000014,1,300
110001,2000107,1,5000
110002,2000108,1,5000
110003,2000123,1,5000
110004,2000109,1,5000
110005,2000110,1,5000
110006,2000104,1,5000
110007,2000103,1,5000
110008,2000120,1,5000
110009,13000088,1,6000
110010,13000071,1,8000
110011,13000101,1,10000
110012,13000097,1,12000
110013,1000009,1,300
110014,1000010,1,300
110015,1000011,1,300
110016,1000012,1,300
110017,1000013,1,300
110018,1000014,1,300
111001,2000108,1,5000
111002,2000123,1,5000
111003,2000109,1,5000
111004,2000114,1,5000
111005,2000116,1,5000
111006,2000121,1,5000
111007,2000113,1,5000
111008,2000128,1,5000
111009,13000089,1,6000
111010,13000077,1,8000
111011,13000103,1,10000
111012,13000099,1,12000
111013,1000009,1,300
111014,1000010,1,300
111015,1000011,1,300
111016,1000012,1,300
111017,1000013,1,300
111018,1000014,1,300
112001,2000103,1,5000
112002,2000104,1,5000
112003,2000110,1,5000
112004,2000111,1,5000
112005,2000112,1,5000
112006,2000105,1,5000
112007,2000115,1,5000
112008,2000114,1,5000
112009,13000090,1,6000
112010,13000073,1,8000
112011,13000084,1,10000
112012,13000079,1,12000
112013,1000009,1,300
112014,1000010,1,300
112015,1000011,1,300
112016,1000012,1,300
112017,1000013,1,300
112018,1000014,1,300
113001,2000101,1,5000
113002,2000102,1,5000
113003,2000105,1,5000
113004,2000103,1,5000
113005,2000104,1,5000
113006,2000106,1,5000
113007,2000128,1,5000
113008,2000116,1,5000
113009,13000091,1,6000
113010,13000072,1,8000
113011,13000080,1,9000
113012,13000102,1,10000
113013,13000098,1,12000
113014,1000009,1,300
113015,1000010,1,300
113016,1000011,1,300
113017,1000012,1,300
113018,1000013,1,300
113019,1000014,1,300
114001,2000118,1,5000
114002,2000127,1,5000
114003,2000125,1,5000
114004,2000126,1,5000
114005,13000086,1,6000
114006,13000078,1,8000
114007,13000082,1,9000
114008,13000105,1,10000
114009,13000096,1,12000
114010,1000009,1,300
114011,1000010,1,300
114012,1000011,1,300
114013,1000012,1,300
114014,1000013,1,300
114015,1000014,1,300
115001,2000122,1,5000
115002,2000128,1,5000
115003,2000119,1,5000
115004,2000117,1,5000
115005,13000092,1,6000
115006,13000074,1,8000
115007,13000095,1,9000
115008,13000104,1,10000
115009,13000093,1,12000
115010,1000009,1,300
115011,1000010,1,300
115012,1000011,1,300
115013,1000012,1,300
115014,1000013,1,300
115015,1000014,1,300
116001,13000047,1,6000
116002,13000048,1,6000
116003,13000059,1,6000
116004,13000068,1,8000
116005,13000053,1,8000
116006,13000056,1,8000
116007,13000060,1,8000
116008,13000041,1,10000
116009,13000061,1,10000
116010,13000044,1,12000
117001,13000049,1,6000
117002,13000052,1,6000
117003,13000062,1,6000
117004,13000069,1,8000
117005,13000054,1,8000
117006,13000057,1,8000
117007,13000063,1,8000
117008,13000042,1,10000
117009,13000064,1,10000
117010,13000045,1,12000
118001,13000051,1,6000
118002,13000050,1,6000
118003,13000065,1,6000
118004,13000070,1,8000
118005,13000055,1,8000
118006,13000058,1,8000
118007,13000066,1,8000
118008,13000043,1,10000
118009,13000067,1,10000
118010,13000046,1,12000
120001,10100001,1,2000
120002,10100002,1,3000
120003,10100003,1,8000
120004,10100004,1,30000
120005,10100005,1,2000
120006,10100006,1,3000
120007,10100007,1,6000
120008,10100008,1,16000
120009,10100009,1,2000
120010,10100010,1,3000
120011,10100011,1,6000
120012,10100012,1,16000
121001,10100013,1,2000
121002,10100014,1,3000
121003,10100015,1,7000
121004,10100016,1,20000
121005,10100017,1,2000
121006,10100018,1,3000
121007,10100019,1,7000
121008,10100020,1,20000
121009,10100021,1,2000
121010,10100022,1,3000
121011,10100023,1,7000
121012,10100024,1,20000
122001,10100025,1,2000
122002,10100026,1,3000
122003,10100027,1,8000
122004,10100028,1,30000
122005,10100029,1,2000
122006,10100030,1,3000
122007,10100031,1,7000
122008,10100032,1,20000
122009,10100033,1,2000
122010,10100034,1,3000
122011,10100035,1,10000
122012,10100036,1,36000
123001,10100037,1,2000
123002,10100038,1,3000
123003,10100039,1,7000
123004,10100040,1,20000
123005,10100041,1,2000
123006,10100042,1,3000
123007,10100043,1,10000
123008,10100044,1,36000
123009,10100045,1,2000
123010,10100046,1,3000
123011,10100047,1,7000
123012,10100048,1,20000
124001,10100049,1,2000
124002,10100050,1,3000
124003,10100051,1,10000
124004,10100052,1,36000
124005,10100053,1,2000
124006,10100054,1,3000
124007,10100055,1,10000
124008,10100056,1,36000
124009,10100057,1,2000
124010,10100058,1,3000
124011,10100059,1,10000
124012,10100060,1,36000
125001,10100061,1,10000
125002,10100062,1,20000
125003,10100063,1,60000
125004,10100064,1,200000
125005,10100065,1,10000
125006,10100066,1,20000
125007,10100067,1,60000
125008,10100068,1,200000
125009,10100069,1,10000
125010,10100070,1,20000
125011,10100071,1,60000
125012,10100072,1,200000
126001,10100073,1,10000
126002,10100074,1,20000
126003,10100075,1,60000
126004,10100076,1,200000
126005,10100077,1,10000
126006,10100078,1,20000
126007,10100079,1,60000
126008,10100080,1,200000
126009,10100081,1,10000
126010,10100082,1,20000
126011,10100083,1,60000
126012,10100084,1,200000
127001,10100085,1,10000
127002,10100086,1,20000
127003,10100087,1,60000
127004,10100088,1,200000
127005,10100089,1,10000
127006,10100090,1,20000
127007,10100091,1,60000
127008,10100092,1,200000
127009,10100093,1,10000
127010,10100094,1,20000
127011,10100095,1,60000
127012,10100096,1,200000
128001,10100097,1,10000
128002,10100098,1,20000
128003,10100099,1,60000
128004,10100100,1,200000
128005,10100101,1,10000
128006,10100102,1,20000
128007,10100103,1,60000
128008,10100104,1,200000
128009,10100105,1,10000
128010,10100106,1,20000
128011,10100107,1,60000
128012,10100108,1,200000
129001,10100109,1,4000
129002,10100110,1,16000
129003,10100111,1,36000
129004,10100112,1,86000
129005,10100113,1,4000
129006,10100114,1,16000
129007,10100115,1,36000
129008,10100116,1,86000
129009,10100117,1,4000
129010,10100118,1,16000
129011,10100119,1,36000
129012,10100120,1,86000
129013,10100121,1,4000
129014,10100122,1,16000
129015,10100123,1,36000
129016,10100124,1,86000
130001,10100129,1,4000
130002,10100130,1,16000
130003,10100131,1,36000
130004,10100132,1,86000
130005,10100137,1,4000
130006,10100138,1,16000
130007,10100139,1,36000
130008,10100140,1,86000
130009,10100141,1,4000
130010,10100142,1,16000
130011,10100143,1,36000
130012,10100144,1,86000
131001,10100145,1,4000
131002,10100146,1,16000
131003,10100147,1,36000
131004,10100148,1,86000
131005,10100149,1,4000
131006,10100150,1,16000
131007,10100151,1,36000
131008,10100152,1,86000
131009,10100153,1,4000
131010,10100154,1,16000
131011,10100155,1,36000
131012,10100156,1,86000
132001,10100157,1,4000
132002,10100158,1,16000
132003,10100159,1,36000
132004,10100160,1,86000
132005,10100161,1,4000
132006,10100162,1,16000
132007,10100163,1,36000
132008,10100164,1,86000
132009,10100165,1,4000
132010,10100166,1,16000
132011,10100167,1,36000
132012,10100168,1,86000
133001,10100169,1,4000
133002,10100170,1,16000
133003,10100171,1,36000
133004,10100172,1,86000
133005,10100173,1,4000
133006,10100174,1,10000
133007,10100175,1,30000
133008,10100176,1,100000
133009,10100177,1,4000
133010,10100178,1,16000
133011,10100179,1,36000
133012,10100180,1,86000
134001,10100185,1,4000
134002,10100186,1,16000
134003,10100187,1,36000
134004,10100188,1,86000
134005,10100189,1,4000
134006,10100190,1,16000
134007,10100191,1,36000
134008,10100192,1,86000
134009,10100193,1,4000
134010,10100194,1,16000
134011,10100195,1,36000
134012,10100196,1,86000
134013,10100197,1,4000
134014,10100198,1,16000
134015,10100199,1,36000
134016,10100200,1,86000
135001,10100201,1,4000
135002,10100202,1,16000
135003,10100203,1,36000
135004,10100204,1,86000
135005,10100205,1,4000
135006,10100206,1,16000
135007,10100207,1,36000
135008,10100208,1,86000
135009,10100209,1,4000
135010,10100210,1,16000
135011,10100211,1,36000
135012,10100212,1,86000
136001,10100213,1,4000
136002,10100214,1,16000
136003,10100215,1,36000
136004,10100216,1,86000
136005,10100217,1,4000
136006,10100218,1,16000
136007,10100219,1,36000
136008,10100220,1,86000
136009,10100221,1,4000
136010,10100222,1,16000
136011,10100223,1,36000
136012,10100224,1,86000
137001,10100229,1,359
137002,10100230,1,360
137003,10100231,1,361
137004,10100232,1,362
137005,10100233,1,363
137006,10100234,1,364
137007,10100235,1,365
137008,10100236,1,366
137009,10100237,1,367
137010,10100238,1,368
137011,10100239,1,369
137012,10100240,1,370
138001,10100241,1,4000
138002,10100242,1,16000
138003,10100243,1,36000
138004,10100244,1,86000
138005,10100245,1,4000
138006,10100246,1,16000
138007,10100247,1,36000
138008,10100248,1,86000
138009,10100269,1,5000
138010,10100270,1,18000
138011,10100271,1,40000
138012,10100272,1,100000
139001,10100257,1,401
139002,10100258,1,402
139003,10100259,1,403
139004,10100260,1,404
139005,10100261,1,405
139006,10100262,1,406
139007,10100263,1,407
139008,10100264,1,408
139009,10100265,1,409
139010,10100266,1,410
139011,10100267,1,411
139012,10100268,1,412
140001,10100273,1,422
140002,10100274,1,423
140003,10100275,1,424
140004,10100276,1,425
140005,10100277,1,426
140006,10100278,1,427
140007,10100279,1,428
140008,10100280,1,429
140009,10100281,1,430
140010,10100282,1,431
140011,10100283,1,432
140012,10100284,1,433
141001,10100285,1,443
141002,10100286,1,444
141003,10100287,1,445
141004,10100288,1,446
141005,10100289,1,447
141006,10100290,1,448
141007,10100291,1,449
141008,10100292,1,450
141009,10100293,1,451
141010,10100294,1,452
141011,10100295,1,453
141012,10100296,1,454
142001,10100297,1,464
142002,10100298,1,465
142003,10100299,1,466
142004,10100300,1,467
142005,10100301,1,468
142006,10100302,1,469
142007,10100303,1,470
142008,10100304,1,471
142009,10100305,1,472
142010,10100306,1,473
142011,10100307,1,474
142012,10100308,1,475
143001,10100309,1,485
143002,10100310,1,486
143003,10100311,1,487
143004,10100312,1,488
143005,10100313,1,489
143006,10100314,1,490
143007,10100315,1,491
143008,10100316,1,492
143009,10100317,1,493
143010,10100318,1,494
143011,10100319,1,495
143012,10100320,1,496
143013,10100321,1,497
143014,10100322,1,498
143015,10100323,1,499
143016,10100324,1,500
144001,1000003,1,20
144002,1000004,1,20
144003,1000005,1,20
144004,1000006,1,20
144005,1000007,1,20
144006,1000008,1,20
144007,1000009,1,60
144008,1000010,1,60
144009,1000011,1,60
144010,1000012,1,60
144011,1000013,1,60
144012,1000014,1,60
144013,1000015,1,1200
144014,1000016,1,1200
144015,1000017,1,1200
144016,1000018,1,1200
144017,1000019,1,1200
144018,1000020,1,1200
1001001,3011106,1,67
1001002,3011205,1,67
1001003,3011103,1,29
1001004,3011104,1,115
1001005,10006111,1,432
1001006,3011111,1,979
1001007,3011208,1,845
1001008,3011108,1,317
1002001,3011518,1,479
1002002,10009401,1,10714
1002003,3011506,1,65
1002004,3011515,1,2387
1002005,3011508,1,43
1002006,3011509,1,25
1002007,3011519,1,540
1002008,3011510,1,3395
1003001,4020001,1,636
1003002,4040001,1,840
1003003,4030110,1,4500
1003004,4070204,1,14560
1003005,3920016,1,2
1003006,3910201,1,91
1003007,3910301,1,102
1003008,0,1,0
1004001,5020001,1,696
1004002,5030101,1,840
1005001,3920016,1,2
1005002,3940002,1,2
1005003,3940003,1,2
1005004,3010609,1,60
1005005,3010605,1,168
1005006,3010102,1,84
1005007,3020401,1,1463
1005008,3010003,1,112
1005009,3020001,1,650
1005010,3020402,1,7400
1005011,3020403,1,2850
1005012,3020406,1,413
1005013,10013001,1,50
1005014,10013002,1,300
1005015,10013003,1,700
1005016,10013004,1,1500
1005017,10013005,1,3500
1006001,6010001,1,660
1006002,6011004,1,14784
1006003,10008203,1,1350
1006004,10008205,1,3024
1006005,10008204,1,4500
1006006,10008207,1,6750
1006007,0,1,0
1006008,0,1,0
1007001,6040001,1,636
1007002,6041005,1,53508
1007003,10003011,1,500
1007004,10003012,1,3000
1007005,10003013,1,7500
1007006,10003051,1,400
1007007,10003052,1,2400
1007008,10003053,1,6000
1007009,10004201,1,3780
1007010,10004125,1,37620
1007011,0,1,0
1007012,0,1,0
1008001,6050003,1,588
1008002,6051004,1,15840
1008003,10007101,1,1200
1008004,10007104,1,2400
1008005,10007126,1,4000
1008006,10007113,1,6000
1008007,10007507,1,240
1008008,10007504,1,720
1008009,10007510,1,1987
1008010,0,1,0
1008011,0,1,0
1008012,0,1,0
1009001,6060006,1,432
1009002,6061005,1,16896
1009003,10005001,1,960
1009004,10005005,1,3200
1009005,10005015,1,6720
1009006,10005301,1,312
1009007,10005302,1,1242
1009008,10005307,1,2772
1009009,10005401,1,115
1009010,10005403,1,604
1009011,10005402,1,316
1009012,10005404,1,979
1010001,6070001,1,612
1010002,6071004,1,14784
1010003,10009216,1,998
1010004,3011537,1,479
1010005,10009217,1,7200
1010006,3010601,1,15
1010007,10009110,1,216
1010008,10009303,1,998
1010009,10009201,1,844
1010010,10009104,1,210
1010011,10009102,1,1331
1010012,10009205,1,179
1010013,10009307,1,58
1010014,10009407,1,461
1011001,7010005,1,600
1011002,7010103,1,14080
1011003,7020002,1,636
1011004,7020104,1,14784
1011005,3940001,1,4
1011006,10013001,1,50
1011007,10013002,1,300
1011008,10013003,1,700
1011009,10013004,1,1500
1011010,10013005,1,3500
1012001,4030010,1,600
1012002,8040049,1,360
1012003,8040025,1,360
1012004,8060049,1,108
1012005,8060025,1,108
1012006,10001006,1,72
1012007,10001008,1,1008
1013001,4080201,1,840
1013002,4070001,1,816
1013003,3920004,1,6
1013004,3011303,1,396
1013005,3011412,1,490
1013006,3011309,1,284
1013007,3011525,1,43
1013008,3011523,1,43
1013009,3011457,1,1310
1013010,3020001,1,650
1013011,3020406,1,413
1014001,10008003,1,1260
1014002,10008004,1,4200
1014003,10008005,1,2822
1014004,3011307,1,842
1014005,3011415,1,720
1014006,3011302,1,284
1014007,0,1,0
1015001,10005202,1,145
1015002,10005203,1,579
1015003,10005204,1,2287
1015004,10009301,1,307
1015005,10009403,1,1331
1015006,3011545,1,2009
1015007,3011402,1,302
1015008,0,1,0
1016001,3011502,1,90
1016002,3010609,1,60
1016003,3010602,1,678
1016004,3010015,1,1260
1016005,3011301,1,599
1016006,3011451,1,120
1016007,3010603,1,108
1016008,3011452,1,34
1016009,3011308,1,81
1016010,3011531,1,11
1016011,3011311,1,459
1016012,3011316,1,2511
1016013,3011312,1,338
1016014,3010604,1,252
1016015,3011015,1,32
1016016,3011416,1,202
1017001,4030115,1,72540
1017002,4040107,1,133056
1017003,10001006,1,72
1017004,10001001,1,252
1017005,10001004,1,1242
1017006,10002011,1,1500
1017007,10002012,1,5000
1017008,10002013,1,10500
1017009,10002071,1,600
1017010,10002072,1,2000
1017011,10002073,1,4200
1017012,10001119,1,612
1017013,10001118,1,1368
1017014,0,1,0
1017015,0,1,0
1018001,8030109,1,514800
1018002,10001006,1,72
1018003,10001001,1,252
1018004,10001004,1,1242
1018005,10002021,1,3300
1018006,10002022,1,11000
1018007,10002023,1,23100
1018008,10002051,1,1200
1018009,10002052,1,4000
1018010,10002053,1,8400
1018011,0,1,0
1018012,0,1,0
1018013,0,1,0
1018014,0,1,0
1018015,0,1,0
1019001,8012010,1,360
1019002,3940003,1,2
1019003,3940002,1,2
1019004,3940101,1,201
1019005,3940106,1,489
1019006,0,1,0
1019007,0,1,0
1019008,0,1,0
1020001,3011526,1,43
1020002,3011524,1,65
1020003,3011527,1,983
1020004,3011536,1,540
1020005,3011537,1,479
1020006,3011532,1,421
1020007,3011502,1,90
1020008,3011531,1,11
1021001,8080426,1,552
1021002,8080017,1,446
1021003,8080220,1,312
1021004,8081118,1,7654
1021005,8080617,1,5632
1021006,8080513,1,46800
1021007,0,1,0
1021008,0,1,0
1022001,4080201,1,840
1022002,4070001,1,816
1022003,4070204,1,14560
1022004,3920016,1,2
1022005,3920004,1,6
1022006,3920006,1,24
1022007,3910301,1,102
1022008,0,1,0
1023001,3011516,1,3715
1023002,3011518,1,479
1023003,10009403,1,1331
1023004,10009404,1,7603
1023005,10009405,1,2253
1023006,3011530,1,43
1023007,3011405,1,58
1023008,10005204,1,2287
1024001,8010703,1,11760
1024002,8010304,1,34260
1024003,8011901,1,108326
1024004,0,1,0
1024005,0,1,0
1025001,10009406,1,2995
1025002,3011511,1,540
1025003,3011514,1,2009
1025004,3011453,1,806
1025005,3011520,1,540
1025006,3011513,1,2131
1025007,3011517,1,1069
1025008,3011308,1,81
1026001,8040029,1,360
1026002,8040033,1,360
1026003,8040045,1,360
1026004,8060029,1,108
1026005,8060033,1,108
1026006,8060045,1,108
1027001,10007001,1,1080
1027002,10007003,1,2160
1027003,10007016,1,3600
1027004,10007005,1,5400
1027005,0,1,0
1027006,0,1,0
1027007,0,1,0
1027008,0,1,0
1028001,3920016,1,2
1028002,3940002,1,2
1028003,3940003,1,2
1028004,3010609,1,60
1028005,3010202,1,64
1028006,3020403,1,2850
1028007,3020402,1,7400
1028008,3020406,1,413
1028009,3010003,1,112
1028010,3020001,1,650
1028011,3020401,1,1463
1028012,10013001,1,50
1028013,10013002,1,300
1028014,10013003,1,700
1028015,10013004,1,1500
1028016,10013005,1,3500
1029001,6080001,1,624
1029002,6081004,1,13728
1029003,3011015,1,32
1029004,3010609,1,60
1029005,3010602,1,678
1029006,3011529,1,11
1029007,3010603,1,108
1029008,3010604,1,252
1029009,3011416,1,202
1030001,6030001,1,624
1030002,6031004,1,14080
1030003,10002021,1,3300
1030004,10002022,1,11000
1030005,10002023,1,23100
1030006,10002051,1,1200
1030007,10002052,1,4000
1030008,10002053,1,8400
1031001,6040001,1,636
1031002,6041005,1,53508
1031003,10003011,1,500
1031004,10003012,1,3000
1031005,10003013,1,7500
1031006,10003051,1,400
1031007,10003052,1,2400
1031008,10003053,1,6000
1031009,10004201,1,3780
1031010,10004125,1,37620
1031011,0,1,0
1031012,0,1,0
1032001,6020001,1,600
1032002,6021003,1,13376
1032003,10002011,1,1500
1032004,10002012,1,5000
1032005,10002013,1,10500
1032006,10002071,1,600
1032007,10002072,1,2000
1032008,10002073,1,4200
1032009,10001119,1,612
1032010,10001118,1,1368
1032011,0,1,0
1032012,0,1,0
1033001,6060006,1,432
1033002,6061005,1,16896
1033003,10005001,1,960
1033004,10005005,1,3200
1033005,10005015,1,6720
1033006,10005301,1,312
1033007,10005302,1,1242
1033008,10005307,1,2772
1033009,10005401,1,115
1033010,10005403,1,604
1033011,10005402,1,316
1033012,10005404,1,979
1034001,6070001,1,612
1034002,6071004,1,14784
1034003,10009216,1,998
1034004,3011537,1,479
1034005,10009217,1,7200
1034006,3010601,1,15
1034007,10009110,1,216
1034008,10009303,1,998
1034009,10009201,1,844
1034010,10009104,1,210
1034011,10009206,1,998
1034012,10009102,1,1331
1034013,10009205,1,179
1034014,10009307,1,58
1034015,10009407,1,461
1035001,7030002,1,660
1035002,7030104,1,13728
1035003,7010005,1,600
1035004,7010103,1,14080
1035005,10009301,1,307
1035006,3940002,1,2
1035007,3940003,1,2
1035008,10009204,1,76
1035009,10013001,1,50
1035010,10013002,1,300
1035011,10013003,1,700
1035012,10013004,1,1500
1035013,10013005,1,3500
1036001,4040001,1,840
1036002,4030110,1,4500
1036003,3010102,1,84
1036004,3010507,1,6502
1036005,3020001,1,650
1036006,3020406,1,413
1037001,4020001,1,636
1037002,4030010,1,600
1037003,5020001,1,696
1037004,10001006,1,72
1037005,10001007,1,450
1037006,10001008,1,1008
1037007,0,1,0
1038001,3011305,1,1688
1038002,3011456,1,898
1038003,3011458,1,4526
1038004,3011306,1,1566
1038005,3011313,1,527
1038006,3011310,1,675
1038007,3011304,1,2664
1038008,3011413,1,1546
1039001,5030101,1,840
1039002,10008003,1,1260
1039003,10008004,1,4200
1039004,10008005,1,2822
1039005,10008007,1,6300
1039006,10008203,1,1350
1039007,10008205,1,3024
1039008,10008204,1,4500
1039009,10008207,1,6750
1039010,0,1,0
1039011,0,1,0
1039012,0,1,0
1039013,0,1,0
1039014,0,1,0
1039015,0,1,0
1040001,4100006,1,23664
1040002,8030920,1,105000
1040003,10007101,1,1200
1040004,10007104,1,2400
1040005,10007126,1,4000
1040006,10007113,1,6000
1040007,10007507,1,240
1040008,10007504,1,720
1040009,10007510,1,1987
1040010,10009111,1,640
1040011,0,1,0
1040012,0,1,0
1040013,0,1,0
1040014,0,1,0
1040015,0,1,0
1040016,0,1,0
1041001,8012009,1,360
1041002,3011525,1,43
1041003,3011523,1,43
1041004,3011455,1,638
1041005,10008112,1,5683
1041006,0,1,0
1041007,0,1,0
1041008,0,1,0
1041009,0,1,0
1041010,0,1,0
1041011,0,1,0
1041012,0,1,0
1041013,0,1,0
1041014,0,1,0
1041015,0,1,0
1041016,0,1,0
1042001,4080201,1,840
1042002,5020001,1,696
1042003,8050450,1,414
1042004,8050728,1,280
1042005,8051015,1,295
1042006,8010016,1,105000
1042007,10006001,1,216
1042008,10006003,1,900
1043001,4020001,1,636
1043002,4020108,1,43776
1043003,4030010,1,600
1043004,4030004,1,23400
1043005,4070205,1,32760
1043006,4100307,1,96600
1043007,3920016,1,2
1043008,3910101,1,81
1044001,9030021,1,6552
1044002,9030022,1,29172
1044003,9040027,1,8568
1044004,9040028,1,31008
1044005,9050027,1,5376
1044006,9050028,1,23936
1044007,9010026,1,5280
1044008,9010027,1,26880
1045001,3010001,1,1125
1045002,3010118,1,5392
1045003,3010201,1,97
1045004,3010403,1,1638
1045005,3010502,1,2029
1045006,3010404,1,84
1045007,3010610,1,1775
1045008,3010609,1,60
1046001,3011318,1,1229
1046002,3011319,1,806
1046003,3011454,1,4526
1046004,3011459,1,2218
1046005,3011521,1,3881
1046006,3011314,1,675
1046007,3011534,1,983
1046008,3011302,1,284
1046009,3011410,1,720
1046010,3011316,1,2511
1046011,0,1,0
1046012,0,1,0
1047001,8040017,1,360
1047002,8040021,1,360
1047003,8040037,1,360
1047004,8040041,1,360
1047005,8060017,1,108
1047006,8060021,1,108
1047007,8060037,1,108
1047008,8060041,1,108
1047009,0,1,0
1047010,0,1,0
1047011,0,1,0
1047012,0,1,0
1048001,3011008,1,1964
1048002,3011005,1,662
1048003,3011014,1,788
1048004,3011003,1,1575
1048005,3011001,1,3938
1048006,3011002,1,9902
1048007,0,1,0
1048008,0,1,0
1049001,3920016,1,2
1049002,3940002,1,2
1049003,3940003,1,2
1049004,3010609,1,60
1049005,3020401,1,1463
1049006,3020402,1,7400
1049007,3020403,1,2850
1049008,3020406,1,413
1049009,3010006,1,216
1049010,3010003,1,112
1049011,3020001,1,650
1049012,10013001,1,50
1049013,10013002,1,300
1049014,10013003,1,700
1049015,10013004,1,1500
1049016,10013005,1,3500
1050001,6080001,1,624
1050002,6081004,1,13728
1050003,3011015,1,32
1050004,3010609,1,60
1050005,3010602,1,678
1050006,3011529,1,11
1050007,3010603,1,108
1050008,3010604,1,252
1050009,3011507,1,479
1050010,3011509,1,25
1050011,3011411,1,120
1050012,3011407,1,158
1050013,3011416,1,202
1050014,0,1,0
1050015,0,1,0
1051001,6030001,1,624
1051002,6031004,1,14080
1051003,10002021,1,3300
1051004,10002022,1,11000
1051005,10002023,1,23100
1051006,10002051,1,1200
1051007,10002052,1,4000
1051008,10002053,1,8400
1052001,6050003,1,588
1052002,6051004,1,15840
1052003,10007101,1,1200
1052004,10007104,1,2400
1052005,10007126,1,4000
1052006,10007113,1,6000
1052007,10007507,1,240
1052008,10007504,1,720
1052009,10007510,1,1987
1052010,0,1,0
1053001,6020001,1,600
1053002,6021003,1,13376
1053003,10002011,1,1500
1053004,10002012,1,5000
1053005,10002013,1,10500
1053006,10002071,1,600
1053007,10002072,1,2000
1053008,10002073,1,4200
1053009,10001119,1,612
1053010,10001118,1,1368
1053011,0,1,0
1053012,0,1,0
1054001,6010001,1,660
1054002,6011004,1,14784
1054003,10008203,1,1350
1054004,10008205,1,3024
1054005,10008204,1,4500
1054006,10008207,1,6750
1054007,0,1,0
1054008,0,1,0
1055001,7030002,1,660
1055002,7030104,1,13728
1055003,7020002,1,636
1055004,7020104,1,14784
1055005,3940003,1,2
1055006,3940002,1,2
1055007,3940004,1,31
1055008,10009204,1,76
1055009,10013001,1,50
1055010,10013002,1,300
1055011,10013003,1,700
1055012,10013004,1,1500
1055013,10013005,1,3500
1056001,10009108,1,210
1056002,10009306,1,58
1056003,3011507,1,479
1056004,3011512,1,2009
1056005,3011453,1,806
1057001,3011526,1,43
1057002,3011417,1,638
1057003,3011527,1,983
1057004,3011412,1,490
1057005,3011413,1,1546
1057006,3011414,1,360
1057007,3011528,1,2009
1057008,3011405,1,58
1058001,5030101,1,840
1058002,4070001,1,816
1058003,3920004,1,6
1058004,10009301,1,307
1058005,10005201,1,320
1058006,3011303,1,396
1058007,10005202,1,145
1058008,10009404,1,7603
1058009,3011520,1,540
1058010,3020001,1,650
1058011,3020406,1,413
1059001,4040001,1,840
1059002,4100106,1,18000
1059003,3010102,1,84
1059004,3010507,1,6502
1059005,3011451,1,120
1059006,3011452,1,34
1059007,3011514,1,2009
1060001,10001006,1,72
1060002,10001008,1,1008
1060003,10001009,1,1500
1060004,10003011,1,500
1060005,10003012,1,3000
1060006,10003013,1,7500
1060007,10003051,1,400
1060008,10003052,1,2400
1060009,10003053,1,6000
1060010,10004201,1,3780
1060011,10004125,1,37620
1060012,0,1,0
1060013,0,1,0
1060014,0,1,0
1060015,0,1,0
1060016,0,1,0
1061001,10009110,1,216
1061002,10009303,1,998
1061003,10009201,1,844
1061004,10009104,1,210
1061005,10005204,1,2287
1061006,3011518,1,479
1061007,3011404,1,422
1061008,10009405,1,2253
1061009,3011510,1,3395
1061010,10009206,1,998
1061011,10009102,1,1331
1061012,10009205,1,179
1061013,10009307,1,58
1061014,10009407,1,461
1062001,10005202,1,145
1062002,10005203,1,579
1062003,10005306,1,1050
1062004,10005001,1,960
1062005,10005005,1,3200
1062006,10005015,1,6720
1062007,10005301,1,312
1062008,10005302,1,1242
1062009,10005307,1,2772
1062010,10005401,1,115
1062011,10005403,1,604
1062012,10005402,1,316
1062013,10005404,1,979
1062014,10005410,1,6364
1062015,10005006,1,3200
1062016,10005016,1,6720
1063001,8010545,1,546
1063002,10009108,1,210
1063003,10001102,1,612
1063004,10001115,1,1638
1063005,0,1,0
1063006,0,1,0
1063007,0,1,0
1063008,0,1,0
1064001,3920016,1,2
1064002,3940003,1,2
1064003,3940002,1,2
1064004,3010609,1,60
1064005,3010208,1,4411
1064006,3010016,1,2227
1064007,10013001,1,50
1064008,10013002,1,300
1064009,10013003,1,700
1064010,10013004,1,1500
1064011,10013005,1,3500
1064012,0,1,0
1064013,0,1,0
1065001,8040067,1,32760
1065002,8040072,1,32760
1065003,8040087,1,32760
1065004,8060067,1,9828
1065005,8060072,1,9828
1065006,8060087,1,9828
1065007,0,1,0
1065008,0,1,0
1065009,0,1,0
1065010,0,1,0
1066001,8040092,1,32760
1066002,8040062,1,32760
1066003,8060092,1,9828
1066004,8060062,1,9828
1066005,0,1,0
1066006,0,1,0
1066007,0,1,0
1066008,0,1,0
1066009,0,1,0
1066010,0,1,0
1067001,8040052,1,32760
1067002,8040057,1,32760
1067003,8040077,1,32760
1067004,8040082,1,32760
1067005,8060052,1,9828
1067006,8060057,1,9828
1067007,8060077,1,9828
1067008,8060082,1,9828
1067009,0,1,0
1067010,0,1,0
1068001,3011305,1,1688
1068002,3011457,1,1310
1068003,3011455,1,638
1068004,3010607,1,4590
1068005,10009610,1,1331
1068006,10009611,1,8243
1068007,0,1,0
1068008,0,1,0
1068009,0,1,0
1068010,0,1,0
1069001,3011311,1,459
1069002,3011316,1,2511
1069003,3011451,1,120
1069004,3010605,1,168
1069005,3010009,1,660
1069006,0,1,0
1069007,0,1,0
1069008,0,1,0
1069009,0,1,0
1069010,0,1,0
1070001,3011313,1,527
1070002,3011458,1,4526
1070003,3011521,1,3881
1070004,3010610,1,1775
1070005,0,1,0
1070006,0,1,0
1070007,0,1,0
1070008,0,1,0
1070009,0,1,0
1070010,0,1,0
1071001,3020507,1,10
1071002,3010416,1,10
1072001,3020601,1,10
1072002,3020602,1,10
1072003,3020603,1,10
1072004,3020604,1,10
1072005,3020605,1,10
1072006,3020606,1,10
2001001,4030010,1,600
2001002,4030110,1,2700
2001003,4030004,1,7956
2001004,4020001,1,636
2001005,4020005,1,3180
2001006,4020206,1,8665
2001007,4040001,1,840
2001008,4040004,1,4200
2001009,4040103,1,11456
2001010,4070001,1,816
2001011,4070006,1,4080
2001012,4070205,1,11138
2001013,3920016,1,2
2001014,4080201,1,840
2001015,4080005,1,4080
2001016,4080206,1,13641
2001017,4100604,1,3300
2001018,4100504,1,11916
2002001,5030101,1,840
2002002,5030003,1,2940
2002003,5030006,1,6554
2002004,5020001,1,696
2002005,5020106,1,4260
2002006,5020306,1,9900
2003001,8011515,1,6027
2003002,8011517,1,14397
2003003,8030819,1,8611
2003004,8031514,1,16156
2003005,8031121,1,15590
2003006,8030821,1,20567
2003007,8030920,1,26250
2003008,8070606,1,5654
2003009,8070911,1,9187
2003010,8080819,1,7862
2003011,0,1,0
2004001,8010520,1,546
2004002,8012011,1,3600
2004003,8011815,1,4455
2004004,8013101,1,7539
2004005,8030420,1,780
2004006,8031315,1,780
2004007,8032501,1,780
2004008,8031224,1,11016
2004009,8031915,1,13613
2004010,0,1,0
2004011,0,1,0
2004012,0,1,0
2004013,0,1,0
2005001,8070320,1,315
2005002,8071013,1,168
2005003,8070416,1,2922
2005004,8070807,1,3013
2005005,8071015,1,1872
2005006,8070322,1,4725
2005007,8071201,1,5592
2005008,8070809,1,7198
2005009,8091401,1,192
2005010,8090503,1,4039
2006001,8050220,1,234
2006002,8051115,1,288
2006003,8050609,1,2611
2006004,8050503,1,4847
2006005,8051118,1,5026
2006006,8080220,1,312
2006007,8080615,1,192
2006008,8081118,1,3444
2006009,8080617,1,2140
2006010,8081016,1,6462
2006011,8081311,1,5864
2006012,8081120,1,8226
2006013,0,1,0
2006014,0,1,0
2006015,0,1,0
2006016,0,1,0
2006017,0,1,0
2007001,7010005,1,600
2007002,7010007,1,8512
2007003,7010108,1,480
2007004,7020002,1,636
2007005,7020010,1,9540
2007006,7020108,1,504
2007007,7030002,1,660
2007008,7030010,1,9900
2007009,7030108,1,468
2007010,3940001,1,3
2008001,6010001,1,660
2008002,6010010,1,9744
2008003,6020001,1,600
2008004,6020005,1,8512
2008005,6030001,1,624
2008006,6030010,1,8512
2008007,6040001,1,636
2008008,6040010,1,8512
2008009,6050003,1,588
2008010,6050010,1,8341
2008011,6060006,1,432
2008012,6060009,1,6236
2008013,6070001,1,612
2008014,6070010,1,9180
2008015,6080001,1,624
2008016,6080010,1,9360
2008017,0,1,0
2008018,0,1,0
2008019,0,1,0
2008020,0,1,0
2009001,4030010,1,600
2009002,4030004,1,23400
2009003,4030203,1,56784
2009004,4030304,1,122760
2009005,4100604,1,5500
2009006,4100504,1,37240
2009007,4100307,1,96600
2009008,0,1,0
2009009,0,1,0
2009010,0,1,0
2009101,8011515,1,13395
2009102,8011106,1,31416
2009103,8011404,1,99792
2009104,8010005,1,360360
2009105,0,1,0
2009106,0,1,0
2009107,0,1,0
2009108,0,1,0
2009109,0,1,0
2009110,0,1,0
2009201,8031315,1,780
2009202,8031121,1,53760
2009203,8031609,1,142560
2009204,8030109,1,514800
2009205,0,1,0
2009206,0,1,0
2009207,0,1,0
2009208,0,1,0
2009209,0,1,0
2009210,0,1,0
2009301,8050220,1,234
2009302,8050503,1,13464
2009303,8050611,1,35935
2009304,8050120,1,119340
2009305,0,1,0
2009306,0,1,0
2009307,0,1,0
2009308,0,1,0
2009309,0,1,0
2009310,0,1,0
2009401,8070807,1,6697
2009402,8070606,1,15708
2009403,8070218,1,33264
2009404,8070109,1,180180
2009405,0,1,0
2009406,0,1,0
2009407,0,1,0
2009408,0,1,0
2009409,0,1,0
2009410,0,1,0
2009501,8080615,1,192
2009502,8081120,1,30470
2009503,8080819,1,31449
2009504,8080109,1,205920
2009505,0,1,0
2009506,0,1,0
2009507,0,1,0
2009508,0,1,0
2009509,0,1,0
2009510,0,1,0
2010001,4040001,1,840
2010002,4040103,1,33696
2010003,4040405,1,100464
2010004,4040205,1,198900
2010005,0,1,0
2010006,0,1,0
2010007,0,1,0
2010008,0,1,0
2010009,0,1,0
2010010,0,1,0
2010101,8011515,1,13395
2010102,8011106,1,31416
2010103,8011404,1,99792
2010104,8011108,1,239316
2010105,0,1,0
2010106,0,1,0
2010107,0,1,0
2010108,0,1,0
2010109,0,1,0
2010110,0,1,0
2010201,8031315,1,780
2010202,8031514,1,44880
2010203,8031609,1,142560
2010204,8031516,1,341880
2010205,0,1,0
2010206,0,1,0
2010207,0,1,0
2010208,0,1,0
2010209,0,1,0
2010210,0,1,0
2010301,8050220,1,234
2010302,8050503,1,13464
2010303,8050611,1,35935
2010304,8050509,1,102564
2010305,0,1,0
2010306,0,1,0
2010307,0,1,0
2010308,0,1,0
2010309,0,1,0
2010310,0,1,0
2010401,8070807,1,6697
2010402,8070606,1,15708
2010403,8070218,1,33264
2010404,8070608,1,119658
2010405,0,1,0
2010406,0,1,0
2010407,0,1,0
2010408,0,1,0
2010409,0,1,0
2010410,0,1,0
2010501,8080615,1,192
2010502,8081016,1,17952
2010503,8080819,1,31449
2010504,8081018,1,136752
2010505,0,1,0
2010506,0,1,0
2010507,0,1,0
2010508,0,1,0
2010509,0,1,0
2010510,0,1,0
2011001,4080201,1,840
2011002,4080008,1,27744
2011003,4080406,1,95312
2011004,4080105,1,201552
2011005,0,1,0
2011006,0,1,0
2011007,0,1,0
2011008,0,1,0
2011009,0,1,0
2011010,0,1,0
2011101,8011515,1,13395
2011102,8011106,1,31416
2011103,8011404,1,99792
2011104,8011108,1,239316
2011105,0,1,0
2011106,0,1,0
2011107,0,1,0
2011108,0,1,0
2011109,0,1,0
2011110,0,1,0
2011201,8031315,1,780
2011202,8030821,1,76176
2011203,8031609,1,142560
2011204,8030320,1,189440
2011205,0,1,0
2011206,0,1,0
2011207,0,1,0
2011208,0,1,0
2011209,0,1,0
2011210,0,1,0
2011301,8050220,1,234
2011302,8050503,1,13464
2011303,8050611,1,35935
2011304,8050120,1,119340
2011305,0,1,0
2011306,0,1,0
2011307,0,1,0
2011308,0,1,0
2011309,0,1,0
2011310,0,1,0
2011401,8070807,1,6697
2011402,8070606,1,15708
2011403,8070218,1,33264
2011404,8070220,1,66304
2011405,0,1,0
2011406,0,1,0
2011407,0,1,0
2011408,0,1,0
2011409,0,1,0
2011410,0,1,0
2011501,8080615,1,192
2011502,8081120,1,30470
2011503,8080819,1,31449
2011504,8080821,1,64281
2011505,0,1,0
2011506,0,1,0
2011507,0,1,0
2011508,0,1,0
2011509,0,1,0
2011510,0,1,0
2012001,4070001,1,816
2012002,4070205,1,32760
2012003,4070011,1,74256
2012004,4070104,1,175232
2012005,3920016,1,2
2012006,3920006,1,24
2012007,3920007,1,98
2012008,0,1,0
2012009,0,1,0
2012010,0,1,0
2012101,8011515,1,13395
2012102,8011517,1,53323
2012103,8011315,1,40950
2012104,8011318,1,76440
2012105,0,1,0
2012106,0,1,0
2012107,0,1,0
2012108,0,1,0
2012109,0,1,0
2012110,0,1,0
2012201,8031315,1,780
2012202,8030821,1,76176
2012203,8030717,1,117000
2012204,8030720,1,218400
2012205,0,1,0
2012206,0,1,0
2012207,0,1,0
2012208,0,1,0
2012209,0,1,0
2012210,0,1,0
2012301,8050220,1,234
2012302,8050503,1,13464
2012303,8050712,1,35100
2012304,8050716,1,65520
2012305,0,1,0
2012306,0,1,0
2012307,0,1,0
2012308,0,1,0
2012309,0,1,0
2012310,0,1,0
2012401,8070807,1,6697
2012402,8070809,1,26661
2012403,8070514,1,40950
2012404,8070517,1,76440
2012405,0,1,0
2012406,0,1,0
2012407,0,1,0
2012408,0,1,0
2012409,0,1,0
2012410,0,1,0
2012501,8080615,1,192
2012502,8081120,1,30470
2012503,8080513,1,46800
2012504,8080517,1,87360
2012505,0,1,0
2012506,0,1,0
2012507,0,1,0
2012508,0,1,0
2012509,0,1,0
2012510,0,1,0
2013001,4020001,1,636
2013002,4020206,1,24072
2013003,4020208,1,75992
2013004,4020110,1,134400
2013005,0,1,0
2013006,0,1,0
2013007,0,1,0
2013008,0,1,0
2013009,0,1,0
2013010,0,1,0
2013101,8011515,1,13395
2013102,8011517,1,53323
2013103,8011315,1,40950
2013104,8011318,1,76440
2013105,0,1,0
2013106,0,1,0
2013107,0,1,0
2013108,0,1,0
2013109,0,1,0
2013110,0,1,0
2013201,8031315,1,780
2013202,8031514,1,44880
2013203,8030717,1,117000
2013204,8031516,1,341880
2013205,0,1,0
2013206,0,1,0
2013207,0,1,0
2013208,0,1,0
2013209,0,1,0
2013210,0,1,0
2013301,8050220,1,234
2013302,8050503,1,13464
2013303,8050712,1,35100
2013304,8050509,1,102564
2013305,0,1,0
2013306,0,1,0
2013307,0,1,0
2013308,0,1,0
2013309,0,1,0
2013310,0,1,0
2013401,8070807,1,6697
2013402,8070809,1,26661
2013403,8070514,1,40950
2013404,8070517,1,76440
2013405,0,1,0
2013406,0,1,0
2013407,0,1,0
2013408,0,1,0
2013409,0,1,0
2013410,0,1,0
2013501,8080615,1,192
2013502,8081016,1,17952
2013503,8080513,1,46800
2013504,8080517,1,87360
2013505,0,1,0
2013506,0,1,0
2013507,0,1,0
2013508,0,1,0
2013509,0,1,0
2013510,0,1,0
2014001,5020001,1,696
2014002,5020306,1,33000
2014003,5020210,1,56784
2014004,5020011,1,145464
2014005,4100604,1,5500
2014006,4100504,1,37240
2014007,4100007,1,107184
2014008,0,1,0
2014009,0,1,0
2014010,0,1,0
2014101,8010520,1,546
2014102,8010703,1,11760
2014103,8010523,1,49686
2014104,8010125,1,169444
2014105,0,1,0
2014106,0,1,0
2014107,0,1,0
2014108,0,1,0
2014109,0,1,0
2014110,0,1,0
2014201,8030420,1,780
2014202,8030821,1,76176
2014203,8030423,1,70980
2014204,8030220,1,242064
2014205,0,1,0
2014206,0,1,0
2014207,0,1,0
2014208,0,1,0
2014209,0,1,0
2014210,0,1,0
2014301,8050220,1,234
2014302,8051118,1,17952
2014303,8051018,1,39655
2014304,8051020,1,72619
2014305,0,1,0
2014306,0,1,0
2014307,0,1,0
2014308,0,1,0
2014309,0,1,0
2014310,0,1,0
2014401,8071013,1,168
2014402,8071201,1,19286
2014403,8071202,1,46264
2014404,8071204,1,84722
2014405,0,1,0
2014406,0,1,0
2014407,0,1,0
2014408,0,1,0
2014409,0,1,0
2014410,0,1,0
2014501,8080220,1,312
2014502,8080617,1,5632
2014503,8080224,1,28392
2014504,8080517,1,87360
2014505,0,1,0
2014506,0,1,0
2014507,0,1,0
2014508,0,1,0
2014509,0,1,0
2014510,0,1,0
2015001,5030101,1,840
2015002,5030107,1,52360
2015003,5030207,1,102000
2015004,5030029,1,137200
2015005,4100604,1,5500
2015006,4100106,1,18000
2015007,4100007,1,107184
2015008,0,1,0
2015009,0,1,0
2015010,0,1,0
2015101,8010520,1,546
2015102,8010422,1,51336
2015103,8010910,1,73180
2015104,8010914,1,145868
2015105,0,1,0
2015106,0,1,0
2015107,0,1,0
2015108,0,1,0
2015109,0,1,0
2015110,0,1,0
2015201,8030420,1,780
2015202,8030821,1,76176
2015203,8031417,1,97440
2015204,8031822,1,372960
2015205,0,1,0
2015206,0,1,0
2015207,0,1,0
2015208,0,1,0
2015209,0,1,0
2015210,0,1,0
2015301,8050220,1,234
2015302,8051118,1,17952
2015303,8051018,1,39655
2015304,8051020,1,72619
2015305,0,1,0
2015306,0,1,0
2015307,0,1,0
2015308,0,1,0
2015309,0,1,0
2015310,0,1,0
2015401,8071013,1,168
2015402,8071201,1,19286
2015403,8071202,1,46264
2015404,8071204,1,84722
2015405,0,1,0
2015406,0,1,0
2015407,0,1,0
2015408,0,1,0
2015409,0,1,0
2015410,0,1,0
2015501,8080220,1,312
2015502,8080617,1,5632
2015503,8080513,1,46800
2015504,8080517,1,87360
2015505,0,1,0
2015506,0,1,0
2015507,0,1,0
2015508,0,1,0
2015509,0,1,0
2015510,0,1,0
2016001,6010001,1,660
2016002,6010010,1,33600
2016003,6010011,1,70840
2016004,6010014,1,188760
2016005,6011004,1,14784
2016006,6011006,1,93744
2016007,0,1,0
2016008,0,1,0
2016009,0,1,0
2016010,0,1,0
2016101,8012410,1,432
2016102,8013101,1,26928
2016103,8011016,1,50778
2016104,8010210,1,112492
2016105,0,1,0
2016106,0,1,0
2016107,0,1,0
2016108,0,1,0
2016109,0,1,0
2016110,0,1,0
2016201,8032501,1,780
2016202,8031224,1,30600
2016203,8031227,1,89100
2016204,8031230,1,177600
2016205,0,1,0
2016206,0,1,0
2016207,0,1,0
2016208,0,1,0
2016209,0,1,0
2016210,0,1,0
2016301,8051115,1,288
2016302,8051118,1,17952
2016303,8050611,1,35935
2016304,8050716,1,65520
2016305,0,1,0
2016306,0,1,0
2016307,0,1,0
2016308,0,1,0
2016309,0,1,0
2016310,0,1,0
2016401,8071013,1,168
2016402,8071015,1,4928
2016403,8071116,1,36960
2016404,8071119,1,65360
2016405,0,1,0
2016406,0,1,0
2016407,0,1,0
2016408,0,1,0
2016409,0,1,0
2016410,0,1,0
2016501,8081404,1,252
2016502,8081311,1,20944
2016503,8081616,1,48048
2016504,8081619,1,84968
2016505,0,1,0
2016506,0,1,0
2016507,0,1,0
2016508,0,1,0
2016509,0,1,0
2016510,0,1,0
2017001,6020001,1,600
2017002,6020005,1,26600
2017003,6020009,1,69600
2017004,6020012,1,163400
2017005,6021003,1,13376
2017006,6021005,1,95304
2017007,0,1,0
2017008,0,1,0
2017009,0,1,0
2017010,0,1,0
2017101,8012410,1,432
2017102,8013101,1,26928
2017103,8012716,1,59136
2017104,8012719,1,104576
2017105,0,1,0
2017106,0,1,0
2017107,0,1,0
2017108,0,1,0
2017109,0,1,0
2017110,0,1,0
2017201,8032501,1,780
2017202,8031514,1,44880
2017203,8032221,1,110880
2017204,8032224,1,196080
2017205,0,1,0
2017206,0,1,0
2017207,0,1,0
2017208,0,1,0
2017209,0,1,0
2017210,0,1,0
2017301,8051115,1,288
2017302,8050503,1,13464
2017303,8051216,1,40656
2017304,8051219,1,71896
2017305,0,1,0
2017306,0,1,0
2017307,0,1,0
2017308,0,1,0
2017309,0,1,0
2017310,0,1,0
2017401,8071013,1,168
2017402,8071015,1,4928
2017403,8071116,1,36960
2017404,8071119,1,65360
2017405,0,1,0
2017406,0,1,0
2017407,0,1,0
2017408,0,1,0
2017409,0,1,0
2017410,0,1,0
2017501,8080220,1,312
2017502,8081311,1,20944
2017503,8081616,1,48048
2017504,8081619,1,84968
2017505,0,1,0
2017506,0,1,0
2017507,0,1,0
2017508,0,1,0
2017509,0,1,0
2017510,0,1,0
2018001,6030001,1,624
2018002,6030010,1,26600
2018003,6030012,1,69600
2018004,6030014,1,169936
2018005,6031004,1,14080
2018006,6031006,1,100320
2018007,0,1,0
2018008,0,1,0
2018009,0,1,0
2018010,0,1,0
2018101,8010520,1,546
2018102,8011815,1,13104
2018103,8011016,1,50778
2018104,8010210,1,112492
2018105,0,1,0
2018106,0,1,0
2018107,0,1,0
2018108,0,1,0
2018109,0,1,0
2018110,0,1,0
2018201,8030420,1,780
2018202,8031224,1,30600
2018203,8031227,1,89100
2018204,8031230,1,177600
2018205,0,1,0
2018206,0,1,0
2018207,0,1,0
2018208,0,1,0
2018209,0,1,0
2018210,0,1,0
2018301,8050220,1,234
2018302,8051118,1,17952
2018303,8050223,1,21294
2018304,8050716,1,65520
2018305,0,1,0
2018306,0,1,0
2018307,0,1,0
2018308,0,1,0
2018309,0,1,0
2018310,0,1,0
2018401,8070320,1,315
2018402,8070322,1,15750
2018403,8070514,1,40950
2018404,8070517,1,76440
2018405,0,1,0
2018406,0,1,0
2018407,0,1,0
2018408,0,1,0
2018409,0,1,0
2018410,0,1,0
2018501,8080615,1,192
2018502,8080617,1,5632
2018503,8080224,1,28392
2018504,8080517,1,87360
2018505,0,1,0
2018506,0,1,0
2018507,0,1,0
2018508,0,1,0
2018509,0,1,0
2018510,0,1,0
2019001,6040001,1,636
2019002,6040010,1,26600
2019003,6040012,1,69600
2019004,6040014,1,163400
2019005,6041004,1,17248
2019006,6041006,1,122892
2019007,0,1,0
2019008,0,1,0
2019009,0,1,0
2019010,0,1,0
2019101,8010520,1,546
2019102,8010423,1,51336
2019103,8010442,1,114576
2019104,8010810,1,137200
2019105,0,1,0
2019106,0,1,0
2019107,0,1,0
2019108,0,1,0
2019109,0,1,0
2019110,0,1,0
2019201,8030420,1,780
2019202,8031915,1,48620
2019203,8030423,1,70980
2019204,8030720,1,218400
2019205,0,1,0
2019206,0,1,0
2019207,0,1,0
2019208,0,1,0
2019209,0,1,0
2019210,0,1,0
2019301,8050220,1,234
2019302,8051118,1,17952
2019303,8050223,1,21294
2019304,8050716,1,65520
2019305,0,1,0
2019306,0,1,0
2019307,0,1,0
2019308,0,1,0
2019309,0,1,0
2019310,0,1,0
2019401,8070320,1,315
2019402,8070322,1,15750
2019403,8070514,1,40950
2019404,8070517,1,76440
2019405,0,1,0
2019406,0,1,0
2019407,0,1,0
2019408,0,1,0
2019409,0,1,0
2019410,0,1,0
2019501,8080615,1,192
2019502,8080617,1,5632
2019503,8080224,1,28392
2019504,8080517,1,87360
2019505,0,1,0
2019506,0,1,0
2019507,0,1,0
2019508,0,1,0
2019509,0,1,0
2019510,0,1,0
2020001,6050003,1,588
2020002,6050010,1,26068
2020003,6050011,1,64400
2020004,6050014,1,160132
2020005,6051004,1,15840
2020006,6051006,1,100440
2020007,0,1,0
2020008,0,1,0
2020009,0,1,0
2020010,0,1,0
2020101,8012410,1,432
2020102,8013101,1,26928
2020103,8012716,1,59136
2020104,8012719,1,104576
2020105,0,1,0
2020106,0,1,0
2020107,0,1,0
2020108,0,1,0
2020109,0,1,0
2020110,0,1,0
2020201,8032501,1,780
2020202,8031915,1,48620
2020203,8032221,1,110880
2020204,8032224,1,196080
2020205,0,1,0
2020206,0,1,0
2020207,0,1,0
2020208,0,1,0
2020209,0,1,0
2020210,0,1,0
2020301,8051115,1,288
2020302,8051118,1,17952
2020303,8051216,1,40656
2020304,8051219,1,71896
2020305,0,1,0
2020306,0,1,0
2020307,0,1,0
2020308,0,1,0
2020309,0,1,0
2020310,0,1,0
2020401,8071013,1,168
2020402,8071015,1,4928
2020403,8070514,1,40950
2020404,8070517,1,76440
2020405,0,1,0
2020406,0,1,0
2020407,0,1,0
2020408,0,1,0
2020409,0,1,0
2020410,0,1,0
2020501,8080220,1,312
2020502,8080617,1,5632
2020503,8080224,1,28392
2020504,8080517,1,87360
2020505,0,1,0
2020506,0,1,0
2020507,0,1,0
2020508,0,1,0
2020509,0,1,0
2020510,0,1,0
2021001,6060006,1,432
2021002,6060009,1,21504
2021003,6060011,1,66528
2021004,6060012,1,111888
2021005,6061005,1,16896
2021006,6061007,1,113664
2021007,0,1,0
2021008,0,1,0
2021009,0,1,0
2021010,0,1,0
2021101,8010520,1,546
2021102,8011815,1,13104
2021103,8012716,1,59136
2021104,8012719,1,104576
2021105,0,1,0
2021106,0,1,0
2021107,0,1,0
2021108,0,1,0
2021109,0,1,0
2021110,0,1,0
2021201,8030420,1,780
2021202,8031915,1,48620
2021203,8032221,1,110880
2021204,8032224,1,196080
2021205,0,1,0
2021206,0,1,0
2021207,0,1,0
2021208,0,1,0
2021209,0,1,0
2021210,0,1,0
2021301,8050220,1,234
2021302,8051118,1,17952
2021303,8051216,1,40656
2021304,8051219,1,71896
2021305,0,1,0
2021306,0,1,0
2021307,0,1,0
2021308,0,1,0
2021309,0,1,0
2021310,0,1,0
2021401,8070320,1,315
2021402,8070322,1,15750
2021403,8071116,1,36960
2021404,8071119,1,65360
2021405,0,1,0
2021406,0,1,0
2021407,0,1,0
2021408,0,1,0
2021409,0,1,0
2021410,0,1,0
2021501,8080615,1,192
2021502,8080617,1,5632
2021503,8081616,1,48048
2021504,8081619,1,84968
2021505,0,1,0
2021506,0,1,0
2021507,0,1,0
2021508,0,1,0
2021509,0,1,0
2021510,0,1,0
2022001,6070001,1,612
2022002,6070010,1,30600
2022003,6070011,1,65688
2022004,6070014,1,175032
2022005,6071004,1,14784
2022006,6071006,1,93744
2022007,0,1,0
2022008,0,1,0
2022009,0,1,0
2022010,0,1,0
2022101,8010520,1,546
2022102,8011815,1,13104
2022103,8010910,1,73180
2022104,8010914,1,145868
2022105,0,1,0
2022106,0,1,0
2022107,0,1,0
2022108,0,1,0
2022109,0,1,0
2022110,0,1,0
2022201,8030420,1,780
2022202,8031915,1,48620
2022203,8031417,1,97440
2022204,8031419,1,156240
2022205,0,1,0
2022206,0,1,0
2022207,0,1,0
2022208,0,1,0
2022209,0,1,0
2022210,0,1,0
2022301,8050220,1,234
2022302,8051118,1,17952
2022303,8050712,1,35100
2022304,8050716,1,65520
2022305,0,1,0
2022306,0,1,0
2022307,0,1,0
2022308,0,1,0
2022309,0,1,0
2022310,0,1,0
2022401,8070320,1,315
2022402,8070322,1,15750
2022403,8070514,1,40950
2022404,8070517,1,76440
2022405,0,1,0
2022406,0,1,0
2022407,0,1,0
2022408,0,1,0
2022409,0,1,0
2022410,0,1,0
2022501,8080615,1,192
2022502,8080617,1,5632
2022503,8080513,1,46800
2022504,8080517,1,87360
2022505,0,1,0
2022506,0,1,0
2022507,0,1,0
2022508,0,1,0
2022509,0,1,0
2022510,0,1,0
2023001,6080001,1,624
2023002,6080010,1,31200
2023003,6080011,1,64400
2023004,6080014,1,171600
2023005,6081004,1,13728
2023006,6081006,1,87048
2023007,0,1,0
2023008,0,1,0
2023009,0,1,0
2023010,0,1,0
2023101,8012410,1,432
2023102,8011815,1,13104
2023103,8010910,1,73180
2023104,8010914,1,145868
2023105,0,1,0
2023106,0,1,0
2023107,0,1,0
2023108,0,1,0
2023109,0,1,0
2023110,0,1,0
2023201,8030420,1,780
2023202,8031915,1,48620
2023203,8031417,1,97440
2023204,8031419,1,156240
2023205,0,1,0
2023206,0,1,0
2023207,0,1,0
2023208,0,1,0
2023209,0,1,0
2023210,0,1,0
2023301,8050220,1,234
2023302,8051118,1,17952
2023303,8050712,1,35100
2023304,8050716,1,65520
2023305,0,1,0
2023306,0,1,0
2023307,0,1,0
2023308,0,1,0
2023309,0,1,0
2023310,0,1,0
2023401,8070320,1,315
2023402,8070322,1,15750
2023403,8070514,1,40950
2023404,8070517,1,76440
2023405,0,1,0
2023406,0,1,0
2023407,0,1,0
2023408,0,1,0
2023409,0,1,0
2023410,0,1,0
2023501,8081404,1,252
2023502,8081311,1,20944
2023503,8080513,1,46800
2023504,8080517,1,87360
2023505,0,1,0
2023506,0,1,0
2023507,0,1,0
2023508,0,1,0
2023509,0,1,0
2023510,0,1,0
2024001,7010005,1,600
2024002,7010007,1,26600
2024003,7010010,1,76500
2024004,7010012,1,163400
2024005,7010108,1,480
2024006,7010104,1,47520
2024007,0,1,0
2024008,0,1,0
2024009,0,1,0
2024010,0,1,0
2024101,8010520,1,546
2024102,8011815,1,13104
2024103,8010523,1,49686
2024104,8010526,1,163800
2024105,0,1,0
2024106,0,1,0
2024107,0,1,0
2024108,0,1,0
2024109,0,1,0
2024110,0,1,0
2024201,8032501,1,780
2024202,8031224,1,30600
2024203,8031227,1,89100
2024204,8031230,1,177600
2024205,0,1,0
2024206,0,1,0
2024207,0,1,0
2024208,0,1,0
2024209,0,1,0
2024210,0,1,0
2024301,8051115,1,288
2024302,8051118,1,17952
2024303,8050712,1,35100
2024304,8050716,1,65520
2024305,0,1,0
2024306,0,1,0
2024307,0,1,0
2024308,0,1,0
2024309,0,1,0
2024310,0,1,0
2024401,8070416,1,5313
2024402,8071015,1,4928
2024403,8070418,1,43953
2024404,8070517,1,76440
2024405,0,1,0
2024406,0,1,0
2024407,0,1,0
2024408,0,1,0
2024409,0,1,0
2024410,0,1,0
2024501,8080615,1,192
2024502,8080617,1,5632
2024503,8080513,1,46800
2024504,8080517,1,87360
2024505,0,1,0
2024506,0,1,0
2024507,0,1,0
2024508,0,1,0
2024509,0,1,0
2024510,0,1,0
2025001,7020002,1,636
2025002,7020010,1,31800
2025003,7020012,1,92400
2025004,7020014,1,181896
2025005,7020108,1,504
2025006,7020105,1,42000
2025007,0,1,0
2025008,0,1,0
2025009,0,1,0
2025010,0,1,0
2025101,8012410,1,432
2025102,8013101,1,26928
2025103,8011016,1,50778
2025104,8010210,1,112492
2025105,0,1,0
2025106,0,1,0
2025107,0,1,0
2025108,0,1,0
2025109,0,1,0
2025110,0,1,0
2025201,8032501,1,780
2025202,8031915,1,48620
2025203,8031227,1,89100
2025204,8031230,1,177600
2025205,0,1,0
2025206,0,1,0
2025207,0,1,0
2025208,0,1,0
2025209,0,1,0
2025210,0,1,0
2025301,8051115,1,288
2025302,8051118,1,17952
2025303,8050611,1,35935
2025304,8050716,1,65520
2025305,0,1,0
2025306,0,1,0
2025307,0,1,0
2025308,0,1,0
2025309,0,1,0
2025310,0,1,0
2025401,8071013,1,168
2025402,8071015,1,4928
2025403,8070514,1,40950
2025404,8070517,1,76440
2025405,0,1,0
2025406,0,1,0
2025407,0,1,0
2025408,0,1,0
2025409,0,1,0
2025410,0,1,0
2025501,8081404,1,252
2025502,8081311,1,20944
2025503,8080224,1,28392
2025504,8080517,1,87360
2025505,0,1,0
2025506,0,1,0
2025507,0,1,0
2025508,0,1,0
2025509,0,1,0
2025510,0,1,0
2026001,7030002,1,660
2026002,7030010,1,33000
2026003,7030011,1,82500
2026004,7030013,1,155400
2026005,7030108,1,468
2026006,7030105,1,39000
2026008,0,1,0
2026009,0,1,0
2026010,0,1,0
2026101,8012011,1,9000
2026102,8011815,1,13104
2026103,8012716,1,59136
2026104,8012014,1,88560
2026105,0,1,0
2026106,0,1,0
2026107,0,1,0
2026108,0,1,0
2026109,0,1,0
2026110,0,1,0
2026201,8032501,1,780
2026202,8031224,1,30600
2026203,8032221,1,110880
2026204,8031230,1,177600
2026205,0,1,0
2026206,0,1,0
2026207,0,1,0
2026208,0,1,0
2026209,0,1,0
2026210,0,1,0
2026301,8051115,1,288
2026302,8051118,1,17952
2026303,8051216,1,40656
2026304,8050716,1,65520
2026305,0,1,0
2026306,0,1,0
2026307,0,1,0
2026308,0,1,0
2026309,0,1,0
2026310,0,1,0
2026401,8070416,1,5313
2026402,8071015,1,4928
2026403,8071116,1,36960
2026404,8070517,1,76440
2026405,0,1,0
2026406,0,1,0
2026407,0,1,0
2026408,0,1,0
2026409,0,1,0
2026410,0,1,0
2026501,8080220,1,312
2026502,8080617,1,5632
2026503,8081616,1,48048
2026504,8080517,1,87360
2026505,0,1,0
2026506,0,1,0
2026507,0,1,0
2026508,0,1,0
2026509,0,1,0
2026510,0,1,0
2026601,1000018,1,31500
2026602,1000016,1,31500
2026603,1000017,1,31500
2026604,1000020,1,31500
2026605,1000015,1,31500
2026606,1000019,1,31500
2026607,0,1,0
2026608,0,1,0
2026609,0,1,0
2026610,0,1,0
2026701,1000018,1,26250
2026702,1000016,1,26250
2026703,1000017,1,26250
2026704,1000020,1,26250
2026705,1000015,1,26250
2026706,1000019,1,26250
2026707,10009617,1,100000
2026708,10009618,1,100000
2026709,0,1,0
2026710,0,1,0
2026801,1000018,1,21000
2026802,1000016,1,21000
2026803,1000017,1,21000
2026804,1000020,1,21000
2026805,1000015,1,21000
2026806,1000019,1,21000
2026807,10009617,1,50000
2026808,10009618,1,50000
2026809,0,1,0
2026810,0,1,0
2026901,1000018,1,26250
2026902,1000016,1,26250
2026903,1000017,1,26250
2026904,1000020,1,26250
2026905,1000015,1,26250
2026906,1000019,1,26250
2026907,10009620,1,100000
2026908,10009622,1,100000
2026909,0,1,0
2026910,0,1,0
2027001,1000018,1,21000
2027002,1000016,1,21000
2027003,1000017,1,21000
2027004,1000020,1,21000
2027005,1000015,1,21000
2027006,1000019,1,21000
2027007,10009620,1,50000
2027008,10009622,1,50000
2027009,0,1,0
2027010,0,1,0
2027101,1000018,1,26250
2027102,1000016,1,26250
2027103,1000017,1,26250
2027104,1000020,1,26250
2027105,1000015,1,26250
2027106,1000019,1,26250
2027107,10009619,1,100000
2027108,10009623,1,100000
2027109,10009621,1,100000
2027110,10007210,1,27000
2027201,1000018,1,21000
2027202,1000016,1,21000
2027203,1000017,1,21000
2027204,1000020,1,21000
2027205,1000015,1,21000
2027206,1000019,1,21000
2027207,10009619,1,50000
2027208,10009623,1,50000
2027209,10009621,1,50000
2027210,10007210,1,18000
2027211,10007210,2,180000
