 ,0,1,2,3,4,5,6,7,8,9,10,11,12,13,14,15,16,17,18,19,20,21,22,23,24,25,26,27,28,29,30,31,32,33,34,35,36,37,38,39,40,41,42,43,44,45,46,47,48,49,50,51,52,53,54,55,56,57,58
 ,,,,,,,,,,,,,,,,,,,,,,,,,,s32,,,,,,float,,,,,,,,,,,s32,,,,,float,,,,bool,bool,float,bool,s8,bool,bool,bool
0,,,,,,,,,,,,,,,,,,,,,,,,,,231,,,,,,0,,,,,,,,,,,0,,,,,60,,,,false,false,-1,true,-1,false,false,false
221000,,,,,,,,,,,,,,,,,,,,,,,,,,231,,,,,,0,,,,,,,,,,,0,,,,,60,,,,true,true,-1,true,-1,false,false,false
221001,,,,,,,,,,,,,,,,,,,,,,,,,,231,,,,,,0,,,,,,,,,,,0,,,,,60,,,,true,true,-1,true,-1,false,false,false
221002,,,,,,,,,,,,,,,,,,,,,,,,,,231,,,,,,0,,,,,,,,,,,0,,,,,60,,,,true,true,-1,true,-1,false,false,false
221003,,,,,,,,,,,,,,,,,,,,,,,,,,231,,,,,,0,,,,,,,,,,,0,,,,,60,,,,true,true,-1,true,-1,false,false,false
221004,,,,,,,,,,,,,,,,,,,,,,,,,,231,,,,,,0,,,,,,,,,,,0,,,,,60,,,,true,true,-1,true,-1,false,false,false
221012,,,,,,,,,,,,,,,,,,,,,,,,,,231,,,,,,0,,,,,,,,,,,-4,,,,,2,,,,false,false,-1,true,-1,false,false,false
221013,,,,,,,,,,,,,,,,,,,,,,,,,,231,,,,,,0,,,,,,,,,,,-4,,,,,3,,,,false,false,-1,true,-1,false,false,false
221014,,,,,,,,,,,,,,,,,,,,,,,,,,231,,,,,,0,,,,,,,,,,,-4,,,,,5,,,,false,false,-1,true,-1,false,false,false
221015,,,,,,,,,,,,,,,,,,,,,,,,,,231,,,,,,0,,,,,,,,,,,0,,,,,30,,,,false,false,-1,true,-1,false,false,false
221016,,,,,,,,,,,,,,,,,,,,,,,,,,231,,,,,,0,,,,,,,,,,,0,,,,,30,,,,false,false,-1,true,1,false,false,false
221017,,,,,,,,,,,,,,,,,,,,,,,,,,231,,,,,,0,,,,,,,,,,,0,,,,,30,,,,true,true,-1,true,-1,false,false,false
221018,,,,,,,,,,,,,,,,,,,,,,,,,,231,,,,,,0,,,,,,,,,,,0,,,,,30,,,,true,true,-1,true,-1,false,false,false
221019,,,,,,,,,,,,,,,,,,,,,,,,,,231,,,,,,0,,,,,,,,,,,0,,,,,-1,,,,false,false,-1,true,-1,false,false,false
221020,,,,,,,,,,,,,,,,,,,,,,,,,,231,,,,,,0.1,,,,,,,,,,,0,,,,,-1,,,,true,true,-1,true,-1,false,false,false
221021,,,,,,,,,,,,,,,,,,,,,,,,,,231,,,,,,50,,,,,,,,,,,0,,,,,30,,,,true,false,-1,true,-1,false,false,false
221022,,,,,,,,,,,,,,,,,,,,,,,,,,231,,,,,,0,,,,,,,,,,,0,,,,,-1,,,,false,false,-1,true,-1,false,false,false
221023,,,,,,,,,,,,,,,,,,,,,,,,,,231,,,,,,0,,,,,,,,,,,0,,,,,-1,,,,false,false,-1,true,-1,false,false,false
221024,,,,,,,,,,,,,,,,,,,,,,,,,,231,,,,,,0,,,,,,,,,,,0,,,,,-1,,,,false,false,-1,true,-1,false,false,false
221025,,,,,,,,,,,,,,,,,,,,,,,,,,231,,,,,,0,,,,,,,,,,,0,,,,,2,,,,false,false,-1,true,-1,false,false,false
221026,,,,,,,,,,,,,,,,,,,,,,,,,,231,,,,,,1,,,,,,,,,,,0,,,,,-1,,,,false,false,-1,true,-1,false,false,false
223001,,,,,,,,,,,,,,,,,,,,,,,,,,10001,,,,,,1.25,,,,,,,,,,,-16,,,,,600,,,,false,false,-1,true,-1,false,false,false
223002,,,,,,,,,,,,,,,,,,,,,,,,,,10003,,,,,,1.5,,,,,,,,,,,-5,,,,,30,,,,false,false,-1,true,-1,false,false,false
223003,,,,,,,,,,,,,,,,,,,,,,,,,,10004,,,,,,0.5,,,,,,,,,,,-5,,,,,30,,,,false,false,-1,true,-1,false,false,false
223004,,,,,,,,,,,,,,,,,,,,,,,,,,10019,,,,,,50,,,,,,,,,,,0,,,,,30,,,,false,false,-1,true,-1,false,false,false
223005,,,,,,,,,,,,,,,,,,,,,,,,,,10013,,,,,,30,,,,,,,,,,,0,,,,,30,,,,true,true,-1,true,-1,false,false,false
223006,,,,,,,,,,,,,,,,,,,,,,,,,,10007,,,,,,50,,,,,,,,,,,-6,,,,,30,,,,false,false,-1,true,-1,false,false,false
223007,,,,,,,,,,,,,,,,,,,,,,,,,,10014,,,,,,-10,,,,,,,,,,,-8,,,,,30,,,,false,false,-1,true,-1,false,false,false
223008,,,,,,,,,,,,,,,,,,,,,,,,,,10007,,,,,,50,,,,,,,,,,,-6,,,,,30,,,,false,false,-1,true,-1,false,false,false
223009,,,,,,,,,,,,,,,,,,,,,,,,,,10006,,,,,,1.2,,,,,,,,,,,0,,,,,30,,,,false,false,-1,true,-1,false,false,false
223010,,,,,,,,,,,,,,,,,,,,,,,,,,10014,,,,,,-50,,,,,,,,,,,-8,,,,,30,,,,false,false,-1,true,-1,false,false,false
223011,,,,,,,,,,,,,,,,,,,,,,,,,,10015,,,,,,10,,,,,,,,,,,0,,,,,30,,,,false,false,-1,true,-1,false,false,false
223012,,,,,,,,,,,,,,,,,,,,,,,,,,10023,,,,,,50,,,,,,,,,,,-7,,,,,30,,,,false,false,-1,true,-1,false,false,false
223013,,,,,,,,,,,,,,,,,,,,,,,,,,10008,,,,,,50,,,,,,,,,,,0,,,,,30,,,,true,true,-1,true,-1,false,false,false
223014,,,,,,,,,,,,,,,,,,,,,,,,,,10009,,,,,,50,,,,,,,,,,,0,,,,,30,,,,true,true,-1,true,-1,false,false,false
223015,,,,,,,,,,,,,,,,,,,,,,,,,,10011,,,,,,50,,,,,,,,,,,-4,,,,,30,,,,false,false,-1,true,-1,false,false,false
223016,,,,,,,,,,,,,,,,,,,,,,,,,,10011,,,,,,50,,,,,,,,,,,0,,,,,30,,,,false,false,-1,true,-1,false,false,false
223017,,,,,,,,,,,,,,,,,,,,,,,,,,10027,,,,,,50,,,,,,,,,,,0,,,,,30,,,,false,false,-1,true,-1,false,false,false
223018,,,,,,,,,,,,,,,,,,,,,,,,,,10028,,,,,,50,,,,,,,,,,,0,,,,,30,,,,false,false,-1,true,-1,false,false,false
223019,,,,,,,,,,,,,,,,,,,,,,,,,,10029,,,,,,50,,,,,,,,,,,0,,,,,30,,,,false,false,-1,true,-1,false,false,false
223020,,,,,,,,,,,,,,,,,,,,,,,,,,10030,,,,,,50,,,,,,,,,,,0,,,,,30,,,,false,false,-1,true,-1,false,false,false
223021,,,,,,,,,,,,,,,,,,,,,,,,,,10031,,,,,,50,,,,,,,,,,,0,,,,,30,,,,false,false,-1,true,-1,false,false,false
223022,,,,,,,,,,,,,,,,,,,,,,,,,,10031,,,,,,50,,,,,,,,,,,0,,,,,30,,,,false,false,-1,true,-1,false,false,false
223023,,,,,,,,,,,,,,,,,,,,,,,,,,10031,,,,,,50,,,,,,,,,,,0,,,,,30,,,,false,false,-1,true,-1,false,false,false
223024,,,,,,,,,,,,,,,,,,,,,,,,,,10031,,,,,,50,,,,,,,,,,,0,,,,,30,,,,false,false,-1,true,-1,false,false,false
223025,,,,,,,,,,,,,,,,,,,,,,,,,,10031,,,,,,50,,,,,,,,,,,0,,,,,30,,,,false,false,-1,true,-1,false,false,false
223026,,,,,,,,,,,,,,,,,,,,,,,,,,10031,,,,,,50,,,,,,,,,,,0,,,,,30,,,,false,false,-1,true,-1,false,false,false
223027,,,,,,,,,,,,,,,,,,,,,,,,,,10031,,,,,,50,,,,,,,,,,,0,,,,,30,,,,false,false,-1,true,-1,false,false,false
223028,,,,,,,,,,,,,,,,,,,,,,,,,,10031,,,,,,50,,,,,,,,,,,0,,,,,30,,,,false,false,-1,true,-1,false,false,false
223029,,,,,,,,,,,,,,,,,,,,,,,,,,10035,,,,,,1.2,,,,,,,,,,,0,,,,,600,,,,false,false,-1,true,-1,false,false,false
223030,,,,,,,,,,,,,,,,,,,,,,,,,,10036,,,,,,0.8,,,,,,,,,,,0,,,,,30,,,,false,false,-1,true,-1,false,false,false
223031,,,,,,,,,,,,,,,,,,,,,,,,,,10037,,,,,,1.2,,,,,,,,,,,0,,,,,600,,,,false,false,-1,true,-1,false,false,false
223032,,,,,,,,,,,,,,,,,,,,,,,,,,10038,,,,,,0.8,,,,,,,,,,,0,,,,,30,,,,false,false,-1,true,-1,false,false,false
223033,,,,,,,,,,,,,,,,,,,,,,,,,,10072,,,,,,20,,,,,,,,,,,0,,,,,600,,,,false,false,-1,true,-1,false,false,false
223034,,,,,,,,,,,,,,,,,,,,,,,,,,10073,,,,,,-20,,,,,,,,,,,0,,,,,30,,,,false,false,-1,true,-1,false,false,false
223035,,,,,,,,,,,,,,,,,,,,,,,,,,10076,,,,,,27,,,,,,,,,,,0,,,,,600,,,,false,false,-1,true,-1,false,false,false
223036,,,,,,,,,,,,,,,,,,,,,,,,,,10077,,,,,,-27,,,,,,,,,,,0,,,,,30,,,,false,false,-1,true,-1,false,false,false
223037,,,,,,,,,,,,,,,,,,,,,,,,,,10080,,,,,,35,,,,,,,,,,,0,,,,,600,,,,false,false,-1,true,-1,false,false,false
223038,,,,,,,,,,,,,,,,,,,,,,,,,,10081,,,,,,-35,,,,,,,,,,,0,,,,,30,,,,false,false,-1,true,-1,false,false,false
223039,,,,,,,,,,,,,,,,,,,,,,,,,,10084,,,,,,27,,,,,,,,,,,0,,,,,600,,,,false,false,-1,true,-1,false,false,false
223040,,,,,,,,,,,,,,,,,,,,,,,,,,10085,,,,,,-27,,,,,,,,,,,0,,,,,30,,,,false,false,-1,true,-1,false,false,false
223041,,,,,,,,,,,,,,,,,,,,,,,,,,10074,,,,,,33,,,,,,,,,,,0,,,,,600,,,,false,false,-1,true,-1,false,false,false
223042,,,,,,,,,,,,,,,,,,,,,,,,,,10075,,,,,,-33,,,,,,,,,,,0,,,,,30,,,,false,false,-1,true,-1,false,false,false
223043,,,,,,,,,,,,,,,,,,,,,,,,,,10078,,,,,,27,,,,,,,,,,,0,,,,,600,,,,false,false,-1,true,-1,false,false,false
223044,,,,,,,,,,,,,,,,,,,,,,,,,,10079,,,,,,-27,,,,,,,,,,,0,,,,,30,,,,false,false,-1,true,-1,false,false,false
223045,,,,,,,,,,,,,,,,,,,,,,,,,,10082,,,,,,35,,,,,,,,,,,0,,,,,600,,,,false,false,-1,true,-1,false,false,false
223046,,,,,,,,,,,,,,,,,,,,,,,,,,10075,,,,,,-35,,,,,,,,,,,0,,,,,30,,,,false,false,-1,true,-1,false,false,false
223047,,,,,,,,,,,,,,,,,,,,,,,,,,10086,,,,,,27,,,,,,,,,,,0,,,,,600,,,,false,false,-1,true,-1,false,false,false
223048,,,,,,,,,,,,,,,,,,,,,,,,,,10087,,,,,,-27,,,,,,,,,,,0,,,,,30,,,,false,false,-1,true,-1,false,false,false
223049,,,,,,,,,,,,,,,,,,,,,,,,,,10088,,,,,,50,,,,,,,,,,,0,,,,,30,,,,false,false,-1,true,-1,false,false,false
223050,,,,,,,,,,,,,,,,,,,,,,,,,,10089,,,,,,-50,,,,,,,,,,,0,,,,,30,,,,false,false,-1,true,-1,false,false,false
223051,,,,,,,,,,,,,,,,,,,,,,,,,,10090,,,,,,50,,,,,,,,,,,0,,,,,30,,,,false,false,-1,true,-1,false,false,false
223052,,,,,,,,,,,,,,,,,,,,,,,,,,10091,,,,,,-50,,,,,,,,,,,0,,,,,30,,,,false,false,-1,true,-1,false,false,false
223053,,,,,,,,,,,,,,,,,,,,,,,,,,10092,,,,,,50,,,,,,,,,,,0,,,,,30,,,,false,false,-1,true,-1,false,false,false
223054,,,,,,,,,,,,,,,,,,,,,,,,,,10093,,,,,,-50,,,,,,,,,,,0,,,,,30,,,,false,false,-1,true,-1,false,false,false
223055,,,,,,,,,,,,,,,,,,,,,,,,,,10094,,,,,,50,,,,,,,,,,,0,,,,,30,,,,false,false,-1,true,-1,false,false,false
223056,,,,,,,,,,,,,,,,,,,,,,,,,,10095,,,,,,-50,,,,,,,,,,,0,,,,,30,,,,false,false,-1,true,-1,false,false,false
223057,,,,,,,,,,,,,,,,,,,,,,,,,,10039,,,,,,1,,,,,,,,,,,0,,,,,30,,,,false,false,-1,true,-1,false,false,false
223058,,,,,,,,,,,,,,,,,,,,,,,,,,10160,,,,,,1.2,,,,,,,,,,,-9,,,,,30,,,,true,true,-1,true,1,false,false,false
223059,,,,,,,,,,,,,,,,,,,,,,,,,,10102,,,,,,500,,,,,,,,,,,-9,,,,,30,,,,true,true,-1,true,-1,false,false,false
223060,,,,,,,,,,,,,,,,,,,,,,,,,,10162,,,,,,1.5,,,,,,,,,,,-9,,,,,30,,,,false,false,-1,true,-1,false,false,false
223061,,,,,,,,,,,,,,,,,,,,,,,,,,10104,,,,,,50,,,,,,,,,,,0,,,,,30,,,,false,false,-1,true,-1,false,false,false
223062,,,,,,,,,,,,,,,,,,,,,,,,,,10159,,,,,,50,,,,,,,,,,,0,,,,,30,,,,true,true,-1,true,-1,false,false,false
223063,,,,,,,,,,,,,,,,,,,,,,,,,,10204,,,,,,50,,,,,,,,,,,0,,,,,30,,,,true,true,-1,true,-1,false,false,false
223064,,,,,,,,,,,,,,,,,,,,,,,,,,10161,,,,,,50,,,,,,,,,,,0,,,,,30,,,,false,false,-1,true,-1,false,false,false
223065,,,,,,,,,,,,,,,,,,,,,,,,,,10076,,,,,,50,,,,,,,,,,,0,,,,,30,,,,false,false,-1,true,-1,false,false,false
223066,,,,,,,,,,,,,,,,,,,,,,,,,,10072,,,,,,50,,,,,,,,,,,0,,,,,30,,,,true,false,-1,true,1,false,false,false
223067,,,,,,,,,,,,,,,,,,,,,,,,,,10072,,,,,,50,,,,,,,,,,,0,,,,,30,,,,false,false,-1,true,-1,false,false,false
223068,,,,,,,,,,,,,,,,,,,,,,,,,,10080,,,,,,0,,,,,,,,,,,0,,,,,30,,,,true,true,-1,true,-1,false,false,false
223069,,,,,,,,,,,,,,,,,,,,,,,,,,10080,,,,,,50,,,,,,,,,,,0,,,,,30,,,,true,false,-1,true,-1,false,false,false
223070,,,,,,,,,,,,,,,,,,,,,,,,,,10003,,,,,,50,,,,,,,,,,,0,,,,,30,,,,false,false,-1,true,-1,false,false,false
223071,,,,,,,,,,,,,,,,,,,,,,,,,,10072,,,,,,50,,,,,,,,,,,0,,,,,30,,,,true,false,-1,true,1,false,false,false
223072,,,,,,,,,,,,,,,,,,,,,,,,,,10100,,,,,,50,,,,,,,,,,,0,,,,,30,,,,false,false,-1,true,1,false,false,false
223073,,,,,,,,,,,,,,,,,,,,,,,,,,10104,,,,,,50,,,,,,,,,,,0,,,,,30,,,,false,false,-1,true,-1,false,false,false
223074,,,,,,,,,,,,,,,,,,,,,,,,,,10072,,,,,,1,,,,,,,,,,,-29,,,,,30,,,,true,false,-1,true,1,false,false,false
223075,,,,,,,,,,,,,,,,,,,,,,,,,,10084,,,,,,50,,,,,,,,,,,0,,,,,8,,,,true,false,-1,true,-1,false,false,false
223076,,,,,,,,,,,,,,,,,,,,,,,,,,10084,,,,,,50,,,,,,,,,,,0,,,,,30,,,,false,false,-1,true,-1,false,false,false
223077,,,,,,,,,,,,,,,,,,,,,,,,,,10024,,,,,,50,,,,,,,,,,,0,,,,,30,,,,false,false,-1,true,-1,false,false,false
223078,,,,,,,,,,,,,,,,,,,,,,,,,,10110,,,,,,50,,,,,,,,,,,0,,,,,30,,,,false,false,-1,true,-1,false,false,false
223079,,,,,,,,,,,,,,,,,,,,,,,,,,10072,,,,,,50,,,,,,,,,,,0,,,,,30,,,,false,false,-1,true,-1,false,false,false
223080,,,,,,,,,,,,,,,,,,,,,,,,,,10111,,,,,,50,,,,,,,,,,,0,,,,,30,,,,false,false,-1,true,-1,false,false,false
223081,,,,,,,,,,,,,,,,,,,,,,,,,,10164,,,,,,50,,,,,,,,,,,0,,,,,30,,,,true,true,-1,true,1,false,false,false
223082,,,,,,,,,,,,,,,,,,,,,,,,,,10072,,,,,,50,,,,,,,,,,,0,,,,,30,,,,false,false,-1,true,-1,false,false,false
223083,,,,,,,,,,,,,,,,,,,,,,,,,,10163,,,,,,50,,,,,,,,,,,0,,,,,8,,,,true,false,-1,true,-1,false,false,false
223084,,,,,,,,,,,,,,,,,,,,,,,,,,10080,,,,,,50,,,,,,,,,,,0,,,,,30,,,,false,false,-1,true,-1,false,false,false
223085,,,,,,,,,,,,,,,,,,,,,,,,,,10072,,,,,,50,,,,,,,,,,,0,,,,,30,,,,false,false,-1,true,-1,false,false,false
223086,,,,,,,,,,,,,,,,,,,,,,,,,,10104,,,,,,50,,,,,,,,,,,0,,,,,30,,,,false,false,-1,true,-1,false,false,false
223087,,,,,,,,,,,,,,,,,,,,,,,,,,10105,,,,,,50,,,,,,,,,,,0,,,,,30,,,,true,true,-1,true,-1,false,false,false
223088,,,,,,,,,,,,,,,,,,,,,,,,,,10139,,,,,,-10,,,,,,,,,,,-10,,,,,30,,,,false,false,-1,true,-1,false,false,false
223089,,,,,,,,,,,,,,,,,,,,,,,,,,10140,,,,,,-20,,,,,,,,,,,-10,,,,,30,,,,false,false,-1,true,-1,false,false,false
223090,,,,,,,,,,,,,,,,,,,,,,,,,,10141,,,,,,-30,,,,,,,,,,,-10,,,,,30,,,,false,false,-1,true,-1,false,false,false
223091,,,,,,,,,,,,,,,,,,,,,,,,,,10076,,,,,,50,,,,,,,,,,,0,,,,,30,,,,true,false,-1,true,1,false,false,false
223092,,,,,,,,,,,,,,,,,,,,,,,,,,10039,,,,,,2,,,,,,,,,,,0,,,,,30,,,,true,true,-1,true,-1,false,false,false
223093,,,,,,,,,,,,,,,,,,,,,,,,,,10072,,,,,,50,,,,,,,,,,,0,,,,,30,,,,true,false,-1,true,1,false,false,false
223094,,,,,,,,,,,,,,,,,,,,,,,,,,10034,,,,,,100,,,,,,,,,,,0,,,,,30,,,,false,true,3,true,-1,false,false,false
223095,,,,,,,,,,,,,,,,,,,,,,,,,,10080,,,,,,50,,,,,,,,,,,0,,,,,30,,,,true,true,-1,true,-1,false,false,false
223096,,,,,,,,,,,,,,,,,,,,,,,,,,10084,,,,,,50,,,,,,,,,,,0,,,,,30,,,,false,false,-1,true,-1,false,false,false
223097,,,,,,,,,,,,,,,,,,,,,,,,,,10209,,,,,,50,,,,,,,,,,,0,,,,,30,,,,true,true,-1,true,1,false,false,false
223098,,,,,,,,,,,,,,,,,,,,,,,,,,10084,,,,,,50,,,,,,,,,,,0,,,,,30,,,,true,true,-1,true,1,false,false,false
223099,,,,,,,,,,,,,,,,,,,,,,,,,,10114,,,,,,1.2,,,,,,,,,,,-11,,,,,30,,,,false,false,-1,true,-1,false,false,false
223100,,,,,,,,,,,,,,,,,,,,,,,,,,10113,,,,,,50,,,,,,,,,,,-11,,,,,30,,,,true,true,-1,true,-1,false,false,false
223101,,,,,,,,,,,,,,,,,,,,,,,,,,10069,,,,,,0.5,,,,,,,,,,,0,,,,,30,,,,true,true,-1,true,-1,false,false,false
223102,,,,,,,,,,,,,,,,,,,,,,,,,,10085,,,,,,50,,,,,,,,,,,0,,,,,30,,,,false,false,-1,true,-1,false,false,false
223103,,,,,,,,,,,,,,,,,,,,,,,,,,10072,,,,,,50,,,,,,,,,,,0,,,,,30,,,,false,false,-1,true,-1,false,false,false
223104,,,,,,,,,,,,,,,,,,,,,,,,,,10105,,,,,,0.8,,,,,,,,,,,-12,,,,,30,,,,true,true,-1,true,1,false,false,false
223105,,,,,,,,,,,,,,,,,,,,,,,,,,10072,,,,,,50,,,,,,,,,,,-12,,,,,30,,,,true,false,-1,true,1,false,false,false
223106,,,,,,,,,,,,,,,,,,,,,,,,,,10076,,,,,,50,,,,,,,,,,,0,,,,,30,,,,false,false,-1,true,1,false,false,false
223107,,,,,,,,,,,,,,,,,,,,,,,,,,10106,,,,,,50,,,,,,,,,,,0,,,,,30,,,,true,true,-1,true,-1,false,false,false
223108,,,,,,,,,,,,,,,,,,,,,,,,,,10084,,,,,,50,,,,,,,,,,,-26,,,,,30,,,,true,true,-1,true,1,false,false,false
223109,,,,,,,,,,,,,,,,,,,,,,,,,,10074,,,,,,50,,,,,,,,,,,0,,,,,30,,,,true,false,-1,true,-1,false,false,false
223110,,,,,,,,,,,,,,,,,,,,,,,,,,10074,,,,,,50,,,,,,,,,,,0,,,,,30,,,,true,true,-1,true,1,false,false,false
223111,,,,,,,,,,,,,,,,,,,,,,,,,,10074,,,,,,50,,,,,,,,,,,0,,,,,30,,,,true,true,-1,true,-1,false,false,false
223112,,,,,,,,,,,,,,,,,,,,,,,,,,10097,,,,,,50,,,,,,,,,,,0,,,,,30,,,,false,false,-1,true,-1,false,false,false
223113,,,,,,,,,,,,,,,,,,,,,,,,,,10112,,,,,,50,,,,,,,,,,,0,,,,,30,,,,false,false,-1,true,-1,false,false,false
223114,,,,,,,,,,,,,,,,,,,,,,,,,,10192,,,,,,50,,,,,,,,,,,0,,,,,30,,,,false,false,-1,true,-1,false,false,false
223115,,,,,,,,,,,,,,,,,,,,,,,,,,10105,,,,,,0.8,,,,,,,,,,,0,,,,,30,,,,true,false,-1,true,-1,false,false,false
223116,,,,,,,,,,,,,,,,,,,,,,,,,,10216,,,,,,50,,,,,,,,,,,0,,,,,30,,,,true,false,-1,true,-1,false,false,false
223117,,,,,,,,,,,,,,,,,,,,,,,,,,10074,,,,,,50,,,,,,,,,,,0,,,,,30,,,,true,false,-1,true,-1,false,false,false
223118,,,,,,,,,,,,,,,,,,,,,,,,,,10103,,,,,,500,,,,,,,,,,,0,,,,,30,,,,true,true,-1,true,-1,false,false,false
223119,,,,,,,,,,,,,,,,,,,,,,,,,,10078,,,,,,50,,,,,,,,,,,0,,,,,30,,,,false,false,-1,true,1,false,false,false
223120,,,,,,,,,,,,,,,,,,,,,,,,,,10082,,,,,,50,,,,,,,,,,,0,,,,,30,,,,true,false,-1,true,-1,false,false,false
223121,,,,,,,,,,,,,,,,,,,,,,,,,,10074,,,,,,50,,,,,,,,,,,0,,,,,30,,,,false,false,-1,true,-1,false,false,false
223123,,,,,,,,,,,,,,,,,,,,,,,,,,10136,,,,,,-10,,,,,,,,,,,-13,,,,,30,,,,false,false,-1,true,-1,false,false,false
223124,,,,,,,,,,,,,,,,,,,,,,,,,,10137,,,,,,-20,,,,,,,,,,,-13,,,,,30,,,,false,false,-1,true,-1,false,false,false
223125,,,,,,,,,,,,,,,,,,,,,,,,,,10138,,,,,,-30,,,,,,,,,,,-13,,,,,30,,,,false,false,-1,true,-1,false,false,false
223126,,,,,,,,,,,,,,,,,,,,,,,,,,10068,,,,,,50,,,,,,,,,,,0,,,,,12,,,,false,false,-1,true,-1,false,false,false
223127,,,,,,,,,,,,,,,,,,,,,,,,,,10185,,,,,,50,,,,,,,,,,,0,,,,,30,,,,false,false,-1,true,-1,false,false,false
223128,,,,,,,,,,,,,,,,,,,,,,,,,,10064,,,,,,50,,,,,,,,,,,0,,,,,12,,,,false,false,-1,true,-1,false,false,false
223129,,,,,,,,,,,,,,,,,,,,,,,,,,10107,,,,,,20,,,,,,,,,,,-30,,,,,600,,,,false,false,-1,true,-1,false,false,false
223130,,,,,,,,,,,,,,,,,,,,,,,,,,10108,,,,,,35,,,,,,,,,,,-30,,,,,600,,,,false,false,-1,true,-1,false,false,false
223131,,,,,,,,,,,,,,,,,,,,,,,,,,10010,,,,,,50,,,,,,,,,,,-14,,,,,1800,,,,false,false,-1,true,-1,false,false,false
223132,,,,,,,,,,,,,,,,,,,,,,,,,,10103,,,,,,40,,,,,,,,,,,-15,,,,,120,,,,false,false,-1,true,-1,false,false,false
223133,,,,,,,,,,,,,,,,,,,,,,,,,,10109,,,,,,160,,,,,,,,,,,0,,,,,600,,,,false,false,-1,true,-1,false,false,false
223134,,,,,,,,,,,,,,,,,,,,,,,,,,10055,,,,,,-5,,,,,,,,,,,0,,,,,30,,,,false,false,-1,true,-1,false,false,false
223135,,,,,,,,,,,,,,,,,,,,,,,,,,10067,,,,,,10,,,,,,,,,,,0,,,,,30,,,,false,false,-1,true,-1,false,false,false
223136,,,,,,,,,,,,,,,,,,,,,,,,,,10066,,,,,,10,,,,,,,,,,,0,,,,,30,,,,false,false,-1,true,-1,false,false,false
223137,,,,,,,,,,,,,,,,,,,,,,,,,,10053,,,,,,-5,,,,,,,,,,,0,,,,,60,,,,false,false,-1,true,-1,false,false,false
223138,,,,,,,,,,,,,,,,,,,,,,,,,,10103,,,,,,10,,,,,,,,,,,-15,,,,,120,,,,false,false,-1,true,-1,false,false,false
223139,,,,,,,,,,,,,,,,,,,,,,,,,,10073,,,,,,10,,,,,,,,,,,0,,,,,30,,,,false,false,-1,true,-1,false,false,false
223140,,,,,,,,,,,,,,,,,,,,,,,,,,10081,,,,,,10,,,,,,,,,,,0,,,,,30,,,,false,false,-1,true,-1,false,false,false
223141,,,,,,,,,,,,,,,,,,,,,,,,,,10077,,,,,,5,,,,,,,,,,,0,,,,,30,,,,false,false,-1,true,-1,false,false,false
223142,,,,,,,,,,,,,,,,,,,,,,,,,,10085,,,,,,5,,,,,,,,,,,0,,,,,30,,,,false,false,-1,true,-1,false,false,false
223143,,,,,,,,,,,,,,,,,,,,,,,,,,10072,,,,,,10,,,,,,,,,,,0,,,,,30,,,,false,false,-1,true,-1,false,false,false
223144,,,,,,,,,,,,,,,,,,,,,,,,,,10080,,,,,,10,,,,,,,,,,,0,,,,,30,,,,false,false,-1,true,-1,false,false,false
223145,,,,,,,,,,,,,,,,,,,,,,,,,,10076,,,,,,5,,,,,,,,,,,0,,,,,30,,,,false,false,-1,true,-1,false,false,false
223146,,,,,,,,,,,,,,,,,,,,,,,,,,10084,,,,,,5,,,,,,,,,,,0,,,,,30,,,,false,false,-1,true,-1,false,false,false
223147,,,,,,,,,,,,,,,,,,,,,,,,,,10010,,,,,,50,,,,,,,,,,,-14,,,,,1800,,,,false,false,-1,true,-1,false,false,false
223148,,,,,,,,,,,,,,,,,,,,,,,,,,10060,,,,,,10,,,,,,,,,,,0,,,,,30,,,,false,false,-1,true,-1,false,false,false
223149,,,,,,,,,,,,,,,,,,,,,,,,,,10061,,,,,,10,,,,,,,,,,,0,,,,,30,,,,false,false,-1,true,-1,false,false,false
223150,,,,,,,,,,,,,,,,,,,,,,,,,,10064,,,,,,10,,,,,,,,,,,0,,,,,30,,,,false,false,-1,true,-1,false,false,false
223151,,,,,,,,,,,,,,,,,,,,,,,,,,10065,,,,,,10,,,,,,,,,,,0,,,,,30,,,,false,false,-1,true,-1,false,false,false
223152,,,,,,,,,,,,,,,,,,,,,,,,,,10062,,,,,,10,,,,,,,,,,,0,,,,,30,,,,false,false,-1,true,-1,false,false,false
223153,,,,,,,,,,,,,,,,,,,,,,,,,,10063,,,,,,10,,,,,,,,,,,0,,,,,30,,,,false,false,-1,true,-1,false,false,false
223154,,,,,,,,,,,,,,,,,,,,,,,,,,10040,,,,,,50,,,,,,,,,,,-23,,,,,30,,,,false,false,3,true,-1,false,false,false
223155,,,,,,,,,,,,,,,,,,,,,,,,,,10042,,,,,,50,,,,,,,,,,,-23,,,,,30,,,,false,false,3,true,-1,false,false,false
223156,,,,,,,,,,,,,,,,,,,,,,,,,,10048,,,,,,50,,,,,,,,,,,-23,,,,,30,,,,false,false,3,true,-1,false,false,false
223157,,,,,,,,,,,,,,,,,,,,,,,,,,10050,,,,,,50,,,,,,,,,,,-23,,,,,30,,,,false,false,3,true,-1,false,false,false
223158,,,,,,,,,,,,,,,,,,,,,,,,,,10044,,,,,,50,,,,,,,,,,,-23,,,,,30,,,,false,false,3,true,-1,false,false,false
223159,,,,,,,,,,,,,,,,,,,,,,,,,,10046,,,,,,50,,,,,,,,,,,-23,,,,,30,,,,false,false,3,true,-1,false,false,false
223160,,,,,,,,,,,,,,,,,,,,,,,,,,10072,,,,,,50,,,,,,,,,,,0,,,,,30,,,,false,false,-1,true,-1,false,false,false
223161,,,,,,,,,,,,,,,,,,,,,,,,,,10115,,,,,,0,,,,,,,,,,,0,,,,,30,,,,false,false,-1,true,-1,false,false,false
223162,,,,,,,,,,,,,,,,,,,,,,,,,,10116,,,,,,0,,,,,,,,,,,0,,,,,30,,,,false,false,-1,true,-1,false,false,false
223163,,,,,,,,,,,,,,,,,,,,,,,,,,10117,,,,,,0,,,,,,,,,,,0,,,,,30,,,,false,false,-1,true,-1,false,false,false
223164,,,,,,,,,,,,,,,,,,,,,,,,,,10118,,,,,,0,,,,,,,,,,,0,,,,,30,,,,false,false,-1,true,-1,false,false,false
223165,,,,,,,,,,,,,,,,,,,,,,,,,,10016,,,,,,0.75,,,,,,,,,,,-25,,,,,180,,,,false,false,-1,true,-1,false,false,false
223166,,,,,,,,,,,,,,,,,,,,,,,,,,10142,,,,,,10,,,,,,,,,,,0,,,,,300,,,,false,false,-1,true,1,false,false,false
223167,,,,,,,,,,,,,,,,,,,,,,,,,,10005,,,,,,0.5,,,,,,,,,,,0,,,,,30,,,,false,false,-1,true,-1,false,false,false
223168,,,,,,,,,,,,,,,,,,,,,,,,,,10135,,,,,,10,,,,,,,,,,,0,,,,,30,,,,false,false,-1,true,-1,false,false,false
223169,,,,,,,,,,,,,,,,,,,,,,,,,,10143,,,,,,50,,,,,,,,,,,-1,,,,,30,,,,false,false,-1,true,-1,false,false,false
223170,,,,,,,,,,,,,,,,,,,,,,,,,,10144,,,,,,50,,,,,,,,,,,-1,,,,,-1,,,,false,false,-1,true,-1,false,false,false
223171,,,,,,,,,,,,,,,,,,,,,,,,,,10145,,,,,,50,,,,,,,,,,,-1,,,,,-1,,,,false,false,-1,true,-1,false,false,false
223172,,,,,,,,,,,,,,,,,,,,,,,,,,10146,,,,,,50,,,,,,,,,,,-1,,,,,-1,,,,false,false,-1,true,-1,false,false,false
223173,,,,,,,,,,,,,,,,,,,,,,,,,,10204,,,,,,50,,,,,,,,,,,0,,,,,30,,,,false,false,-1,true,-1,false,false,false
223174,,,,,,,,,,,,,,,,,,,,,,,,,,10084,,,,,,50,,,,,,,,,,,0,,,,,30,,,,false,false,-1,true,-1,false,false,false
223175,,,,,,,,,,,,,,,,,,,,,,,,,,10016,,,,,,50,,,,,,,,,,,0,,,,,30,,,,false,false,-1,true,-1,false,false,false
223176,,,,,,,,,,,,,,,,,,,,,,,,,,10016,,,,,,50,,,,,,,,,,,0,,,,,30,,,,false,false,-1,true,-1,false,false,false
223177,,,,,,,,,,,,,,,,,,,,,,,,,,10016,,,,,,50,,,,,,,,,,,0,,,,,30,,,,false,false,-1,true,-1,false,false,false
223178,,,,,,,,,,,,,,,,,,,,,,,,,,10016,,,,,,50,,,,,,,,,,,0,,,,,30,,,,false,false,-1,true,-1,false,false,false
223179,,,,,,,,,,,,,,,,,,,,,,,,,,10016,,,,,,50,,,,,,,,,,,0,,,,,30,,,,false,false,-1,true,-1,false,false,false
223180,,,,,,,,,,,,,,,,,,,,,,,,,,10032,,,,,,10,,,,,,,,,,,0,,,,,600,,,,true,true,3,true,-1,false,false,false
223181,,,,,,,,,,,,,,,,,,,,,,,,,,10033,,,,,,5,,,,,,,,,,,0,,,,,30,,,,true,true,3,true,-1,false,false,false
223182,,,,,,,,,,,,,,,,,,,,,,,,,,10034,,,,,,50,,,,,,,,,,,0,,,,,600,,,,true,true,3,true,-1,false,false,false
223183,,,,,,,,,,,,,,,,,,,,,,,,,,10119,,,,,,50,,,,,,,,,,,0,,,,,30,,,,true,true,3,true,-1,false,false,false
223184,,,,,,,,,,,,,,,,,,,,,,,,,,10096,,,,,,1.1,,,,,,,,,,,-18,,,,,30,,,,false,false,-1,true,-1,false,false,false
223185,,,,,,,,,,,,,,,,,,,,,,,,,,10097,,,,,,0.9,,,,,,,,,,,-18,,,,,30,,,,false,false,-1,true,-1,false,false,false
223186,,,,,,,,,,,,,,,,,,,,,,,,,,10098,,,,,,1,,,,,,,,,,,-19,,,,,30,,,,false,false,-1,true,-1,false,false,false
223187,,,,,,,,,,,,,,,,,,,,,,,,,,10099,,,,,,-1,,,,,,,,,,,-19,,,,,30,,,,false,false,-1,true,-1,false,false,false
223188,,,,,,,,,,,,,,,,,,,,,,,,,,10001,,,,,,2,,,,,,,,,,,-16,,,,,-1,,,,false,false,-1,true,-1,false,false,false
223189,,,,,,,,,,,,,,,,,,,,,,,,,,10001,,,,,,1.5,,,,,,,,,,,0,,,,,30,,,,false,false,-1,true,-1,false,false,false
223190,,,,,,,,,,,,,,,,,,,,,,,,,,10072,,,,,,5,,,,,,,,,,,0,,,,,30,,,,true,false,-1,true,1,false,false,false
223191,,,,,,,,,,,,,,,,,,,,,,,,,,10074,,,,,,0,,,,,,,,,,,0,,,,,30,,,,false,false,-1,true,-1,false,false,false
223192,,,,,,,,,,,,,,,,,,,,,,,,,,10106,,,,,,0,,,,,,,,,,,0,,,,,30,,,,false,false,-1,true,-1,false,false,false
223193,,,,,,,,,,,,,,,,,,,,,,,,,,10151,,,,,,105,,,,,,,,,,,-24,,,,,-1,,,,false,false,-1,true,-1,false,false,false
223194,,,,,,,,,,,,,,,,,,,,,,,,,,10152,,,,,,110,,,,,,,,,,,-24,,,,,-1,,,,false,false,-1,true,-1,false,false,false
223195,,,,,,,,,,,,,,,,,,,,,,,,,,10151,,,,,,105,,,,,,,,,,,-24,,,,,-1,,,,false,false,-1,true,-1,false,false,false
223196,,,,,,,,,,,,,,,,,,,,,,,,,,10152,,,,,,110,,,,,,,,,,,-24,,,,,-1,,,,false,false,-1,true,-1,false,false,false
223197,,,,,,,,,,,,,,,,,,,,,,,,,,10150,,,,,,0.5,,,,,,,,,,,-25,,,,,180,,,,false,false,-1,true,-1,false,false,false
223198,,,,,,,,,,,,,,,,,,,,,,,,,,10154,,,,,,1.5,,,,,,,,,,,0,,,,,10800,,,,false,false,-1,true,-1,false,false,false
223199,,,,,,,,,,,,,,,,,,,,,,,,,,10155,,,,,,1.5,,,,,,,,,,,0,,,,,10800,,,,false,false,-1,true,-1,false,false,false
223200,,,,,,,,,,,,,,,,,,,,,,,,,,231,,,,,,0,,,,,,,,,,,0,,,,,0.1,,,,false,false,-1,true,-1,false,false,false
223201,,,,,,,,,,,,,,,,,,,,,,,,,,10156,,,,,,20,,,,,,,,,,,0,,,,,-1,,,,false,false,-1,true,-1,false,false,false
223202,,,,,,,,,,,,,,,,,,,,,,,,,,10156,,,,,,30,,,,,,,,,,,0,,,,,-1,,,,false,false,-1,true,-1,false,false,false
223203,,,,,,,,,,,,,,,,,,,,,,,,,,10156,,,,,,40,,,,,,,,,,,0,,,,,-1,,,,false,false,-1,true,-1,false,false,false
223204,,,,,,,,,,,,,,,,,,,,,,,,,,10156,,,,,,50,,,,,,,,,,,0,,,,,-1,,,,false,false,-1,true,-1,false,false,false
223205,,,,,,,,,,,,,,,,,,,,,,,,,,10197,,,,,,0,,,,,,,,,,,0,,,,,5,,,,false,false,-1,true,-1,false,false,false
223206,,,,,,,,,,,,,,,,,,,,,,,,,,10198,,,,,,0,,,,,,,,,,,0,,,,,5,,,,false,false,-1,true,-1,false,false,false
223207,,,,,,,,,,,,,,,,,,,,,,,,,,10165,,,,,,0,,,,,,,,,,,-11,,,,,5,,,,false,false,-1,true,-1,false,false,false
223208,,,,,,,,,,,,,,,,,,,,,,,,,,10166,,,,,,0,,,,,,,,,,,-11,,,,,5,,,,false,false,6,true,-1,false,false,false
223209,,,,,,,,,,,,,,,,,,,,,,,,,,10171,,,,,,0,,,,,,,,,,,-11,,,,,30,,,,false,false,3,true,-1,false,false,false
223210,,,,,,,,,,,,,,,,,,,,,,,,,,10172,,,,,,0,,,,,,,,,,,-11,,,,,30,,,,false,false,3,true,-1,false,false,false
223211,,,,,,,,,,,,,,,,,,,,,,,,,,10203,,,,,,0,,,,,,,,,,,-11,,,,,30,,,,false,false,3,true,-1,false,false,false
223212,,,,,,,,,,,,,,,,,,,,,,,,,,10114,,,,,,0,,,,,,,,,,,-11,,,,,30,,,,false,false,-1,true,-1,false,false,false
223213,,,,,,,,,,,,,,,,,,,,,,,,,,10114,,,,,,0,,,,,,,,,,,-11,,,,,30,,,,false,false,-1,true,-1,false,false,false
223214,,,,,,,,,,,,,,,,,,,,,,,,,,10114,,,,,,0,,,,,,,,,,,-11,,,,,30,,,,false,false,-1,true,-1,false,false,false
223215,,,,,,,,,,,,,,,,,,,,,,,,,,10113,,,,,,0,,,,,,,,,,,-11,,,,,30,,,,true,true,-1,true,-1,false,false,false
223216,,,,,,,,,,,,,,,,,,,,,,,,,,10113,,,,,,0,,,,,,,,,,,-11,,,,,30,,,,true,true,-1,true,-1,false,false,false
223217,,,,,,,,,,,,,,,,,,,,,,,,,,10113,,,,,,0,,,,,,,,,,,-11,,,,,30,,,,true,true,-1,true,-1,false,false,false
223218,,,,,,,,,,,,,,,,,,,,,,,,,,10175,,,,,,0,,,,,,,,,,,-15,,,,,30,,,,false,false,-1,true,1,false,false,false
223219,,,,,,,,,,,,,,,,,,,,,,,,,,10176,,,,,,0,,,,,,,,,,,0,,,,,30,,,,false,false,-1,true,1,false,false,false
223220,,,,,,,,,,,,,,,,,,,,,,,,,,10182,,,,,,0,,,,,,,,,,,0,,,,,30,,,,false,false,-1,true,1,false,false,false
223221,,,,,,,,,,,,,,,,,,,,,,,,,,10183,,,,,,0,,,,,,,,,,,-12,,,,,5,,,,false,false,-1,true,-1,false,false,false
223222,,,,,,,,,,,,,,,,,,,,,,,,,,10133,,,,,,0,,,,,,,,,,,-12,,,,,5,,,,false,false,-1,true,-1,false,false,false
223223,,,,,,,,,,,,,,,,,,,,,,,,,,10133,,,,,,0,,,,,,,,,,,-12,,,,,5,,,,false,false,-1,true,-1,false,false,false
223224,,,,,,,,,,,,,,,,,,,,,,,,,,10184,,,,,,0,,,,,,,,,,,-16,,,,,30,,,,false,false,-1,true,-1,false,false,false
223225,,,,,,,,,,,,,,,,,,,,,,,,,,10186,,,,,,0,,,,,,,,,,,0,,,,,30,,,,false,false,-1,true,1,false,false,false
223226,,,,,,,,,,,,,,,,,,,,,,,,,,10187,,,,,,0,,,,,,,,,,,0,,,,,30,,,,false,false,-1,true,-1,false,false,false
223227,,,,,,,,,,,,,,,,,,,,,,,,,,10188,,,,,,0,,,,,,,,,,,0,,,,,30,,,,false,false,-1,true,-1,false,false,false
223228,,,,,,,,,,,,,,,,,,,,,,,,,,10189,,,,,,0,,,,,,,,,,,-27,,,,,30,,,,true,true,3,true,-1,false,false,false
223229,,,,,,,,,,,,,,,,,,,,,,,,,,10191,,,,,,0,,,,,,,,,,,0,,,,,5,,,,false,false,-1,true,1,false,false,false
223230,,,,,,,,,,,,,,,,,,,,,,,,,,10192,,,,,,0,,,,,,,,,,,0,,,,,5,,,,false,false,-1,true,1,false,false,false
223231,,,,,,,,,,,,,,,,,,,,,,,,,,10193,,,,,,0,,,,,,,,,,,0,,,,,5,,,,false,false,-1,true,-1,false,false,false
223232,,,,,,,,,,,,,,,,,,,,,,,,,,10194,,,,,,0,,,,,,,,,,,0,,,,,30,,,,false,false,-1,true,1,false,false,false
223233,,,,,,,,,,,,,,,,,,,,,,,,,,10195,,,,,,0,,,,,,,,,,,0,,,,,30,,,,false,false,-1,true,1,false,false,false
223234,,,,,,,,,,,,,,,,,,,,,,,,,,10196,,,,,,0,,,,,,,,,,,-28,,,,,30,,,,true,true,-1,true,-1,false,false,false
223235,,,,,,,,,,,,,,,,,,,,,,,,,,10199,,,,,,0,,,,,,,,,,,0,,,,,5,,,,false,false,-1,true,-1,false,false,false
223236,,,,,,,,,,,,,,,,,,,,,,,,,,10162,,,,,,1.5,,,,,,,,,,,-9,,,,,30,,,,false,false,-1,true,-1,false,false,false
223237,,,,,,,,,,,,,,,,,,,,,,,,,,10072,,,,,,1,,,,,,,,,,,-29,,,,,30,,,,true,false,-1,true,1,false,false,false
223238,,,,,,,,,,,,,,,,,,,,,,,,,,10084,,,,,,50,,,,,,,,,,,-26,,,,,30,,,,true,true,-1,true,1,false,false,false
223239,,,,,,,,,,,,,,,,,,,,,,,,,,10107,,,,,,20,,,,,,,,,,,-30,,,,,600,,,,false,false,-1,true,-1,false,false,false
223240,,,,,,,,,,,,,,,,,,,,,,,,,,10196,,,,,,0,,,,,,,,,,,-28,,,,,30,,,,true,true,-1,true,-1,false,false,false
223241,,,,,,,,,,,,,,,,,,,,,,,,,,10068,,,,,,50,,,,,,,,,,,0,,,,,30,,,,false,false,-1,true,-1,false,false,false
223242,,,,,,,,,,,,,,,,,,,,,,,,,,10190,,,,,,0,,,,,,,,,,,-27,,,,,-1,,,,true,true,-1,true,-1,false,false,false
223243,,,,,,,,,,,,,,,,,,,,,,,,,,10116,,,,,,-27,,,,,,,,,,,0,,,,,30,,,,false,false,-1,true,-1,false,false,false
223244,,,,,,,,,,,,,,,,,,,,,,,,,,10200,,,,,,0,,,,,,,,,,,-31,,,,,30,,,,false,false,-1,true,-1,false,false,false
223245,,,,,,,,,,,,,,,,,,,,,,,,,,10201,,,,,,0,,,,,,,,,,,-31,,,,,30,,,,false,false,-1,true,-1,false,false,false
223248,,,,,,,,,,,,,,,,,,,,,,,,,,10205,,,,,,8,,,,,,,,,,,0,,,,,30,,,,false,false,-1,true,-1,false,false,false
223249,,,,,,,,,,,,,,,,,,,,,,,,,,10206,,,,,,0,,,,,,,,,,,0,,,,,30,,,,true,true,-1,true,-1,false,false,false
223250,,,,,,,,,,,,,,,,,,,,,,,,,,10207,,,,,,0,,,,,,,,,,,-15,,,,,30,,,,true,true,-1,true,-1,false,false,false
223251,,,,,,,,,,,,,,,,,,,,,,,,,,10208,,,,,,0,,,,,,,,,,,0,,,,,30,,,,false,false,-1,true,-1,false,false,false
223252,,,,,,,,,,,,,,,,,,,,,,,,,,10210,,,,,,0,,,,,,,,,,,0,,,,,30,,,,true,true,-1,true,-1,false,false,false
223253,,,,,,,,,,,,,,,,,,,,,,,,,,10211,,,,,,0,,,,,,,,,,,0,,,,,30,,,,false,false,-1,true,-1,false,false,false
223254,,,,,,,,,,,,,,,,,,,,,,,,,,10212,,,,,,0,,,,,,,,,,,0,,,,,30,,,,true,true,3,true,-1,false,false,false
223255,,,,,,,,,,,,,,,,,,,,,,,,,,10213,,,,,,0,,,,,,,,,,,0,,,,,30,,,,true,true,3,true,-1,false,false,false
223256,,,,,,,,,,,,,,,,,,,,,,,,,,10214,,,,,,0,,,,,,,,,,,0,,,,,30,,,,false,false,-1,true,-1,false,false,false
223258,,,,,,,,,,,,,,,,,,,,,,,,,,10219,,,,,,190,,,,,,,,,,,0,,,,,-1,,,,false,false,3,true,-1,false,false,false
223259,,,,,,,,,,,,,,,,,,,,,,,,,,10220,,,,,,640,,,,,,,,,,,0,,,,,-1,,,,false,false,3,true,-1,false,false,false
223260,,,,,,,,,,,,,,,,,,,,,,,,,,10221,,,,,,0.65,,,,,,,,,,,-32,,,,,630,,,,false,false,-1,true,-1,false,false,false
223261,,,,,,,,,,,,,,,,,,,,,,,,,,10222,,,,,,0.2,,,,,,,,,,,-32,,,,,330,,,,false,false,-1,true,-1,false,false,false
223262,,,,,,,,,,,,,,,,,,,,,,,,,,10218,,,,,,0,,,,,,,,,,,0,,,,,30,,,,false,false,-1,true,-1,false,false,false
223263,,,,,,,,,,,,,,,,,,,,,,,,,,10224,,,,,,0,,,,,,,,,,,0,,,,,-1,,,,false,false,-1,true,-1,false,false,false
223264,,,,,,,,,,,,,,,,,,,,,,,,,,10032,,,,,,10,,,,,,,,,,,0,,,,,600,,,,true,true,3,true,-1,false,false,false
223265,,,,,,,,,,,,,,,,,,,,,,,,,,10226,,,,,,20,,,,,,,,,,,0,,,,,-1,,,,false,false,-1,true,-1,false,false,false
223266,,,,,,,,,,,,,,,,,,,,,,,,,,10228,,,,,,20,,,,,,,,,,,0,,,,,-1,,,,false,false,-1,true,-1,false,false,false
223267,,,,,,,,,,,,,,,,,,,,,,,,,,10072,,,,,,20,,,,,,,,,,,0,,,,,-1,,,,false,false,-1,true,-1,false,false,false
223268,,,,,,,,,,,,,,,,,,,,,,,,,,10074,,,,,,20,,,,,,,,,,,0,,,,,-1,,,,false,false,-1,true,-1,false,false,false
223269,,,,,,,,,,,,,,,,,,,,,,,,,,10227,,,,,,-20,,,,,,,,,,,0,,,,,-1,,,,false,false,-1,true,-1,false,false,false
223270,,,,,,,,,,,,,,,,,,,,,,,,,,10229,,,,,,-20,,,,,,,,,,,0,,,,,-1,,,,false,false,-1,true,-1,false,false,false
223271,,,,,,,,,,,,,,,,,,,,,,,,,,10219,,,,,,10,,,,,,,,,,,0,,,,,30,,,,false,false,-1,true,-1,false,false,false
223272,,,,,,,,,,,,,,,,,,,,,,,,,,10060,,,,,,0,,,,,,,,,,,0,,,,,180,,,,false,false,-1,true,-1,false,false,false
223273,,,,,,,,,,,,,,,,,,,,,,,,,,10230,,,,,,0.5,,,,,,,,,,,0,,,,,15,,,,false,false,-1,true,-1,false,false,false
223274,,,,,,,,,,,,,,,,,,,,,,,,,,10080,,,,,,0.8,,,,,,,,,,,0,,,,,20,,,,false,false,-1,true,-1,false,false,false
223275,,,,,,,,,,,,,,,,,,,,,,,,,,10073,,,,,,-20,,,,,,,,,,,0,,,,,30,,,,false,false,-1,true,-1,false,false,false
223992,,,,,,,,,,,,,,,,,,,,,,,,,,10225,,,,,,50,,,,,,,,,,,0,,,,,10800,,,,false,false,-1,true,-1,false,false,false
223993,,,,,,,,,,,,,,,,,,,,,,,,,,10134,,,,,,50,,,,,,,,,,,0,,,,,30,,,,true,true,-1,true,-1,false,false,false
223994,,,,,,,,,,,,,,,,,,,,,,,,,,10134,,,,,,50,,,,,,,,,,,0,,,,,30,,,,true,true,-1,true,-1,false,false,false
223998,,,,,,,,,,,,,,,,,,,,,,,,,,10223,,,,,,0,,,,,,,,,,,0,,,,,30,,,,false,false,-1,true,-1,false,false,false
223999,,,,,,,,,,,,,,,,,,,,,,,,,,10133,,,,,,50,,,,,,,,,,,0,,,,,30,,,,false,false,-1,true,-1,false,false,false
224001,,,,,,,,,,,,,,,,,,,,,,,,,,231,,,,,,0,,,,,,,,,,,0,,,,,5,,,,false,false,-1,true,-1,false,false,false
224002,,,,,,,,,,,,,,,,,,,,,,,,,,231,,,,,,0,,,,,,,,,,,0,,,,,5,,,,false,false,-1,true,-1,false,false,false
224003,,,,,,,,,,,,,,,,,,,,,,,,,,231,,,,,,0,,,,,,,,,,,0,,,,,5,,,,false,false,-1,true,-1,false,false,false
224004,,,,,,,,,,,,,,,,,,,,,,,,,,231,,,,,,0,,,,,,,,,,,0,,,,,5,,,,false,false,-1,true,-1,false,false,false
224005,,,,,,,,,,,,,,,,,,,,,,,,,,231,,,,,,0,,,,,,,,,,,0,,,,,5,,,,false,false,-1,true,-1,false,false,false
224006,,,,,,,,,,,,,,,,,,,,,,,,,,231,,,,,,0,,,,,,,,,,,0,,,,,5,,,,false,false,-1,true,-1,false,false,false
224007,,,,,,,,,,,,,,,,,,,,,,,,,,231,,,,,,0,,,,,,,,,,,0,,,,,5,,,,false,false,-1,true,-1,false,false,false
224008,,,,,,,,,,,,,,,,,,,,,,,,,,231,,,,,,0,,,,,,,,,,,0,,,,,5,,,,false,false,-1,true,-1,false,false,false
224009,,,,,,,,,,,,,,,,,,,,,,,,,,231,,,,,,0,,,,,,,,,,,0,,,,,5,,,,false,false,-1,true,-1,false,false,false
224010,,,,,,,,,,,,,,,,,,,,,,,,,,231,,,,,,0,,,,,,,,,,,0,,,,,5,,,,false,false,-1,true,-1,false,false,false
225001,,,,,,,,,,,,,,,,,,,,,,,,,,231,,,,,,0,,,,,,,,,,,0,,,,,5,,,,false,false,-1,true,-1,false,false,false
225002,,,,,,,,,,,,,,,,,,,,,,,,,,231,,,,,,0,,,,,,,,,,,0,,,,,5,,,,false,false,-1,true,-1,false,false,false
225003,,,,,,,,,,,,,,,,,,,,,,,,,,231,,,,,,0,,,,,,,,,,,0,,,,,5,,,,false,false,-1,true,-1,false,false,false
225004,,,,,,,,,,,,,,,,,,,,,,,,,,231,,,,,,0,,,,,,,,,,,0,,,,,5,,,,false,false,-1,true,-1,false,false,false
225005,,,,,,,,,,,,,,,,,,,,,,,,,,231,,,,,,0,,,,,,,,,,,0,,,,,5,,,,false,false,-1,true,-1,false,false,false
225006,,,,,,,,,,,,,,,,,,,,,,,,,,231,,,,,,0,,,,,,,,,,,0,,,,,5,,,,false,false,-1,true,-1,false,false,false
225007,,,,,,,,,,,,,,,,,,,,,,,,,,231,,,,,,0,,,,,,,,,,,0,,,,,5,,,,false,false,-1,true,-1,false,false,false
225008,,,,,,,,,,,,,,,,,,,,,,,,,,231,,,,,,0,,,,,,,,,,,0,,,,,5,,,,false,false,-1,true,-1,false,false,false
225009,,,,,,,,,,,,,,,,,,,,,,,,,,231,,,,,,0,,,,,,,,,,,0,,,,,5,,,,false,false,-1,true,-1,false,false,false
225010,,,,,,,,,,,,,,,,,,,,,,,,,,231,,,,,,0,,,,,,,,,,,0,,,,,5,,,,false,false,-1,true,-1,false,false,false
228001,,,,,,,,,,,,,,,,,,,,,,,,,,10012,,,,,,50,,,,,,,,,,,0,,,,,30,,,,false,false,-1,true,-1,false,false,false
228011,,,,,,,,,,,,,,,,,,,,,,,,,,10011,,,,,,50,,,,,,,,,,,0,,,,,30,,,,false,false,-1,true,-1,false,false,false
228012,,,,,,,,,,,,,,,,,,,,,,,,,,10011,,,,,,50,,,,,,,,,,,0,,,,,30,,,,false,false,-1,true,-1,false,false,false
228013,,,,,,,,,,,,,,,,,,,,,,,,,,10011,,,,,,50,,,,,,,,,,,0,,,,,-1,,,,false,false,-1,true,-1,false,false,false
228021,,,,,,,,,,,,,,,,,,,,,,,,,,10002,,,,,,0.5,,,,,,,,,,,-16,,,,,30,,,,false,false,-1,true,-1,false,false,false
228031,,,,,,,,,,,,,,,,,,,,,,,,,,10020,,,,,,50,,,,,,,,,,,0,,,,,30,,,,false,false,-1,true,-1,false,false,false
228041,,,,,,,,,,,,,,,,,,,,,,,,,,10022,,,,,,50,,,,,,,,,,,-7,,,,,30,,,,false,false,-1,true,-1,false,false,false
228051,,,,,,,,,,,,,,,,,,,,,,,,,,10021,,,,,,50,,,,,,,,,,,0,,,,,30,,,,false,false,-1,true,-1,false,false,false
230001,,,,,,,,,,,,,,,,,,,,,,,,,,231,,,,,,0,,,,,,,,,,,-21,,,,,3600,,,,false,false,-1,true,-1,false,false,false
230002,,,,,,,,,,,,,,,,,,,,,,,,,,10122,,,,,,0,,,,,,,,,,,-21,,,,,3600,,,,false,false,-1,true,-1,false,false,false
230003,,,,,,,,,,,,,,,,,,,,,,,,,,10123,,,,,,0,,,,,,,,,,,-21,,,,,3600,,,,false,false,-1,true,-1,false,false,false
230004,,,,,,,,,,,,,,,,,,,,,,,,,,10124,,,,,,0,,,,,,,,,,,-21,,,,,3600,,,,false,false,-1,true,-1,false,false,false
230005,,,,,,,,,,,,,,,,,,,,,,,,,,10125,,,,,,0,,,,,,,,,,,-21,,,,,3600,,,,false,false,-1,true,-1,false,false,false
230006,,,,,,,,,,,,,,,,,,,,,,,,,,10126,,,,,,0,,,,,,,,,,,-21,,,,,3600,,,,false,false,-1,true,-1,false,false,false
230007,,,,,,,,,,,,,,,,,,,,,,,,,,10127,,,,,,0,,,,,,,,,,,-21,,,,,3600,,,,false,false,-1,true,-1,false,false,false
230008,,,,,,,,,,,,,,,,,,,,,,,,,,10128,,,,,,0,,,,,,,,,,,-21,,,,,3600,,,,false,false,-1,true,-1,false,false,false
230009,,,,,,,,,,,,,,,,,,,,,,,,,,10129,,,,,,0,,,,,,,,,,,-21,,,,,3600,,,,false,false,-1,true,-1,false,false,false
230010,,,,,,,,,,,,,,,,,,,,,,,,,,10130,,,,,,0,,,,,,,,,,,-21,,,,,3600,,,,false,false,-1,true,-1,false,false,false
230011,,,,,,,,,,,,,,,,,,,,,,,,,,10131,,,,,,0,,,,,,,,,,,-21,,,,,3600,,,,false,false,-1,true,-1,false,false,false
230012,,,,,,,,,,,,,,,,,,,,,,,,,,10132,,,,,,0,,,,,,,,,,,-21,,,,,3600,,,,false,false,-1,true,-1,false,false,false
230013,,,,,,,,,,,,,,,,,,,,,,,,,,10147,,,,,,0,,,,,,,,,,,0,,,,,-1,,,,false,false,-1,true,-1,false,false,false
230014,,,,,,,,,,,,,,,,,,,,,,,,,,10148,,,,,,0,,,,,,,,,,,-22,,,,,-1,,,,false,false,-1,true,-1,false,false,false
230015,,,,,,,,,,,,,,,,,,,,,,,,,,10149,,,,,,0,,,,,,,,,,,-22,,,,,-1,,,,false,false,-1,true,-1,false,false,false
230016,,,,,,,,,,,,,,,,,,,,,,,,,,10158,,,,,,0,,,,,,,,,,,0,,,,,30,,,,false,false,-1,true,-1,false,false,false
230017,,,,,,,,,,,,,,,,,,,,,,,,,,10158,,,,,,0,,,,,,,,,,,0,,,,,30,,,,false,false,-1,true,-1,false,false,false
230018,,,,,,,,,,,,,,,,,,,,,,,,,,10217,,,,,,0,,,,,,,,,,,0,,,,,30,,,,false,false,-1,true,-1,false,false,false
231001,,,,,,,,,,,,,,,,,,,,,,,,,,10012,,,,,,0,,,,,,,,,,,0,,,,,-1,,,,false,false,-1,true,-1,false,false,false
231002,,,,,,,,,,,,,,,,,,,,,,,,,,10015,,,,,,1,,,,,,,,,,,0,,,,,20,,,,true,true,2,true,-1,false,false,false
231003,,,,,,,,,,,,,,,,,,,,,,,,,,231,,,,,,2,,,,,,,,,,,0,,,,,40,,,,true,true,2,true,-1,false,false,false
231004,,,,,,,,,,,,,,,,,,,,,,,,,,231,,,,,,3,,,,,,,,,,,0,,,,,60,,,,false,false,-1,true,3,false,false,false
231005,,,,,,,,,,,,,,,,,,,,,,,,,,231,,,,,,0,,,,,,,,,,,0,,,,,-1,,,,false,false,-1,true,1,false,false,false
231006,,,,,,,,,,,,,,,,,,,,,,,,,,231,,,,,,0,,,,,,,,,,,0,,,,,30,,,,false,false,-1,true,-1,false,false,false
231007,,,,,,,,,,,,,,,,,,,,,,,,,,231,,,,,,0,,,,,,,,,,,0,,,,,40,,,,false,true,-1,true,-1,true,false,false
231008,,,,,,,,,,,,,,,,,,,,,,,,,,231,,,,,,0,,,,,,,,,,,0,,,,,30,,,,true,true,-1,true,-1,true,false,false
231009,,,,,,,,,,,,,,,,,,,,,,,,,,231,,,,,,0,,,,,,,,,,,0,,,,,30,,,,false,false,-1,true,-1,false,false,false
231010,,,,,,,,,,,,,,,,,,,,,,,,,,231,,,,,,0,,,,,,,,,,,0,,,,,30,,,,false,false,-1,true,-1,false,false,false
231011,,,,,,,,,,,,,,,,,,,,,,,,,,231,,,,,,0,,,,,,,,,,,0,,,,,30,,,,false,false,-1,true,-1,false,false,false
231012,,,,,,,,,,,,,,,,,,,,,,,,,,231,,,,,,0,,,,,,,,,,,0,,,,,30,,,,false,false,-1,true,-1,false,false,false
231013,,,,,,,,,,,,,,,,,,,,,,,,,,231,,,,,,0,,,,,,,,,,,0,,,,,30,,,,false,false,-1,true,-1,false,false,false
231014,,,,,,,,,,,,,,,,,,,,,,,,,,231,,,,,,0,,,,,,,,,,,0,,,,,30,,,,false,false,-1,true,-1,false,false,false
231015,,,,,,,,,,,,,,,,,,,,,,,,,,231,,,,,,0,,,,,,,,,,,0,,,,,30,,,,false,false,-1,true,-1,false,false,false
231016,,,,,,,,,,,,,,,,,,,,,,,,,,231,,,,,,0,,,,,,,,,,,0,,,,,30,,,,false,false,-1,true,-1,false,false,false
231017,,,,,,,,,,,,,,,,,,,,,,,,,,231,,,,,,0,,,,,,,,,,,0,,,,,30,,,,false,false,-1,true,-1,false,false,false
231018,,,,,,,,,,,,,,,,,,,,,,,,,,231,,,,,,0,,,,,,,,,,,0,,,,,30,,,,false,false,-1,true,-1,false,false,false
231019,,,,,,,,,,,,,,,,,,,,,,,,,,231,,,,,,0,,,,,,,,,,,0,,,,,30,,,,false,false,-1,true,-1,false,false,false
231020,,,,,,,,,,,,,,,,,,,,,,,,,,231,,,,,,0,,,,,,,,,,,0,,,,,30,,,,false,false,-1,true,-1,false,false,false
231021,,,,,,,,,,,,,,,,,,,,,,,,,,231,,,,,,0,,,,,,,,,,,0,,,,,30,,,,false,false,-1,true,-1,false,false,false
231022,,,,,,,,,,,,,,,,,,,,,,,,,,231,,,,,,0,,,,,,,,,,,0,,,,,30,,,,false,false,-1,true,-1,false,false,false
231023,,,,,,,,,,,,,,,,,,,,,,,,,,231,,,,,,0,,,,,,,,,,,0,,,,,30,,,,false,false,-1,true,-1,false,false,false
231024,,,,,,,,,,,,,,,,,,,,,,,,,,231,,,,,,0,,,,,,,,,,,0,,,,,30,,,,false,false,-1,true,-1,false,false,false
231025,,,,,,,,,,,,,,,,,,,,,,,,,,231,,,,,,0,,,,,,,,,,,0,,,,,30,,,,false,false,-1,true,-1,false,false,false
231026,,,,,,,,,,,,,,,,,,,,,,,,,,231,,,,,,0,,,,,,,,,,,0,,,,,30,,,,false,false,-1,true,-1,false,false,false
231027,,,,,,,,,,,,,,,,,,,,,,,,,,231,,,,,,0,,,,,,,,,,,0,,,,,30,,,,false,false,-1,true,-1,false,false,false
231028,,,,,,,,,,,,,,,,,,,,,,,,,,231,,,,,,0,,,,,,,,,,,0,,,,,30,,,,false,false,-1,true,-1,false,false,false
231029,,,,,,,,,,,,,,,,,,,,,,,,,,231,,,,,,0,,,,,,,,,,,0,,,,,30,,,,false,false,-1,true,-1,false,false,false
231030,,,,,,,,,,,,,,,,,,,,,,,,,,231,,,,,,0,,,,,,,,,,,0,,,,,30,,,,false,false,-1,true,-1,false,false,false
231031,,,,,,,,,,,,,,,,,,,,,,,,,,231,,,,,,0,,,,,,,,,,,0,,,,,30,,,,false,false,-1,true,-1,false,false,false
231032,,,,,,,,,,,,,,,,,,,,,,,,,,231,,,,,,0,,,,,,,,,,,0,,,,,30,,,,false,false,-1,true,-1,false,false,false
231033,,,,,,,,,,,,,,,,,,,,,,,,,,231,,,,,,0,,,,,,,,,,,0,,,,,30,,,,false,false,-1,true,-1,false,false,false
231034,,,,,,,,,,,,,,,,,,,,,,,,,,231,,,,,,0,,,,,,,,,,,0,,,,,30,,,,false,false,-1,true,-1,false,false,false
231035,,,,,,,,,,,,,,,,,,,,,,,,,,231,,,,,,0,,,,,,,,,,,0,,,,,30,,,,false,false,-1,true,-1,false,false,false
231036,,,,,,,,,,,,,,,,,,,,,,,,,,231,,,,,,0,,,,,,,,,,,0,,,,,30,,,,false,false,-1,true,-1,false,false,false
231037,,,,,,,,,,,,,,,,,,,,,,,,,,231,,,,,,0,,,,,,,,,,,0,,,,,30,,,,false,false,-1,true,-1,false,false,false
231038,,,,,,,,,,,,,,,,,,,,,,,,,,231,,,,,,0,,,,,,,,,,,0,,,,,30,,,,false,false,-1,true,-1,false,false,false
231039,,,,,,,,,,,,,,,,,,,,,,,,,,231,,,,,,0,,,,,,,,,,,0,,,,,30,,,,false,false,-1,true,-1,false,false,false
231040,,,,,,,,,,,,,,,,,,,,,,,,,,231,,,,,,0,,,,,,,,,,,0,,,,,30,,,,false,false,-1,true,-1,false,false,false
231041,,,,,,,,,,,,,,,,,,,,,,,,,,231,,,,,,0,,,,,,,,,,,0,,,,,30,,,,false,false,-1,true,-1,false,false,false
231042,,,,,,,,,,,,,,,,,,,,,,,,,,231,,,,,,0,,,,,,,,,,,0,,,,,30,,,,false,false,-1,true,-1,false,false,false
232001,,,,,,,,,,,,,,,,,,,,,,,,,,10012,,,,,,0,,,,,,,,,,,0,,,,,-1,,,,false,false,1,true,-1,false,false,false
232002,,,,,,,,,,,,,,,,,,,,,,,,,,10015,,,,,,0,,,,,,,,,,,0,,,,,30,,,,false,false,2,true,-1,false,false,false
232003,,,,,,,,,,,,,,,,,,,,,,,,,,10012,,,,,,0,,,,,,,,,,,0,,,,,30,,,,false,false,2,true,-1,false,false,false
232004,,,,,,,,,,,,,,,,,,,,,,,,,,10015,,,,,,0,,,,,,,,,,,0,,,,,30,,,,false,false,2,true,-1,false,false,false
232005,,,,,,,,,,,,,,,,,,,,,,,,,,10012,,,,,,0,,,,,,,,,,,0,,,,,30,,,,false,false,2,true,-1,false,false,false
232011,,,,,,,,,,,,,,,,,,,,,,,,,,10012,,,,,,0,,,,,,,,,,,0,,,,,30,,,,false,false,2,true,-1,false,false,false
232012,,,,,,,,,,,,,,,,,,,,,,,,,,10015,,,,,,0,,,,,,,,,,,0,,,,,60,,,,false,false,2,true,-1,false,false,false
232013,,,,,,,,,,,,,,,,,,,,,,,,,,10012,,,,,,0,,,,,,,,,,,0,,,,,30,,,,false,false,2,true,-1,false,false,false
232014,,,,,,,,,,,,,,,,,,,,,,,,,,10015,,,,,,0,,,,,,,,,,,0,,,,,45,,,,false,false,2,true,-1,false,false,false
232015,,,,,,,,,,,,,,,,,,,,,,,,,,10012,,,,,,0,,,,,,,,,,,0,,,,,30,,,,false,false,2,true,-1,false,false,false
251001,,,,,,,,,,,,,,,,,,,,,,,,,,231,,,,,,1.5,,,,,,,,,,,0,,,,,-1,,,,false,false,-1,true,-1,false,false,false
253001,,,,,,,,,,,,,,,,,,,,,,,,,,231,,,,,,50,,,,,,,,,,,0,,,,,60,,,,false,false,-1,true,-1,false,false,false
253002,,,,,,,,,,,,,,,,,,,,,,,,,,10121,,,,,,50,,,,,,,,,,,-2,,,,,60,,,,false,false,-1,true,-1,false,false,false
253003,,,,,,,,,,,,,,,,,,,,,,,,,,10120,,,,,,50,,,,,,,,,,,-3,,,,,60,,,,false,false,-1,true,-1,false,false,false
