 ,0,1,2,3,4
 ,str,str,str,str,str
1,まったく、困ったことになった。ララッタが、うるさくて敵わないのだ。リディルクーンに弟子を取られたと怒っているらしい。,[en],[de],"[@STRING($EB(1))], il y a un problème.[@1D]??? est intenable. Elle dit être en colère parce qu'elle s'est fait voler un apprenti par Lydirkoen.",[chs]
2,ララッタはあれだけ弟子たちに慕われているのだから、一人くらいいいだろうに。とにかく、「皮革フラージ」まで来てくれ。,[en],[de],"Pourtant, avec l'admiration qu'ont tous ses apprentis pour elle, ça ne devrait pas avoir autant d'importance... En tout cas, tu dois venir à[@1D]??? tout de suite.",[chs]
3,先に、説明したとおりだ。君をララッタの弟子に戻すことにしようかと思う。,[en],[de],"Bon, tu es au courant de la situation. Je pense sé[@16]rieu[@16]se[@16]ment que ça fa[@16]ci[@16]li[@16]te[@16]rait les choses de te faire retourner auprès de[@1D]???.",[chs]
4,リディルクーンをこのような細かい諍いに巻き込むわけにはいかんからな。一番、簡単な措置を取ることにした。,[en],[de],"Nous ne pouvons pas nous permettre de déranger Lydirkoen avec des querelles aussi puériles. Aussi, j'ai décidé de prendre les dis[@16]po[@16]si[@16]tions les plus simples. Tu es d'accord[@1D]?",[chs]
5,仕方あるまい。ララッタから君に、どうしても頼みたいことがあるという話だしな。,[en],[de],"Vraiment[@1D]? Dommage, ça serait tellement plus simple comme ça. Et dire que[@1D]??? avait quelque chose d'important à te demander.",[chs]
6,ありがたい。ややこしい事態が起きると、君だけではなく多くの革細工師に迷惑がかかることになるからな。,[en],[de],"C'est une sage décision. Dans une situation pareille, il faut aussi savoir penser au bien-être collectif, et pas seulement à soi.",[chs]
7,では、さっそく、ララッタの頼みを聞いてくれ。「○○」（ワークショップ名）に、来てほしいということだ。革細工師として成長するはずだとの、頼もしい言葉もあったぞ。,[en],[de],"Bon, eh bien ne perds pas de temps, et va écouter la requête de[@1D]???. Elle veut que tu ailles la retrouver à[@1D]???. Elle a aussi dit que cela te fera cer[@16]tai[@16]ne[@16]ment beaucoup progresser.",[chs]
8,わたしに勝とうなんて、一億年早いわ！,[en],[de],Vous n'espérez quand même pas avoir une chance de me vaincre[@1D]?,[chs]
9,あら、[play]。うらぎりものさん、おかえりなさい。,[en],[de],"Tiens, c'est toi, [@STRING($EB(1))]. Tu as finalement regretté de m'avoir trahie[@1D]? Je ne t'en veux pas, tu es [@IF($E9(4),la bienvenue,le bienvenu)].",[chs]
10,わたしの弟子でいた方が、よっぽど楽しいということを教えてあげようと思って呼んだんです。ほらっ！,[en],[de],[fr],[chs]
11,わたしなら、こんな珍しい皮も、簡単に取れちゃう。幻のシラディハゾンビ（仮）の皮だって、夢じゃないわよ。,[en],[de],[fr],[chs]
12,……あんた、強いな。そのナリはどう見ても革細工師だが、どうやって魔物を倒しているんだ？,[en],[de],[fr],[chs]
13,襲われたんだから、やっつけただけよ。弱肉強食。,[en],[de],[fr],[chs]
14,フン、アマルジャ族みたいなことを。,[en],[de],[fr],[chs]
15,そうだわ、リディルクーンが言ってましたよ、[play]。あなたはアマルジャ族の皮を使った鎧を手に入れたそうですね。だから、そのせいでアマルジャ族に襲われたとか。,[en],[de],[fr],[chs]
16,そんな珍しい皮なら加工してみたい……じゃなくて。あなたの敵を討つために、わたしがアマルジャ族に思い知らせてやろうと思います。わたしの大事な弟子を痛い目にあわせたんですからね。,[en],[de],[fr],[chs]
17,さすがにわたし一人じゃ、あなたを守れませんから、誰かを雇いましょう。ここにいる人たちに片っぱしから声をかけるんです。,[en],[de],[fr],[chs]
18,[play]、リディルクーンだ。連絡が遅れてすまない。今、どこにいる？,[en],[de],[fr],[chs]
19,……そうか、○○（ワークショップ名）にいるのか。思ったとおりだ、ララッタにああ言えば、そこへ行くことになるだろうと踏んでいた。,[en],[de],[fr],[chs]
20,最後まで面倒を見てやれなかったが、頼みを聞いてくれ。この前の鎧、あれを持ち主に返してもらいたい。商人が言うには、そこにいる若い男から買ったそうなのだ。,[en],[de],[fr],[chs]
21,あれから考えたが、アマルジャ族がグリダニアまで来たのは、修理した鎧を返すためだったのではないかと思う。根拠はないが、革細工師としての勘だ。頼んだぞ。,[en],[de],[fr],[chs]
22,うるせぇな、ごちゃごちゃと。ぶっこわれた鎧を金に換えて、文句あるのかよ？,[en],[de],[fr],[chs]
23,あの鎧は、ただの鎧ではない。ウルダハを守った鎧だぞ、この罰当たりめが！,[en],[de],[fr],[chs]
24,この岩砂漠（仮）にシラディハの死者があふれた時、ウルダハ中の猛者が命を懸けて戦った。,[en],[de],[fr],[chs]
25,死闘の末に、多くの血が砂に染みこみ……,[en],[de],[fr],[chs]
26,多くの命が風に散り……,[en],[de],[fr],[chs]
27,都市民の涙は乾くことがなかった。,[en],[de],[fr],[chs]
28,その戦いを愚弄するつもりか、おまえは！,[en],[de],[fr],[chs]
29,旅の方か、お恥ずかしい。孫一人も、満足に叱ることができませんで。,[en],[de],[fr],[chs]
30,あの鎧は、親友の形見。奇跡の戦いから数十年、再会することが許されなかった親友が、残してくれたものです。,[en],[de],[fr],[chs]
31,これを身につけて戦えば、どのような戦闘でも負ける気がしません。しかし私はこのように、年を取り、戦場に立てなくなりました。そこで、息子に譲り、今は不肖の孫が受け継いだのですが……,[en],[de],[fr],[chs]
32,こ……これは！　何故、あなたがこれを！？,[en],[de],[fr],[chs]
33,そうでしたか、グリダニアの「皮革フラージ」の方でしたか。それほどに紆余曲折があった末に、ここへ戻ってくるとは。誠に感慨深いものです。ありがとうございます。,[en],[de],[fr],[chs]
34,どりゃあああっ！！,[en],[de],[fr],[chs]
35,生き残った、な。,[en],[de],[fr],[chs]
36,天下無敵也。,[en],[de],[fr],[chs]
37,最後まで、ありがとう。おまえには何度も助けられた。,[en],[de],[fr],[chs]
38,……嗚呼、此れぞ、不知火か。焼べられようとも、地に残らんと。,[en],[de],[fr],[chs]
39,……あなたは革細工師。ならば、これがアマルジャ族の皮からできていること、ご存じでしょう。,[en],[de],[fr],[chs]
40,秘密をお教えいたしましょう。シラディハの死者との戦いには、なんと、あのアマルジャ族も協力してくれたのです。,[en],[de],[fr],[chs]
41,今ほどではないですが、その頃もアマルジャ族は、ウルダハと争っていました。しかし、シラディハの死者相手には、そのしがらみを越えて力を合わせる必要があった……。,[en],[de],[fr],[chs]
42,しかし、その戦いのことは、今では口に出すのも憚られています。アマルジャ族は蛮神を呼び、帝国に蛮族と指定されている今。共に戦ったことを話せば、蛮族扱いされる恐れがあるのです。,[en],[de],[fr],[chs]
43,ですから、息子は、「奇跡の戦い」の真実を知りません。この鎧の真実も知りません。これは、我が親友……アマルジャ族である○○（名前）の、亡骸から作られた鎧だということを。,[en],[de],[fr],[chs]
44,まったく不甲斐ないことで、あなたにはご迷惑をおかけしました。それに、この鎧を託してくれた、我が親友にも謝らなくては。,[en],[de],[fr],[chs]
45,革細工師の方。私のために、「○○」一式を作ってはいただけませんでしょうか？　どうか、ここで知りあったのも何かの縁ということで、お願いいたします。,[en],[de],[fr],[chs]
46,これで、アマルジャ族本拠地まで旅することができます。親友の家族に、謝りに行こうと思います。,[en],[de],[fr],[chs]
47,遅かったじゃない、[play]。先に、アマルジャ族本拠地へ向かってますよ。アマルジャ族にも避けられてるっていう噂の、凄腕の剣士が仲間になってくれたんです。,[en],[de],[fr],[chs]
48,あなたもさっさと来なさいね。,[en],[de],[fr],[chs]
49,嘘つきっ！　あなた、全然、役立たずじゃないの！,[en],[de],[fr],[chs]
50,○○（アマルジャ族の長老の名前）殿！　○○殿！,[en],[de],[fr],[chs]
51,お、おじいちゃん、たすけてぇ！,[en],[de],[fr],[chs]
52,幾久ぶりだな、知己朋友。,[en],[de],[fr],[chs]
53,○○（アマルジャ族の名前）の形見を、我が孫が疎かに扱ったこと、ここに許しを請いたい。,[en],[de],[fr],[chs]
54,平身低頭、其れ、詫びたるか。,[en],[de],[fr],[chs]
55,今や、あの死闘を知らぬ者たちが多く、我が言葉も軽んじられている。年月が、我が強さを奪ってしまった。,[en],[de],[fr],[chs]
56,諸行無常、我等の歩みは異なれど。預けた過去は違わん。,[en],[de],[fr],[chs]
57,再び、誓おう。あの時代、我等と共に闘ったアマルジャ族の勇気を称えることを。,[en],[de],[fr],[chs]
58,其れ諸共、彼の魂は残れり。,[en],[de],[fr],[chs]
59,先ほどのアマルジャ族は、過去、共に共闘したことがある者。彼は私の言葉をわからないし、私も彼の言葉はわかりません。が、心は通じ合えたと確信しています。,[en],[de],[fr],[chs]
60,皆さん、孫がご迷惑をおかけしました。これから、すべて正直に、孫に教え伝えたいと思います。,[en],[de],[fr],[chs]
61,この装備一式をお返しします。それからこれを。あなたなら、私のような悩みを抱えた者たちを導くことができるかもしれません。,[en],[de],[fr],[chs]
62,あの奇跡の戦いに参加した、他の戦士たちに出会ったなら……あの戦いは誇るべきものだと伝えてください。,[en],[de],[fr],[chs]
63,すっかり、やる気が削がれたわ。とにかく、アマルジャ族の皮を盗るのは無理みたい。,[en],[de],[fr],[chs]
64,でもまぁ、おもしろいものも見れたし、今回の旅はこれくらいで帰りましょうか。[play]の仇は討てなかったけれど、報酬はあげるから許してね。,[en],[de],[fr],[chs]
65,ララッタとともに、素晴らしい旅をしてきたそうだな。,[en],[de],[fr],[chs]
66,○○（モンスター名）、△△、ドラゴン族、ゾンビ（仮）など、至高の皮素材を集めてきたそうじゃないか。話を聞いていて、総毛立つ思いだった。,[en],[de],[fr],[chs]
67,アマルジャ族本拠地（仮。地名）で捕らえられながら生還し、恐ろしい魔物と相まみえる旅から生還し……信じられないほど幸運だな。疑うべくもない、これはまさしく精霊の守護だ。,[en],[de],[fr],[chs]
68,精霊に見守られている[play]よ、末永くよろしく頼むぞ。,[en],[de],[fr],[chs]
