 ,0,1,2,3,4
 ,str,str,str,str,str
1,精霊が、パールクローバーのお花畑を返してくれたクポ！[@CR]でも、冒険者に感謝しておけって、どういうことクポ？[@CR]とりあえず、ありがとクポ！,"Oh, joy! The elementals have seen fit to let me visit my favorite flower bed again, kupo! Just the thought of spending another idyllic afternoon among the petals is enough to make me shiver and shake! When things settle, I shall go there and nap till I give myself bellyaches─see if I don't, kupo!","Die Gebieter haben die Schatten über den Kleebeeten weggenommen! Wir können zurück! Aber warum wir dir dafür danken sollen? Kupo, auf jeden Fall danke!","L'esprit nous a rendu le champ de trèfleperles[@1D]! Et il a dit de vous remercier... je me demande bien pourquoi[@1D]? En tout cas, merci, kupo[@1D]!",
2,「人は、気持ちと言葉がさかさま」って[@CR]ラヤ・オが言ってたけど、それってどういうことクポ？[@CR]「おはよう」って言ったら、「こんばんは」なのクポ？,"Raya[@1F]O told me that people tend to say the opposite of what they mean, kupo. So when they say “no,” it actually means “yes.” Is that truly the way of it?","Warum hat Raya-O gesagt, dass bei den Leuten die „Worte und die Absichten vertauscht“ seien? Das verstehen wir nicht. Heißt „Guten Morgen“ dann automatisch „Guten Abend“?! Also kupo.","Raya-O a dit que “les paroles des hommes sont souvent l'inverse de leurs sentiments”.[@CR]Qu'est-ce que ça veut dire[@1D]? Quand vous dites “bonjour”, vous voulez dire “bonsoir”, kupo[@1D]?",
3,少しずつだけど、この森の精霊の怒りの声は、[@CR]鎮まってきてるわ！　きっとラヤ・オのおかげよね！[@CR]……貴方の貢献も、ちょっとはあるとは思うけど。,"The rage of the elementals appears to have subsided slightly. I daresay our efforts are beginning to bear fruit, but we cannot allow ourselves rest until the Twelveswood has regained its former calm.","Langsam scheint der Zorn der Gebieter zu schwinden. Vielen Dank. Das heißt, vor allem ist es wohl Oha-Soks Verdienst.","J'ai l'impression d'entendre moins de voix en colère dans la forêt. C'est sûrement grâce à moi[@1D]![@CR]Enfin... tu m'as un peu aidée, je le reconnais.",
4,白魔道士のレベルが45以上になると、ラヤ・オ・センナから[@CR]白魔道士クエスト「瞬く希望を願うもの」を受注する[@CR]ことができます。,The next white mage quest will be available from Raya[@1F]O[@1F]Senna upon reaching level 45.,"Sobald du Er[@16]fah[@16]rungs[@16]stufe 45 in der Charakterklasse Druide erreicht hast, kannst du von Raya-O-Senna den Weißmagier-Auftrag „Die Spirale des Zorns“ erhalten.","Raya-O-Senna propose la quête suivante, “D'un espoir éphémère”, aux mages blancs de niveau 45.",
5,"いいところに来たわね、[@SPLIT([@STRING($EB(1))], ,1)]。[@CR]貴方は「第五星暦」について、知っていることはある？","[@SPLIT([@STRING($EB(1))], ,1)], it does my spirit well to see you again. I was in the midst of contemplating Oha[@1F]Sok's words. But tell me, are you versed in the histories?","Oh, wieder kommst du wie gerufen, [@SPLIT([@STRING($EB(1))], ,1)]. Ich habe mit Oha-Sok gerade über die fünfte Ära des Lichts gesprochen.","Oh, tu tombes bien, [@SPLIT([@STRING($EB(1))], ,1)]. Tu t'y connais en histoire éorzéenne[@1D]? Qu'est-ce que tu sais de la 5e ère astrale[@1D]?",
8,あらら、「第五星暦」のこと、何も知らないって顔をしてるわね。[@CR]仕方ないから説明してあげる……「第五星暦」の始まりは[@CR]今から3000年ほど前だといわれてるわ。,"I take from your silence that you are not. No matter, it shall be my pleasure to educate you. The Fifth Astral Era is said to have begun approximately three millennia ago.","Du weißt wohl nicht viel über diese Zeit? Nun, das ist nicht erstaunlich. Der Beginn dieses Zeitalters war vor etwa 3000 Jahren.","A ton expression hébétée, on dirait que tu ne connais pas du tout le sujet, je me trompe[@1D]? Bon, tu m'obliges à te faire un petit cours. Cette ère a débuté il y a environ 3000 ans.",
9,その頃は、恐ろしい「第五霊災」の寒波の名残で[@CR]今と比べ物にならないくらい、世界は冷えきっていた。[@CR]それを乗り越えるために、人々が「魔法」を手にした時代なの。,"The ice age that ushered in the Fifth Umbral Era made the land a barren and merciless place, and man was pushed to the limits of his resourcefulness in the struggle to survive. Yet survive he did, through the discovery of magic as we know it─an event which marked the dawning of the Fifth Astral Era.","Eines der tragischen Beispiele für unsere Maßlosigkeit ...[@CR]Du weißt, dass damals die verheerende Kältewelle der Fünften Katastrophe über den Kontinent hereingebrochen war und die Welt stumm in klirrender, eisiger Starre lag. Und um die Trostlosigkeit zu überwinden, lernten die Eorzäer ein einzigartiges Werkzeug zu nutzen, die Magie.","A l'époque, le climat de notre monde était bien plus froid qu'ac[@16]tu[@16]el[@16]le[@16]ment, suite à la terrible 5e ère astrale. Pour survivre dans ce monde refroidi, l'homme fit sien le pouvoir de la magie et apprit toutes sortes de sorts.",
10,ラヤ・オが知る文献には、こうあるわ。,"In his pride and avarice, man brought down the wrath of the elementals upon himself.","Die Selbstsüchtigen gierten nach immer stärkeren Zaubern, opferten den Wald ihrem Machtstreben ... und zogen so den Zorn der Gebieter auf sich.",Il y a même des sources historiques qui lient tout ça aux cataclysmes qui ont suivi la 5e ère astrale...,
11,この森の精霊たちは、ラヤ・オや貴方のおかげで、[@CR]少しずつだけれど、静寂を取り戻しつつある。[@CR]でもそれは、ほんの一時のことかもしれない。,"Owing to our efforts, a semblance of calm has returned to the Twelveswood. But this peace is not like to endure.","Dank deiner und Oha-Soks Bemühungen hat sich der Zorn der Gebieter etwas beruhigt. Aber wer weiß, wann er wieder aufflammt.",Les esprits de la Sylve sont en train de se calmer grâce à moi... et avec ton aide. Mais cela ne durera peut-être pas.,
12,"そこで次のお仕事よ、[@SPLIT([@STRING($EB(1))], ,1)]。[@CR]しかも今回は、魔物ではなく人が起こした事件。","[@SPLIT([@STRING($EB(1))], ,1)], I have need of your strength once again.","Ich möchte, dass du nach Camp Bartelfels gehst. Südlich davon wirst du eine Brücke finden, vor der gewisse Subjekte herumlungern, die Reisende angreifen und ihnen die Waffen abnehmen.","Bref... figure-toi que j'ai une nouvelle tâche à te confier, [@SPLIT([@STRING($EB(1))], ,1)]. Cette fois, ce n'est pas un monstre, mais un être humain qui semble sous l'influence d'un esprit.",
13,気をつけていくのよ。,"I trust you already know what is required of you. Aye, you must free the hapless souls from the grip of the rogue elemental that controls them.","Du hast ja bereits Erfahrung in diesen Dingen; kannst du dafür sorgen, dass der Elementar in ihnen zu Tage tritt?","Tu vas devoir être prudent[@IF($E9(4),e,)].",
14,ラヤ・オとモーグリ族の信頼を裏切るつもり？[@CR]…………へええ、そう。,"I know not the words to express my disappointment. Search your soul, [@SPLIT([@STRING($EB(1))], ,1)], and ask yourself whether you do the right thing.","Du enttäuschst mich, [@SPLIT([@STRING($EB(1))], ,1)].","Comment[@1D]! Tu ne voudrais tout de même pas trahir la confiance des Mogs, et qui plus est, MA confiance[@1D]? Tu risques de le regretter, tu sais[@1D]!?",
15,貴方は、ラヤ・オの弟子も同然。[@CR]しっかりと盗賊たちを鎮めてきなさい。,I knew you would not disappoint me. You are a true friend to the elementals─to Gridania.,"Ich wusste, dass du mich nicht enttäuschen würdest. Du bist [@IF($E9(4),eine würdige Schülerin,ein würdiger Schüler)] der Weißmagie.","En tant que disciple de Raya-O, tu te dois d'aller les neutraliser, pas vrai[@1D]!?",
16,世界中が寒いなんて、たいへんクポ。[@CR]モグなら、お鼻がカピカピになって……[@CR]ぽにぽにが、ツンツンになっちゃうクポ。,"I shudder at the thought of living in a world of endless cold. Why, my poor nose would become all chapped! Few things irk a moogle more than a chapped nose, kupo.","Das muss ja furchtbar sein, die ganze Welt eiskalt! Ku-Ku-Ku-Kupo![@CR]Wir würden rote Näschen und steife Bommelfühlerchen bekommen!","Quelle histoire[@1D]! Vous imaginez un monde perpétuellement froid[@1D]? Ma truffe serait tout le temps gercée... ça me rendrait grincheux, kupo[@1D]!",
17,水と森に呑みこまれるって、実はモグたちには、[@CR]天国だったりするクポ？　なーんて、じょうだんクポ！,"So the forest swallowed up the land? Why, that sounds like a veritable paradise! Ah, but I jest, kupo! <sigh>","„Tosende Flut“? Wasser ist doch toll! Da wächst der Perlenklee! Haha. Das war nur Spaß, kupo.","Si la forêt ou l'eau nous avalaient, peut-être qu'on aimerait ça, nous autres Mogs[@1D]![@CR]Non, je plaisante...",
18,「キャンプ・ビアデッドロック」の南にある陸橋で[@CR]旅人が襲われ、その武器が奪われる事件が頻発しているの。,"A man has taken to banditry at the land bridge south of Camp Bearded Rock, falling upon hapless travelers and despoiling them of their weapons.","Bei der Brücke südlich von Camp Bartelfels treiben sich unnatürlich wirkende Gestalten herum, die Leuten ihre Waffen abnehmen.",Il semblerait qu'un brigand vole les armes des voyageurs qui s'approchent d'un pont au sud du camp de Roc barbu.,
19,わたしは　ずっと　あなたを　見つづけてきた[@CR]魔物や人の暴走は　鎮められても[@CR]わたしたち　精霊の怒りは　鎮まらない,"[@1A(1)]Thou mayest silence the keening of men and beasts, but that of my kind shall not be so easily quelled.[@1A(0)]","Stets sah ich dein Handeln, dein Wirken, dein Denken. Doch auch wenn das Rasen der Monster gestoppt, der Zorn der Gebieter brennt hell nach wie vor. ","[@1A(1)]Je t'observe depuis fort longtemps... [@CR]Même si la colère des monstres et des humains se calme, nous autres esprits ne sommes pas apaisés pour autant...[@1A(0)]",
20,わたしは　精霊オハ・ソク[@CR]始まりにあって触れることあたわず　終わりによって現れるもの[@CR]陽と月を繋ぎ　永遠に隔てるもの　二つと同じ魂を持たないもの,"[@1A(1)]I am nihility incarnate, though thou knowest me first as Oha[@1F]Sok. Where all things end, so too do I begin. In joining light and shadow, ever do I ensure their eternal separation.[@1A(0)]","Oha-Sok ich bin; körperlos im Beginn; manifest im End. Licht und Dunkel umwinde ich, in endlose Ferne weiche ich. Und zwei bin ich nicht, nicht eines, nicht keins.","[@1A(1)]Je me nomme Oha-Sok. Je suis au commencement, mais ne suis palpable... J'apparais lorsque tout prend fin...[@CR]Liant la lune et le soleil, je les sépare aussi pour l'éternité. Mon âme est indivisible et sans pareil.[@1A(0)]",
21,わたしは　ずっと　あなたを　見つづけてきた[@CR]あなたという魂を通して　この第六星暦の人を知ろうとした,"[@1A(1)][@SPLIT([@STRING($EB(1))], ,1)]. Long have I watched thee. Through thine eyes have I gazed upon the children of the sixth sun.[@1A(0)]","Stets war ich bei dir, ich wacht' über dich. In dir ist das Echo, in dir widerschien mir das Funkeln der Sechsten Ära des Lichts.",[@1A(1)]Je t'observe depuis longtemps...[@CR]Je voulais apprendre à connaître les êtres humains de la 6e ère astrale par la fenêtre de ton âme.[@1A(0)],
22,わたしは　精霊オハ・ソク[@CR]精霊たちの怒りによってのみ生まれ　その高まりによって目覚めるもの[@CR]陽の　その没するを嘆くもの　月の　その興るを憂うもの,"[@1A(1)]I am wrath incarnate. By my kindred's rage am I given life, by their keening roused to wakefulness. Even as I mourn the departure of light, I grieve the coming of shadow.[@1A(0)]","In mir nahm Gestalt an der Gebieter Zorn. Oha-Sok ich bin, Hass war mein Beginn, Existenz erlangt ich erst durch ihn, bin aus Wut und Grimm geboren. Ich beklage das Erlöschen des Lichts; Trauer durchdringt mich ob der Finsternis, ob des Nichts.  ","[@1A(1)]Je me nomme Oha-Sok. Je nais de la colère des esprits. Lorsque leur courroux gronde, je m'éveille.[@CR]Je pleure le coucher du soleil et crains la montée de la lune.[@1A(0)]",
23,あなたの魂は　自由で　けがれをしらない[@CR]けれども　あなたの力は　かたくなで　戦いのためにしかない,"[@1A(1)]Gentle child of man... Thy heart knoweth no vice, thine intentions being righteous from the first. Yet thy strength knoweth no purpose but conflict. And in conflict, there is naught but suffering.[@1A(0)]","Du, Kind der Erde, bist gut, habe Dank. Dein Herz ist lauter, deine Absicht ist rein. Und doch irrst du, Erdling! Deine Kraft nutzt du falsch!","[@1A(1)]Ton âme est sans attaches et sans souillure...[@CR]Mais ta puissance est grossière, elle ne connaît que le combat...[@1A(0)]",
24,怒りによって生まれた　わたしの嘆きは[@CR]また　精霊たちの　怒りの刃を研ぎ[@CR]森は荒れ果て　水は暴れ狂うことでしょう,"[@1A(1)]Hark! The keening of my kind riseth now to a crescendo! The new moon loometh nigh, and with its coming, woods shall wither and seas shall roil.[@1A(0)]","Das Böse erwiderst mit Widerstand du, Gewalt mit Gewalt immerzu. Besinnt euch! Erkennt es! Zorn steigert Zorn. Bald wird verschlungen, ertränkt, überflutet, was euch teuer und lieb.","[@1A(1)]Mes lamentations nées de la colère ne feront qu'attiser encore le courroux des esprits...[@CR]Et au final, la Sylve laissera éclater sa colère, et les flots engloutiront tout une fois de plus...[@1A(0)]",
25,ごめんなさい　そして　さようなら　心やさしき　冒険者[@CR]せめて　終わりのそのときに……,"[@1A(1)]Pray forgive me, child of gentle heart, and fare thee well.[@1A(0)]","Deswegen vergib mir, ich bleibe nicht hier. Sei stark ...","[@1A(1)]Pardonne-moi, ô aventuri[@IF($E9(4),ère,er)] au cœur bon et juste[@1D]![@CR]Je ne pourrai alors faire qu'une seule chose pour toi...[@1A(0)]",
26,"ああ、[@SPLIT([@STRING($EB(1))], ,1)]、無事だったのね！[@CR]精霊オハ・ソクはどこ？","[@SPLIT([@STRING($EB(1))], ,1)]! I am so relieved that you've returned. But...was Oha[@1F]Sok not with you?",Du bist zurück! Den Gebietern sei Dank. Aber ... allein? Wo ist denn Oha-Sok?,"Ah, [@SPLIT([@STRING($EB(1))], ,1)], te voilà[@1D]! Où est Oha-Sok[@1D]?",
27,……そう、そんなことが……,"“Where all things end, so too do I begin...”","„Körperlos im Beginn, manifest im End ...“","Alors, elle s'est enfuie... Je vois...",
28,「始まりにあって触れることあたわず、終わりによって現れるもの」[@CR]「陽と月を繋ぎ、永遠に隔てるもの。二つと同じ魂を持たないもの」[@CR]……精霊オハ・ソクのこの言葉、貴方には、答えがわかる？,"By the Twelve, how could I have been so blind?","„Licht und Dunkel umwinde ich, in endlose Ferne weiche ich, und zwei bin ich nicht, nicht eines, nicht keins.“ ... Weißt du, was das bedeutet?!","[@1A(1)]“Je suis au commencement, mais ne suis palpable... J'apparais lorsque tout prend fin... Liant la lune et le soleil, je les sépare aussi pour l'éternité. Mon âme est indivisible et sans pareil.”[@1A(0)][@CR]Selon toi, à quoi faisaient allusion ces paroles énigmatiques[@1D]?",
29,使いこなせるようになるまで、サボらずに頑張るのよ。[@CR]準備ができたら、また、森を訪れなさい。,"Its bestowal is symbolic of the trust I place in you. The fate of Eorzea hinges upon our efforts, and neither one of us may rest until our mission is accomplished.","Nimm dir die Zeit, die du brauchst, um dich an diese Macht zu gewöhnen. Und wenn du bereit bist, sprich mich wieder an.","Je compte sur toi pour t'entraîner afin de le maîtriser. Reviens me voir quand tu seras prêt[@IF($E9(4),e,)] pour une nouvelle mission[@1D]!",
30,ふんふん……[@CR]冒険者から、悲しい匂いがするクポ。[@CR]とっても悲しいクポ？　モグの胸で泣くクポ？,"<sniff> <sniff> The scent of sorrow clings to you, adventurer. My shoulder is at your disposal should you need a good cry, kupo. There's no shame in shedding tears, you know. They're not a sign of weakness, but of the strength of your feeling.","[@IF($E9(4),Abenteurerin,Abenteurer)], du wirkst so melankupolisch. Wein dich ruhig aus, kupo.","Sniff sniff... Vous dégagez un parfum de tristesse, kupo[@1D]! Ça ne va pas, le moral[@1D]? Vous voulez un câlin, kupo[@1D]?",
31,クポ？　オハ・ソクの気配がないクポ。[@CR]冒険者、オハ・ソク、落っことしてきたクポ？,"Kupopo? Oha[@1F]Sok's aura vanished all of a sudden. Where in the world could she have gone, kupo?",Kupo? Oha-Sok ist nicht hier. Was ist? Habt ihr euch aus den Augen verloren?,"Kupo[@1D]? Mais où est Oha-Sok, je ne sens plus sa présence[@1D]!? Vous l'avez perdue, kupo[@1D]?",
32,……あなたの魂が　安らかならんことを……,"[@1A(1)]When the end of days is come, I pray that thy soul shall know true peace.[@1A(0)]","Wenn das Ende kommt, sei dir Frieden geschenkt ...",[@1A(1)]Souhaiter le repos de ton âme...[@1A(0)],
33,答えは「零」、彼女は伝承にいう「無の精霊」だったのよ。[@CR]お伽噺の中には「嘆きの精霊」と書いているものもあるわ。,"That I should be in the presence of such a being, and for so long...and fail to see her for what she was! Oh, I know not whether to be amazed or ashamed!","Sie war ein Nihil ... ein Nichts-Elementar. Natürlich, wie konnte ich nur so blind sein! Selbst ich habe nur selten Kontakt zu diesen außer[@16]ge[@16]wöhn[@16]lichen Wesen. Dass du ihr so nah kommen konnstest ...!","Il s'agit du “zéro”. Oha-Sok est l'esprit du néant, ou “l'esprit des lamentations”, telle qu'on la décrit dans les mythes...",
34,……きっと……[@CR]オハ・ソクは、人を知ろうとしていたのね。,"[@SPLIT([@STRING($EB(1))], ,1)], I do believe we have been given a reprieve. I have a strong suspicion that Oha[@1F]Sok stays her hand─that she refrains from ushering in the end.","Oha-Sok muss sich wohl anders entschlossen haben ... Irgendetwas hat sie bewegt, den Untergang noch nicht herbeizuführen.","Je suis sûre qu'Oha-Sok a voulu connaître les êtres humains, cette fois, pour leur offrir un autre destin.",
35,貴方から離れ、精霊たちの怒りを集めることは[@CR]いつでもできたのに、彼女はそれをしなかった。[@CR]だからこそ、少しずつ、この森の怒りは収まったのよ。,"Rather than setting about raising the chorus of her kindred's rage, she chose to follow you that she might bear witness to your every action. Owing to this, the elementals' rage was given a chance to subside.","Sie hätte dir nicht erscheinen, dir nichts erklären müssen. Stattdessen hätte sie immer noch mehr Wut der Elementare in sich aufsaugend durch Eorzea schweben können, doch sie hat es nicht getan. Deshalb hat sich wohl der Zorn der Waldes langsam gelegt.","Elle aurait pu te laisser et semer la discorde parmi les esprits, mais elle a choisi de ne pas le faire.",
36,彼女はまだ、今の世界を諦めていない。[@CR]だって、この森はまだ、荒れ果てたりしてないもの！,"Might Oha[@1F]Sok yet harbor hope for mankind's redemption? If so, we still have a chance.","Sie setzt noch Hoffnung in uns, [@SPLIT([@STRING($EB(1))], ,1)]. Wir können die Katastrophe noch abwenden!","Regarde autour de toi[@1D]! Elle n'a pas encore abandonné notre monde, la Sylve est calme.",
37,でもね……人々は寒さをしのぐため、異種族との戦いのため、[@CR]そして何より……富と繁栄のために、より強い魔法を求めた。[@CR]それが破壊をもたらす禁呪「黒魔法」。,"At first, man was well pleased just to have the means to keep the cold at bay and compete with the other races. But man is nothing if not an ambitious beast. It was not long before he began to seek mightier magicks, hoping to win greater glory.","Doch das Mittel wurde zum Meister. Die Leute wollten mehr, nicht nur Schutz vor der Kälte, sondern Waffen im Kampf gegen fremde Völker, und sie wollten Reichtum und Macht.","Mais pour supporter le froid et affronter les tribus barbares, et surtout pour s'approprier richesse et prospérité, les gens cherchèrent à acquérir une magie interdite, plus puissante... on l'appelait “magie noire”.",
38,"[@SPLIT([@STRING($EB(1))], ,1)]、今すぐ森へ戻りなさい！　ラヤ・オともあろうものが、ずっと気づかないなんて……危険が迫っているわ、早く森へ戻って！","[@SPLIT([@STRING($EB(1))], ,1)], you must return to the Twelveswood at once! Th-There is something I have overlooked...something dire!","[@SPLIT([@STRING($EB(1))], ,1)], komm sofort in den Wald der Einkehr zurück! Ich ... ich habe da etwas übersehen! Es ist dringend, bitte komm sofort!","[@SPLIT([@STRING($EB(1))], ,1)][@1D]! Retourne tout de suite dans la forêt[@1D]! Quelque chose d'inquiétant se trame[@1D]!",
39,「泣き声は、うわんうわんと、森や大地をゆすぶり、[@CR]　ついには、大きなひとつの声となって、世界中にひびきわたりました」,"Ever more elementals shall join the keening, and so shall it continue until their chorus rends the land asunder.","Immer mehr Elementare werden in den Chor der Destruktion einstimmen, den ihre gequälten Stimmen bilden, und das Land wird von ihrem klagenden Gesang vernichtet werden.","[@1A(1)]“Ces pleurs ébranlèrent alors la terre et la Sylve, et formèrent un immense grondement qui résonna à travers le monde entier.”[@1A(0)]",
40,時を同じくして、黒魔法への抑止力とすべく、[@CR]魔力を癒しと浄化に用いるべく編み出されたのが、[@CR]ラヤ・オや貴方が使う「白魔法」なの。,"And it was this desire that brought forth black magic, the arcane art of destruction. In order that the forces of chaos be kept in check, and balance preserved, white magic, the arcane art of succor, came into being but a little while thereafter.","Diese Begierde brachte die schwarze Magie hervor, die geheime Kunst der Zerstörung. Und um diese Mächte des Chaos in Schach zu halten, erschien kurz darauf die weiße Magie - als ihr Gegenspieler.","Cependant, la puissance de la magie noire était bien trop redoutable. On choisit de l'occulter et de n'en faire qu'une force de dissuasion. C'est alors que naquit une autre magie, vouée à l'apaisement et à la guérison[@1D]: la magie blanche.",
41,人々は魔法を手に入れ、栄華を極めたそうよ。[@CR]でも、時が経つにつれて……白魔道士たちですら、[@CR]さらなる繁栄のために白魔法を濫用し、森を汚し始めた……,"Emboldened by magic, man went on to reach the zenith of glory. But his hunger knew no bounds. Over time, even they who donned the white began perverting their powers for the sake of personal gain, and in this single-minded pursuit scrupled not to sully the sanctity of the Twelveswood.","Vielleicht ist das der natürliche Lauf der Dinge, dass alles Irdische unweigerlich degeneriert - doch es dauerte nicht lange, bis sogar die Weißmagie zu niedrigen Zwecken missbraucht wurde.","Grâce à cette puissante magie, les êtres humains étaient au sommet de leur prospérité. Mais même les mages blancs finirent par s'enivrer de leur propre gloire, et ils commencèrent à utiliser la magie à des fins peu honorables, allant jusqu'à souiller la forêt.",
42,「人々は精霊の大きな怒りを招き、すべては水に流され、[@CR]　あるいは森に呑まれ、そして、第六霊災が訪れた」,"A great deluge was sent to cleanse the land of his wicked presence, in the wake of which the forest rose to swallow up all that was not washed away. Thus did the Six Umbral Era begin...or so it is told.","In den alten Schriften steht: „Da warden die Gebiether von großem Zorne ergriffen und ersäuften sie in der tosenden Flut, und welche davonkamen, warden verschlungen von der Raserey des Waldes“.","[@1A(1)]“Les hommes, ayant provoqué le courroux des esprits, virent leur civilisation balayée par une inondation, ou encore avalée par la forêt... Ensuite survint la sixième ère ombrale”.[@1A(0)]",
43,どこかで聞いたようなお話よね……。,Something is eerily familiar about all of this.,"Diese Tragödie darf sich nie wiederholen. Nein, das darf nicht geschehen ...","Voilà ce que j'ai lu dans un livre d'histoire. Ça te semble familier, pas vrai[@1D]?",
44,森の外では、相変わらず[@CR]精霊の怒りが、事件を引き起こしている可能性が高いのよ。,"Beyond the bounds of the forest, rogue elementals remain rampant as ever.",Und außerhalb des Waldes der Einkehr sind die Elementare immer noch aufgebracht und taub für unser Flehen.,"Il est très probable que de nouveaux incidents se produisent en dehors de la Sylve, à cause d'esprits courroucés.",
45,このままじゃ、今のエオルゼアは、[@CR]第五星暦と同じ轍を踏むことになる。[@CR]でも、そうはさせないわ、ラヤ・オが何とかしてみせる！,"If they are left to their rage, another calamity will surely befall Eorzea. We must do all in our power to ensure that this does not come to pass.","Wenn wir nichts unternehmen, wird ihre Wut wieder zurückschwappen auf die gerade beruhigten Gebieter des Waldes und alles von Neuem in Gang setzen.","Aujourd'hui, Eorzéa marche sur les traces de ses ancêtres et de leurs erreurs passées... Mais je ne laisserai pas l'Histoire se répéter, foi de Raya-O[@1D]!",
46,「キャンプ・ビアデッドロック」の南にある陸橋で[@CR]旅人が襲われて、その武器が奪われる事件が頻発しているの。,"Word has reached us that a man has taken to banditry at the land bridge south of Camp Bearded Rock, falling upon hapless travelers and despoiling them of their weapons.","Ja, du hast richtig gehört. Diesmal sind es keine primitiven Monster, sondern Hyuran, die von Elementaren besessen sind.",On raconte qu'un homme étrange déleste les voyageurs de leurs armes aux alentours d'un pont au sud du camp de Roc barbu.,
47,旅人の話では、犯人は盗賊団のように徒党を組んでいるそうよ。[@CR]しかも、その眼は怒りに満ちていて、とても正気には見えなかったとか。,"If the reports are to be believed, the eyes of this bandit and his minions are steeped in such rage as their mortal flesh could not possibly have begotten.","Der Rädelsführer hat einige Piraten um sich geschart, und wenn man den Berichten Glauben schenken darf, dann sind ihre Augen wild und blutunterlaufen und so voller Hass, als wären sie nicht recht bei Sinnen.","D'après les témoins, il a formé une bande de voleurs autour de lui. Leurs yeux semblent fous, comme s'ils étaient possédés.",
48,それにしても、盗賊に奪われた武器、精霊の関わり……[@CR]なんだか引っかかるのよね……。,Be heedful that your opponents are ordinary men no more. I urge you to proceed with the utmost caution.,"Bedenke, dass du es nicht mit normalen Banditen zu tun hast, sonst würden sie wohl kaum nur ganz bestimmte Waffen bestimmter Reisender rauben ... Ob diese Waffen etwa auch mit den Elementaren in Zusammenhang stehen?","C'est tout de même curieux, qu'un voleur d'armes puisse avoir un lien avec des esprits... Il y a quelque chose d'inhabituel dans tout ça, si tu veux mon avis.",
49,気をつけていくのよ、貴方は、ラヤ・オの弟子も同然。[@CR]しっかりと盗賊たちを鎮めてきなさい。,"If the reports are to be believed, the eyes of this man and his minions are steeped in such rage as their mortal flesh could not possibly have begotten. You must free the hapless souls from the grip of the rogue elemental that controls them.",Sie sind sicher von einem erzürnten Elementar beherrscht. Beeil dich und verschaffe uns Klarheit!,"Fais bien attention à toi[@1D]! Je te considère comme [@IF($E9(4),ma,mon)] disciple. Apaise-moi ce voleur vite fait bien fait[@1D]!",
50,それにしても、盗賊に奪われた武器、精霊の関わり……[@CR]なんだか引っかかるのよね……。,"First the enraged elementals, and now stolen arms... Something about all this sits ill with me.","Dann wird sich auch zeigen, ob die geraubten Waffen etwas mit den Elementaren zu tun haben.","Mais tout de même, un voleur d'armes qui aurait un lien avec des esprits... Ça m'intrigue.",
51,第五の陽が　森に沈み　水に呑まれたときも[@CR]わたしは　嘆くほかなかった,"[@1A(1)]When the fifth sun gave way to the sixth moon, my kind was set free from the shackles of men.[@1A(0)]","Als das fünfte Licht ertrank in der Tiefe des Walds, als es sank in der Flut, war ich Schmerz, war ich Trauer, war die Welt ohne Glanz.","[@1A(1)]Lorsque le cinquième soleil s'est évanoui dans la forêt, avalé par les flots...[@CR]Je n'ai rien pu faire d'autre que pleurer.[@1A(0)]",
52,第六の月が輝いて　わたしは　解放されたとおもった[@CR]わたしは　救われたはずなのに　人はまた　過ちをくりかえす,"[@1A(1)]Yet our freedom was not to last. Like their forebears before them, the men of this age seek to gain by our torment, and we are made to suffer once more.[@1A(0)]","Als das sechste Licht kam, fiel die Last von mir ab. Befreit wähnt' ich mich, neu, hell und leicht. Doch ihr Erdlinge ließet nicht lange mir Zeit, bald kam neuer Hass, neue Schuld, Frevel und Leid.","[@1A(1)]Lorsque la sixième lune a brillé, je me suis crue libérée...[@CR]Mais alors que j'aurais dû être sauvée, pourquoi les hommes répètent-ils les même erreurs[@1D]?[@1A(0)]",
53,精霊オハ・ソクこそ、精霊たちの怒りそのもの。[@CR]他の精霊たちの怒りが、彼女を目覚めさせ……[@CR]その嘆きが、精霊たちの怒りをさらに掻きたてる。,"Oha[@1F]Sok is the collective fury of the elementals given form. Their suffering summoned her forth, and in her turn she stokes the fire of their rage with her keening.","In den Schriften werden Nichts-Elementare auch als „verkörperter Schmerz“ bezeichnet. Oha-Sok ist der manifestierte Zorn und Groll der Gebieter, die negativen Gefühle waren so stark, dass sie schließlich als Quasi-Elementar Gestalt annahmen. Und nun, da Oha-Sok sich manifestiert hat, verstärkt sich alles nur noch mehr. Eine zerstörerische Spirale des Zorns ...","Elle est l'incarnation de la colère des esprits. Le courroux de ses frères l'éveille, et ses pleurs attisent encore davantage celui-ci.",
54,繁栄の絶頂にあった第五星暦の文明が、[@CR]瞬く間に滅んだのは、精霊たちの怒りのせいよ。,"As I related to you earlier, it was the rage of the elementals that brought an end to the civilization of the Fifth Astral Era.","Die Zivilisation des fünften Zeitaltes des Lichts, die ich vorhin erwähnt habe ... wurde ebenfalls vom Zorn der Elementare beendet.","Or, c'est justement à cause de la colère des esprits que la civilisation de la 5e ère astrale a été anéantie en un clin d'œil, alors qu'elle était à son apogée.",
55,お伽噺には、こうあるわ。,"And now the selfsame harbinger of that destruction is come once more. Aye, I speak of Oha[@1F]Sok.","Ja, du verstehst richtig. Es war Oha-Sok, die damals alles zerstörte.",Voici ce que racontent nos légendes...,
56,「無の精霊の泣き声は、それは恐ろしいものでありました。[@CR]　なにしろ、彼女がひとつ泣くたびに、百の精霊が泣きはじめるのです」,"The histories vividly describe the fearsome nature of the elemental of nihility─or “the Wrath,” as she is sometimes called. It is writ that each time she keens, she sets off a hundred of her kind to doing the same.","Die Geschichtsbücher beschreiben eindrücklich, wie jedes Mal, da sich ein Nihil im Schmerz zusammenkrampft, hundert Elementare denselben Impuls fühlen und qualvoll aufschreien in wachsender Pein.",[@1A(1)]“Les larmes de l'esprit du néant étaient redoutables.[@CR]Un seul de ses pleurs se changea en cent lamentations de ses frères esprits.”[@1A(0)],
57,「すると……ああ、なんということでしょう。[@CR]　森の木という木が、声を枯らして泣きはじめ、[@CR]　空までもが、大粒の涙をこぼして泣きはじめたのです」,"And then the heavens shall spill forth a deluge of tears, and the trees weep till they are hoarse of voice.","Und so „werden die Himmel trauerschwere Tränen weinen, Fluten brennender Qual tropfen hernieder, um zu lindern das heisere Stöhnen des Waldes; doch mehr noch schwillt der Schmerz mit jedem Tropfen, der fällt“.","[@1A(1)]“Et alors, les arbres de la Sylve se mirent eux aussi à pleurer à l'unisson, et le ciel commença lui aussi à verser d'énormes larmes.”[@1A(0)]",
58,彼女が目覚めた以上、エオルゼアは速やかに滅びたはず。[@CR]でも……わかるでしょう、実際にはそうなっていないわ。,"Oha[@1F]Sok's awakening betokens Eorzea's doom...and yet, if the histories speak true, that doom should already have been enacted.","Da sich Oha-Sok nun manifestiert hat, sollte Eorzea eigentlich schon förmlich auf den Untergang zurasen ... Doch wie wir sehen, ist dies nicht der Fall.","Une fois l'esprit du néant éveillé, Eorzéa a été rapidement dévastée... Du moins, c'était le cas dans cette légende. Mais dans le présent, les choses se déroulent dif[@16]fé[@16]rem[@16]ment.",
59,とにかくラヤ・オは、精霊オハ・ソクを止める方法がないか、[@CR]精霊たちと会話して考えてみる！,I shall commune with other elementals and seek a way to stop her from unleashing cataclysm upon Eorzea.,"Ich muss mit anderen Elementaren sprechen, wie wir Oha-Sok aufhalten und den Untergang abwenden können.",Je vais demander aux autres esprits s'ils savent comment arrêter Oha-Sok.,
60,"[@SPLIT([@STRING($EB(1))], ,1)]、角尊であり白魔道士である[@CR]ラヤ・オの名代として、よくぞ務めを果たしました。","As for you, in light of the trials to come, it is vital that you realize your potential as a white mage posthaste.","Du hast gut mit den Kräften der Weißmagie umzugehen gelernt. Es gibt jedoch noch etwas, das dir bisher verborgen war.","[@SPLIT([@STRING($EB(1))], ,1)], tu as cor[@16]rec[@16]te[@16]ment rempli ta fonction d'ambassad[@IF($E9(4),rice,eur)] des mages blancs et de Raya-O.",
61,ラヤ・オ・センナの名において、[@CR]貴方に、新たなる白魔法の行使を許可します！,"By the power vested in me, I hereby permit you the use of new white magic.","Ich werde dir hiermit eine neue Pforte zur Weißmagie eröffnen ... Lerne den Umgang mit dieser Anwendung der Magie gründlich, und lerne ihn mit Ehrfurcht und Mut.","Moi, Raya-O-Senna, je t'autorise à utiliser de nouveaux pouvoirs de mage blanc.",
62,この魔法は、とても強力よ。[@CR]黒魔法にさえ引けをとらない、聖なる輝きの魔法。,"One of the mightiest spells known to our art is now yours to wield. With it, you may concentrate divine energy into a single burst of such power as would amaze an adept of black magic.","Damit hast du einen der stärksten Zauber der weißen Magie zu deiner Verfügung. Du kannst heilige Energie zu einem einzigen Impuls verdichten, der auch vor der mächtigsten Schwarzmagie nicht zurückzustehen braucht.",Ce sort est très puissant... C'est une lumière sacrée capable de rivaliser avec même la magie noire.,
63,"奪われた武器と、精霊の怒りの気配……再生の根株から盗まれた杖、そして怒りを持った精霊の出現……[@SPLIT([@STRING($EB(1))], ,1)]　早く戻って！","The stolen arms and the rogue elementals...Nirvana and Oha[@1F]Sok─they are [@1A(1)]all[@1A(0)] intertwined! Oh, but the details can wait! Hurry back, [@SPLIT([@STRING($EB(1))], ,1)]!","Die Waffen, die die Banditen geraubt haben, der Stab Nirvana, der Zorn der Elementare ... alles hängt zusammen! Es ist unglaublich, es ist ... Bitte komm schnell!","Les armes volées... le courroux latent des esprits... et un esprit en colère qui sort d'un bâton volé... Tout cela ne me dit rien qui vaille. [@SPLIT([@STRING($EB(1))], ,1)], reviens vite[@1D]!",
64,「白魔道士の証」から白き光があふれる……！[@CR][@STRING($EB(1))]の魂に不滅の灯が宿った！,"A brilliant white light shines forth from the Soul of the White Mage, suffusing your entire being!",Ein gleißendes Licht fährt aus deinem Weißmagier-Kristall und erfüllt deinen gesamten Körper und Geist!,Une lumière blanche jaillit du cristal de mage blanc et vous enveloppe. Vous sentez un éclat pur et éternel briller dans votre cœur[@1D]!,
65,"「[@SWITCH([@SHEET(itemData,11000551,41)],[@COLOR(#fff3f3f3)],[@COLOR(#ffc0ffa0)],[@COLOR(#ff60c8ff)],[@COLOR(#ffb38cff)],[@COLOR(#ffffa666)],[@COLOR(#ffe5dd7e)])][@EDGECOLOR(#ff262626)][@SHEET(xtx/itemName,11000551,4)][@EDGECOLOR($EC)][@COLOR($EC)]」に宿って人を知ろうとして、[@CR]そして、貴方に会って……オハ・ソクは、きっと……","When she came to us, Oha[@1F]Sok claimed that she had been entrapped within [@SWITCH([@SHEET(itemData,11000551,41)],[@COLOR(#fff3f3f3)],[@COLOR(#ffc0ffa0)],[@COLOR(#ff60c8ff)],[@COLOR(#ffb38cff)],[@COLOR(#ffffa666)],[@COLOR(#ffe5dd7e)])][@EDGECOLOR(#ff262626)][@SHEETEN(xtx/itemName,3,11000551,1,1)][@EDGECOLOR($EC)][@COLOR($EC)].","Bevor sie zu uns kam, hat Oha-Sok ihre Essenz in [@SWITCH([@SHEET(itemData,11000551,41)],[@COLOR(#fff3f3f3)],[@COLOR(#ffc0ffa0)],[@COLOR(#ff60c8ff)],[@COLOR(#ffb38cff)],[@COLOR(#ffffa666)],[@COLOR(#ffe5dd7e)])][@EDGECOLOR(#ff262626)][@SHEETDE(xtx/itemName,2,11000551,1,4,1)][@EDGECOLOR($EC)][@COLOR($EC)] einfließen lassen. Und als sie dich traf, empfand sie dich wohl als etwas Besonderes.","Elle s'est introduite dans [@SWITCH([@SHEET(itemData,11000551,41)],[@COLOR(#fff3f3f3)],[@COLOR(#ffc0ffa0)],[@COLOR(#ff60c8ff)],[@COLOR(#ffb38cff)],[@COLOR(#ffffa666)],[@COLOR(#ffe5dd7e)])][@EDGECOLOR(#ff262626)][@SHEETFR(xtx/itemName,12,11000551,1,1)][@EDGECOLOR($EC)][@COLOR($EC)] sans doute pour cette raison...",
66,貴方のことが、好きになった。,"But now I wonder if she did not render her essence unto the staff of her own volition, that she might observe the deeds of men.","Sie muss sich wirklich dafür interessiert haben, wie du, [@IF($E9(4),eine Sterbliche,ein Sterblicher)] denkst; ob wir weise genug sein würden, im letzten Moment doch noch eine Wende herbeizuführen. Eine Prüfung für unseren Verstand und unsere Gesinnung. Eine andere Erklärung habe ich nicht.","Et lorsqu'elle t'a rencontré[@IF($E9(4),e,)]... Je pense qu'elle a été troublée par le profond attachement qu'elle a senti pour toi.[@CR]Oui, je pense qu'elle t'aimait.",
