 ,0,1,2,3,4
 ,str,str,str,str,str
2,ね、そこのキミ！[@CR]「スプリガン」って生き物、見たことあるかしら？[@CR]ほらっ、真っ黒なガビガビ毛で、ウサギっぽいあいつよ。,"You there, adventurer. I wonder, have you not seen any spriggans on your travels? Furry little black things, they are, not altogether dissimilar to a dark-furred coney at first glance.","He, kann ich dich mal was fragen?[@CR]Hast du schon mal einen sogenannten „Spriggan“ gesehen? Du weißt schon, diese kleinen Tierchen mit spröden, pechschwarzen Haaren. Die sehen ein bisschen aus wie schaurige Hasen.","Avez-vous déjà aperçu un spriggan[@1D]? Mais si voyons, ces curieuses créatures au pelage sombre et touffu dont les excroissances sur le dessus de la tête rappellent des oreilles de lapin.",喂！那边那个！说你呢！[@CR]魔石精这种生物，你见过没？[@CR]就是那个黑黑的毛茸茸的家伙，长得跟个兔子似的。
3,ここ最近、彼らの生態を調査してるんだけど……[@CR]私が近づくと、なぜかみんな、スタコラ逃げ出しちゃうのよね。[@CR]ほんのちょびっと、毛と爪と歯をぶっこ抜かせてくれるだけでいいのにさ。,"I'm trying to conduct a study of their behavior in this area─eating and mating patterns, migratory routes, and so on─but whenever I draw close enough to make the necessary observations, the blighters all run off! Gods, what I wouldn't give for a few of those [@1A(1)]teeth[@1A(0)]! Most people don't realize the tales teeth can tell.","Ich versuche hier ihre Lebensweise zu untersuchen, doch wenn ich mich ihnen nähere, laufen sie in Windeseile davon ...[@CR]Dabei würde ich mich fürs Erste vollends damit begnügen, wenn ich ihnen ein paar Krallen und Zähne ziehen und ein paar Härchen abscheren dürfte.","Eh bien figurez-vous que je fais ac[@16]tu[@16]el[@16]le[@16]ment des recherches sur leur mode de vie. Mal[@16]heu[@16]reu[@16]se[@16]ment j'ai un mal fou à les approcher, ils s'enfuient à toute vitesse dès qu'ils m'aperçoivent[@1D]! Alors que je n'ai besoin que de quelques poils, ongles et dents...",我正在调查他们的生态状况……[@CR]但每当我一靠近，它们就呼啦一下子都跑开了。[@CR]其实我只要一点点它们的皮毛，爪子，还有牙齿的样本就好了。
4,……あら、ごめん遊ばせ。私は博物学者の「マルセット」。[@CR]生物や魔物をまとめた「大エオルゼア博物誌」を執筆するために、[@CR]グリダニアを訪れたの。今は、スプリガン研究に取り組んでるところ。,"Oh dear, I've forgotten my manners. My name is Marcette, and I am a naturalist under the employ of the [@1A(1)]Eorzean Geographic[@1A(0)], a publication which surveys the realm's wildlife.","Uups! Entschuldige bitte. Ich bin Marcette, Wissenschaftlerin auf dem Gebiet der Biologie. Ich arbeite gerade an meiner „Eorzäischen Enzyklopädie“, am Kapitel über den Monsterstamm der Arkanen. Zu diesem Monsterstamm zählt unter anderem die Gattung der Spriggans, in die wiederum beispielsweise die Fenixmännlein fallen.","Pardon[@1D]? Oh, veuillez m'excuser[@1D]! Mon nom est Marcette, et je suis naturaliste. J'écris un livre, “La grande histoire naturelle éorzéenne”, et j'y consacre un chapitre aux spriggans.",……哎呀你看我只顾一个劲的说，都忘了先自我介绍了。[@CR]我是博物学的学者马尔塞特，为了撰写《大艾欧泽亚博物志》，[@CR]正在潜心研究魔石精。
5,これまでの調査結果では、彼らスプリガンが[@CR]迷路みたいな巣穴を地下に作って、集団で生活していることや[@CR]石器で火をおこしたり、獲物を捕らえたりしてることはわかったんだけど……,"So far, I've learned that spriggans are gregarious animals. They nest in large groups belowground, digging labyrinthine tunnel networks. I also know they are skilled predators, and that they are even capable of creating fire using flint stones... All of which is jolly interesting, of course, yet there is so much that I still do not know.","Bisher konnte ich feststellen, dass sie in größeren Gruppen gemeinsam unter der Erde leben, wo sie labyrinthartige Nester anlegen. Sie gehen in Rudeln auf die Jagd und sind sogar dazu im Stande, mithilfe von Feuersteinen Feuer zu entfachen. Faszinierend, oder?","Jusqu'ici, j'ai découvert qu'ils vivent en communauté dans des dédales de tunnels qu'ils creusent dans le sol, et qu'ils sont capables de fabriquer des petits ustensiles en silex qui leur servent à chasser ou faire du feu.",至今为止的调查结果显示，[@CR]魔石精们会在地下挖掘迷宫一样的巢穴，并且是群居生物。[@CR]它们会用石器生火，会捕捉猎物。
6,な～んで、火打石以外にも、おっきな石を[@CR]後生大事に抱え込んでるのかが、ナゾなのよねぇ。,"By way of example─in addition to the flint stones they carry, spriggans are often seen bearing rocks of some other sort, only I haven't an inkling as to why. Perhaps it has something to do with miners having nicknamed them “stonesnatchers.” They claim the spriggans make off with their ores.","Am interessantesten finde ich jedoch, dass sie nicht nur Feuerstein, sondern alle möglichen Steine mit sich herumtragen. Sie tragen sie mit größter Sorgfalt in den Armen und hüten sie wie ihren Augapfel.","En revanche, je ne suis toujours pas parvenue à percer le mystère de cette pierre qu'ils serrent si pré[@16]cieu[@16]se[@16]ment en permanence contre eux.",现在还有个未解的谜团，就是它们除了打火石之外，[@CR]也会非常小心的抱着其他种类的石头。
7,"そうだわ！　ねぇ、キミ、どうせヒマなんでしょ？[@CR]私の助手として、「セーブルトゥース・スプリガン」を倒してちょうだい。[@CR]スプリガンの歯……「[@SWITCH([@SHEET(itemData,11000164,41)],[@COLOR(#fff3f3f3)],[@COLOR(#ffc0ffa0)],[@COLOR(#ff60c8ff)],[@COLOR(#ffb38cff)],[@COLOR(#ffffa666)],[@COLOR(#ffe5dd7e)])][@EDGECOLOR(#ff262626)][@SHEET(xtx/itemName,11000164,4)][@EDGECOLOR($EC)][@COLOR($EC)]」を[@VALUE(4)]本、探してきてよ。","Wait just a moment! You look as if you have a lot of free time on your hands. Go out and kill me some sabletooth spriggans! Bring me [@IF($E5(4,0),[@IF($E2(4,10),[@SWITCH(4,one,two,three,four,five,six,seven,eight,nine,ten)],[@VALUE(4)])],[@VALUE(4)])] [@SWITCH([@SHEET(itemData,itemNQ=11000164,41)],[@COLOR(#fff3f3f3)],[@COLOR(#ffc0ffa0)],[@COLOR(#ff60c8ff)],[@COLOR(#ffb38cff)],[@COLOR(#ffffa666)],[@COLOR(#ffe5dd7e)])][@EDGECOLOR(#ff262626)][@SHEETEN(xtx/itemName,3,itemNQ=11000164,2,1)][@EDGECOLOR($EC)][@COLOR($EC)], and your efforts won't go unrewarded.","Moment mal, du hast doch bestimmt freie Zeit und Langeweile?[@CR]Hast du nicht Lust, als [@IF($E9(4),meine Assistentin,mein Assistent)] ein paar Säbelzahn-Spriggans zu besiegen? Für meine Forschungen brauche ich [@VALUE(4)] [@SWITCH([@SHEET(itemData,11000164,41)],[@COLOR(#fff3f3f3)],[@COLOR(#ffc0ffa0)],[@COLOR(#ff60c8ff)],[@COLOR(#ffb38cff)],[@COLOR(#ffffa666)],[@COLOR(#ffe5dd7e)])][@EDGECOLOR(#ff262626)][@SHEETDE(xtx/itemName,5,11000164,2,4,1)][@EDGECOLOR($EC)][@COLOR($EC)].","Mais j'y pense, vous allez sûrement pouvoir me rendre service[@1D]! Je suppose que vous ne savez pas quoi faire de votre temps libre[@1D]? Dans ce cas, que diriez-vous de devenir mon [@IF($E9(4),assistante,assistant)][@1D]? J'aurais besoin d'examiner quelques dents de spriggan...","对了！反正你也正闲着没事干吧？[@CR]那不如当我的助手，去打倒剑齿魔石精吧！[@CR]魔石精的牙……帮我去找[@VALUE(4)]颗[@SWITCH([@SHEET(itemData,11000164,41)],[@COLOR(#fff3f3f3)],[@COLOR(#ffc0ffa0)],[@COLOR(#ff60c8ff)],[@COLOR(#ffb38cff)],[@COLOR(#ffffa666)],[@COLOR(#ffe5dd7e)])][@EDGECOLOR(#ff262626)][@SHEET(xtx/itemName,11000164,131)][@EDGECOLOR($EC)][@COLOR($EC)]的吧！"
8,……あらそう。一生、後悔するわよ。[@CR]歴史的名著になることを約束された「大エオルゼア博物誌」の奥付に[@CR]キミの名を刻める、特別の機会だったんだから。,That is most regrettable. And to think I had a mind to award you a lifetime subscription to [@1A(1)]Eorzean Geographic[@1A(0)]!,"Ich verstehe. Ich kann dir versichern, dass du diese Entscheidung dein Leben lang bereuen wirst![@CR]Im Nachwort meiner Enzyklopädie werde ich deinen Namen anführen, als [@IF($E9(4),die unfreundlichste Abenteurerin,den unfreundlichsten Abenteurer)] Eorzeas!","Ah, c'est comme ça[@1D]? Vous le regretterez toute votre vie, croyez-moi. C'était votre seule chance de voir votre nom apparaître dans “La grande histoire naturelle éorzéenne”...",……哼，算了，你会后悔一辈子的！[@CR]因为你错过了在将会成为历史著作的《大艾欧泽亚博物志》中的扉页上[@CR]留下你大名的机会！
9,あら、さすが私が見込んだ助手じゃない？[@CR]幻術士に精霊がどうのこうのって言われるかもしれないけど[@CR]私がいいようにしておくから、気にする必要ないわ。,"Oh, I [@1A(1)]knew[@1A(0)] I was right about you!","Was für ein Glück. Du bist wahrhaftig [@IF($E9(4),die Assistentin,der Assistent)], [@IF($E9(4),die,den)] ich so sehnlich erwartet habe.","J'avais vu juste, vous avez tout à fait l'étoffe pour être mon [@IF($E9(4),assistante,assistant)][@1D]!",嗯嗯！不愧是我看中的助手！[@CR]
10,「セーブルトゥース・スプリガン」はどこにいるか、ですって？[@CR]目撃報告は、グリダニアの南にある「タムタラの墓所」辺りに[@CR]集中してるから、そこに巣穴がある可能性は高いわね。,"My research shows that the sabletooth spriggans live in the south of Gridania, near the Tam[@1F]Tara Deepcroft. You are sure to find plenty of them there. And who knows? With your help, perhaps the mystery behind this peculiar “stone snatching” behavior will soon be solved!","Muss ich es dir noch mal erklären? Du findest sie in der Gegend um den Totenacker Tam-Tara, südlich von Gridania.[@CR]Berichte über Schäden dort lassen die Existenz eines großen, unterirdischen Spriggan-Nestes vermuten.","Vous voulez savoir où trouver des spriggans dent-de-sable[@1D]? Rendez-vous vers l'Hypogée de Tam-Tara, au sud de Gridania. Il n'est pas rare qu'ils s'attaquent à des voyageurs qui passent à proximité.",你想知道剑齿魔石精在什么地方？[@CR]根据目击情报，它们总集中在格里达尼亚南边的塔姆·塔拉墓园附近，[@CR]那么它们的巢穴在那一带的可能性也很大。
11,"たくさんの鉱石をモノにしてきた、彼らの黒光りする歯……[@CR]「[@SWITCH([@SHEET(itemData,11000164,41)],[@COLOR(#fff3f3f3)],[@COLOR(#ffc0ffa0)],[@COLOR(#ff60c8ff)],[@COLOR(#ffb38cff)],[@COLOR(#ffffa666)],[@COLOR(#ffe5dd7e)])][@EDGECOLOR(#ff262626)][@SHEET(xtx/itemName,11000164,4)][@EDGECOLOR($EC)][@COLOR($EC)]」を[@VALUE(4)]本、集めてきてちょうだい。[@CR]理由は、ヒ・ミ・ツ……頼んだわよ。","They are named for their black teeth─the result of years spent gnawing on ores and earth. Bring me [@IF($E5(4,0),[@IF($E2(4,10),[@SWITCH(4,one,two,three,four,five,six,seven,eight,nine,ten)],[@VALUE(4)])],[@VALUE(4)])] [@SWITCH([@SHEET(itemData,itemNQ=11000164,41)],[@COLOR(#fff3f3f3)],[@COLOR(#ffc0ffa0)],[@COLOR(#ff60c8ff)],[@COLOR(#ffb38cff)],[@COLOR(#ffffa666)],[@COLOR(#ffe5dd7e)])][@EDGECOLOR(#ff262626)][@SHEETEN(xtx/itemName,3,itemNQ=11000164,2,1)][@EDGECOLOR($EC)][@COLOR($EC)], and the deed will be done. Perhaps we can shed some light on this “stone snatching” behavior.","Ich brauche genau [@VALUE(4)] ihrer schwärzlich glänzenden, erzzermalmenden Zähne.[@CR]Der Grund dafür bleibt allerdings mein GE-HEIM-NIS!","Vous devez me ramener [@VALUE(4)] [@SWITCH([@SHEET(itemData,itemNQ=11000164,41)],[@COLOR(#fff3f3f3)],[@COLOR(#ffc0ffa0)],[@COLOR(#ff60c8ff)],[@COLOR(#ffb38cff)],[@COLOR(#ffffa666)],[@COLOR(#ffe5dd7e)])][@EDGECOLOR(#ff262626)][@SHEETFR(xtx/itemName,12,itemNQ=11000164,2,1)][@EDGECOLOR($EC)][@COLOR($EC)]. Je ne peux pas vous expliquer pourquoi, mais elles sont d'une importance capitale pour mes recherches[@1D]! Je compte sur vous, [@IF($E9(4),ma chère assistante,mon cher assistant)].","它们偷了很多的矿石，有着会发黑色光泽的牙齿……[@CR]你给我收集[@VALUE(4)]颗[@SWITCH([@SHEET(itemData,11000164,41)],[@COLOR(#fff3f3f3)],[@COLOR(#ffc0ffa0)],[@COLOR(#ff60c8ff)],[@COLOR(#ffb38cff)],[@COLOR(#ffffa666)],[@COLOR(#ffe5dd7e)])][@EDGECOLOR(#ff262626)][@SHEET(xtx/itemName,11000164,131)][@EDGECOLOR($EC)][@COLOR($EC)]吧。[@CR]理由嘛……不能告诉你……拜托你啦！"
14,見て、この石切歯！[@CR]どれもひどく傷つき、すり減ってるでしょう？,"Gods, look at those beauties! And look! The thick crown, grooving and smoothing, these basins and cones!",Sieh dir nur mal diesen Zahn an![@CR]Komplett abgenutzt und von Rissen übersät ...,"Oui, c'est exactement ce que je cherchais[@1D]! Comme vous pouvez le constater, elles sont toutes très abîmées, et présentent une usure ca[@16]rac[@16]té[@16]ri[@16]sti[@16]que sur la partie supérieure.",嚯！你来看！[@CR]每一个上面都有伤痕，都是被磨损过的。
15,ほら、よく見なさい。[@CR]この歯冠を覆う、キラキラした金属性の表皮性物質。[@CR]スプリガンの歯の形成に、鉱石が不可欠なことが見てとれるでしょ。,"Look closely─you can just make out the metallic remnants in the black coating with the naked eye. And see, the crown of the tooth has been completely covered with a layer of minerals that have permeated the enamel! There is no denying these teeth have been formed by chewing rocks!","Sieh genau hin. Die Zahnkrone ist mit einer glänzenden Metallschicht überzogen. Die Spriggans müssen also Erze zu sich nehmen, damit ihre Zähne wachsen können.","Tenez, regardez cette matière épidermique brillante semblable à du métal qui recouvre la couronne. On peut en déduire que mâcher du minerai est in[@16]dis[@16]pen[@16]sa[@16]ble à la croissance de leur dentition.",你仔细看！[@CR]牙齿的表面不是覆盖有一层亮闪闪的金属制的表皮吗？[@CR]由此可以得出，魔石精在长牙齿的时候，矿石是必不可少的！
16,金属で覆った石切歯を使って、より硬い鉱石へと……[@CR]だんだん歯を硬化させながら、エサとなる石も変えて、[@CR]同種間で棲み分けをしているに違いないわ。,"Doing so would enable the sabletooth to chew even harder rocks and ores, thus covering their teeth with an even harder mineral coating, and so on, and so on.","Ihre Zähne werden mit dem Heranwachsen immer härter, wodurch sie nach und nach immer härteres Gestein zerbeißen können. Dies wiederum führt zu einer Habitat-Isolation zwischen den verschiedenen Altersgruppen.","Depuis leur plus jeune âge, leurs dents s'habituent à des minerais de plus en plus durs en se fortifiant grâce aux particules métalliques qui y sont contenues.",用包裹了金属的牙齿，啃食更加坚硬的矿石……[@CR]慢慢的牙齿会硬化，选择用来啃食的石头也会变化，[@CR]在同种族之间也一定是分栖共存的。
17,でも、セーブルトゥース・スプリガンぐらい高齢になると、[@CR]石切歯の抜ける間隔も短くなって……自分で掘るよりも[@CR]盗みに走っちゃうってわけね。年寄の冷水ってとこかしら？,"But looking at the roots, it seems the stress placed on the teeth eventually causes them to fall out as the spriggan ages. It must be for [@1A(1)]that[@1A(0)] reason that they resort to stealing from the miners─to avoid having to prize the ores out themselves!","Wenn die Spriggans ein so fort[@16]ge[@16]schrit[@16]te[@16]nes Alter erreichen, dass wir sie als Säbelzahn-Spriggans bezeichnen, sind ihre Zähne allerdings so spröde, dass sie eher Erze aus den Minen stehlen, denn selber in den harten Stein zu beißen ...","Mais lorsqu'ils atteignent un certain âge, comme les spriggans dent-de-sable, leurs dents sont tellement usées qu'elles finissent par tomber. Et lorsqu'ils n'ont plus assez de dents pour se nourrir, ils se laissent mourir.",但是，到了剑齿魔石精这种年纪，[@CR]换牙的间隔会更短……比起自己挖掘，偷盗来的更容易。[@CR]真是越大越不懂事啊。
18,やだ、私の師匠を思い出しちゃった。,"It rather reminds me of a professor I once had. When the last of [@1A(1)]his[@1A(0)] teeth fell out, his speech became all but unintelligible. Eventually, the university released him, citing an “inability to fulfill contractual obligations.” He fell into poverty after that, and died cold, alone, and hungry...","Meine Güte, nun halte ich schon Vorlesungen für Abenteurer. Entschuldige.","Que c'est triste, ça me rappelle un de mes professeurs qui avait perdu toutes ses dents. Impossible de comprendre ce qu'il bafouillait[@1D]!",哎呀，都让我想起我的师父了。
19,さてと、これでキミは、私の正式な助手よ。これは、今回のお給料。[@CR]ちなみに授業料分は天引きしといたから、そのつもりでね！,"But how about these spriggans!? Truly remarkable! Such an isolated and unique behavior as this among a single population of a species is a once-in-a-lifetime find! You have more than earned this reward, friend.","Lass mich dir dies als Bezahlung für deine Dienste als [@IF($E9(4),Assistentin,Assistent)] überreichen.[@CR]Die Unterrichtsgebühren habe ich bereits abgezogen, mach dir deswegen keine Sorgen.","Vous avez fait du bon travail, [@IF($E9(4),aventurière,aventurier)]. A partir d'aujourd'hui, vous êtes of[@16]fi[@16]ciel[@16]le[@16]ment mon [@IF($E9(4),assistante,assistant)][@1D]! D'ailleurs, voici votre première paye. Amputée bien sûr des frais pour le cours que je viens de vous dispenser, hihi.",那么，现在起你就是我正式的助手了。这是这次的报酬。[@CR]哦对了，我已经从里面扣除了学费，就这样啦。
20,目撃報告が集中してるのは、ここグリダニアの南、「タムタラの墓所」辺り。[@CR]そこに巣穴がある可能性は高いわ。行ってきてくれるわよね？,"The spriggans that interest me most are those in the south of Gridania, near the Tam[@1F]Tara Deepcroft. There are likely some nesting holes in the area. Oh, [@1A(1)]please[@1A(0)] say you'll do it! I couldn't possibly bring myself to kill the little dears on my own!","Berichten über durch Spriggans verursachte Schäden nach zu urteilen, muss sich im Süden von Gridania, in der Gegend um den Totenacker Tam-Tara, ein großes Nest befinden.","Pourriez-vous vous rendre vers l'Hypogée de Tam-Tara, au sud de Gridania, et me ramener [@VALUE(4)] [@SWITCH([@SHEET(itemData,itemNQ=11000164,41)],[@COLOR(#fff3f3f3)],[@COLOR(#ffc0ffa0)],[@COLOR(#ff60c8ff)],[@COLOR(#ffb38cff)],[@COLOR(#ffffa666)],[@COLOR(#ffe5dd7e)])][@EDGECOLOR(#ff262626)][@SHEETFR(xtx/itemName,12,itemNQ=11000164,2,1)][@EDGECOLOR($EC)][@COLOR($EC)][@1D]? Ne vous en faites pas, c'est pour le bien de la science.",根据目击情报显示，[@CR]它们的巢穴在格里达尼亚南边，塔姆·塔拉墓园附近的可能性较高。[@CR]你能替我跑一趟看看吗？
21,これは鉱石を噛み砕いたとき、そうなったに違いないのよ。[@CR]私の仮説は正しかった……スプリガンは、鉱石を食べてるんだわ！,This is [@1A(1)]precisely[@1A(0)] the type of wear I expected to see. This proves my hypothesis─the sabletooth spriggans are most certainly feeding on ore!,"Mit diesem Zahn wurden Erze und Gestein zerbissen - gar kein Zweifel. Damit bestätigt sich meine Hypothese, dass Spriggans sich zum Teil von Erzen und Gestein ernähren.","C'est le résultat de longues années passées à mâcher, à broyer diverses roches. J'avais donc vu juste... les spriggans mangent de la pierre[@1D]!",这一定是它们把矿石咬碎的时候留下的痕迹。[@CR]我的假设是成立的……魔石精是吃矿石的！
22,"というわけで、まとめよ？[@CR]私が探してるのはね、採掘師の間では「鉱石泥棒」で有名な[@CR]「セーブルトゥース・スプリガン」の「[@SWITCH([@SHEET(itemData,11000164,41)],[@COLOR(#fff3f3f3)],[@COLOR(#ffc0ffa0)],[@COLOR(#ff60c8ff)],[@COLOR(#ffb38cff)],[@COLOR(#ffffa666)],[@COLOR(#ffe5dd7e)])][@EDGECOLOR(#ff262626)][@SHEET(xtx/itemName,11000164,4)][@EDGECOLOR($EC)][@COLOR($EC)]」[@VALUE(4)]本よ。","Bring me [@IF($E5(4,0),[@IF($E2(4,10),[@SWITCH(4,one,two,three,four,five,six,seven,eight,nine,ten)],[@VALUE(4)])],[@VALUE(4)])] [@SWITCH([@SHEET(itemData,itemNQ=11000164,41)],[@COLOR(#fff3f3f3)],[@COLOR(#ffc0ffa0)],[@COLOR(#ff60c8ff)],[@COLOR(#ffb38cff)],[@COLOR(#ffffa666)],[@COLOR(#ffe5dd7e)])][@EDGECOLOR(#ff262626)][@SHEETEN(xtx/itemName,3,itemNQ=11000164,2,1)][@EDGECOLOR($EC)][@COLOR($EC)], and the deed will be done.","Also, hast du alles verstanden? Ich benötige [@VALUE(4)] [@SWITCH([@SHEET(itemData,11000164,41)],[@COLOR(#fff3f3f3)],[@COLOR(#ffc0ffa0)],[@COLOR(#ff60c8ff)],[@COLOR(#ffb38cff)],[@COLOR(#ffffa666)],[@COLOR(#ffe5dd7e)])][@EDGECOLOR(#ff262626)][@SHEETDE(xtx/itemName,5,11000164,2,4,1)][@EDGECOLOR($EC)][@COLOR($EC)] von Säbelzahn-Spriggans.","Ne vous trompez pas, c'est de [@VALUE(4)] [@SWITCH([@SHEET(itemData,itemNQ=11000164,41)],[@COLOR(#fff3f3f3)],[@COLOR(#ffc0ffa0)],[@COLOR(#ff60c8ff)],[@COLOR(#ffb38cff)],[@COLOR(#ffffa666)],[@COLOR(#ffe5dd7e)])][@EDGECOLOR(#ff262626)][@SHEETFR(xtx/itemName,12,itemNQ=11000164,2,1)][@EDGECOLOR($EC)][@COLOR($EC)] dont j'ai besoin.","记住喽。[@CR]我要的是[@VALUE(4)]颗在采矿工中有“矿石小偷”之称的[@CR]剑齿魔石精的[@SWITCH([@SHEET(itemData,11000164,41)],[@COLOR(#fff3f3f3)],[@COLOR(#ffc0ffa0)],[@COLOR(#ff60c8ff)],[@COLOR(#ffb38cff)],[@COLOR(#ffffa666)],[@COLOR(#ffe5dd7e)])][@EDGECOLOR(#ff262626)][@SHEET(xtx/itemName,11000164,131)][@EDGECOLOR($EC)][@COLOR($EC)]。"
