 ,0,1,2,3,4
 ,str,str,str,str,str
1,困ったことが起きたざーます。ぜひ、冒険者としてのお力、お貸し願いたいですわ。,[en],[de],[fr],[chs]
2,ウルダハからの蛮族討伐隊が、シルフ領に向かっているざーます。このままでは、駆け落ちした二人が危険ざーます！,[en],[de],[fr],[chs]
3,ここウルダハでは蛮族討伐が奨励されていること、既にご存じでしょうかしらん。,[en],[de],[fr],[chs]
4,噂によれば、剣闘士や呪術士たちがシルフ領に向かったということですの。駆け落ちした劇団員たちが戦いにまきこまれたら……、不安で仕方ないざーます。,[en],[de],[fr],[chs]
5,そこで、あなたに駆け落ちした二人を助けてほしいざーます。よろしいかしらん？,[en],[de],[fr],[chs]
6,彼女が無事に戻れば、あなたの魔法使い役はお役ご免ざーます。内緒にしておりましたけど、実は、キスシーンがありますわよ？,[en],[de],[fr],[chs]
7,彼女が無事に戻れば、あなたの魔法使い役はお役ご免ざーます。内緒にしておりましたけど、実は、入浴シーンでポロリがありますわよ？,[en],[de],[fr],[chs]
8,そうと決まれば、まずは、ウヴィエルさんの意見を仰がないと。二人を説得するには、ウヴィエルさんの許しがなくてはなりませんもの。,[en],[de],[fr],[chs]
9,そうですわね……、思いついたざーます。駆け落ちしたあの娘から手紙が来たことにするざーます。,[en],[de],[fr],[chs]
10,大変なことをしてしまったことにようやく気づいて、泣きながら謝っていた……とでも説明するざーます。あなたの演技力が試されますわよ。,[en],[de],[fr],[chs]
11,なんですって、あの馬鹿な娘から手紙が来たんですって？,[en],[de],[fr],[chs]
12,それで何て書いてあったのかしら？,[en],[de],[fr],[chs]
13,貴方……なんて演技が下手くそなの……,[en],[de],[fr],[chs]
14,魔法使い役として、練習してきたはずですわよね？　それがこんな有様だなんて、悪夢ですわ！,[en],[de],[fr],[chs]
15,冒険者、すぐにシルフ領へ行きなさい。魔法使い役を取り戻すのが、貴方の使命です、責任です、絶体命令よ！,[en],[de],[fr],[chs]
16,結婚式が始まるはふっち。,[en],[de],[fr],[chs]
17,結婚式って、悲ぴいはふっち。,[en],[de],[fr],[chs]
18,ああ、おまえのほこと、覚えてあるはふっち。でも今は、魔法使ひとかゆう話に構ってられないんはふっち。,[en],[de],[fr],[chs]
19,ちどいことが起きてね、結婚式をちなくちゃならなくなっちゃったのはふっち。,[en],[de],[fr],[chs]
20,……ち？　誰の結婚式なのはふっち？　ほら、式が始まるはふっち。,[en],[de],[fr],[chs]
21,ちゃようなら、ちゃようなら。また、会おふっち。ちゃようなら。,[en],[de],[fr],[chs]
22,悪ひ人たちは追っ払えたはけっど、ぽくの友達、死んぢゃったんだはふっち……。,[en],[de],[fr],[chs]
23,ウルダハの都市のほ人たちが、ぽくたっちを攻めてきたんだはふっち。,[en],[de],[fr],[chs]
24,なんで、あたしを助けてくれないのさ！　一人でさっさと逃げるなんて！,[en],[de],[fr],[chs]
25,助けようとしたじゃないか！　君の方こそ、僕をドンって押して逃げただろ！,[en],[de],[fr],[chs]
26,結婚式をちているってゆうのほに、こほの二人ったら、うるちゃくてちょうがないはふっち。,[en],[de],[fr],[chs]
27,ねぇ、どほうにかちて、こほの喧嘩を、とめてくれなはふっち？,[en],[de],[fr],[chs]
28,ウルダハから迎えに来てくれたの！？,[en],[de],[fr],[chs]
29,ウヴィエルさまが許してくださるなんて……ああ、よかった！　また舞台に立てるのね！,[en],[de],[fr],[chs]
30,ちょっと待て、金を払ってからだぞ！　おまえがここで使った金を払いやがれ、200000Gだ！,[en],[de],[fr],[chs]
31,そんなに使ってないわよ！,[en],[de],[fr],[chs]
32,ふふふ……幸せの絶頂から突き落としてあげるわ。毒リンゴで保険金をせしめたと知れたら、あの娘は処刑。,[en],[de],[fr],[chs]
33,そして王子は、真実を告げた魔法使いを妃にする。,[en],[de],[fr],[chs]
34,魔法使いさま、あの王子は真実の愛を知りません。身も心も綺麗なあなたには、相応しくな……,[en],[de],[fr],[chs]
35,ネズミのくせにおだまりなさい！,[en],[de],[fr],[chs]
36,愛なぞ、この世には必要ないもの。,[en],[de],[fr],[chs]
37,……確かに、金は大切だったわね。私が使わせた分は、ちゃんと払うわ。,[en],[de],[fr],[chs]
38,こんな酷い目にあうなんて、誰か、誰か、助けてちょうだい！,[en],[de],[fr],[chs]
39,あなた……まだ、私を見捨てていなかったのね……,[en],[de],[fr],[chs]
40,せめて、最後のときを、あなたと過ごせて良かったわ。,[en],[de],[fr],[chs]
41,今までありがとう。,[en],[de],[fr],[chs]
42,真実の愛が！　私にかけられた邪悪な魔法を解き放ったのだ！,[en],[de],[fr],[chs]
43,ありがとう、愛しい人よ。私は南国の王子。故郷へ一緒に戻ろう。,[en],[de],[fr],[chs]
44,……故郷へ戻りたい。僕の生活は、あそこにあるんだ。無理言ってすまなかった、僕も連れていってくれ。,[en],[de],[fr],[chs]
45,喧嘩が終わって、よかったはふっち。ぽくたっちが、安全な場所まで送っちぇあげるはふっち。,[en],[de],[fr],[chs]
46,ぽくたっちは、魔法使ひだっからはふっち。これくらぴ、朝飯前っちぇわけはふっち。,[en],[de],[fr],[chs]
47,魔法使い役もネズミ役も、戻ってきたわね。二人とも、かなり反省しているようだわ、当たり前だけれど。,[en],[de],[fr],[chs]
48,勿論、駆け落ちなんて大迷惑なことした罪は、きちんと償ってもらいます。とりあえず、貴方へのお礼を出させたわ。,[en],[de],[fr],[chs]
49,気にする必要はないわよ、あの二人はつつがなく帰ってこれたんですからね。さぁ、さっさとドスティに手続きしてもらいなさいな。,[en],[de],[fr],[chs]
50,本当に、無事でよかったざーます。しかも、パレードにも間に合いましたし。,[en],[de],[fr],[chs]
51,彼らが戻ってきた結果、あなたの出番はなくなってしまいましたけれど……その分、お礼はたっぷり出すざーます。,[en],[de],[fr],[chs]
52,それに、今回の事件で、ウヴィエルさんとたくさんお話できましたでしょう？　もし、ウヴィエルさんの覚えがよければ、あなた専用の役をいただけますわ。,[en],[de],[fr],[chs]
53,王宮での舞台は、とても晴れ晴れしいものざーます。そのときまでに、裁縫師の腕を磨くざーます。ここでは、手ずから衣装をあつらえることができれば、一流の役者と認められますの。,[en],[de],[fr],[chs]
54,さぁ、これを御役立てるざーます。冒険者といえども、油断なきよう。どんなときにも、身だしなみにはお気をつけなさいませ。,[en],[de],[fr],[chs]
55,さぁ、これを御役立てるざーます。冒険者といえども、油断なきよう。どんなときにも、身だしなみにはお気をつけなさいませ。,[en],[de],[fr],[chs]
