 ,0,1,2,3,4
 ,str,str,str,str,str
1,森の魔法使いさん、あなたの魔法を使うときが来たざーます。,[en],"Werter Magier des Waldes, es ist an der Zeit, Zauber zu sprechen.",[fr],[chs]
2,駆け落ちしたあの二人は、まだ戻ってこないざーます。あなたはまだ、魔法使いであり続ける必要がありますわ。「○○」（裁縫ギルド）で御待ちしていますわよ。,[en],"Die zwei Ausreißer sind noch immer nicht zurück, deshalb bleibt die Rolle wohl doch an dir hängen. Komm bitte gleich zur ○○.",[fr],[chs]
3,ここ「○○」では通常、お得意様のお住いで注文を承るのですけど……この時期は、とてもそうは言っていられないざーます。,[en],"Für gewöhnlich besuchen wir unsere Kunden zu Hause, um ihre Bestellungen entgegen zu nehmen, aber in einer Zeit wie dieser ist das natürlich nicht möglich.",[fr],[chs]
4,パレードの衣装をお買い求めになるお客様が、連日のように押し掛けてきていますのよ。そういったお客様に、ただお品物をお渡しするだけでは味気ないと思いませんかしらん？,[en],"Jeden Tag drängen sich die Kunden uneingeladen, auf der Suche nach Gewändern für die Parade, in unser Geschäft.Findest du es nicht auch reizlos und eintönig, ihnen einfach nur ihre Waren zu übergeben?",[fr],[chs]
5,せっかくの機会ですから、遊興の機会をご提供さしあげなくては。「○○劇団」の腕の見せ所というわけざーます。,[en],"Wenn sich uns schon so eine Gelegenheit bietet, sollten wir diese auch nutzen und etwas Stimmung in den Verkaufsalltag bringen.Hier können wir die Fähigkeiten unserer Schau[@16]spiel[@16]truppe voll ausschöpfen.",[fr],[chs]
6,そこであなた、森の魔法使いさんの出番となりますの。おわかりざーます？,[en],Und? Du ahnst es bereits?Bingo! Das wird dein erster großer Auftritt als Magier.,[fr],[chs]
7,かまどに突き落とされますわよ？,[en],Du wirst immer ein Laie bleiben ...,[fr],[chs]
8,それでは、ソンブルカンから心得を伝授していただきなさい。お客様を直接相手にするのですから、責任重大ざーます。,[en],"Gut. Höre dir genau die Anweisungen von Sombrequain an und halte dich daran.Wenn du direkt mit unseren Kunden zu tun hast, lastet eine große Verantwortung auf dir.",[fr],[chs]
9,おやおや、どうみても冒険者といったお人でっせ。そのままでは、「魔法使いが、あなたを一瞬でイリュージョン」という謳い文句が使えないでっせ。,[en],"Ojemine! Wie man dich auch dreht und wendet, dir sieht man den Abenteurer doch sofort an.Unser geplantes Motte: „Lass dich von uns verzaubern“ können wir uns da abschminken ...",[fr],[chs]
10,魔法使いの服装はどうしたでっせ？　まずは、その服装をしてくださるでっせ。,[en],Was ist denn mit deiner Verkleidung passiert? Willst du dich nicht erst einmal umkleiden?,[fr],[chs]
11,見た目だけはどうにか、それらしくなったでっせ。まぁ、できるだけお客様とはお話ししないでいれば、バレやしないでっせ。,[en],"Gar nicht mal schlecht mein Lieber/meine Liebe. Wenn du es vermeidest, mit den Kunden zu sprechen, könnten sie dir den Magier glatt abnehmen.",[fr],[chs]
12,お客様の商品が決まったら、それらしい動きでも取って、場を盛り上げるでっせ。例えば……,[en],"Wenn sich ein Kunde für etwas Bestimmtes entschieden hat, kannst du eine entsprechende Pose einnehmen, um der guten Stimmung Ausdruck zu verleihen.Zum Beispiel ...",[fr],[chs]
13,こんな感じで魔法使いっぽくしていただければ、あとはこちらで首尾よく仕上げるでっせ。,[en],Hast du gesehen? So wie es sich für einen Magier ziemt. Den Rest kannst du getrost uns überlassen.,[fr],[chs]
14,お客様がいらっしゃいましたよ！　さあ、どんな品をお探しか尋ねてみるでっせ。,[en],"Da kommen auch schon die nächsten Kunden. Sei so gut und frage sie, wonach sie suchen.",[fr],[chs]
15,どんな服がいいのかって言われても。そういうのもイリュージョンしてくれるのが、○○（裁縫ギルド）の魔法使いさんのお仕事じゃないの？　占い師の私を馬鹿にしないでほしいわ。,[en],"Was ich suche? Ich dachte, dass man mir das hier sagen würde. Ich würde ich gerne von kreativen Fachleuten verzaubern lassen.Aber treibe keine Späße mit mir, ich bin nämlich ein Wahrsager.",[fr],[chs]
16,魔法使いさん、魔法使いさん、お願い。今度のパレードでは、思いっきり目立ちたいから、協力してほしいの。魔法使いさんが選んだものなら確実でしょ。,[en],"Bitte hilf mir, lieber Magier. Ich will bei der nächsten Parade mal richtig auffallen. Auf die Auswahl eines Magier kann ich mich mit Gewissheit verlassen.",[fr],[chs]
17,俺は魔道士だ。コロシアム（仮）で開催される大会に出場する。はるばる海を越えてやってきたという魔法使い殿に、勝利を導き出す逸品を選んでいただきたい。,[en],"Ich bin ebenfalls Magier. Ich trete bei einer Veranstaltung in der Arena auf.Ich brauche etwas ganz Außer[@16]ge[@16]wöhn[@16]liches. Etwas, das einem Magier, der das weite Meer überquerte, um den Kontrahenten den Sieg zu bescheren, würdig ist.",[fr],[chs]
18,できるだけナンパが成功する服を頼むよ！　俺はこのパレードに人生を賭けてるんだ！　一晩で5人……いや、こうなったら10人のナンパ成功の新記録に挑むんだ！,[en],"Ich suche etwas, mit dem ich auf der Parade gut Mädels angraben kann. Diese Parade ist mein Lebensinhalt!Fünf an einem Abend ... ach was rede ich ... Wenn ich bei zehn Erfolg habe ... das wäre ein neuer Rekord!",[fr],[chs]
19,私の妹に、勝負服をお願いしたいの。私じゃないわ、私の妹よ。あと一息で、彼氏を落とせそうなのよ。この彼氏ってのが優柔不断男で、私の方から迫るしか……い、いえ、妹の話なのよ？,[en],"Ich suche nach etwas richtig Schickem für meine Schwester. Sie mag jemanden, aber er kann sich nicht entscheiden.Wenn ich nicht die Initiative ergrei... Ähem, meine Schwester ... es geht natürlich um meine Schwester.",[fr],[chs]
20,とても悲しいことに、結婚式があるんです。そこで、身に着けていると無事に来世へ行けるという白いベール（仮）をお願いします。,[en],"Ich brauche etwas aus sehr traurigem Anlass, es geht um eine Hochzeit.Habt ihr einen weißen Schleier（仮）, der für eine sichere Wiedergeburt sorgt?",[fr],[chs]
21,やっかいなお客様ばかりでっせ。……おっと、いえ、やっかみを買いそうなくらい有望なお客様でっせ。,[en],"Nur lästige ... <Räusper> ... Nur wundervolle Kunden, die sich bei uns den Neid der andern erkaufen.",[fr],[chs]
22,魔法使い、お客さんたちが求めている服装を探ってみてほしいでっせ。魔法使いならできるはずでっせ。,[en],"Kannst du bitte die Artikel heraussuchen, nach denen die Kunden verlangen? Als Magier dürfte das für dich doch ein Leichtes sein.",[fr],[chs]
23,パレードじゃ、にせ占い師がバンバン店を開くのよ。将来とやらを占ってもらいたい浮かれたカップルが、馬鹿面下げて並ぶってわけ。,[en],"Bei der Parade schießen Buden von Scharlatanen und falschen Wahrsagern wie Pilze aus dem Boden.Und Pärchen, die sich ihre rosige Zukunft voraussagen lassen wollen, stehen wie dummes Rindvieh davor Schlange.",[fr],[chs]
24,ま、カップルが選びそうな占い師ってことだから、明るい色の服がいいんじゃないかしらね。赤とか、情熱的ならそれらしいんじゃない？,[en],"Wenn man diese Pärchen anlocken möchte, sollte man am besten fröhliche Farben nehmen. Rot für die Leidenschaft ist bestimmt auch nicht verkehrt.",[fr],[chs]
25,いいけど、あの品は返品のものしかないかも。ほつれていたと思うから、「○○の糸」を持っていない？,[en],"Gute Wahl, aber davon haben wir nur noch zurück[@16]geschickte Ware mit losen Fäden. Du hast nicht zufällig etwas ○○-Garn parat?",[fr],[chs]
26,パレードで目立つっていったら、やっぱり山車の上で踊りまくることよね。踊り子はみんな、キラキラ派手な服装をしているはずだから、目立つのは難しいわ。,[en],"Wer auf der Parade auffallen möchte, tanzt für gewöhnlich wie ein Irrer auf einem der geschmückten Festwagen. Allerdings tragen alle Tänzer glitzernde, grelle Kostüme. Unter denen wiederum aufzufallen ist gar nicht so einfach.",[fr],[chs]
27,せめて、身体を軽くしてあげたらどうかしら。動きが楽になるようにしてあげたら、軽業にもキレが出て、目立つこと間違いなしよ。,[en],"Man könnte das Kostüm zumindest leicht machen, damit sich der Tänzer darin mühelos bewegen kann. Mit akrobatischen Kunststücken kann man gewiss die Blicke auf sich ziehen.",[fr],[chs]
28,軽くするためには、かなり手を入れないと駄目だわ。「○○」と「○○」を持っていない？,[en],"Um dieses Stück leichter zu machen, muss ich vieles umnähen. Bring mir bitte ○○ und ○○.",[fr],[chs]
29,助かるでっせ。こちらでも、いくつか選んでみたでっせ。着替えさせて、さっさと追い返す……おっと、いえ、追い風吹かせてさしあげるでっせ。,[en],Du bist eine große Hilfe. Ich habe einige ausgewählt.Lass die Kunden die Kleider anprobieren und schick sie weg ... <Räusper> ... Sag ihnen wie schick sie aussehen.,[fr],[chs]
30,では、用意ができたお客様に魔法をかけてあげてください。さぁどうぞ。,[en],"Dann wirke bitte deine Magie auf die Kunden, die du bereits bedient hast.",[fr],[chs]
31,結婚式をしたいだなんて、酷い客です。追い出したいのに、二人の世界にどっぷり浸かっていて、聞く耳を持ってくれないんです。,[en],"Wie furchtbar. Ich habe ja versucht, es ihnen auszureden, aber sie wollen einfach nicht auf mich hören.",[fr],[chs]
32,いやはや、どうにかなりましたでっせ。悪い汗をかきましたでっせ。,[en],Puhhh! Das ist ja noch mal gut gegangen. Zwischen[@16]zeit[@16]lich bin ich ganz schön ins Schwitzen geraten.,[fr],[chs]
33,実は私も、この店を任されて数日なんでっせ。駆け落ちした一人が、ここの店員なんでっせ。あなたが押しつけられた魔法使い役の方と一緒に逃げたでっせ。,[en],"Um ehrlich zu sein, ich habe selbst erst vor einigen Tagen die Verantwortung hier im Laden übernommen.Die Dame, die hier als Verkäuferin angestellt war, ist nämlich zusammen mit dem Typ durchgebrannt, der den Magier spielen sollte. Die Rolle, die man letztendlich dir aufgedrückt hat.",[fr],[chs]
34,ちなみに、今度の公演では、私はネズミ役でっせ。魔法使いの手で、立派なカボチャに……でなく、御者になるでっせ。あなたと一緒で、主役なんでっせ。,[en],Ich werde übrigens auch eine Nebenrolle übernehmen. Durch deine Magie werde ich zu einem Wagenlenker. Wir werden also gemeinsam auftreten.,[fr],[chs]
35,とにかく、お仕事は終わりでっせね。ドスティさんに報告しに行きましょでっせ。,[en],"Wie dem auch sei, deine Arbeit ist jedenfalls getan. Erstatte bitte Deaustie Bericht.",[fr],[chs]
36,[play]！　ソンブルカンも、ちょっといらして！,[en],"[play]! Sombrequain, komm bitte auch her!",[fr],[chs]
37,あなた方がおもてなしをしたお客様の一人が、こんなものを残していったざーます。,[en],"Weil ihr beiden alle Kunden so zuvorkommend bedient habt, hat einer von ihnen etwas zum Dank hinterlassen.",[fr],[chs]
38,これは……どんぐり？（仮）,[en],Aber das ist ja ... eine Eichel（仮）?,[fr],[chs]
39,シルフ族が混じっていたざーます。盗人猛々しいとはこのこと、結婚式用のベールを買い求めていくなんて。,[en],Unter den Kunden war ein Sylphe. Ohne Gewissensbisse einen Hoch[@16]zeits[@16]schleier zu kaufen ...,[fr],[chs]
40,ああ、あの客でっせ！　シルフ族が変身していたでっせ！？,[en],"Ah, ich erinnere mich an diesen Kunden! Das war ein verwandelter Sylphe!?",[fr],[chs]
41,そういったことを看破るのが、あなたがたのお仕事ざーます。しかも結婚式のベールだなんて、あの二人は契りを交わすつもりざーます！？,[en],"So etwas zu durchschauen gehört zu deiner Arbeit im Geschäft. Und dazu noch ein Schleier, wollen die beiden sich etwa das Jawort geben!?",[fr],[chs]
42,放っておきなさい。,[en],"Selbst wenn, dann ist das doch ihre Sache.",[fr],[chs]
43,勢いで人生を変えようとした罰よ。痛い目にあってみないと。,[en],"Wer sein Leben auf einen Schlag ändern will, hat es nicht besser verdient. Die werden schon sehen, was sie davon haben.",[fr],[chs]
44,貴方たちも、痛い目にあって勉強しなさいね。シルフ族にだまされたのですから、報酬は抑え目よ。,[en],"Ihr werdet auch sehen, was ihr davon habt ... euch von einem Sylphen an der Nase herumführen zu lassen.Ich werde eure Belohnung kürzen.",[fr],[chs]
45,お互い、悪い星の下に生まれたでっせね……。,[en],Unsere  Kooperation steht unter keinem guten Stern ...,[fr],[chs]
46,お互い、悪い星の下に生まれたでっせね……。,[en],Unsere  Kooperation steht unter keinem guten Stern ...,[fr],[chs]
