 ,0,1,2,3,4,5,6,7,8,9,10,11,12,13,14,15,16,17,18,19
 ,str,str,str,s8,s8,s8,str,s8,str,s8,s8,s8,s8,str,str,str,s8,s8,s8,str
1,メインアーム,Main Hand,Main,0,0,0,Hauptwaffe,1,[de],1,0,0,0,Main directrice,main directrice,mains directrices,0,1,0,主手
2,サブアーム,Off Hand,Off,0,0,0,Nebenwaffe,1,[de],1,0,0,0,Main non-directrice,main non-directrice,mains non-directrices,0,1,0,副手
3,特殊メインアーム,Special Main Hand,[en],0,0,0,Spezielle Hauptwaffe,1,[de],1,0,0,0,Main directrice (autre),main directrice (autre),mains directrices (autre),0,1,0,特殊主手
4,特殊サブアーム,Special Off Hand,[en],0,0,0,Spezielle Nebenwaffe,1,[de],1,0,0,0,Main non-directrice (autre),main non-directrice (autre),mains non-directrices (autre),0,1,0,特殊副手
5,投擲武器,Throwing Weapon,Throwing,0,0,0,Wurfwaffe,1,[de],1,0,0,0,Arme de jet,arme de jet,arme de jet,1,1,0,投掷武器
6,携帯（メイン）,Pack,Pack,0,0,0,Beutel,1,[de],1,0,0,0,Sacoche,sacoche,sacoches,0,1,0,主包
7,携帯（サブ）,Pouch,Pouch,0,0,0,Munitionsgurt,1,[de],1,0,0,0,Gibecière,gibecière,gibecières,0,1,0,副包
8,頭（インナー）,Lining,[en],0,0,0,Kopfschmuck,1,[de],1,0,0,0,Tête (sous-vêtement),tête (sous-vêtement),têtes (sous-vêtements),0,1,0,衬里
9,頭,Head,Head,0,0,0,Kopf,1,[de],1,0,0,0,Tête,tête,têtes,0,1,0,头部
10,胴（インナー）,Undershirt,Shirt,0,0,0,Rumpf (Drunter),1,[de],1,0,0,0,Maillot,maillot,maillots,0,0,0,内衣
11,胴,Body,Body,0,0,0,Rumpf,1,[de],1,0,0,0,Torse,torse,torses,0,0,0,身体
12,脚（インナー）,Undergarment,Garment,0,0,0,Beine (Drunter),1,[de],1,0,0,0,Sous-vêtement,sous-vêtement,sous-vêtements,0,0,0,内裤
13,脚,Legs,Legs,0,0,0,Beine,1,[de],1,0,0,0,Jambes,jambes,jambes,0,1,0,腿部
14,手,Hands,Hands,0,0,0,Hände,1,[de],1,0,0,0,Mains,mains,mains,0,1,0,手部
15,足,Feet,Feet,0,0,0,Füße,1,[de],1,0,0,0,Pieds,pieds,pieds,0,0,0,脚部
16,帯,Waist,Waist,0,0,0,Taille,1,[de],1,0,0,0,Taille,taille,tailles,0,1,0,腰带
17,首,Neck,Neck,0,0,0,Hals,1,[de],1,0,0,0,Cou,cou,cous,0,0,0,颈部
18,耳,Ears,Ears,0,0,0,Ohren,1,[de],1,0,0,0,Oreilles,oreilles,oreilles,1,1,0,右耳
19,左耳,Left Ear,L.Ear,0,0,0,Linkes Ohr,1,[de],1,0,0,0,Oreilles,oreilles,oreilles,1,1,0,左耳
20,腕,Wrists,Wrists,0,0,0,Handgelenke,1,[de],1,0,0,0,Poignets,poignets,poignets,0,0,0,右腕
21,左腕,Left Wrist,L.Wrist,0,0,0,Linkes Handgelenk,1,[de],1,0,0,0,Poignets,poignets,poignets,0,0,0,左腕
22,右指,Right Finger,R.Finger,0,0,0,Rechte Finger,1,[de],1,0,0,0,Bague droite,bague droite,bagues droites,1,0,0,右食指
23,左指,Left Finger,L.Finger,0,0,0,Linke Finger,1,[de],1,0,0,0,Bague gauche,bague gauche,bagues gauches,1,0,0,左食指
24,右薬指,Right Ring Finger,R.Ring,0,0,0,Rechter Ringfinger,1,[de],1,0,0,0,Annulaire droit,annulaire droit,annulaires droits,1,0,0,右无名指
25,左薬指,Left Ring Finger,L.Ring,0,0,0,Linker Ringfinger,1,[de],1,0,0,0,Annulaire gauche,annulaire gauche,annulaires gauches,1,0,0,左无名指
26,アミュレット1,Periapt 1,[en],0,0,0,Glücksbringer 1,1,[de],1,0,0,0,Amulette 1,amulette 1,amulettes 1,0,0,0,护身符 1
27,アミュレット2,Periapt 2,[en],0,0,0,Glücksbringer 2,1,[de],1,0,0,0,Amulette 2,amulette 2,amulettes 2,0,0,0,护身符 2
28,アミュレット3,Periapt 3,[en],0,0,0,Glücksbringer 3,1,[de],1,0,0,0,Amulette 3,amulette 3,amulettes 3,0,0,0,护身符 3
29,アミュレット4,Periapt 4,[en],0,0,0,Glücksbringer 4,1,[de],1,0,0,0,Amulette 4,amulette 4,amulettes 4,0,0,0,护身符 4
30,アミュレット5,Periapt 5,[en],0,0,0,Glücksbringer 5,1,[de],1,0,0,0,Amulette 5,amulette 5,amulettes 5,0,0,0,护身符 5
31,アミュレット6,Periapt 6,[en],0,0,0,Glücksbringer 6,1,[de],1,0,0,0,Amulette 6,amulette 6,amulettes 6,0,0,0,护身符 6
32,アミュレット7,Periapt 7,[en],0,0,0,Glücksbringer 7,1,[de],1,0,0,0,Amulette 7,amulette 7,amulettes 7,0,0,0,护身符 7
33,アミュレット8,Periapt 8,[en],0,0,0,Glücksbringer 8,1,[de],1,0,0,0,Amulette 8,amulette 8,amulettes 8,0,0,0,护身符 8
34,(矢弾)右矢弾もしくは左矢弾,Left or Right Ammunition,[en],0,0,0,Munition (links oder rechts),1,[de],1,0,0,0,Munition (droite ou gauche),munition (droite ou gauche),munitions (droite ou gauche),0,1,0,右手弹药或者左手弹药
35,(矢弾)両矢弾,Both Ammunitions,[en],0,0,0,Munition (beide),1,[de],1,0,0,0,Munition (droite et gauche),munition (droite et gauche),munitions (droite et gauche),0,1,0,双手弹药
36,(片手武器)利き腕もしくは逆腕,Left or Right One-handed Weapon,[en],0,0,0,Einhandwaffe,1,[de],1,0,0,0,Arme à une main,Arme à une main,Arme à une main,1,1,0,右手持或左手持单手武器
37,(両手武器)両手,Two-handed Weapon,[en],0,0,0,Zweihandwaffe,1,[de],1,0,0,0,Arme à deux mains,arme à deux mains,armes à deux mains,1,1,0,双手武器
38,(防具)全身,Full Body Armor,[en],0,0,0,Ganz[@16]kör[@16]per[@16]rüs[@16]tung,1,[de],1,0,0,0,Armure complète,armure complète,armures complètes,1,1,0,全身防具
39,(アクセサリ)右手首もしくは左手首,Wrist,[en],0,0,0,Handgelenk,1,[de],1,0,0,0,Poignet droit ou gauche,poignet droit ou gauche,poignets droit ou gauche,0,0,0,右手腕或左手腕饰品
40,(アクセサリ)両手首,Wrists,[en],0,0,0,Beide Handgelenke,1,[de],1,0,0,0,Poignets droit et gauche,poignets droit et gauche,poignets droit et gauche,0,0,0,双手腕饰品
41,(アクセサリ)右耳もしくは左耳,Ear,[en],0,0,0,Ohr,1,[de],1,0,0,0,Oreille droite ou gauche,oreille droite ou gauche,oreilles droite ou gauche,1,1,0,右耳或左耳饰品
42,(アクセサリ)両耳,Ears,[en],0,0,0,Beide Ohren,1,[de],1,0,0,0,Oreilles droite et gauche,oreilles droite et gauche,oreilles droite et gauche,1,1,0,双耳饰品
43,(アクセサリ)右人差指もしくは左人差指,Index Finger,[en],0,0,0,Zeigefinger,1,[de],1,0,0,0,Index droit ou gauche,index droit ou gauche,index droit ou gauche,1,0,0,右手或左手食指饰品
44,(アクセサリ)両人差指,Index Fingers,[en],0,0,0,Beide Zeigefinger,1,[de],1,0,0,0,Index droit et gauche,index droit et gauche,index droit et gauche,1,0,0,双手食指饰品
45,(アクセサリ)右薬指もしくは左薬指,Ring Finger,[en],0,0,0,Ringfinger,1,[de],1,0,0,0,Annulaire droit ou gauche,annulaire droit ou gauche,annulaire droit ou gauche,1,0,0,右手或左手无名指饰品
46,(アクセサリ)両薬指,Ring Fingers,[en],0,0,0,Beide Ringfinger,1,[de],1,0,0,0,Annulaires droit et gauche,annulaires droit et gauche,annulaires droit et gauche,1,0,0,双手无名指饰品
47,アミュレット,Amulet,[en],0,0,0,Glücksbringer,1,[de],1,0,0,0,Amulette,amulette,amulettes,1,1,0,护身符
48,どこでも,Anywhere,[en],0,0,0,Überall,1,[de],1,0,0,0,Partout,partout,partout,0,0,0,各处
