 ,0,1,2,3,4,5,6,7,8,9
 ,,,,str,str,str,str,,,str
0,,,,なし,Clanless,Unbekannt,Inconnu,,,无
1,,,,ミッドランダー ♂,Midlander Male,Wiesländer ♂,Hyurois,,,中原之民 男
2,,,,ミッドランダー ♀,Midlander Female,Wiesländer ♀,Hyuroise,,,中原之民 女
3,,,,ハイランダー ♂,Highlander Male,Hochländer ♂,Hyurgoth,,,高地之民 男
4,,,,フォレスター ♂,Wildwood Male,Erlschatten ♂,Sylvestre ♂,,,森林之民 男
5,,,,フォレスター ♀,Wildwood Female,Erlschatten ♀,Sylvestre ♀,,,森林之民 女
6,,,,シェーダー ♂,Duskwight Male,Dunkelalb ♂,Crépusculaire ♂,,,黑影之民 男
7,,,,シェーダー ♀,Duskwight Female,Dunkelalb ♀,Crépusculaire ♀,,,黑影之民 女
8,,,,プレーンフォーク ♂,Plainsfolk Male,Halmling ♂,Peuple des Plaines ♂,,,平原之民 男
9,,,,プレーンフォーク ♀,Plainsfolk Female,Halmling ♀,Peuple des Plaines ♀,,,平原之民 女
10,,,,デューンフォーク ♂,Dunesfolk Male,Sandling ♂,Peuple des Dunes ♂,,,沙漠之民 男
11,,,,デューンフォーク ♀,Dunesfolk Female,Sandling ♀,Peuple des Dunes ♀,,,沙漠之民 女
12,,,,サンシーカー ♀,Seeker of the Sun Female,Goldtatze ♀,Tribu du Soleil,,,逐日之民 女
13,,,,ムーンキーパー ♀,Keeper of the Moon Female,Mondstreuner ♀,Tribu de la Lune,,,护月之民 女
14,,,,ゼーヴォルフ ♂,Sea Wolf Male,Seewolf ♂,Clan de la Mer,,,北洋之民 男
15,,,,ローエンガルデ ♂,Hellsguard Male,Lohengarde ♂,Clan du Feu,,,红焰之民 男
