 ,0,1,2,3,4
 ,str,str,str,str,str
0,なし,[en],[de],[fr],无
1,なし,Limsa Lominsa Quests,Abenteuer in Limsa Lominsa,Quêtes de Limsa Lominsa,无
2,なし,Gridania Quests,Abenteuer in Gridania,Quêtes de Gridania,无
3,なし,Ul'dah Quests,Abenteuer in Ul'dah,Quêtes d'Ul'dah,无
4,なし,Ishgard Quests,Abenteuer in Ishgard,Quêtes d'Ishgard,无
5,メインクエスト,Main Scenario Quests,Aufträge des Hauptszenarios,Epopée,主线剧情
6,格闘士クエスト,Pugilist Quests,Lehrjahre als Faustkämpfer,Quêtes de pugiliste,格斗家任务
7,剣術士クエスト,Gladiator Quests,Lehrjahre als Gladiator,Quêtes de gladiateur,剑术师任务
8,斧術士クエスト,Marauder Quests,Lehrjahre als Marodeur,Quêtes de maraudeur,斧术师任务
9,弓術士クエスト,Archer Quests,Lehrjahre als Waldläufer,Quêtes d'archer,弓箭手任务
10,槍術士クエスト,Lancer Quests,Lehrjahre als Pikenier,Quêtes de maître d'hast,枪术师任务
11,呪術士クエスト,Thaumaturge Quests,Lehrjahre als Thaumaturg,Quêtes d'occultiste,咒术师任务
12,幻術士クエスト,Conjurer Quests,Lehrjahre als Druide,Quêtes d'élé[@16]men[@16]ta[@16]lis[@16]te,幻术师任务
13,木工師クエスト,Carpenter Quests,Lehrjahre als Zimmermann,Quêtes de menuisier,刻木匠任务
14,鍛冶師・甲冑師クエスト,Blacksmith & Armorer Quests,Lehrjahre als Grobschmied & Plattner,Quêtes de forgeron et d'armurier,锻铁匠·铸甲匠任务
15,なし,Secret Quests,Geheimaufträge,Quêtes secrètes,无
16,彫金師クエスト,Goldsmith Quests,Lehrjahre als Goldschmied,Quêtes d'orfèvre,雕金匠任务
17,革細工師クエスト,Leatherworker Quests,Lehrjahre als Gerber,Quêtes de tanneur,制革匠任务
18,裁縫師クエスト,Weaver Quests,Lehrjahre als Weber,Quêtes de couturier,裁衣匠任务
19,錬金術師クエスト,Alchemist Quests,Lehrjahre als Alchemist,Quêtes d'alchimiste,炼金术士任务
20,調理師クエスト,Culinarian Quests,Lehrjahre als Gourmet,Quêtes de cuisinier,烹调师任务
21,採掘師クエスト,Miner Quests,Lehrjahre als Minenarbeiter,Quêtes de mineur,采矿工任务
22,園芸師クエスト,Botanist Quests,Lehrjahre als Gärtner,Quêtes de botaniste,园艺工任务
23,漁師クエスト,Fisher Quests,Lehrjahre als Fischer,Quêtes de pêcheur,捕鱼人任务
24,種別24,[en],[de],[fr],种类24
25,種別25,[en],[de],[fr],种类25
26,種別26,[en],[de],[fr],种类26
27,種別27,[en],[de],[fr],种类27
28,種別28,[en],[de],[fr],种类28
29,種別29,[en],[de],[fr],种类29
30,種別30,[en],[de],[fr],种类30
31,種別31,[en],[de],[fr],种类31
32,種別32,[en],[de],[fr],种类32
100,-,-,-,-,-
101,サブクエスト,Sidequests,Miniaufträge,Quêtes annexes,支线剧情
102,戦士ジョブクエスト（仮）,[en],[de],[fr],
103,モンクジョブクエスト（仮）,[en],[de],[fr],
104,白魔道師ジョブクエスト（仮）,[en],[de],[fr],
105,黒魔道師ジョブクエスト（仮）,[en],[de],[fr],
106,ナイトジョブクエスト（仮）,[en],[de],[fr],
107,吟遊詩ジョブ人クエスト（仮）,[en],[de],[fr],
108,竜騎士ジョブクエスト（仮）,[en],[de],[fr],
109,種別109,[en],[de],[fr],
110,種別110,[en],[de],[fr],
111,種別111,[en],[de],[fr],
112,種別112,[en],[de],[fr],
