 ,0,1,2,3,4,5,6,7,8,9,10
 ,str,str,str,str,str,str,str,str,str,str,str
0,NONE,×翻訳不要,×翻訳不要,×翻訳不要,,,,,,无,
1,ファイター＆ソーサラー,Disciples of War & Magic,Disziplinen der Krieger & Magier,Disciples de la guerre et de la magie,,,,,,战斗精英＆魔法导师,
2,ギャザラー,Disciples of the Land,Sammlerdisziplinen,Disciples de la terre,,,,,,大地使者,
3,クラフター,Disciples of the Hand,Handwerkerdisziplinen,Disciples de la main,,,,,,能工巧匠,
4,全クラス,All Classes,Alle Charakterklassen,Toutes les classes,,,,,,全职业,
101,注意：3人以上のパーティ推奨の任務です。,* Recommended for parties of 3 or more.,Achtung: Die Teilnahme von mindestens 3 Grup[@16]pen[@16]mit[@16]gliedern wird empfohlen.,Une équipe d'au moins trois personnes est recommandée pour cette mission.,,,,,,注意：本任务为推荐3人以上队伍的任务。,
102,注意：6人以上のパーティ推奨の任務です。,* Recommended for parties of 6 or more.,Achtung: Die Teilnahme von mindestens 6 Grup[@16]pen[@16]mit[@16]gliedern wird empfohlen.,Une équipe d'au moins six personnes est recommandée pour cette mission.,,,,,,注意：本任务为推荐6人以上队伍的任务。,
103,注意：8人パーティ推奨の任務です。,* Recommended for parties of 8.,Achtung: Die Teilnahme von mindestens 8 Grup[@16]pen[@16]mit[@16]gliedern wird empfohlen.,Une équipe de huit personnes est recommandée pour cette mission.,,,,,,注意：本任务为推荐8人以上队伍的任务。,
104,注意：1人専用の任務です。,* For solo adventurers only.,Achtung: Nur für einzelne Abenteurer.,Cette mission est réservée à une personne.,,,,,,注意：本任务为限定1人的任务。,
105,注意：下士以上の1人専用任務です。,* For solo commissioned officers only.,"Achtung: Nur für einzelne Teilnehmer, die mindestens einen Unteroffiziers-Rang besitzen.","Cette mission est réservée à une personne, sous-officier au moins.",,,,,,注意：本任务为限定1人的任务。,
106,注意：4人まで参加可能の任務です。（4人推奨）,* Available to parties of 4 or less.,Achtung: Die Teilnahme von 4 Grup[@16]pen[@16]mit[@16]gliedern wird empfohlen.,Cette mission est recommandée pour un groupe de quatre (4 par[@16]ti[@16]ci[@16]pants maximum).,,,,,,,
10011,魔物を倒せ。,Eliminate the target enemies.,Besiege bestimmte Gegner!,Terrassez les ennemis indiqués.,"ターゲット[@IF([@SHEET(guildleve,$E8(1),39)],[@CR][@SHEET(xtx/displayName,[@SHEET(guildleve,$E8(1),[@SWITCH(1,59,60,61,62)])],0)] × [@SHEET(guildleve,$E8(1),39)],)][@IF([@SHEET(guildleve,$E8(1),40)],[@CR][@SHEET(xtx/displayName,[@SHEET(guildleve,$E8(1),[@SWITCH(2,59,60,61,62)])],0)] × [@SHEET(guildleve,$E8(1),40)],)][@IF([@SHEET(guildleve,$E8(1),41)],[@CR][@SHEET(xtx/displayName,[@SHEET(guildleve,$E8(1),[@SWITCH(3,59,60,61,62)])],0)] × [@SHEET(guildleve,$E8(1),41)],)][@IF([@SHEET(guildleve,$E8(1),42)],[@CR][@SHEET(xtx/displayName,[@SHEET(guildleve,$E8(1),[@SWITCH(4,59,60,61,62)])],0)] × [@SHEET(guildleve,$E8(1),42)],)]","Eliminate the following targets:[@IF([@SHEET(guildleve,$E8(1),39)],[@CR][@2D([@SHEET(xtx/displayName,[@SHEET(guildleve,$E8(1),[@SWITCH(1,59,60,61,62)])],1)])] x [@SHEET(guildleve,$E8(1),39)],)][@IF([@SHEET(guildleve,$E8(1),40)],[@CR][@2D([@SHEET(xtx/displayName,[@SHEET(guildleve,$E8(1),[@SWITCH(2,59,60,61,62)])],1)])] x [@SHEET(guildleve,$E8(1),40)],)][@IF([@SHEET(guildleve,$E8(1),41)],[@CR][@2D([@SHEET(xtx/displayName,[@SHEET(guildleve,$E8(1),[@SWITCH(3,59,60,61,62)])],1)])] x [@SHEET(guildleve,$E8(1),41)],)][@IF([@SHEET(guildleve,$E8(1),42)],[@CR][@2D([@SHEET(xtx/displayName,[@SHEET(guildleve,$E8(1),[@SWITCH(4,59,60,61,62)])],1)])] x [@SHEET(guildleve,$E8(1),42)],)]","Bezwinge folgende Monster: [@IF([@SHEET(guildleve,$E8(1),39)],[@CR][@2B([@SHEETDE(xtx/displayName,5,[@SHEET(guildleve,$E8(1),[@SWITCH(1,59,60,61,62)])],1,1,1)])] × [@SHEET(guildleve,$E8(1),39)],)][@IF([@SHEET(guildleve,$E8(1),40)],[@CR][@2B([@SHEETDE(xtx/displayName,5,[@SHEET(guildleve,$E8(1),[@SWITCH(2,59,60,61,62)])],1,1,1)])] × [@SHEET(guildleve,$E8(1),40)],)][@IF([@SHEET(guildleve,$E8(1),41)],[@CR][@2B([@SHEETDE(xtx/displayName,5,[@SHEET(guildleve,$E8(1),[@SWITCH(3,59,60,61,62)])],1,1,1)])] × [@SHEET(guildleve,$E8(1),41)],)][@IF([@SHEET(guildleve,$E8(1),42)],[@CR][@2B([@SHEETDE(xtx/displayName,5,[@SHEET(guildleve,$E8(1),[@SWITCH(4,59,60,61,62)])],1,1,1)])] × [@SHEET(guildleve,$E8(1),42)],)]","Terrassez les ennemis suivants[@1D]:[@IF([@SHEET(guildleve,$E8(1),39)],[@CR][@2B([@SHEET(xtx/displayName,[@SHEET(guildleve,$E8(1),[@SWITCH(1,59,60,61,62)])],13)])] x [@SHEET(guildleve,$E8(1),39)],)][@IF([@SHEET(guildleve,$E8(1),40)],[@CR][@2B([@SHEET(xtx/displayName,[@SHEET(guildleve,$E8(1),[@SWITCH(2,59,60,61,62)])],13)])] x [@SHEET(guildleve,$E8(1),40)],)][@IF([@SHEET(guildleve,$E8(1),41)],[@CR][@2B([@SHEET(xtx/displayName,[@SHEET(guildleve,$E8(1),[@SWITCH(3,59,60,61,62)])],13)])] x [@SHEET(guildleve,$E8(1),41)],)][@IF([@SHEET(guildleve,$E8(1),42)],[@CR][@2B([@SHEET(xtx/displayName,[@SHEET(guildleve,$E8(1),[@SWITCH(4,59,60,61,62)])],13)])] x [@SHEET(guildleve,$E8(1),42)],)]",1,打倒怪物。,"目标[@IF([@SHEET(guildleve,$E8(1),39)],[@CR][@SHEET(xtx/displayName,[@SHEET(guildleve,$E8(1),[@SWITCH(1,59,60,61,62)])],19)] × [@SHEET(guildleve,$E8(1),39)],)][@IF([@SHEET(guildleve,$E8(1),40)],[@CR][@SHEET(xtx/displayName,[@SHEET(guildleve,$E8(1),[@SWITCH(2,59,60,61,62)])],19)] × [@SHEET(guildleve,$E8(1),40)],)][@IF([@SHEET(guildleve,$E8(1),41)],[@CR][@SHEET(xtx/displayName,[@SHEET(guildleve,$E8(1),[@SWITCH(3,59,60,61,62)])],19)] × [@SHEET(guildleve,$E8(1),41)],)][@IF([@SHEET(guildleve,$E8(1),42)],[@CR][@SHEET(xtx/displayName,[@SHEET(guildleve,$E8(1),[@SWITCH(4,59,60,61,62)])],19)] × [@SHEET(guildleve,$E8(1),42)],)]"
10012,"[@SHEET(xtx/placeName,[@SHEET(aetheryte,[@SHEET(guildleve,$E8(1),6)],0)],0)]に現れる魔物を一掃せよ。","Eliminate the target enemies appearing near [@SHEETEN(xtx/placeName,2,[@SHEET(aetheryte,[@SHEET(guildleve,$E8(1),6)],0)],1,1)].","Erledige die Gegner im Areal [@SHEET(xtx/placeName,[@SHEET(aetheryte,[@SHEET(guildleve,$E8(1),6)],0)],4)]!","Terrassez les ennemis indiqués aux abords [@SHEET(xtx/placeName,[@SHEET(aetheryte,[@SHEET(guildleve,$E8(1),6)],0)],7,3)].","ターゲット[@IF([@SHEET(guildleve,$E8(1),39)],[@CR][@SHEET(xtx/displayName,[@SHEET(guildleve,$E8(1),[@SWITCH(1,59,60,61,62)])],0)] × [@SHEET(guildleve,$E8(1),39)],)][@IF([@SHEET(guildleve,$E8(1),40)],[@CR][@SHEET(xtx/displayName,[@SHEET(guildleve,$E8(1),[@SWITCH(2,59,60,61,62)])],0)] × [@SHEET(guildleve,$E8(1),40)],)][@IF([@SHEET(guildleve,$E8(1),41)],[@CR][@SHEET(xtx/displayName,[@SHEET(guildleve,$E8(1),[@SWITCH(3,59,60,61,62)])],0)] × [@SHEET(guildleve,$E8(1),41)],)][@IF([@SHEET(guildleve,$E8(1),42)],[@CR][@SHEET(xtx/displayName,[@SHEET(guildleve,$E8(1),[@SWITCH(4,59,60,61,62)])],0)] × [@SHEET(guildleve,$E8(1),42)],)]","Eliminate the following targets appearing near [@SHEET(xtx/placeName,[@SHEET(aetheryte,[@SHEET(guildleve,$E8(1),6)],0)],1)]:[@IF([@SHEET(guildleve,$E8(1),39)],[@CR][@2D([@SHEET(xtx/displayName,[@SHEET(guildleve,$E8(1),[@SWITCH(1,59,60,61,62)])],1)])] x [@SHEET(guildleve,$E8(1),39)],)][@IF([@SHEET(guildleve,$E8(1),40)],[@CR][@2D([@SHEET(xtx/displayName,[@SHEET(guildleve,$E8(1),[@SWITCH(2,59,60,61,62)])],1)])] x [@SHEET(guildleve,$E8(1),40)],)][@IF([@SHEET(guildleve,$E8(1),41)],[@CR][@2D([@SHEET(xtx/displayName,[@SHEET(guildleve,$E8(1),[@SWITCH(3,59,60,61,62)])],1)])] x [@SHEET(guildleve,$E8(1),41)],)][@IF([@SHEET(guildleve,$E8(1),42)],[@CR][@2D([@SHEET(xtx/displayName,[@SHEET(guildleve,$E8(1),[@SWITCH(4,59,60,61,62)])],1)])] x [@SHEET(guildleve,$E8(1),42)],)]","Bezwinge folgende Monster im Areal [@SHEET(xtx/placeName,[@SHEET(aetheryte,[@SHEET(guildleve,$E8(1),6)],0)],4)]: [@IF([@SHEET(guildleve,$E8(1),39)],[@CR][@2B([@SHEETDE(xtx/displayName,5,[@SHEET(guildleve,$E8(1),[@SWITCH(1,59,60,61,62)])],1,1,1)])] × [@SHEET(guildleve,$E8(1),39)],)][@IF([@SHEET(guildleve,$E8(1),40)],[@CR][@2B([@SHEETDE(xtx/displayName,5,[@SHEET(guildleve,$E8(1),[@SWITCH(2,59,60,61,62)])],1,1,1)])] × [@SHEET(guildleve,$E8(1),40)],)][@IF([@SHEET(guildleve,$E8(1),41)],[@CR][@2B([@SHEETDE(xtx/displayName,5,[@SHEET(guildleve,$E8(1),[@SWITCH(3,59,60,61,62)])],1,1,1)])] × [@SHEET(guildleve,$E8(1),41)],)][@IF([@SHEET(guildleve,$E8(1),42)],[@CR][@2B([@SHEETDE(xtx/displayName,5,[@SHEET(guildleve,$E8(1),[@SWITCH(4,59,60,61,62)])],1,1,1)])] × [@SHEET(guildleve,$E8(1),42)],)]","Terrassez les ennemis suivants aux abords [@SHEET(xtx/placeName,[@SHEET(aetheryte,[@SHEET(guildleve,$E8(1),6)],0)],7,3)][@1D]:[@IF([@SHEET(guildleve,$E8(1),39)],[@CR][@2B([@SHEET(xtx/displayName,[@SHEET(guildleve,$E8(1),[@SWITCH(1,59,60,61,62)])],13)])] x [@SHEET(guildleve,$E8(1),39)],)][@IF([@SHEET(guildleve,$E8(1),40)],[@CR][@2B([@SHEET(xtx/displayName,[@SHEET(guildleve,$E8(1),[@SWITCH(2,59,60,61,62)])],13)])] x [@SHEET(guildleve,$E8(1),40)],)][@IF([@SHEET(guildleve,$E8(1),41)],[@CR][@2B([@SHEET(xtx/displayName,[@SHEET(guildleve,$E8(1),[@SWITCH(3,59,60,61,62)])],13)])] x [@SHEET(guildleve,$E8(1),41)],)][@IF([@SHEET(guildleve,$E8(1),42)],[@CR][@2B([@SHEET(xtx/displayName,[@SHEET(guildleve,$E8(1),[@SWITCH(4,59,60,61,62)])],13)])] x [@SHEET(guildleve,$E8(1),42)],)]",1,"打倒出现在[@SHEET(xtx/placeName,[@SHEET(aetheryte,[@SHEET(guildleve,$E8(1),6)],0)],8)]得怪物。","目标[@IF([@SHEET(guildleve,$E8(1),39)],[@CR][@SHEET(xtx/displayName,[@SHEET(guildleve,$E8(1),[@SWITCH(1,59,60,61,62)])],19)] × [@SHEET(guildleve,$E8(1),39)],)][@IF([@SHEET(guildleve,$E8(1),40)],[@CR][@SHEET(xtx/displayName,[@SHEET(guildleve,$E8(1),[@SWITCH(2,59,60,61,62)])],19)] × [@SHEET(guildleve,$E8(1),40)],)][@IF([@SHEET(guildleve,$E8(1),41)],[@CR][@SHEET(xtx/displayName,[@SHEET(guildleve,$E8(1),[@SWITCH(3,59,60,61,62)])],19)] × [@SHEET(guildleve,$E8(1),41)],)][@IF([@SHEET(guildleve,$E8(1),42)],[@CR][@SHEET(xtx/displayName,[@SHEET(guildleve,$E8(1),[@SWITCH(4,59,60,61,62)])],19)] × [@SHEET(guildleve,$E8(1),42)],)]"
10021,指定物を集めよ。,Obtain the target items.,Erlange bestimmte Gegenstände!,Rassemblez les objets indiqués.,"指定物調達[@IF([@SHEET(guildleve,$E8(1),39)],[@CR][@SHEET(xtx/itemName,[@SHEET(guildleve,$E8(1),[@SWITCH(1,55,56,57,58)])],4,1)] × [@SHEET(guildleve,$E8(1),39)],)][@IF([@SHEET(guildleve,$E8(1),40)],[@CR][@SHEET(xtx/itemName,[@SHEET(guildleve,$E8(1),[@SWITCH(2,55,56,57,58)])],4,1)] × [@SHEET(guildleve,$E8(1),40)],)][@IF([@SHEET(guildleve,$E8(1),41)],[@CR][@SHEET(xtx/itemName,[@SHEET(guildleve,$E8(1),[@SWITCH(3,55,56,57,58)])],4,1)] × [@SHEET(guildleve,$E8(1),41)],)][@IF([@SHEET(guildleve,$E8(1),42)],[@CR][@SHEET(xtx/itemName,[@SHEET(guildleve,$E8(1),[@SWITCH(4,55,56,57,58)])],4,1)] × [@SHEET(guildleve,$E8(1),42)],)]","Obtain the following items:[@IF([@SHEET(guildleve,$E8(1),39)],[@CR][@SHEET(xtx/itemName,[@SHEET(guildleve,$E8(1),[@SWITCH(1,55,56,57,58)])],5,1)] x [@SHEET(guildleve,$E8(1),39)],)][@IF([@SHEET(guildleve,$E8(1),40)],[@CR][@SHEET(xtx/itemName,[@SHEET(guildleve,$E8(1),[@SWITCH(2,55,56,57,58)])],5,1)] x [@SHEET(guildleve,$E8(1),40)],)][@IF([@SHEET(guildleve,$E8(1),41)],[@CR][@SHEET(xtx/itemName,[@SHEET(guildleve,$E8(1),[@SWITCH(3,55,56,57,58)])],5,1)] x [@SHEET(guildleve,$E8(1),41)],)][@IF([@SHEET(guildleve,$E8(1),42)],[@CR][@SHEET(xtx/itemName,[@SHEET(guildleve,$E8(1),[@SWITCH(4,55,56,57,58)])],5,1)] x [@SHEET(guildleve,$E8(1),42)],)]","Besorge die folgenden Gegenstände: [@IF([@SHEET(guildleve,$E8(1),39)],[@CR][@SHEET(xtx/itemName,[@SHEET(guildleve,$E8(1),[@SWITCH(1,55,56,57,58)])],11,1)] × [@SHEET(guildleve,$E8(1),39)],)][@IF([@SHEET(guildleve,$E8(1),40)],[@CR][@SHEET(xtx/itemName,[@SHEET(guildleve,$E8(1),[@SWITCH(2,55,56,57,58)])],11,1)] × [@SHEET(guildleve,$E8(1),40)],)][@IF([@SHEET(guildleve,$E8(1),41)],[@CR][@SHEET(xtx/itemName,[@SHEET(guildleve,$E8(1),[@SWITCH(3,55,56,57,58)])],11,1)] × [@SHEET(guildleve,$E8(1),41)],)][@IF([@SHEET(guildleve,$E8(1),42)],[@CR][@SHEET(xtx/itemName,[@SHEET(guildleve,$E8(1),[@SWITCH(4,55,56,57,58)])],11,1)] × [@SHEET(guildleve,$E8(1),42)],)]","Rassemblez les objets suivants[@1D]:[@IF([@SHEET(guildleve,$E8(1),39)],[@CR][@SHEET(xtx/itemName,[@SHEET(guildleve,$E8(1),[@SWITCH(1,55,56,57,58)])],19,1)] x [@SHEET(guildleve,$E8(1),39)],)][@IF([@SHEET(guildleve,$E8(1),40)],[@CR][@SHEET(xtx/itemName,[@SHEET(guildleve,$E8(1),[@SWITCH(2,55,56,57,58)])],19,1)] x [@SHEET(guildleve,$E8(1),40)],)][@IF([@SHEET(guildleve,$E8(1),41)],[@CR][@SHEET(xtx/itemName,[@SHEET(guildleve,$E8(1),[@SWITCH(3,55,56,57,58)])],19,1)] x [@SHEET(guildleve,$E8(1),41)],)][@IF([@SHEET(guildleve,$E8(1),42)],[@CR][@SHEET(xtx/itemName,[@SHEET(guildleve,$E8(1),[@SWITCH(4,55,56,57,58)])],19,1)] x [@SHEET(guildleve,$E8(1),42)],)]",1,收集指定物品。,"筹备指定物品[@IF([@SHEET(guildleve,$E8(1),39)],[@CR][@SHEET(xtx/itemName,[@SHEET(guildleve,$E8(1),[@SWITCH(1,55,56,57,58)])],131,1)] × [@SHEET(guildleve,$E8(1),39)],)][@IF([@SHEET(guildleve,$E8(1),40)],[@CR][@SHEET(xtx/itemName,[@SHEET(guildleve,$E8(1),[@SWITCH(2,55,56,57,58)])],131,1)] × [@SHEET(guildleve,$E8(1),40)],)][@IF([@SHEET(guildleve,$E8(1),41)],[@CR][@SHEET(xtx/itemName,[@SHEET(guildleve,$E8(1),[@SWITCH(3,55,56,57,58)])],131,1)] × [@SHEET(guildleve,$E8(1),41)],)][@IF([@SHEET(guildleve,$E8(1),42)],[@CR][@SHEET(xtx/itemName,[@SHEET(guildleve,$E8(1),[@SWITCH(4,55,56,57,58)])],131,1)] × [@SHEET(guildleve,$E8(1),42)],)]"
10031,魔物をすべて倒せ。,Pursue and defeat the target enemies.,Besiege alle Gegner!,Trouvez et terrassez tous les ennemis indiqués.,"ターゲット[@IF([@SHEET(guildleve,$E8(1),39)],[@CR][@SHEET(xtx/displayName,[@SHEET(guildleve,$E8(1),[@SWITCH(1,59,60,61,62)])],0)] × [@SHEET(guildleve,$E8(1),39)],)]","Pursue and defeat the following targets:[@IF([@SHEET(guildleve,$E8(1),39)],[@CR][@2D([@SHEET(xtx/displayName,[@SHEET(guildleve,$E8(1),[@SWITCH(1,59,60,61,62)])],1)])] x [@SHEET(guildleve,$E8(1),39)],)]","Bezwinge folgende Monster: [@IF([@SHEET(guildleve,$E8(1),39)],[@CR][@2B([@SHEETDE(xtx/displayName,5,[@SHEET(guildleve,$E8(1),[@SWITCH(1,59,60,61,62)])],1,1,1)])] × [@SHEET(guildleve,$E8(1),39)],)]","Poursuivez et terrassez les ennemis suivants[@1D]:[@IF([@SHEET(guildleve,$E8(1),39)],[@CR][@2B([@SHEET(xtx/displayName,[@SHEET(guildleve,$E8(1),[@SWITCH(1,59,60,61,62)])],13)])] x [@SHEET(guildleve,$E8(1),39)],)]",1,打倒所有怪物。,"目标[@IF([@SHEET(guildleve,$E8(1),39)],[@CR][@SHEET(xtx/displayName,[@SHEET(guildleve,$E8(1),[@SWITCH(1,59,60,61,62)])],19)] × [@SHEET(guildleve,$E8(1),39)],)]"
10041,スキンチェンジャーを発見し、始末せよ。,Uncover and eliminate the target enemies.,Spüre bestimmte Gegner auf und erledige sie!,Démasquez les monstres camouflés et terrassez-les.,"ターゲット[@IF([@SHEET(guildleve,$E8(1),39)],[@CR][@SHEET(xtx/displayName,[@SHEET(guildleve,$E8(1),[@SWITCH(1,59,60,61,62)])],0)] × [@SHEET(guildleve,$E8(1),39)],)][@IF([@SHEET(guildleve,$E8(1),40)],[@CR][@SHEET(xtx/displayName,[@SHEET(guildleve,$E8(1),[@SWITCH(2,59,60,61,62)])],0)] × [@SHEET(guildleve,$E8(1),40)],)][@IF([@SHEET(guildleve,$E8(1),41)],[@CR][@SHEET(xtx/displayName,[@SHEET(guildleve,$E8(1),[@SWITCH(3,59,60,61,62)])],0)] × [@SHEET(guildleve,$E8(1),41)],)][@IF([@SHEET(guildleve,$E8(1),42)],[@CR][@SHEET(xtx/displayName,[@SHEET(guildleve,$E8(1),[@SWITCH(4,59,60,61,62)])],0)] × [@SHEET(guildleve,$E8(1),42)],)]","Uncover and eliminate the following targets:[@IF([@SHEET(guildleve,$E8(1),39)],[@CR][@2D([@SHEET(xtx/displayName,[@SHEET(guildleve,$E8(1),[@SWITCH(1,59,60,61,62)])],1)])] x [@SHEET(guildleve,$E8(1),39)],)][@IF([@SHEET(guildleve,$E8(1),40)],[@CR][@2D([@SHEET(xtx/displayName,[@SHEET(guildleve,$E8(1),[@SWITCH(2,59,60,61,62)])],1)])] x [@SHEET(guildleve,$E8(1),40)],)][@IF([@SHEET(guildleve,$E8(1),41)],[@CR][@2D([@SHEET(xtx/displayName,[@SHEET(guildleve,$E8(1),[@SWITCH(3,59,60,61,62)])],1)])] x [@SHEET(guildleve,$E8(1),41)],)][@IF([@SHEET(guildleve,$E8(1),42)],[@CR][@2D([@SHEET(xtx/displayName,[@SHEET(guildleve,$E8(1),[@SWITCH(4,59,60,61,62)])],1)])] x [@SHEET(guildleve,$E8(1),42)],)]","Enttarne folgende Monster und bezwinge sie: [@IF([@SHEET(guildleve,$E8(1),39)],[@CR][@2B([@SHEETDE(xtx/displayName,5,[@SHEET(guildleve,$E8(1),[@SWITCH(1,59,60,61,62)])],1,1,1)])] × [@SHEET(guildleve,$E8(1),39)],)][@IF([@SHEET(guildleve,$E8(1),40)],[@CR][@2B([@SHEETDE(xtx/displayName,5,[@SHEET(guildleve,$E8(1),[@SWITCH(2,59,60,61,62)])],1,1,1)])] × [@SHEET(guildleve,$E8(1),40)],)][@IF([@SHEET(guildleve,$E8(1),41)],[@CR][@2B([@SHEETDE(xtx/displayName,5,[@SHEET(guildleve,$E8(1),[@SWITCH(3,59,60,61,62)])],1,1,1)])] × [@SHEET(guildleve,$E8(1),41)],)][@IF([@SHEET(guildleve,$E8(1),42)],[@CR][@2B([@SHEETDE(xtx/displayName,5,[@SHEET(guildleve,$E8(1),[@SWITCH(4,59,60,61,62)])],1,1,1)])] × [@SHEET(guildleve,$E8(1),42)],)]","Démasquez et terrassez les ennemis suivants[@1D]:[@IF([@SHEET(guildleve,$E8(1),39)],[@CR][@2B([@SHEET(xtx/displayName,[@SHEET(guildleve,$E8(1),[@SWITCH(1,59,60,61,62)])],13)])] x [@SHEET(guildleve,$E8(1),39)],)][@IF([@SHEET(guildleve,$E8(1),40)],[@CR][@2B([@SHEET(xtx/displayName,[@SHEET(guildleve,$E8(1),[@SWITCH(2,59,60,61,62)])],13)])] x [@SHEET(guildleve,$E8(1),40)],)][@IF([@SHEET(guildleve,$E8(1),41)],[@CR][@2B([@SHEET(xtx/displayName,[@SHEET(guildleve,$E8(1),[@SWITCH(3,59,60,61,62)])],13)])] x [@SHEET(guildleve,$E8(1),41)],)][@IF([@SHEET(guildleve,$E8(1),42)],[@CR][@2B([@SHEET(xtx/displayName,[@SHEET(guildleve,$E8(1),[@SWITCH(4,59,60,61,62)])],13)])] x [@SHEET(guildleve,$E8(1),42)],)]",1,发现并打倒拟态者。,"目标[@IF([@SHEET(guildleve,$E8(1),39)],[@CR][@SHEET(xtx/displayName,[@SHEET(guildleve,$E8(1),[@SWITCH(1,59,60,61,62)])],19)] × [@SHEET(guildleve,$E8(1),39)],)][@IF([@SHEET(guildleve,$E8(1),40)],[@CR][@SHEET(xtx/displayName,[@SHEET(guildleve,$E8(1),[@SWITCH(2,59,60,61,62)])],19)] × [@SHEET(guildleve,$E8(1),40)],)][@IF([@SHEET(guildleve,$E8(1),41)],[@CR][@SHEET(xtx/displayName,[@SHEET(guildleve,$E8(1),[@SWITCH(3,59,60,61,62)])],19)] × [@SHEET(guildleve,$E8(1),41)],)][@IF([@SHEET(guildleve,$E8(1),42)],[@CR][@SHEET(xtx/displayName,[@SHEET(guildleve,$E8(1),[@SWITCH(4,59,60,61,62)])],19)] × [@SHEET(guildleve,$E8(1),42)],)]"
10042,寄生生物を発見し、駆除せよ。,Locate the parasites and eliminate them.,Spüre die Parasiten auf und erledige sie!,Repérez les monstres parasites et terrassez-les.,"ターゲット[@IF([@SHEET(guildleve,$E8(1),39)],[@CR][@SHEET(xtx/displayName,[@SHEET(guildleve,$E8(1),[@SWITCH(1,59,60,61,62)])],0)] × [@SHEET(guildleve,$E8(1),39)],)][@IF([@SHEET(guildleve,$E8(1),40)],[@CR][@SHEET(xtx/displayName,[@SHEET(guildleve,$E8(1),[@SWITCH(2,59,60,61,62)])],0)] × [@SHEET(guildleve,$E8(1),40)],)][@IF([@SHEET(guildleve,$E8(1),41)],[@CR][@SHEET(xtx/displayName,[@SHEET(guildleve,$E8(1),[@SWITCH(3,59,60,61,62)])],0)] × [@SHEET(guildleve,$E8(1),41)],)][@IF([@SHEET(guildleve,$E8(1),42)],[@CR][@SHEET(xtx/displayName,[@SHEET(guildleve,$E8(1),[@SWITCH(4,59,60,61,62)])],0)] × [@SHEET(guildleve,$E8(1),42)],)]","Locate and eliminate the following targets:[@IF([@SHEET(guildleve,$E8(1),39)],[@CR][@2D([@SHEET(xtx/displayName,[@SHEET(guildleve,$E8(1),[@SWITCH(1,59,60,61,62)])],1)])] x [@SHEET(guildleve,$E8(1),39)],)][@IF([@SHEET(guildleve,$E8(1),40)],[@CR][@2D([@SHEET(xtx/displayName,[@SHEET(guildleve,$E8(1),[@SWITCH(2,59,60,61,62)])],1)])] x [@SHEET(guildleve,$E8(1),40)],)][@IF([@SHEET(guildleve,$E8(1),41)],[@CR][@2D([@SHEET(xtx/displayName,[@SHEET(guildleve,$E8(1),[@SWITCH(3,59,60,61,62)])],1)])] x [@SHEET(guildleve,$E8(1),41)],)][@IF([@SHEET(guildleve,$E8(1),42)],[@CR][@2D([@SHEET(xtx/displayName,[@SHEET(guildleve,$E8(1),[@SWITCH(4,59,60,61,62)])],1)])] x [@SHEET(guildleve,$E8(1),42)],)]","Spüre folgende Monster auf und bezwinge sie: [@IF([@SHEET(guildleve,$E8(1),39)],[@CR][@2B([@SHEETDE(xtx/displayName,5,[@SHEET(guildleve,$E8(1),[@SWITCH(1,59,60,61,62)])],1,1,1)])] × [@SHEET(guildleve,$E8(1),39)],)][@IF([@SHEET(guildleve,$E8(1),40)],[@CR][@2B([@SHEETDE(xtx/displayName,5,[@SHEET(guildleve,$E8(1),[@SWITCH(2,59,60,61,62)])],1,1,1)])] × [@SHEET(guildleve,$E8(1),40)],)][@IF([@SHEET(guildleve,$E8(1),41)],[@CR][@2B([@SHEETDE(xtx/displayName,5,[@SHEET(guildleve,$E8(1),[@SWITCH(3,59,60,61,62)])],1,1,1)])] × [@SHEET(guildleve,$E8(1),41)],)][@IF([@SHEET(guildleve,$E8(1),42)],[@CR][@2B([@SHEETDE(xtx/displayName,5,[@SHEET(guildleve,$E8(1),[@SWITCH(4,59,60,61,62)])],1,1,1)])] × [@SHEET(guildleve,$E8(1),42)],)]","Repérez et terrassez les ennemis suivants[@1D]:[@IF([@SHEET(guildleve,$E8(1),39)],[@CR][@2B([@SHEET(xtx/displayName,[@SHEET(guildleve,$E8(1),[@SWITCH(1,59,60,61,62)])],13)])] x [@SHEET(guildleve,$E8(1),39)],)][@IF([@SHEET(guildleve,$E8(1),40)],[@CR][@2B([@SHEET(xtx/displayName,[@SHEET(guildleve,$E8(1),[@SWITCH(2,59,60,61,62)])],13)])] x [@SHEET(guildleve,$E8(1),40)],)][@IF([@SHEET(guildleve,$E8(1),41)],[@CR][@2B([@SHEET(xtx/displayName,[@SHEET(guildleve,$E8(1),[@SWITCH(3,59,60,61,62)])],13)])] x [@SHEET(guildleve,$E8(1),41)],)][@IF([@SHEET(guildleve,$E8(1),42)],[@CR][@2B([@SHEET(xtx/displayName,[@SHEET(guildleve,$E8(1),[@SWITCH(4,59,60,61,62)])],13)])] x [@SHEET(guildleve,$E8(1),42)],)]",1,发现并驱逐寄生生物。,"目标[@IF([@SHEET(guildleve,$E8(1),39)],[@CR][@SHEET(xtx/displayName,[@SHEET(guildleve,$E8(1),[@SWITCH(1,59,60,61,62)])],19)] × [@SHEET(guildleve,$E8(1),39)],)][@IF([@SHEET(guildleve,$E8(1),40)],[@CR][@SHEET(xtx/displayName,[@SHEET(guildleve,$E8(1),[@SWITCH(2,59,60,61,62)])],19)] × [@SHEET(guildleve,$E8(1),40)],)][@IF([@SHEET(guildleve,$E8(1),41)],[@CR][@SHEET(xtx/displayName,[@SHEET(guildleve,$E8(1),[@SWITCH(3,59,60,61,62)])],19)] × [@SHEET(guildleve,$E8(1),41)],)][@IF([@SHEET(guildleve,$E8(1),42)],[@CR][@SHEET(xtx/displayName,[@SHEET(guildleve,$E8(1),[@SWITCH(4,59,60,61,62)])],19)] × [@SHEET(guildleve,$E8(1),42)],)]"
10043,化けている魔物を発見し、始末せよ。,Uncover and eliminate the target enemies.,Spüre bestimmte Gegner auf und erledige sie!,Démasquez les monstres camouflés et terrassez-les.,"ターゲット[@IF([@SHEET(guildleve,$E8(1),39)],[@CR][@SHEET(xtx/displayName,[@SHEET(guildleve,$E8(1),[@SWITCH(1,59,60,61,62)])],0)] × [@SHEET(guildleve,$E8(1),39)],)][@IF([@SHEET(guildleve,$E8(1),40)],[@CR][@SHEET(xtx/displayName,[@SHEET(guildleve,$E8(1),[@SWITCH(2,59,60,61,62)])],0)] × [@SHEET(guildleve,$E8(1),40)],)][@IF([@SHEET(guildleve,$E8(1),41)],[@CR][@SHEET(xtx/displayName,[@SHEET(guildleve,$E8(1),[@SWITCH(3,59,60,61,62)])],0)] × [@SHEET(guildleve,$E8(1),41)],)][@IF([@SHEET(guildleve,$E8(1),42)],[@CR][@SHEET(xtx/displayName,[@SHEET(guildleve,$E8(1),[@SWITCH(4,59,60,61,62)])],0)] × [@SHEET(guildleve,$E8(1),42)],)]","Locate and eliminate the following targets:[@IF([@SHEET(guildleve,$E8(1),39)],[@CR][@2D([@SHEET(xtx/displayName,[@SHEET(guildleve,$E8(1),[@SWITCH(1,59,60,61,62)])],1)])] x [@SHEET(guildleve,$E8(1),39)],)][@IF([@SHEET(guildleve,$E8(1),40)],[@CR][@2D([@SHEET(xtx/displayName,[@SHEET(guildleve,$E8(1),[@SWITCH(2,59,60,61,62)])],1)])] x [@SHEET(guildleve,$E8(1),40)],)][@IF([@SHEET(guildleve,$E8(1),41)],[@CR][@2D([@SHEET(xtx/displayName,[@SHEET(guildleve,$E8(1),[@SWITCH(3,59,60,61,62)])],1)])] x [@SHEET(guildleve,$E8(1),41)],)][@IF([@SHEET(guildleve,$E8(1),42)],[@CR][@2D([@SHEET(xtx/displayName,[@SHEET(guildleve,$E8(1),[@SWITCH(4,59,60,61,62)])],1)])] x [@SHEET(guildleve,$E8(1),42)],)]","Enttarne folgende Monster und bezwinge sie: [@IF([@SHEET(guildleve,$E8(1),39)],[@CR][@2B([@SHEETDE(xtx/displayName,5,[@SHEET(guildleve,$E8(1),[@SWITCH(1,59,60,61,62)])],1,1,1)])] × [@SHEET(guildleve,$E8(1),39)],)][@IF([@SHEET(guildleve,$E8(1),40)],[@CR][@2B([@SHEETDE(xtx/displayName,5,[@SHEET(guildleve,$E8(1),[@SWITCH(2,59,60,61,62)])],1,1,1)])] × [@SHEET(guildleve,$E8(1),40)],)][@IF([@SHEET(guildleve,$E8(1),41)],[@CR][@2B([@SHEETDE(xtx/displayName,5,[@SHEET(guildleve,$E8(1),[@SWITCH(3,59,60,61,62)])],1,1,1)])] × [@SHEET(guildleve,$E8(1),41)],)][@IF([@SHEET(guildleve,$E8(1),42)],[@CR][@2B([@SHEETDE(xtx/displayName,5,[@SHEET(guildleve,$E8(1),[@SWITCH(4,59,60,61,62)])],1,1,1)])] × [@SHEET(guildleve,$E8(1),42)],)]","Démasquez et terrassez les ennemis suivants[@1D]:[@IF([@SHEET(guildleve,$E8(1),39)],[@CR][@2B([@SHEET(xtx/displayName,[@SHEET(guildleve,$E8(1),[@SWITCH(1,59,60,61,62)])],13)])] x [@SHEET(guildleve,$E8(1),39)],)][@IF([@SHEET(guildleve,$E8(1),40)],[@CR][@2B([@SHEET(xtx/displayName,[@SHEET(guildleve,$E8(1),[@SWITCH(2,59,60,61,62)])],13)])] x [@SHEET(guildleve,$E8(1),40)],)][@IF([@SHEET(guildleve,$E8(1),41)],[@CR][@2B([@SHEET(xtx/displayName,[@SHEET(guildleve,$E8(1),[@SWITCH(3,59,60,61,62)])],13)])] x [@SHEET(guildleve,$E8(1),41)],)][@IF([@SHEET(guildleve,$E8(1),42)],[@CR][@2B([@SHEET(xtx/displayName,[@SHEET(guildleve,$E8(1),[@SWITCH(4,59,60,61,62)])],13)])] x [@SHEET(guildleve,$E8(1),42)],)]",1,发现并打倒变身了的怪物。,"目标[@IF([@SHEET(guildleve,$E8(1),39)],[@CR][@SHEET(xtx/displayName,[@SHEET(guildleve,$E8(1),[@SWITCH(1,59,60,61,62)])],19)] × [@SHEET(guildleve,$E8(1),39)],)][@IF([@SHEET(guildleve,$E8(1),40)],[@CR][@SHEET(xtx/displayName,[@SHEET(guildleve,$E8(1),[@SWITCH(2,59,60,61,62)])],19)] × [@SHEET(guildleve,$E8(1),40)],)][@IF([@SHEET(guildleve,$E8(1),41)],[@CR][@SHEET(xtx/displayName,[@SHEET(guildleve,$E8(1),[@SWITCH(3,59,60,61,62)])],19)] × [@SHEET(guildleve,$E8(1),41)],)][@IF([@SHEET(guildleve,$E8(1),42)],[@CR][@SHEET(xtx/displayName,[@SHEET(guildleve,$E8(1),[@SWITCH(4,59,60,61,62)])],19)] × [@SHEET(guildleve,$E8(1),42)],)]"
10051,本の頁を回収し、魔物を召喚した後、消滅させよ。,"Locate the missing [@1A(1)]Necrologos[@1A(0)] pages, release the creatures trapped within, and eliminate them.","Finde die verschollenen Nekrologseiten, rufe die Kreaturen herbei, die darin gefangen sind, und erledige sie!",Retrouvez les pages et terrassez les créatures invoquées.,ターゲット[@CR]『魔物大全』に記された魔物,Defeat the creatures[@CR]summoned from the [@1A(1)]Necrologos[@1A(0)] pages.,Besiege die aus den Nekrologseiten beschworenen Kreaturen.,Terrassez les monstres sortis des pages.,1,回收书页，召唤怪物后再消灭。,目标[@CR]“魔物大全”记载的魔物
10061,所定の持ち場を守り、魔物を迎撃せよ。,Defend the area from the encroaching monster horde.,Beschütze ein bestimmtes Areal vor einer angreifenden Monsterhorde!,Défendez la zone indiquée contre les assauts ennemis.,"拠点防衛[@IF([@SHEET(guildleve,$E8(1),39)],[@CR][@SHEET(xtx/displayName,[@SHEET(guildleve,$E8(1),[@SWITCH(1,59,60,61,62)])],0)] × [@SHEET(guildleve,$E8(1),39)],)][@IF([@SHEET(guildleve,$E8(1),40)],[@CR][@SHEET(xtx/displayName,[@SHEET(guildleve,$E8(1),[@SWITCH(2,59,60,61,62)])],0)] × [@SHEET(guildleve,$E8(1),40)],)][@IF([@SHEET(guildleve,$E8(1),41)],[@CR][@SHEET(xtx/displayName,[@SHEET(guildleve,$E8(1),[@SWITCH(3,59,60,61,62)])],0)] × [@SHEET(guildleve,$E8(1),41)],)][@IF([@SHEET(guildleve,$E8(1),42)],[@CR][@SHEET(xtx/displayName,[@SHEET(guildleve,$E8(1),[@SWITCH(4,59,60,61,62)])],0)] × [@SHEET(guildleve,$E8(1),42)],)]","[@IF([@SHEET(guildleve,$E8(1),39)],Defend the area from the following targets:,Defend the area from the encroaching monster horde.)][@IF([@SHEET(guildleve,$E8(1),39)],[@CR][@2D([@SHEET(xtx/displayName,[@SHEET(guildleve,$E8(1),[@SWITCH(1,59,60,61,62)])],1)])] x [@SHEET(guildleve,$E8(1),39)],)][@IF([@SHEET(guildleve,$E8(1),40)],[@CR][@2D([@SHEET(xtx/displayName,[@SHEET(guildleve,$E8(1),[@SWITCH(2,59,60,61,62)])],1)])] x [@SHEET(guildleve,$E8(1),40)],)][@IF([@SHEET(guildleve,$E8(1),41)],[@CR][@2D([@SHEET(xtx/displayName,[@SHEET(guildleve,$E8(1),[@SWITCH(3,59,60,61,62)])],1)])] x [@SHEET(guildleve,$E8(1),41)],)][@IF([@SHEET(guildleve,$E8(1),42)],[@CR][@2D([@SHEET(xtx/displayName,[@SHEET(guildleve,$E8(1),[@SWITCH(4,59,60,61,62)])],1)])] x [@SHEET(guildleve,$E8(1),42)],)]","Beschütze das Camp vor angreifenden Gegnern. [@IF([@SHEET(guildleve,$E8(1),39)],[@2B([@SHEETDE(xtx/displayName,5,[@SHEET(guildleve,$E8(1),[@SWITCH(1,59,60,61,62)])],1,1,1)])] × [@SHEET(guildleve,$E8(1),39)],)][@IF([@SHEET(guildleve,$E8(1),40)],[@CR][@2B([@SHEETDE(xtx/displayName,5,[@SHEET(guildleve,$E8(1),[@SWITCH(2,59,60,61,62)])],1,1,1)])] × [@SHEET(guildleve,$E8(1),40)],)][@IF([@SHEET(guildleve,$E8(1),41)],[@CR][@2B([@SHEETDE(xtx/displayName,5,[@SHEET(guildleve,$E8(1),[@SWITCH(3,59,60,61,62)])],1,1,1)])] × [@SHEET(guildleve,$E8(1),41)],)][@IF([@SHEET(guildleve,$E8(1),42)],[@CR][@2B([@SHEETDE(xtx/displayName,5,[@SHEET(guildleve,$E8(1),[@SWITCH(4,59,60,61,62)])],1,1,1)])] × [@SHEET(guildleve,$E8(1),42)],)]","[@IF([@SHEET(guildleve,$E8(1),39)],Défendez la zone contre les ennemis suivants[@1D]:,Défendez la zone contre les attaques ennemies.)][@IF([@SHEET(guildleve,$E8(1),39)],[@CR][@2B([@SHEET(xtx/displayName,[@SHEET(guildleve,$E8(1),[@SWITCH(1,59,60,61,62)])],13)])] x [@SHEET(guildleve,$E8(1),39)],)][@IF([@SHEET(guildleve,$E8(1),40)],[@CR][@2B([@SHEET(xtx/displayName,[@SHEET(guildleve,$E8(1),[@SWITCH(2,59,60,61,62)])],13)])] x [@SHEET(guildleve,$E8(1),40)],)][@IF([@SHEET(guildleve,$E8(1),41)],[@CR][@2B([@SHEET(xtx/displayName,[@SHEET(guildleve,$E8(1),[@SWITCH(3,59,60,61,62)])],13)])] x [@SHEET(guildleve,$E8(1),41)],)][@IF([@SHEET(guildleve,$E8(1),42)],[@CR][@2B([@SHEET(xtx/displayName,[@SHEET(guildleve,$E8(1),[@SWITCH(4,59,60,61,62)])],13)])] x [@SHEET(guildleve,$E8(1),42)],)]",1,坚守指定地点，迎击怪物。,"据点防卫[@IF([@SHEET(guildleve,$E8(1),39)],[@CR][@SHEET(xtx/displayName,[@SHEET(guildleve,$E8(1),[@SWITCH(1,59,60,61,62)])],19)] × [@SHEET(guildleve,$E8(1),39)],)][@IF([@SHEET(guildleve,$E8(1),40)],[@CR][@SHEET(xtx/displayName,[@SHEET(guildleve,$E8(1),[@SWITCH(2,59,60,61,62)])],19)] × [@SHEET(guildleve,$E8(1),40)],)][@IF([@SHEET(guildleve,$E8(1),41)],[@CR][@SHEET(xtx/displayName,[@SHEET(guildleve,$E8(1),[@SWITCH(3,59,60,61,62)])],19)] × [@SHEET(guildleve,$E8(1),41)],)][@IF([@SHEET(guildleve,$E8(1),42)],[@CR][@SHEET(xtx/displayName,[@SHEET(guildleve,$E8(1),[@SWITCH(4,59,60,61,62)])],19)] × [@SHEET(guildleve,$E8(1),42)],)]"
10071,魔物を探し出し、狩れ。,Hunt down and slay the target enemies.,Spüre bestimmte Gegner auf und erledige sie!,Trouvez les ennemis indiqués et terrassez-les.,"ターゲット[@IF([@SHEET(guildleve,$E8(1),39)],[@CR][@SHEET(xtx/displayName,[@SHEET(guildleve,$E8(1),[@SWITCH(1,59,60,61,62)])],0)] × [@SHEET(guildleve,$E8(1),39)],)][@IF([@SHEET(guildleve,$E8(1),40)],[@CR][@SHEET(xtx/displayName,[@SHEET(guildleve,$E8(1),[@SWITCH(2,59,60,61,62)])],0)] × [@SHEET(guildleve,$E8(1),40)],)][@IF([@SHEET(guildleve,$E8(1),41)],[@CR][@SHEET(xtx/displayName,[@SHEET(guildleve,$E8(1),[@SWITCH(3,59,60,61,62)])],0)] × [@SHEET(guildleve,$E8(1),41)],)][@IF([@SHEET(guildleve,$E8(1),42)],[@CR][@SHEET(xtx/displayName,[@SHEET(guildleve,$E8(1),[@SWITCH(4,59,60,61,62)])],0)] × [@SHEET(guildleve,$E8(1),42)],)]","Slay the following targets:[@IF([@SHEET(guildleve,$E8(1),39)],[@CR][@2D([@SHEET(xtx/displayName,[@SHEET(guildleve,$E8(1),[@SWITCH(1,59,60,61,62)])],1)])] x [@SHEET(guildleve,$E8(1),39)],)][@IF([@SHEET(guildleve,$E8(1),40)],[@CR][@2D([@SHEET(xtx/displayName,[@SHEET(guildleve,$E8(1),[@SWITCH(2,59,60,61,62)])],1)])] x [@SHEET(guildleve,$E8(1),40)],)][@IF([@SHEET(guildleve,$E8(1),41)],[@CR][@2D([@SHEET(xtx/displayName,[@SHEET(guildleve,$E8(1),[@SWITCH(3,59,60,61,62)])],1)])] x [@SHEET(guildleve,$E8(1),41)],)][@IF([@SHEET(guildleve,$E8(1),42)],[@CR][@2D([@SHEET(xtx/displayName,[@SHEET(guildleve,$E8(1),[@SWITCH(4,59,60,61,62)])],1)])] x [@SHEET(guildleve,$E8(1),42)],)]","Jage und vernichte die folgenden Gegner: [@IF([@SHEET(guildleve,$E8(1),39)],[@2B([@SHEETDE(xtx/displayName,5,[@SHEET(guildleve,$E8(1),[@SWITCH(1,59,60,61,62)])],1,1,1)])] × [@SHEET(guildleve,$E8(1),39)],)][@IF([@SHEET(guildleve,$E8(1),40)],[@CR][@2B([@SHEETDE(xtx/displayName,5,[@SHEET(guildleve,$E8(1),[@SWITCH(2,59,60,61,62)])],1,1,1)])] × [@SHEET(guildleve,$E8(1),40)],)][@IF([@SHEET(guildleve,$E8(1),41)],[@CR][@2B([@SHEETDE(xtx/displayName,5,[@SHEET(guildleve,$E8(1),[@SWITCH(3,59,60,61,62)])],1,1,1)])] × [@SHEET(guildleve,$E8(1),41)],)][@IF([@SHEET(guildleve,$E8(1),42)],[@CR][@2B([@SHEETDE(xtx/displayName,5,[@SHEET(guildleve,$E8(1),[@SWITCH(4,59,60,61,62)])],1,1,1)])] × [@SHEET(guildleve,$E8(1),42)],)]","Terrassez les ennemis suivants[@1D]:[@IF([@SHEET(guildleve,$E8(1),39)],[@CR][@2B([@SHEET(xtx/displayName,[@SHEET(guildleve,$E8(1),[@SWITCH(1,59,60,61,62)])],13)])] x [@SHEET(guildleve,$E8(1),39)],)][@IF([@SHEET(guildleve,$E8(1),40)],[@CR][@2B([@SHEET(xtx/displayName,[@SHEET(guildleve,$E8(1),[@SWITCH(2,59,60,61,62)])],13)])] x [@SHEET(guildleve,$E8(1),40)],)][@IF([@SHEET(guildleve,$E8(1),41)],[@CR][@2B([@SHEET(xtx/displayName,[@SHEET(guildleve,$E8(1),[@SWITCH(3,59,60,61,62)])],13)])] x [@SHEET(guildleve,$E8(1),41)],)][@IF([@SHEET(guildleve,$E8(1),42)],[@CR][@2B([@SHEET(xtx/displayName,[@SHEET(guildleve,$E8(1),[@SWITCH(4,59,60,61,62)])],13)])] x [@SHEET(guildleve,$E8(1),42)],)]",1,找出怪物并打倒。,"目标[@IF([@SHEET(guildleve,$E8(1),39)],[@CR][@SHEET(xtx/displayName,[@SHEET(guildleve,$E8(1),[@SWITCH(1,59,60,61,62)])],19)] × [@SHEET(guildleve,$E8(1),39)],)][@IF([@SHEET(guildleve,$E8(1),40)],[@CR][@SHEET(xtx/displayName,[@SHEET(guildleve,$E8(1),[@SWITCH(2,59,60,61,62)])],19)] × [@SHEET(guildleve,$E8(1),40)],)][@IF([@SHEET(guildleve,$E8(1),41)],[@CR][@SHEET(xtx/displayName,[@SHEET(guildleve,$E8(1),[@SWITCH(3,59,60,61,62)])],19)] × [@SHEET(guildleve,$E8(1),41)],)][@IF([@SHEET(guildleve,$E8(1),42)],[@CR][@SHEET(xtx/displayName,[@SHEET(guildleve,$E8(1),[@SWITCH(4,59,60,61,62)])],19)] × [@SHEET(guildleve,$E8(1),42)],)]"
10081,所定の地点を巡り、魔物を迎撃せよ。,Travel to all the indicated locations and slay the target enemies.,Reise zum angegebenen Ort und erfülle dort den Erlass der Gilde!,Déplacez-vous aux endroits indiqués et terrassez tous les ennemis.,"拠点巡回[@IF([@SHEET(guildleve,$E8(1),39)],[@CR][@SHEET(xtx/displayName,[@SHEET(guildleve,$E8(1),[@SWITCH(1,59,60,61,62)])],0)] × [@SHEET(guildleve,$E8(1),39)],)][@IF([@SHEET(guildleve,$E8(1),40)],[@CR][@SHEET(xtx/displayName,[@SHEET(guildleve,$E8(1),[@SWITCH(2,59,60,61,62)])],0)] × [@SHEET(guildleve,$E8(1),40)],)][@IF([@SHEET(guildleve,$E8(1),41)],[@CR][@SHEET(xtx/displayName,[@SHEET(guildleve,$E8(1),[@SWITCH(3,59,60,61,62)])],0)] × [@SHEET(guildleve,$E8(1),41)],)][@IF([@SHEET(guildleve,$E8(1),42)],[@CR][@SHEET(xtx/displayName,[@SHEET(guildleve,$E8(1),[@SWITCH(4,59,60,61,62)])],0)] × [@SHEET(guildleve,$E8(1),42)],)]","Hunt down the following targets:[@IF([@SHEET(guildleve,$E8(1),39)],[@CR][@2D([@SHEET(xtx/displayName,[@SHEET(guildleve,$E8(1),[@SWITCH(1,59,60,61,62)])],1)])] x [@SHEET(guildleve,$E8(1),39)],)][@IF([@SHEET(guildleve,$E8(1),40)],[@CR][@2D([@SHEET(xtx/displayName,[@SHEET(guildleve,$E8(1),[@SWITCH(2,59,60,61,62)])],1)])] x [@SHEET(guildleve,$E8(1),40)],)][@IF([@SHEET(guildleve,$E8(1),41)],[@CR][@2D([@SHEET(xtx/displayName,[@SHEET(guildleve,$E8(1),[@SWITCH(3,59,60,61,62)])],1)])] x [@SHEET(guildleve,$E8(1),41)],)][@IF([@SHEET(guildleve,$E8(1),42)],[@CR][@2D([@SHEET(xtx/displayName,[@SHEET(guildleve,$E8(1),[@SWITCH(4,59,60,61,62)])],1)])] x [@SHEET(guildleve,$E8(1),42)],)]","Besiege auf deiner Patrouille folgende Gegner: [@IF([@SHEET(guildleve,$E8(1),39)],[@2B([@SHEETDE(xtx/displayName,5,[@SHEET(guildleve,$E8(1),[@SWITCH(1,59,60,61,62)])],1,1,1)])] × [@SHEET(guildleve,$E8(1),39)],)][@IF([@SHEET(guildleve,$E8(1),40)],[@CR][@2B([@SHEETDE(xtx/displayName,5,[@SHEET(guildleve,$E8(1),[@SWITCH(2,59,60,61,62)])],1,1,1)])] × [@SHEET(guildleve,$E8(1),40)],)][@IF([@SHEET(guildleve,$E8(1),41)],[@CR][@2B([@SHEETDE(xtx/displayName,5,[@SHEET(guildleve,$E8(1),[@SWITCH(3,59,60,61,62)])],1,1,1)])] × [@SHEET(guildleve,$E8(1),41)],)][@IF([@SHEET(guildleve,$E8(1),42)],[@CR][@2B([@SHEETDE(xtx/displayName,5,[@SHEET(guildleve,$E8(1),[@SWITCH(4,59,60,61,62)])],1,1,1)])] × [@SHEET(guildleve,$E8(1),42)],)]","Terrassez les ennemis suivants[@1D]:[@IF([@SHEET(guildleve,$E8(1),39)],[@CR][@2B([@SHEET(xtx/displayName,[@SHEET(guildleve,$E8(1),[@SWITCH(1,59,60,61,62)])],13)])] x [@SHEET(guildleve,$E8(1),39)],)][@IF([@SHEET(guildleve,$E8(1),40)],[@CR][@2B([@SHEET(xtx/displayName,[@SHEET(guildleve,$E8(1),[@SWITCH(2,59,60,61,62)])],13)])] x [@SHEET(guildleve,$E8(1),40)],)][@IF([@SHEET(guildleve,$E8(1),41)],[@CR][@2B([@SHEET(xtx/displayName,[@SHEET(guildleve,$E8(1),[@SWITCH(3,59,60,61,62)])],13)])] x [@SHEET(guildleve,$E8(1),41)],)][@IF([@SHEET(guildleve,$E8(1),42)],[@CR][@2B([@SHEET(xtx/displayName,[@SHEET(guildleve,$E8(1),[@SWITCH(4,59,60,61,62)])],13)])] x [@SHEET(guildleve,$E8(1),42)],)]",1,巡视指定地点，迎击怪物。,"据点巡视[@IF([@SHEET(guildleve,$E8(1),39)],[@CR][@SHEET(xtx/displayName,[@SHEET(guildleve,$E8(1),[@SWITCH(1,59,60,61,62)])],19)] × [@SHEET(guildleve,$E8(1),39)],)][@IF([@SHEET(guildleve,$E8(1),40)],[@CR][@SHEET(xtx/displayName,[@SHEET(guildleve,$E8(1),[@SWITCH(2,59,60,61,62)])],19)] × [@SHEET(guildleve,$E8(1),40)],)][@IF([@SHEET(guildleve,$E8(1),41)],[@CR][@SHEET(xtx/displayName,[@SHEET(guildleve,$E8(1),[@SWITCH(3,59,60,61,62)])],19)] × [@SHEET(guildleve,$E8(1),41)],)][@IF([@SHEET(guildleve,$E8(1),42)],[@CR][@SHEET(xtx/displayName,[@SHEET(guildleve,$E8(1),[@SWITCH(4,59,60,61,62)])],19)] × [@SHEET(guildleve,$E8(1),42)],)]"
10091,仮：指定された魔物を尾行し、任務を遂行せよ。,Follow the target and carry out all levequest objectives.,Verfolge bestimmte Gegner und erfülle den Erlass der Gilde!,Poursuivez les ennemis indiqués et remplissez votre mission.,"[@SHEET(xtx/guildleveText,[@SHEET(guildleve,$E8(1),17)],0)][@IF([@SHEET(guildleve,$E8(1),39)],[@CR][@SHEET(xtx/displayName,[@SHEET(guildleve,$E8(1),[@SWITCH(1,59,60,61,62)])],0)] × ？,)]","[@SHEET(xtx/guildleveText,[@SHEET(guildleve,$E8(1),17)],1)][@IF([@SHEET(guildleve,$E8(1),39)],[@CR][@SHEET(xtx/displayName,[@SHEET(guildleve,$E8(1),[@SWITCH(1,59,60,61,62)])],1)] x ？,)]","[@SHEET(xtx/guildleveText,[@SHEET(guildleve,$E8(1),17)],2)][@IF([@SHEET(guildleve,$E8(1),39)],[@CR][@SHEET(xtx/displayName,[@SHEET(guildleve,$E8(1),[@SWITCH(1,59,60,61,62)])],6)] × ？,)]","[@SHEET(xtx/guildleveText,[@SHEET(guildleve,$E8(1),17)],3)][@IF([@SHEET(guildleve,$E8(1),39)],[@CR][@SHEET(xtx/displayName,[@SHEET(guildleve,$E8(1),[@SWITCH(1,59,60,61,62)])],13)] x ？,)]",1,暂定：尾随指定怪物，完成任务。,"[@SHEET(xtx/guildleveText,[@SHEET(guildleve,$E8(1),17)],0)][@IF([@SHEET(guildleve,$E8(1),39)],[@CR][@SHEET(xtx/displayName,[@SHEET(guildleve,$E8(1),[@SWITCH(1,59,60,61,62)])],19)] × ？,)]"
11011,"[@SHEET(xtx/placeName,[@SHEET(aetheryte,[@SHEET(guildleve,$E8(1),6)],0)],0)]の鉱脈で試掘せよ。","Locate mining points near [@SHEETEN(xtx/placeName,2,[@SHEET(aetheryte,[@SHEET(guildleve,$E8(1),6)],0)],1,1)] and assess their worth.","Finde Lagerstätten im Areal „[@SHEET(xtx/placeName,[@SHEET(aetheryte,[@SHEET(guildleve,$E8(1),6)],0)],4)]“ und bau dort probeweise Bodenschätze ab!","Extrayez du minerai aux abords [@SHEET(xtx/placeName,[@SHEET(aetheryte,[@SHEET(guildleve,$E8(1),6)],0)],7,3)].","鉱脈調査[@IF([@SHEET(guildleve,$E8(1),42)],[@CR][@SHEET(xtx/guildleveText,[@SHEET(guildleve,$E8(1),19)],0)] × [@SHEET(guildleve,$E8(1),42)],)]","Locate the following:[@IF([@SHEET(guildleve,$E8(1),42)],[@CR][@SHEET(xtx/guildleveText,[@SHEET(guildleve,$E8(1),19)],1)] x [@SHEET(guildleve,$E8(1),42)],)]","Lokalisiere: [@IF([@SHEET(guildleve,$E8(1),42)],[@CR][@SHEET(xtx/guildleveText,[@SHEET(guildleve,$E8(1),19)],2)] × [@SHEET(guildleve,$E8(1),42)],)]","Extrayez[@1D]:[@IF([@SHEET(guildleve,$E8(1),42)],[@CR][@SHEET(xtx/guildleveText,[@SHEET(guildleve,$E8(1),19)],3)] x [@SHEET(guildleve,$E8(1),42)],)]",1,"挖掘[@SHEET(xtx/placeName,[@SHEET(aetheryte,[@SHEET(guildleve,$E8(1),6)],0)],8)]的矿脉。","矿脉调查[@IF([@SHEET(guildleve,$E8(1),42)],[@CR][@SHEET(xtx/guildleveText,[@SHEET(guildleve,$E8(1),19)],9)] × [@SHEET(guildleve,$E8(1),42)],)]"
11012,"[@SHEET(xtx/placeName,[@SHEET(aetheryte,[@SHEET(guildleve,$E8(1),6)],0)],0)]の岩床で試掘せよ。","Locate quarrying points near [@SHEETEN(xtx/placeName,2,[@SHEET(aetheryte,[@SHEET(guildleve,$E8(1),6)],0)],1,1)] and assess their worth.","Finde Steinbrüche im Areal „[@SHEET(xtx/placeName,[@SHEET(aetheryte,[@SHEET(guildleve,$E8(1),6)],0)],4)]“ und nimm dort Gesteinsproben!","Extrayez des pierres aux abords [@SHEET(xtx/placeName,[@SHEET(aetheryte,[@SHEET(guildleve,$E8(1),6)],0)],7,3)].","岩床調査[@IF([@SHEET(guildleve,$E8(1),42)],[@CR][@SHEET(xtx/guildleveText,[@SHEET(guildleve,$E8(1),19)],0)] × [@SHEET(guildleve,$E8(1),42)],)]","Locate the following:[@IF([@SHEET(guildleve,$E8(1),42)],[@CR][@SHEET(xtx/guildleveText,[@SHEET(guildleve,$E8(1),19)],1)] x [@SHEET(guildleve,$E8(1),42)],)]","Lokalisiere: [@IF([@SHEET(guildleve,$E8(1),42)],[@CR][@SHEET(xtx/guildleveText,[@SHEET(guildleve,$E8(1),19)],2)] × [@SHEET(guildleve,$E8(1),42)],)]","Extrayez[@1D]:[@IF([@SHEET(guildleve,$E8(1),42)],[@CR][@SHEET(xtx/guildleveText,[@SHEET(guildleve,$E8(1),19)],3)] x [@SHEET(guildleve,$E8(1),42)],)]",1,"挖掘[@SHEET(xtx/placeName,[@SHEET(aetheryte,[@SHEET(guildleve,$E8(1),6)],0)],8)]的石矿。","石矿调查[@IF([@SHEET(guildleve,$E8(1),42)],[@CR][@SHEET(xtx/guildleveText,[@SHEET(guildleve,$E8(1),19)],9)] × [@SHEET(guildleve,$E8(1),42)],)]"
11013,"[@SHEET(xtx/placeName,[@SHEET(aetheryte,[@SHEET(guildleve,$E8(1),6)],0)],0)]の樹木を伐採せよ。","Locate logging points near [@SHEETEN(xtx/placeName,2,[@SHEET(aetheryte,[@SHEET(guildleve,$E8(1),6)],0)],1,1)] and collect samples of the wood.","Finde Nutzbäume im Areal „[@SHEET(xtx/placeName,[@SHEET(aetheryte,[@SHEET(guildleve,$E8(1),6)],0)],4)]“ und nimm dort Holzproben!","Coupez du bois aux abords [@SHEET(xtx/placeName,[@SHEET(aetheryte,[@SHEET(guildleve,$E8(1),6)],0)],7,3)].","植林状況調査[@IF([@SHEET(guildleve,$E8(1),42)],[@CR][@SHEET(xtx/guildleveText,[@SHEET(guildleve,$E8(1),19)],0)] × [@SHEET(guildleve,$E8(1),42)],)]","Locate the following:[@IF([@SHEET(guildleve,$E8(1),42)],[@CR][@SHEET(xtx/guildleveText,[@SHEET(guildleve,$E8(1),19)],1)] x [@SHEET(guildleve,$E8(1),42)],)]","Lokalisiere: [@IF([@SHEET(guildleve,$E8(1),42)],[@CR][@SHEET(xtx/guildleveText,[@SHEET(guildleve,$E8(1),19)],2)] × [@SHEET(guildleve,$E8(1),42)],)]","Coupez[@1D]:[@IF([@SHEET(guildleve,$E8(1),42)],[@CR][@SHEET(xtx/guildleveText,[@SHEET(guildleve,$E8(1),19)],3)] x [@SHEET(guildleve,$E8(1),42)],)]",1,"采伐[@SHEET(xtx/placeName,[@SHEET(aetheryte,[@SHEET(guildleve,$E8(1),6)],0)],8)]的树木。","植木状况调查[@IF([@SHEET(guildleve,$E8(1),42)],[@CR][@SHEET(xtx/guildleveText,[@SHEET(guildleve,$E8(1),19)],9)] × [@SHEET(guildleve,$E8(1),42)],)]"
11014,"[@SHEET(xtx/placeName,[@SHEET(aetheryte,[@SHEET(guildleve,$E8(1),6)],0)],0)]付近の漁場を調査せよ。","Locate fishing points near [@SHEETEN(xtx/placeName,2,[@SHEET(aetheryte,[@SHEET(guildleve,$E8(1),6)],0)],1,1)] and assess their worth.","Finde Angelstellen im Areal „[@SHEET(xtx/placeName,[@SHEET(aetheryte,[@SHEET(guildleve,$E8(1),6)],0)],4)]“ und fang dort probeweise ein paar Fische!","Pêchez des poissons aux abords [@SHEET(xtx/placeName,[@SHEET(aetheryte,[@SHEET(guildleve,$E8(1),6)],0)],7,3)].","漁場調査[@IF([@SHEET(guildleve,$E8(1),42)],[@CR][@SHEET(xtx/guildleveText,[@SHEET(guildleve,$E8(1),19)],0)] × [@SHEET(guildleve,$E8(1),42)],)]","Locate the following:[@IF([@SHEET(guildleve,$E8(1),42)],[@CR][@SHEET(xtx/guildleveText,[@SHEET(guildleve,$E8(1),19)],1)] x [@SHEET(guildleve,$E8(1),42)],)]","Lokalisiere: [@IF([@SHEET(guildleve,$E8(1),42)],[@CR][@SHEET(xtx/guildleveText,[@SHEET(guildleve,$E8(1),19)],2)] × [@SHEET(guildleve,$E8(1),42)],)]","Pêchez[@1D]:[@IF([@SHEET(guildleve,$E8(1),42)],[@CR][@SHEET(xtx/guildleveText,[@SHEET(guildleve,$E8(1),19)],3)] x [@SHEET(guildleve,$E8(1),42)],)]",1,"调查[@SHEET(xtx/placeName,[@SHEET(aetheryte,[@SHEET(guildleve,$E8(1),6)],0)],8)]附近的钓场。","钓场调查[@IF([@SHEET(guildleve,$E8(1),42)],[@CR][@SHEET(xtx/guildleveText,[@SHEET(guildleve,$E8(1),19)],9)] × [@SHEET(guildleve,$E8(1),42)],)]"
11021,"[@SHEET(xtx/placeName,[@SHEET(aetheryte,[@SHEET(guildleve,$E8(1),6)],0)],0)]にて指定物を調達せよ。",Procure the requested items.,"Besorge bestimmte Gegenstände im Areal [@SHEET(xtx/placeName,[@SHEET(aetheryte,[@SHEET(guildleve,$E8(1),6)],0)],4)]!","Livrez les objets indiqués [@SHEET(xtx/placeName,[@SHEET(aetheryte,[@SHEET(guildleve,$E8(1),6)],0)],7,2)].","指定物調達[@IF([@SHEET(guildleve,$E8(1),39)],[@CR][@SHEET(xtx/itemName,[@SHEET(guildleve,$E8(1),[@SWITCH(1,55,56,57,58)])],4,1)] × [@SHEET(guildleve,$E8(1),39)],)][@IF([@SHEET(guildleve,$E8(1),40)],[@CR][@SHEET(xtx/itemName,[@SHEET(guildleve,$E8(1),[@SWITCH(2,55,56,57,58)])],4,1)] × [@SHEET(guildleve,$E8(1),40)],)][@IF([@SHEET(guildleve,$E8(1),41)],[@CR][@SHEET(xtx/itemName,[@SHEET(guildleve,$E8(1),[@SWITCH(3,55,56,57,58)])],4,1)] × [@SHEET(guildleve,$E8(1),41)],)][@IF([@SHEET(guildleve,$E8(1),42)],[@CR][@SHEET(xtx/itemName,[@SHEET(guildleve,$E8(1),[@SWITCH(4,55,56,57,58)])],4,1)] × [@SHEET(guildleve,$E8(1),42)],)]","Procure the following items:[@IF([@SHEET(guildleve,$E8(1),39)],[@CR][@SHEET(xtx/itemName,[@SHEET(guildleve,$E8(1),[@SWITCH(1,55,56,57,58)])],5,1)] x [@SHEET(guildleve,$E8(1),39)],)][@IF([@SHEET(guildleve,$E8(1),40)],[@CR][@SHEET(xtx/itemName,[@SHEET(guildleve,$E8(1),[@SWITCH(2,55,56,57,58)])],5,1)] x [@SHEET(guildleve,$E8(1),40)],)][@IF([@SHEET(guildleve,$E8(1),41)],[@CR][@SHEET(xtx/itemName,[@SHEET(guildleve,$E8(1),[@SWITCH(3,55,56,57,58)])],5,1)] x [@SHEET(guildleve,$E8(1),41)],)][@IF([@SHEET(guildleve,$E8(1),42)],[@CR][@SHEET(xtx/itemName,[@SHEET(guildleve,$E8(1),[@SWITCH(4,55,56,57,58)])],5,1)] x [@SHEET(guildleve,$E8(1),42)],)]","Besorge die folgenden Gegenstände: [@IF([@SHEET(guildleve,$E8(1),39)],[@CR][@2B([@SHEETDE(xtx/itemName,5,[@SHEET(guildleve,$E8(1),[@SWITCH(1,55,56,57,58)])],1,1,1)])] × [@SHEET(guildleve,$E8(1),39)],)][@IF([@SHEET(guildleve,$E8(1),40)],[@CR][@2B([@SHEETDE(xtx/itemName,5,[@SHEET(guildleve,$E8(1),[@SWITCH(2,55,56,57,58)])],1,1,1)])] × [@SHEET(guildleve,$E8(1),40)],)][@IF([@SHEET(guildleve,$E8(1),41)],[@CR][@2B([@SHEETDE(xtx/itemName,5,[@SHEET(guildleve,$E8(1),[@SWITCH(3,55,56,57,58)])],1,1,1)])] × [@SHEET(guildleve,$E8(1),41)],)][@IF([@SHEET(guildleve,$E8(1),42)],[@CR][@2B([@SHEETDE(xtx/itemName,5,[@SHEET(guildleve,$E8(1),[@SWITCH(4,55,56,57,58)])],1,1,1)])] × [@SHEET(guildleve,$E8(1),42)],)]","Livrez les objets suivants[@1D]:[@IF([@SHEET(guildleve,$E8(1),39)],[@CR][@SHEET(xtx/itemName,[@SHEET(guildleve,$E8(1),[@SWITCH(1,55,56,57,58)])],19,1)] x [@SHEET(guildleve,$E8(1),39)],)][@IF([@SHEET(guildleve,$E8(1),40)],[@CR][@SHEET(xtx/itemName,[@SHEET(guildleve,$E8(1),[@SWITCH(2,55,56,57,58)])],19,1)] x [@SHEET(guildleve,$E8(1),40)],)][@IF([@SHEET(guildleve,$E8(1),41)],[@CR][@SHEET(xtx/itemName,[@SHEET(guildleve,$E8(1),[@SWITCH(3,55,56,57,58)])],19,1)] x [@SHEET(guildleve,$E8(1),41)],)][@IF([@SHEET(guildleve,$E8(1),42)],[@CR][@SHEET(xtx/itemName,[@SHEET(guildleve,$E8(1),[@SWITCH(4,55,56,57,58)])],19,1)] x [@SHEET(guildleve,$E8(1),42)],)]",1,"在[@SHEET(xtx/placeName,[@SHEET(aetheryte,[@SHEET(guildleve,$E8(1),6)],0)],8)]筹备指定物品。","筹备指定物品[@IF([@SHEET(guildleve,$E8(1),39)],[@CR][@SHEET(xtx/itemName,[@SHEET(guildleve,$E8(1),[@SWITCH(1,55,56,57,58)])],131,1)] × [@SHEET(guildleve,$E8(1),39)],)][@IF([@SHEET(guildleve,$E8(1),40)],[@CR][@SHEET(xtx/itemName,[@SHEET(guildleve,$E8(1),[@SWITCH(2,55,56,57,58)])],131,1)] × [@SHEET(guildleve,$E8(1),40)],)][@IF([@SHEET(guildleve,$E8(1),41)],[@CR][@SHEET(xtx/itemName,[@SHEET(guildleve,$E8(1),[@SWITCH(3,55,56,57,58)])],131,1)] × [@SHEET(guildleve,$E8(1),41)],)][@IF([@SHEET(guildleve,$E8(1),42)],[@CR][@SHEET(xtx/itemName,[@SHEET(guildleve,$E8(1),[@SWITCH(4,55,56,57,58)])],131,1)] × [@SHEET(guildleve,$E8(1),42)],)]"
12001,敵を倒せ。,Defeat the target enemies.,Besiege bestimmte Gegner!,Eliminez les ennemis indiqués.,"ターゲット[@IF([@SHEET(guildleve,$E8(1),39)],[@CR][@SHEET(xtx/displayName,[@SHEET(guildleve,$E8(1),[@SWITCH(1,59,60,61,62)])],0)] × [@SHEET(guildleve,$E8(1),39)],)][@IF([@SHEET(guildleve,$E8(1),40)],[@CR][@SHEET(xtx/displayName,[@SHEET(guildleve,$E8(1),[@SWITCH(2,59,60,61,62)])],0)] × [@SHEET(guildleve,$E8(1),40)],)][@IF([@SHEET(guildleve,$E8(1),41)],[@CR][@SHEET(xtx/displayName,[@SHEET(guildleve,$E8(1),[@SWITCH(3,59,60,61,62)])],0)] × [@SHEET(guildleve,$E8(1),41)],)][@IF([@SHEET(guildleve,$E8(1),42)],[@CR][@SHEET(xtx/displayName,[@SHEET(guildleve,$E8(1),[@SWITCH(4,59,60,61,62)])],0)] × [@SHEET(guildleve,$E8(1),42)],)]","Eliminate the following targets:[@IF([@SHEET(guildleve,$E8(1),39)],[@CR][@2D([@SHEET(xtx/displayName,[@SHEET(guildleve,$E8(1),[@SWITCH(1,59,60,61,62)])],1)])] x [@SHEET(guildleve,$E8(1),39)],)][@IF([@SHEET(guildleve,$E8(1),40)],[@CR][@2D([@SHEET(xtx/displayName,[@SHEET(guildleve,$E8(1),[@SWITCH(2,59,60,61,62)])],1)])] x [@SHEET(guildleve,$E8(1),40)],)][@IF([@SHEET(guildleve,$E8(1),41)],[@CR][@2D([@SHEET(xtx/displayName,[@SHEET(guildleve,$E8(1),[@SWITCH(3,59,60,61,62)])],1)])] x [@SHEET(guildleve,$E8(1),41)],)][@IF([@SHEET(guildleve,$E8(1),42)],[@CR][@2D([@SHEET(xtx/displayName,[@SHEET(guildleve,$E8(1),[@SWITCH(4,59,60,61,62)])],1)])] x [@SHEET(guildleve,$E8(1),42)],)]","Bezwinge folgende Monster: [@IF([@SHEET(guildleve,$E8(1),39)],[@CR][@2B([@SHEETDE(xtx/displayName,5,[@SHEET(guildleve,$E8(1),[@SWITCH(1,59,60,61,62)])],1,1,1)])] × [@SHEET(guildleve,$E8(1),39)],)][@IF([@SHEET(guildleve,$E8(1),40)],[@CR][@2B([@SHEETDE(xtx/displayName,5,[@SHEET(guildleve,$E8(1),[@SWITCH(2,59,60,61,62)])],1,1,1)])] × [@SHEET(guildleve,$E8(1),40)],)][@IF([@SHEET(guildleve,$E8(1),41)],[@CR][@2B([@SHEETDE(xtx/displayName,5,[@SHEET(guildleve,$E8(1),[@SWITCH(3,59,60,61,62)])],1,1,1)])] × [@SHEET(guildleve,$E8(1),41)],)][@IF([@SHEET(guildleve,$E8(1),42)],[@CR][@2B([@SHEETDE(xtx/displayName,5,[@SHEET(guildleve,$E8(1),[@SWITCH(4,59,60,61,62)])],1,1,1)])] × [@SHEET(guildleve,$E8(1),42)],)]","Terrassez les ennemis suivants[@1D]:[@IF([@SHEET(guildleve,$E8(1),39)],[@CR][@2B([@SHEET(xtx/displayName,[@SHEET(guildleve,$E8(1),[@SWITCH(1,59,60,61,62)])],13)])] x [@SHEET(guildleve,$E8(1),39)],)][@IF([@SHEET(guildleve,$E8(1),40)],[@CR][@2B([@SHEET(xtx/displayName,[@SHEET(guildleve,$E8(1),[@SWITCH(2,59,60,61,62)])],13)])] x [@SHEET(guildleve,$E8(1),40)],)][@IF([@SHEET(guildleve,$E8(1),41)],[@CR][@2B([@SHEET(xtx/displayName,[@SHEET(guildleve,$E8(1),[@SWITCH(3,59,60,61,62)])],13)])] x [@SHEET(guildleve,$E8(1),41)],)][@IF([@SHEET(guildleve,$E8(1),42)],[@CR][@2B([@SHEET(xtx/displayName,[@SHEET(guildleve,$E8(1),[@SWITCH(4,59,60,61,62)])],13)])] x [@SHEET(guildleve,$E8(1),42)],)]",1,打倒敌人。,"目标[@IF([@SHEET(guildleve,$E8(1),39)],[@CR][@SHEET(xtx/displayName,[@SHEET(guildleve,$E8(1),[@SWITCH(1,59,60,61,62)])],19)] × [@SHEET(guildleve,$E8(1),39)],)][@IF([@SHEET(guildleve,$E8(1),40)],[@CR][@SHEET(xtx/displayName,[@SHEET(guildleve,$E8(1),[@SWITCH(2,59,60,61,62)])],19)] × [@SHEET(guildleve,$E8(1),40)],)][@IF([@SHEET(guildleve,$E8(1),41)],[@CR][@SHEET(xtx/displayName,[@SHEET(guildleve,$E8(1),[@SWITCH(3,59,60,61,62)])],19)] × [@SHEET(guildleve,$E8(1),41)],)][@IF([@SHEET(guildleve,$E8(1),42)],[@CR][@SHEET(xtx/displayName,[@SHEET(guildleve,$E8(1),[@SWITCH(4,59,60,61,62)])],19)] × [@SHEET(guildleve,$E8(1),42)],)]"
12002,刺客を倒せ。,Locate and defeat the assassin.,Finde und besiege den Attentäter!,Eliminez la cible et ses alliés.,"ターゲット[@IF([@SHEET(guildleve,$E8(1),39)],[@CR][@SHEET(xtx/displayName,[@SHEET(guildleve,$E8(1),[@SWITCH(1,59,60,61,62)])],0)] × [@SHEET(guildleve,$E8(1),39)],)][@IF([@SHEET(guildleve,$E8(1),40)],[@CR][@SHEET(xtx/displayName,[@SHEET(guildleve,$E8(1),[@SWITCH(2,59,60,61,62)])],0)] × [@SHEET(guildleve,$E8(1),40)],)][@IF([@SHEET(guildleve,$E8(1),41)],[@CR][@SHEET(xtx/displayName,[@SHEET(guildleve,$E8(1),[@SWITCH(3,59,60,61,62)])],0)] × [@SHEET(guildleve,$E8(1),41)],)][@IF([@SHEET(guildleve,$E8(1),42)],[@CR][@SHEET(xtx/displayName,[@SHEET(guildleve,$E8(1),[@SWITCH(4,59,60,61,62)])],0)] × [@SHEET(guildleve,$E8(1),42)],)]","Eliminate the following targets:[@IF([@SHEET(guildleve,$E8(1),39)],[@CR][@2D([@SHEET(xtx/displayName,[@SHEET(guildleve,$E8(1),[@SWITCH(1,59,60,61,62)])],1)])] x [@SHEET(guildleve,$E8(1),39)],)][@IF([@SHEET(guildleve,$E8(1),40)],[@CR][@2D([@SHEET(xtx/displayName,[@SHEET(guildleve,$E8(1),[@SWITCH(2,59,60,61,62)])],1)])] x [@SHEET(guildleve,$E8(1),40)],)][@IF([@SHEET(guildleve,$E8(1),41)],[@CR][@2D([@SHEET(xtx/displayName,[@SHEET(guildleve,$E8(1),[@SWITCH(3,59,60,61,62)])],1)])] x [@SHEET(guildleve,$E8(1),41)],)][@IF([@SHEET(guildleve,$E8(1),42)],[@CR][@2D([@SHEET(xtx/displayName,[@SHEET(guildleve,$E8(1),[@SWITCH(4,59,60,61,62)])],1)])] x [@SHEET(guildleve,$E8(1),42)],)]","Bezwinge folgende Monster:   [@IF([@SHEET(guildleve,$E8(1),39)],[@CR][@2B([@SHEETDE(xtx/displayName,5,[@SHEET(guildleve,$E8(1),[@SWITCH(1,59,60,61,62)])],1,1,1)])] × [@SHEET(guildleve,$E8(1),39)],)][@IF([@SHEET(guildleve,$E8(1),40)],[@CR][@2B([@SHEETDE(xtx/displayName,5,[@SHEET(guildleve,$E8(1),[@SWITCH(2,59,60,61,62)])],1,1,1)])] × [@SHEET(guildleve,$E8(1),40)],)][@IF([@SHEET(guildleve,$E8(1),41)],[@CR][@2B([@SHEETDE(xtx/displayName,5,[@SHEET(guildleve,$E8(1),[@SWITCH(3,59,60,61,62)])],1,1,1)])] × [@SHEET(guildleve,$E8(1),41)],)][@IF([@SHEET(guildleve,$E8(1),42)],[@CR][@2B([@SHEETDE(xtx/displayName,5,[@SHEET(guildleve,$E8(1),[@SWITCH(4,59,60,61,62)])],1,1,1)])] × [@SHEET(guildleve,$E8(1),42)],)]","Terrassez les ennemis suivants[@1D]:[@IF([@SHEET(guildleve,$E8(1),39)],[@CR][@2B([@SHEET(xtx/displayName,[@SHEET(guildleve,$E8(1),[@SWITCH(1,59,60,61,62)])],13)])] x [@SHEET(guildleve,$E8(1),39)],)][@IF([@SHEET(guildleve,$E8(1),40)],[@CR][@2B([@SHEET(xtx/displayName,[@SHEET(guildleve,$E8(1),[@SWITCH(2,59,60,61,62)])],13)])] x [@SHEET(guildleve,$E8(1),40)],)][@IF([@SHEET(guildleve,$E8(1),41)],[@CR][@2B([@SHEET(xtx/displayName,[@SHEET(guildleve,$E8(1),[@SWITCH(3,59,60,61,62)])],13)])] x [@SHEET(guildleve,$E8(1),41)],)][@IF([@SHEET(guildleve,$E8(1),42)],[@CR][@2B([@SHEET(xtx/displayName,[@SHEET(guildleve,$E8(1),[@SWITCH(4,59,60,61,62)])],13)])] x [@SHEET(guildleve,$E8(1),42)],)]",1,打倒刺客。,"目标[@IF([@SHEET(guildleve,$E8(1),39)],[@CR][@SHEET(xtx/displayName,[@SHEET(guildleve,$E8(1),[@SWITCH(1,59,60,61,62)])],19)] × [@SHEET(guildleve,$E8(1),39)],)][@IF([@SHEET(guildleve,$E8(1),40)],[@CR][@SHEET(xtx/displayName,[@SHEET(guildleve,$E8(1),[@SWITCH(2,59,60,61,62)])],19)] × [@SHEET(guildleve,$E8(1),40)],)][@IF([@SHEET(guildleve,$E8(1),41)],[@CR][@SHEET(xtx/displayName,[@SHEET(guildleve,$E8(1),[@SWITCH(3,59,60,61,62)])],19)] × [@SHEET(guildleve,$E8(1),41)],)][@IF([@SHEET(guildleve,$E8(1),42)],[@CR][@SHEET(xtx/displayName,[@SHEET(guildleve,$E8(1),[@SWITCH(4,59,60,61,62)])],19)] × [@SHEET(guildleve,$E8(1),42)],)]"
12003,"[@SHEET(xtx/placeName,[@SHEET(aetheryte,[@SHEET(guildleve,$E8(1),6)],0)],0)]にて指定物を収集せよ。","Gather the requested items around [@SHEETEN(xtx/placeName,2,[@SHEET(aetheryte,[@SHEET(guildleve,$E8(1),6)],0)],1,1)].","Begib dich ins Areal „[@SHEET(xtx/placeName,[@SHEET(aetheryte,[@SHEET(guildleve,$E8(1),6)],0)],4)]“ und sammle dort, wonach die Gilde verlangt.","Collectez les objets indiqués aux abords [@SHEET(xtx/placeName,[@SHEET(aetheryte,[@SHEET(guildleve,$E8(1),6)],0)],7,3)].","指定物収集[@CR][@SHEET(xtx/itemName,[@SHEET(guildleve,$E8(1),[@SWITCH(1,55,56,57,58)])],4,1)]","Collect the following:[@CR][@SHEET(xtx/itemName,[@SHEET(guildleve,$E8(1),[@SWITCH(1,55,56,57,58)])],5,1)]","Sammle das Folgende: [@2B([@SHEETDE(xtx/itemName,5,[@SHEET(guildleve,$E8(1),[@SWITCH(1,55,56,57,58)])],1,1,1)])]","Collectez les objets suivants[@1D]:[@CR][@SHEET(xtx/itemName,[@SHEET(guildleve,$E8(1),[@SWITCH(1,55,56,57,58)])],19,1)]",1,"在[@SHEET(xtx/placeName,[@SHEET(aetheryte,[@SHEET(guildleve,$E8(1),6)],0)],8)]收集指定物品。","收集指定物品[@CR][@SHEET(xtx/itemName,[@SHEET(guildleve,$E8(1),[@SWITCH(1,55,56,57,58)])],131,1)]"
12004,"[@SHEET(xtx/placeName,[@SHEET(aetheryte,[@SHEET(guildleve,$E8(1),6)],0)],0)]にて指定物を回収せよ。","Retrieve the requested items around [@SHEETEN(xtx/placeName,2,[@SHEET(aetheryte,[@SHEET(guildleve,$E8(1),6)],0)],1,1)].","Begib dich ins Areal „[@SHEET(xtx/placeName,[@SHEET(aetheryte,[@SHEET(guildleve,$E8(1),6)],0)],4)]“ und sammle dort, wonach die Gilde verlangt.","Recouvrez les objets indiqués aux abords [@SHEET(xtx/placeName,[@SHEET(aetheryte,[@SHEET(guildleve,$E8(1),6)],0)],7,3)].","指定物回収[@CR][@SHEET(xtx/itemName,[@SHEET(guildleve,$E8(1),[@SWITCH(1,55,56,57,58)])],4,1)]","Retrieve the following:[@CR][@SHEET(xtx/itemName,[@SHEET(guildleve,$E8(1),[@SWITCH(1,55,56,57,58)])],5,1)]","Sammle das Folgende: [@2B([@SHEETDE(xtx/itemName,5,[@SHEET(guildleve,$E8(1),[@SWITCH(1,55,56,57,58)])],1,1,1)])]","Recouvrez les objets suivants[@1D]:[@CR][@SHEET(xtx/itemName,[@SHEET(guildleve,$E8(1),[@SWITCH(1,55,56,57,58)])],19,1)]",1,"在[@SHEET(xtx/placeName,[@SHEET(aetheryte,[@SHEET(guildleve,$E8(1),6)],0)],8)]回收指定物品。","回收指定物品[@CR][@SHEET(xtx/itemName,[@SHEET(guildleve,$E8(1),[@SWITCH(1,55,56,57,58)])],131,1)]"
12005,"[@SHEET(xtx/placeName,[@SHEET(aetheryte,[@SHEET(guildleve,$E8(1),6)],0)],0)]にて指定物を発見せよ。","Locate the requested items around [@SHEETEN(xtx/placeName,2,[@SHEET(aetheryte,[@SHEET(guildleve,$E8(1),6)],0)],1,1)].","Begib dich ins Areal „[@SHEET(xtx/placeName,[@SHEET(aetheryte,[@SHEET(guildleve,$E8(1),6)],0)],4)]“ und finde dort, wonach die Gilde verlangt.","Trouvez les objets indiqués aux abords [@SHEET(xtx/placeName,[@SHEET(aetheryte,[@SHEET(guildleve,$E8(1),6)],0)],7,3)].","指定物発見[@CR][@SHEET(xtx/itemName,[@SHEET(guildleve,$E8(1),[@SWITCH(1,55,56,57,58)])],4,1)]","Locate the following:[@CR][@SHEET(xtx/itemName,[@SHEET(guildleve,$E8(1),[@SWITCH(1,55,56,57,58)])],5,1)]","Finde das Folgende: [@2B([@SHEETDE(xtx/itemName,5,[@SHEET(guildleve,$E8(1),[@SWITCH(1,55,56,57,58)])],1,1,1)])]","Trouvez les objets suivants[@1D]:[@CR][@SHEET(xtx/itemName,[@SHEET(guildleve,$E8(1),[@SWITCH(1,55,56,57,58)])],19,1)]",1,"在[@SHEET(xtx/placeName,[@SHEET(aetheryte,[@SHEET(guildleve,$E8(1),6)],0)],8)]发现指定物品。","发现指定物品[@CR][@SHEET(xtx/itemName,[@SHEET(guildleve,$E8(1),[@SWITCH(1,55,56,57,58)])],131,1)]"
12006,敵を倒せ。,Defeat the target enemies.,Besiege bestimmte Gegner!,Eliminez les ennemis indiqués.,"ターゲット[@IF([@SHEET(guildleve,$E8(1),39)],[@CR][@SHEET(xtx/displayName,[@SHEET(guildleve,$E8(1),[@SWITCH(1,59,60,61,62)])],0)] × [@SHEET(guildleve,$E8(1),39)],)]","Pursue and defeat the following targets:[@IF([@SHEET(guildleve,$E8(1),39)],[@CR][@2D([@SHEET(xtx/displayName,[@SHEET(guildleve,$E8(1),[@SWITCH(1,59,60,61,62)])],1)])] x [@SHEET(guildleve,$E8(1),39)],)]","Bezwinge folgende Monster:[@IF([@SHEET(guildleve,$E8(1),39)],[@CR][@2B([@SHEETDE(xtx/displayName,5,[@SHEET(guildleve,$E8(1),[@SWITCH(1,59,60,61,62)])],1,1,1)])] × [@SHEET(guildleve,$E8(1),39)],)]","Poursuivez et terrassez les ennemis suivants[@1D]:[@IF([@SHEET(guildleve,$E8(1),39)],[@CR][@2B([@SHEET(xtx/displayName,[@SHEET(guildleve,$E8(1),[@SWITCH(1,59,60,61,62)])],13)])] x [@SHEET(guildleve,$E8(1),39)],)]",1,打倒敌人。,"目标[@IF([@SHEET(guildleve,$E8(1),39)],[@CR][@SHEET(xtx/displayName,[@SHEET(guildleve,$E8(1),[@SWITCH(1,59,60,61,62)])],19)] × [@SHEET(guildleve,$E8(1),39)],)]"
12007,新兵を守り、ポリュスを始末せよ。,Defeat Polus while protecting the Isleguard from harm.,Beschütze den neuen Rekruten und besiege Porus!,Protégez le jeune soldat et éliminez Porus.,"ターゲット[@IF([@SHEET(guildleve,$E8(1),39)],[@CR][@SHEET(xtx/displayName,[@SHEET(guildleve,$E8(1),[@SWITCH(1,59,60,61,62)])],0)] × [@SHEET(guildleve,$E8(1),39)],)]","Pursue and defeat the following targets:[@IF([@SHEET(guildleve,$E8(1),39)],[@CR][@2D([@SHEET(xtx/displayName,[@SHEET(guildleve,$E8(1),[@SWITCH(1,59,60,61,62)])],1)])] x [@SHEET(guildleve,$E8(1),39)],)]","Bezwinge folgende Monster:[@IF([@SHEET(guildleve,$E8(1),39)],[@CR][@2B([@SHEETDE(xtx/displayName,5,[@SHEET(guildleve,$E8(1),[@SWITCH(1,59,60,61,62)])],1,1,1)])] × [@SHEET(guildleve,$E8(1),39)],)]","Terrassez les ennemis suivants[@1D]:[@IF([@SHEET(guildleve,$E8(1),39)],[@CR][@2B([@SHEET(xtx/displayName,[@SHEET(guildleve,$E8(1),[@SWITCH(1,59,60,61,62)])],13)])] x [@SHEET(guildleve,$E8(1),39)],)]",1,打倒敌人。,"目标[@IF([@SHEET(guildleve,$E8(1),39)],[@CR][@SHEET(xtx/displayName,[@SHEET(guildleve,$E8(1),[@SWITCH(1,59,60,61,62)])],19)] × [@SHEET(guildleve,$E8(1),39)],)]"
12008,敵を倒せ。,Defeat the target enemies.,Besiege bestimmte Gegner!,Eliminez les ennemis indiqués.,"ターゲット[@IF([@SHEET(guildleve,$E8(1),40)],[@CR][@SHEET(xtx/displayName,[@SHEET(guildleve,$E8(1),[@SWITCH(2,59,60,61,62)])],0)] × [@SHEET(guildleve,$E8(1),40)],)]","Pursue and defeat the following targets:[@IF([@SHEET(guildleve,$E8(1),40)],[@CR][@2D([@SHEET(xtx/displayName,[@SHEET(guildleve,$E8(1),[@SWITCH(2,59,60,61,62)])],1)])] x [@SHEET(guildleve,$E8(1),40)],)]","Bezwinge folgende Monster:[@IF([@SHEET(guildleve,$E8(1),40)],[@CR][@2B([@SHEETDE(xtx/displayName,5,[@SHEET(guildleve,$E8(1),[@SWITCH(2,59,60,61,62)])],1,1,1)])] × [@SHEET(guildleve,$E8(1),40)],)]","Terrassez les ennemis suivants[@1D]:[@IF([@SHEET(guildleve,$E8(1),40)],[@CR][@2B([@SHEET(xtx/displayName,[@SHEET(guildleve,$E8(1),[@SWITCH(2,59,60,61,62)])],13)])] x [@SHEET(guildleve,$E8(1),40)],)]",1,打倒敌人。,"目标[@IF([@SHEET(guildleve,$E8(1),39)],[@CR][@SHEET(xtx/displayName,[@SHEET(guildleve,$E8(1),[@SWITCH(1,59,60,61,62)])],19)] × [@SHEET(guildleve,$E8(1),39)],)]"
12009,敵を倒せ。,Defeat the target enemies.,Besiege bestimmte Gegner!,Eliminez les ennemis indiqués.,"ターゲット[@IF([@SHEET(guildleve,$E8(1),40)],[@CR][@SHEET(xtx/displayName,[@SHEET(guildleve,$E8(1),[@SWITCH(2,59,60,61,62)])],0)] × [@SHEET(guildleve,$E8(1),40)],)][@IF([@SHEET(guildleve,$E8(1),41)],[@CR][@SHEET(xtx/displayName,[@SHEET(guildleve,$E8(1),[@SWITCH(3,59,60,61,62)])],0)] × [@SHEET(guildleve,$E8(1),41)],)]","Pursue and defeat the following targets:[@IF([@SHEET(guildleve,$E8(1),40)],[@CR][@2D([@SHEET(xtx/displayName,[@SHEET(guildleve,$E8(1),[@SWITCH(2,59,60,61,62)])],1)])] x [@SHEET(guildleve,$E8(1),40)],)][@IF([@SHEET(guildleve,$E8(1),41)],[@CR][@2D([@SHEET(xtx/displayName,[@SHEET(guildleve,$E8(1),[@SWITCH(3,59,60,61,62)])],1)])] x [@SHEET(guildleve,$E8(1),41)],)]","Bezwinge folgende Monster:[@IF([@SHEET(guildleve,$E8(1),40)],[@CR][@2B([@SHEETDE(xtx/displayName,5,[@SHEET(guildleve,$E8(1),[@SWITCH(2,59,60,61,62)])],1,1,1)])] × [@SHEET(guildleve,$E8(1),40)],)][@IF([@SHEET(guildleve,$E8(1),41)],[@CR][@2B([@SHEETDE(xtx/displayName,5,[@SHEET(guildleve,$E8(1),[@SWITCH(3,59,60,61,62)])],1,1,1)])] × [@SHEET(guildleve,$E8(1),41)],)]","Terrassez les ennemis suivants[@1D]:[@IF([@SHEET(guildleve,$E8(1),40)],[@CR][@2B([@SHEET(xtx/displayName,[@SHEET(guildleve,$E8(1),[@SWITCH(2,59,60,61,62)])],13)])] x [@SHEET(guildleve,$E8(1),40)],)][@IF([@SHEET(guildleve,$E8(1),41)],[@CR][@2B([@SHEET(xtx/displayName,[@SHEET(guildleve,$E8(1),[@SWITCH(3,59,60,61,62)])],13)])] x [@SHEET(guildleve,$E8(1),41)],)]",1,打倒敌人。,"目标[@IF([@SHEET(guildleve,$E8(1),39)],[@CR][@SHEET(xtx/displayName,[@SHEET(guildleve,$E8(1),[@SWITCH(1,59,60,61,62)])],19)] × [@SHEET(guildleve,$E8(1),39)],)]"
12010,"魔物を倒し、[@SHEET(xtx/itemName,[@SHEET(guildleve,$E8(1),[@SWITCH(4,55,56,57,58)])],4,1)]を取り戻せ。","Defeat the target enemies and retrieve [@SHEETEN(xtx/itemName,2,[@SHEET(guildleve,$E8(1),[@SWITCH(4,55,56,57,58)])],1,1)].","Besiege das Monster und erlange den Gegenstand „[@SHEET(xtx/itemName,[@SHEET(guildleve,$E8(1),[@SWITCH(4,55,56,57,58)])],11,1)]“ zurück!","Eliminez les ennemis indiqués et récupérez [@SHEETEN(xtx/itemName,2,[@SHEET(guildleve,$E8(1),[@SWITCH(4,55,56,57,58)])],1,1)].","指定物回収[@CR][@SHEET(xtx/itemName,[@SHEET(guildleve,$E8(1),[@SWITCH(4,55,56,57,58)])],4,1)]","Retrieve the following:[@CR][@SHEET(xtx/itemName,[@SHEET(guildleve,$E8(1),[@SWITCH(4,55,56,57,58)])],5,1)]","Sammle das Folgende: [@2B([@SHEETDE(xtx/itemName,5,[@SHEET(guildleve,$E8(1),[@SWITCH(4,55,56,57,58)])],1,1,1)])]","Recouvrez les objets suivants[@1D]:[@CR][@SHEET(xtx/itemName,[@SHEET(guildleve,$E8(1),[@SWITCH(4,55,56,57,58)])],19,1)]",1,打倒敌人。,"目标[@IF([@SHEET(guildleve,$E8(1),39)],[@CR][@SHEET(xtx/displayName,[@SHEET(guildleve,$E8(1),[@SWITCH(1,59,60,61,62)])],19)] × [@SHEET(guildleve,$E8(1),39)],)]"
12011,ワ・メルゴ・ヘナと共に被疑者を倒せ。,Cooperate with W'mhelgo Hena to defeat the target enemies.,"Kooperiere mit W'mhelgo Hena, um die Gegner zu besiegen. ",Coopérez avec W'mhelgo Hena et éliminez les ennemis indiqués.,"ターゲット[@IF([@SHEET(guildleve,$E8(1),39)],[@CR][@SHEET(xtx/displayName,[@SHEET(guildleve,$E8(1),[@SWITCH(1,59,60,61,62)])],0)] × [@SHEET(guildleve,$E8(1),39)],)]","Defeat the following targets:[@IF([@SHEET(guildleve,$E8(1),39)],[@CR][@2D([@SHEET(xtx/displayName,[@SHEET(guildleve,$E8(1),[@SWITCH(1,59,60,61,62)])],1)])] x [@SHEET(guildleve,$E8(1),39)],)]","Bezwinge folgende Monster:[@IF([@SHEET(guildleve,$E8(1),39)],[@CR][@2B([@SHEETDE(xtx/displayName,5,[@SHEET(guildleve,$E8(1),[@SWITCH(1,59,60,61,62)])],1,1,1)])] × [@SHEET(guildleve,$E8(1),39)],)]","Terrassez les ennemis suivants[@1D]:[@IF([@SHEET(guildleve,$E8(1),39)],[@CR][@2B([@SHEET(xtx/displayName,[@SHEET(guildleve,$E8(1),[@SWITCH(1,59,60,61,62)])],13)])] x [@SHEET(guildleve,$E8(1),39)],)]",1,打倒敌人。,"目标[@IF([@SHEET(guildleve,$E8(1),39)],[@CR][@SHEET(xtx/displayName,[@SHEET(guildleve,$E8(1),[@SWITCH(1,59,60,61,62)])],19)] × [@SHEET(guildleve,$E8(1),39)],)]"
12012,ワ・メルゴ・ヘナと共に敵部隊を倒せ。,Cooperate with W'mhelgo Hena to defeat the target enemies.,"Kooperiere mit W'mhelgo Hena, um die Gegner zu besiegen. ",Coopérez avec W'mhelgo Hena et éliminez les ennemis indiqués.,"ターゲット[@IF([@SHEET(guildleve,$E8(1),39)],[@CR][@SHEET(xtx/displayName,[@SHEET(guildleve,$E8(1),[@SWITCH(1,59,60,61,62)])],0)] × [@SHEET(guildleve,$E8(1),39)],)][@IF([@SHEET(guildleve,$E8(1),40)],[@CR][@SHEET(xtx/displayName,[@SHEET(guildleve,$E8(1),[@SWITCH(2,59,60,61,62)])],0)] × [@SHEET(guildleve,$E8(1),40)],)]","Defeat the following targets:[@IF([@SHEET(guildleve,$E8(1),39)],[@CR][@2D([@SHEET(xtx/displayName,[@SHEET(guildleve,$E8(1),[@SWITCH(1,59,60,61,62)])],1)])] x [@SHEET(guildleve,$E8(1),39)],)][@IF([@SHEET(guildleve,$E8(1),40)],[@CR][@2D([@SHEET(xtx/displayName,[@SHEET(guildleve,$E8(1),[@SWITCH(2,59,60,61,62)])],1)])] x [@SHEET(guildleve,$E8(1),40)],)]","Bezwinge folgende Monster:[@IF([@SHEET(guildleve,$E8(1),39)],[@CR][@2B([@SHEETDE(xtx/displayName,5,[@SHEET(guildleve,$E8(1),[@SWITCH(1,59,60,61,62)])],1,1,1)])] × [@SHEET(guildleve,$E8(1),39)],)][@IF([@SHEET(guildleve,$E8(1),40)],[@CR][@2B([@SHEETDE(xtx/displayName,5,[@SHEET(guildleve,$E8(1),[@SWITCH(2,59,60,61,62)])],1,1,1)])] × [@SHEET(guildleve,$E8(1),40)],)]","Terrassez les ennemis suivants[@1D]:[@IF([@SHEET(guildleve,$E8(1),39)],[@CR][@2B([@SHEET(xtx/displayName,[@SHEET(guildleve,$E8(1),[@SWITCH(1,59,60,61,62)])],13)])] x [@SHEET(guildleve,$E8(1),39)],)][@IF([@SHEET(guildleve,$E8(1),40)],[@CR][@2B([@SHEET(xtx/displayName,[@SHEET(guildleve,$E8(1),[@SWITCH(2,59,60,61,62)])],13)])] x [@SHEET(guildleve,$E8(1),40)],)]",1,打倒敌人。,"目标[@IF([@SHEET(guildleve,$E8(1),39)],[@CR][@SHEET(xtx/displayName,[@SHEET(guildleve,$E8(1),[@SWITCH(1,59,60,61,62)])],19)] × [@SHEET(guildleve,$E8(1),39)],)]"
12013,受渡場所に急行せよ。,Make haste to the exchange site.,Eile zur Übergabestelle.,Rendez-vous aussi vite que possible à l'endroit désigné.,時間内到達,Arrive in time.,Erreiche rechtzeitig den Zielort.,Arrivez à destination avant la fin du compte à rebours.,1,打倒敌人。,"目标[@IF([@SHEET(guildleve,$E8(1),39)],[@CR][@SHEET(xtx/displayName,[@SHEET(guildleve,$E8(1),[@SWITCH(1,59,60,61,62)])],19)] × [@SHEET(guildleve,$E8(1),39)],)]"
13001,対象を保護せよ。,Protect your charge from harm.,Beschütze das Ziel.,Protégez la cible.,"保護対象[@IF([@SHEET(guildleve,$E8(1),39)],[@CR][@SHEET(xtx/displayName,[@SHEET(guildleve,$E8(1),[@SWITCH(1,59,60,61,62)])],0)] × [@SHEET(guildleve,$E8(1),39)],)]","Protect the following targets from harm:[@IF([@SHEET(guildleve,$E8(1),39)],[@CR][@2D([@SHEET(xtx/displayName,[@SHEET(guildleve,$E8(1),[@SWITCH(1,59,60,61,62)])],1)])] x [@SHEET(guildleve,$E8(1),39)],)]","Ziel: [@IF([@SHEET(guildleve,$E8(1),39)],[@CR][@2B([@SHEETDE(xtx/displayName,5,[@SHEET(guildleve,$E8(1),[@SWITCH(1,59,60,61,62)])],1,1,1)])] × [@SHEET(guildleve,$E8(1),39)],)]","Cible[@1D]: [@IF([@SHEET(guildleve,$E8(1),39)],[@CR][@SHEET(xtx/displayName,[@SHEET(guildleve,$E8(1),[@SWITCH(1,59,60,61,62)])],13)] × [@SHEET(guildleve,$E8(1),39)],)]",1,保护对象。,保护对象
13002,時間内に可能な限りの敵を迎撃せよ。,Defeat as many enemies as possible in the time allowed.,Besiege innerhalb der gegebenen Zeit so viele Feinde wie möglich.,Eliminez autant d'ennemis que possible dans le temps imparti.,時間内迎撃,Defeat as many enemies as possible.,Besiege so viele Gegner wie möglich!,Eliminez autant d'ennemis que possible dans le temps imparti.,1,在限制时间内竭尽全力迎击敌人。,限时内迎击
13003,"エモートで「[@SHEET(xtx/itemName,[@SHEET(guildleve,$E8(1),[@SWITCH(4,55,56,57,58)])],4,1)]」を持つ敵を発見し、目標を見破って討伐せよ。","Use the /poke emote to find enemies carrying [@SHEETEN(xtx/itemName,1,[@SHEET(guildleve,$E8(1),[@SWITCH(4,55,56,57,58)])],2,1)].","Benutze Emotes um Gegner mit dem Gegenstand „[@SHEET(xtx/itemName,[@SHEET(guildleve,$E8(1),[@SWITCH(4,55,56,57,58)])],11,1)]“ aufzuspüren. Enttarne und besiege die Gegner!","Trouvez les ennemis porteurs d'un “[@2F([@SHEET(xtx/itemName,[@SHEET(guildleve,$E8(1),[@SWITCH(4,55,56,57,58)])],19,1)])]” grâce aux emotes et éliminez-les.","ターゲット[@IF([@SHEET(guildleve,$E8(1),39)],[@CR][@SHEET(xtx/displayName,[@SHEET(guildleve,$E8(1),[@SWITCH(1,59,60,61,62)])],0)] × [@SHEET(guildleve,$E8(1),39)],)][@IF([@SHEET(guildleve,$E8(1),40)],[@CR][@SHEET(xtx/displayName,[@SHEET(guildleve,$E8(1),[@SWITCH(2,59,60,61,62)])],0)] × [@SHEET(guildleve,$E8(1),40)],)][@IF([@SHEET(guildleve,$E8(1),41)],[@CR][@SHEET(xtx/displayName,[@SHEET(guildleve,$E8(1),[@SWITCH(3,59,60,61,62)])],0)] × [@SHEET(guildleve,$E8(1),41)],)][@IF([@SHEET(guildleve,$E8(1),42)],[@CR][@SHEET(xtx/displayName,[@SHEET(guildleve,$E8(1),[@SWITCH(4,59,60,61,62)])],0)] × [@SHEET(guildleve,$E8(1),42)],)]","Eliminate the following targets:[@IF([@SHEET(guildleve,$E8(1),39)],[@CR][@2D([@SHEET(xtx/displayName,[@SHEET(guildleve,$E8(1),[@SWITCH(1,59,60,61,62)])],1)])] × [@SHEET(guildleve,$E8(1),39)],)][@IF([@SHEET(guildleve,$E8(1),40)],[@CR][@2D([@SHEET(xtx/displayName,[@SHEET(guildleve,$E8(1),[@SWITCH(2,59,60,61,62)])],1)])] × [@SHEET(guildleve,$E8(1),40)],)][@IF([@SHEET(guildleve,$E8(1),41)],[@CR][@2D([@SHEET(xtx/displayName,[@SHEET(guildleve,$E8(1),[@SWITCH(3,59,60,61,62)])],1)])] × [@SHEET(guildleve,$E8(1),41)],)][@IF([@SHEET(guildleve,$E8(1),42)],[@CR][@2D([@SHEET(xtx/displayName,[@SHEET(guildleve,$E8(1),[@SWITCH(4,59,60,61,62)])],1)])] × [@SHEET(guildleve,$E8(1),42)],)]","Ziel: [@IF([@SHEET(guildleve,$E8(1),39)],[@CR][@2B([@SHEETDE(xtx/displayName,5,[@SHEET(guildleve,$E8(1),[@SWITCH(1,59,60,61,62)])],1,1,1)])] × [@SHEET(guildleve,$E8(1),39)],)][@IF([@SHEET(guildleve,$E8(1),40)],[@CR][@2B([@SHEETDE(xtx/displayName,5,[@SHEET(guildleve,$E8(1),[@SWITCH(2,59,60,61,62)])],1,1,1)])] × [@SHEET(guildleve,$E8(1),40)],)][@IF([@SHEET(guildleve,$E8(1),41)],[@CR][@2B([@SHEETDE(xtx/displayName,5,[@SHEET(guildleve,$E8(1),[@SWITCH(3,59,60,61,62)])],1,1,1)])] × [@SHEET(guildleve,$E8(1),41)],)][@IF([@SHEET(guildleve,$E8(1),42)],[@CR][@2B([@SHEETDE(xtx/displayName,5,[@SHEET(guildleve,$E8(1),[@SWITCH(4,59,60,61,62)])],1,1,1)])] × [@SHEET(guildleve,$E8(1),42)],)]","Terrassez les ennemis suivants[@1D]:[@IF([@SHEET(guildleve,$E8(1),39)],[@CR][@SHEET(xtx/displayName,[@SHEET(guildleve,$E8(1),[@SWITCH(1,59,60,61,62)])],13)] x [@SHEET(guildleve,$E8(1),39)],)][@IF([@SHEET(guildleve,$E8(1),40)],[@CR][@SHEET(xtx/displayName,[@SHEET(guildleve,$E8(1),[@SWITCH(2,59,60,61,62)])],13)] x [@SHEET(guildleve,$E8(1),40)],)][@IF([@SHEET(guildleve,$E8(1),41)],[@CR][@SHEET(xtx/displayName,[@SHEET(guildleve,$E8(1),[@SWITCH(3,59,60,61,62)])],13)] x [@SHEET(guildleve,$E8(1),41)],)][@IF([@SHEET(guildleve,$E8(1),42)],[@CR][@SHEET(xtx/displayName,[@SHEET(guildleve,$E8(1),[@SWITCH(4,59,60,61,62)])],13)] x [@SHEET(guildleve,$E8(1),42)],)]",1,在限制时间内竭尽全力迎击敌人。,限时内迎击
30001,残り防衛時間,Defense Duration,Verbleibende Zeit,Temps restant,,,,,,剩余防卫时间,
30002,到達巡回地点,Locations Reached,Zu patrouillierende Punkte,Zones parcourues,,,,,,到达巡视地点,[chs]
30003,残り到達時間,Time Remaining,Verbleibende Zeit,Temps restant,,,,,,到达巡视地点,[chs]
31001,試掘ポイント,Mining Points,Vielversprechende Lagerstätte,Echantillons de minerai,,,,,,挖掘点,[chs]
31002,試掘ポイント,Quarrying Points,Vielversprechender Steinbruch,Echantillons de pierre,,,,,,挖掘点,[chs]
31003,伐採ポイント,Logging Points,Vielversprechender Nutzbaum,Echantillons de bois,,,,,,采伐点,[chs]
31004,釣りポイント,Fishing Points,Vielversprechende Angelstelle,Spécimens de poissons,,,,,,钓鱼点,[chs]
40001,第一艦隊第二戦隊黄套：シルスケートシン陸曹,"1st Squadron 2nd Levy Infantry, Yellowjacket Sergeant Sylskaetsyn",Gelbjackengefreiter Sylskaetsyn[@CR]von der 2. Marine[@16]infan[@16]terie des 1. Geschwaders,Sergent Sylskaetsyn[@CR]1re escadre 2e division des casaques jaunes,,,,,,第一舰队第二战队：希尔斯凯辛黄衫陆士,[chs]
40002,第一艦隊第一戦隊黄套：ハマンド陸士,"1st Squadron 1st Levy Infantry, Yellowjacket Major Hammand",Gelbjackenfeldwebel Hammand[@CR]von der 1. Marine[@16]infan[@16]terie des 1. Geschwaders,Colonel Hammand[@CR]1re escadre 1re division des casaques jaunes,,,,,,第一舰队第一战队：哈曼德黄衫陆士长,[chs]
40003,ブルゲール商会：仕入担当ウィンスティン・ワルダー,"Brugaire Consortium Warehouse Foreman, Wynstin Walder","Wynstin Walder,[@CR]Einkaufsleiter des Bru[@16]gaire-Kon[@16]sor[@16]tiums",Wynstin Walder[@CR]Préposé aux achats du Consortium de Brugaire,,,,,,布鲁盖尔商会：采购负责人　文斯汀·瓦尔达,[chs]
40004,ブルゲール商会：仕入課課長ブリダ・ブラック,"Brugaire Consortium Senior Archivist, Bryda Blacke","Bryda Blacke,[@CR]Archivarin des Bru[@16]gaire-Kon[@16]sor[@16]tiums",Bryda Blacke[@CR]Chef de la section achats du Consortium de Brugaire,,,,,,布鲁盖尔商会：采购科科长　布里达·布莱克,
40005,ペルモモの網組：網子ミング・ノメング,"Pelmomo's Pullers Netweaver, Mingu Nomengu","Mingu Nomengu,[@CR]Reusenknüpfer bei Pelmomos Reusenfischern",Mingu Nomengu[@CR]Préposée aux filets chez les Pêcheurs de Pelmomo,,,,,,佩尔莫莫的渔业组织：敏格·诺敏格渔员,
40006,ペルモモの網組：網元ペルモモ,"Pelmomo's Pullers Netmaster, Pelmomo Arimomo","Pelmomo,[@CR]Chef der gleichnamigen Reusenfischer",Pelmomo Arimomo[@CR]Maître ès filets chez les Pêcheurs de Pelmomo,,,,,,佩尔莫莫的渔业组织：佩尔莫莫渔头,
40007,牧獣師メオ・アマリヨ,"Dodo Shepherd, Mheo Amariyo","Mheo Amariyo,[@CR]Dodo-Hirte",Mheo Amariyo[@CR]Eleveuse de dodos,,,,,,游牧人梅奥·雅玛里约,
40008,農場主グレゴリィ,"Yeoman, Gergory Blackhoof","Gregory Schwarzhuf,[@CR]Bauer",Gregorie Noirsabot[@CR]Fermier,,,,,,农场主格雷戈里,
40009,採掘師ギルド：調査担当バトニ・ロラトニ,"Amajina & Sons Mineral Concern Chief Assayer, Batoni Rolatoni","Batoni Rolatoni,[@CR]Geologe bei der Amajina Bergbau AG",Batoni Rolatoni[@CR]Analyste aux Bons filons d'Amajina et Fils,,,,,,采矿工行会调查负责人　巴托尼·洛拉托尼,
40010,採掘師ギルド：上級採掘師モモメナ,"Amajina & Sons Mineral Concern Formicary Miner, Momomena Lolomena","Batoni Rolatoni,[@CR]Geologe bei der Amajina Bergbau AG",Batoni Rolatoni[@CR]Analyste aux Bons filons d'Amajina et Fils,,,,,,采矿工行会高级采矿工　莫莫梅那,
40011,ナルディク＆ヴィメリー社：小火器係　燃指のタルキキ,"Naldiq & Vymelli's Firearms Forge, Tarukiki Tinderfingers","Flinkfinger Tarukiki,[@CR]Abteilung Hand[@16]feu[@16]er[@16]waf[@16]fen bei Naldiq & Vymelli",Tarukiki “canon scié”[@CR]Spécialiste en armes à feu de Naldiq et Vymelli,,,,,,纳尔迪克＆威米利作坊：小火器主管　燃指塔尔奇奇,
40012,ナルディク＆ヴィメリー社：小火器課課長ゴルゾ,ナルディク＆ヴィメリー社：小火器課課長ゴルゾ,"ゴルゾ,[@CR]Leiter der Abteilung Hand[@16]feu[@16]er[@16]waf[@16]fen bei Naldiq & Vymelli",ナルディク＆ヴィメリー社：小火器課課長ゴルゾ,,,,,,纳尔迪克＆威米利作坊：小火器科科长　格鲁左,
40013,「溺れた海豚亭」マスター：バデロン,"Drowning Wench Proprietor, Baderon Tenfingers","Baderon Zehnfinger,[@CR]Schankwirt der Hafenbar „Zur ertränkten Sorge“",Baderon[@CR]Tenancier de l'auberge du Dauphin noyé,,,,,,“沉溺海豚亭”老板：巴德龙,
40014,園芸師ギルド：調査担当　ゾリード・マナリード,"Botanists' Guild, Zorido Manarido","Zorido Manarido,[@CR]Gärtnergilde",Zorido Manarido[@CR]Membre de la guilde des botanistes,,,,,,园艺工行会：调查负责人 左力德·玛纳里德,
40015,ナルディク＆ヴィメリー社：造船部長　夜光のノワレン,"Naldiq & Vymelli's Plateforge Smith, Noilen Nightspark","Noilen Nachtfunke,[@CR]Plattner bei Naldiq & Vymelli",Noilen Nightspark[@CR]Responsable de la section navale à Naldiq et Vymelli,,,,,,纳尔迪克＆威米利作坊：造船部长　夜光的诺瓦连,
40016,牧童組合□■？,ナルディク＆ヴィメリー社造船部　某部長（○○・○○・♂♀）,ナルディク＆ヴィメリー社造船部　某部長（○○・○○・♂♀）,ナルディク＆ヴィメリー社造船部　某部長（○○・○○・♂♀）,,,,,,牧童组织□■？,
40017,農園主△■■,農園主△■■,農園主△■■,農園主△■■,,,,,,农园主△■■,
40018,牧獣師メオ・アマリヨ,"Dodo Shepherd, Mheo Amariyo","Mheo Amariyo,[@CR]Dodo-Hirte",Mheo Amariyo[@CR]Eleveuse de dodos,,,,,,游牧人梅奥·雅玛里约,
40019,ブロークンブレード中隊　ディルスタン・コーウェル突撃大尉,"Brotherhood of the Broken Blade, Captain Dyrstan Corwell","Kommandant Dyrstan Corwell,[@CR]Bruderschaft der gebrochenen Klinge",Capitaine Dyrstan Corwell[@CR]La Phratrie des lames cassées,,,,,,破刃之剑中队　迪尔斯坦·科维尔突击上尉,
40020,アーゼマシールズ中隊　リディー・ベルベール憲兵中尉,"Azeyma's Shields Isleguard, Lydie Bellveil","Lydie Bellveil,[@CR]Inselwache bei Azeymas Schilden",Garde Lydie Bellveil[@CR]Les Boucliers d'Azeyma,,,,,,阿泽玛之盾中队　利迪·贝贝尔宪兵中尉,
40021,ハンズアイ小隊　ディエゴ・アスラル偵察少尉,"Horn and Hand 7th Eye, Diego Athral","Diego Athral,[@CR]Siebentes Auge beim Ruhmreichen Hörnerschall",Sous-lieutenant Diego Athral[@CR]L'association de la Corne et la Main,,,,,,荣誉之手小队　迪埃格·阿斯拉尔侦查少尉,
40022,メルヴァン税関公社　書架担当　ライ・ジョマラー,"Mealvaan's Gate Log Assessor, Lhai Jomalah","Lhai Jomalah,[@CR]Buchprüfer beim Mealvaan-Tor",Lhai Jomalah[@CR]Chargée du registre à la douane de Mealvaan,,,,,,梅尔凡大门：书架负责人 莱·乔马拉,
40023,漁師ギルド：調査担当　ヴァンヒルト,"Fishermen's Guild Linepuller, Wannhylt Bhaldmharsyn","Wannhylt Bhaldhelrsynn,[@CR]Seilzieher der Fischergilde",Wannhylt Bhaldmharsynn[@CR]Préposé aux lignes à la guilde des pêcheurs,,,,,,捕鱼人行会：调查负责人　凡希尔特,
40024,レストラン「ビスマルク」：総料理長　リングサス・デュスファルクシン,"Bismarck Guildmaster and Head Chef, Lyngsath Hyllbornsyn","Lyngsath,[@CR]Gildenmeister und Küchenchef des Bismarck",Lyngsath Hyllbornsynn[@CR]Grand chef et pro[@16]prié[@16]taire du Bismarck,,,,,,俾斯麦餐厅：总厨师长　林格萨斯·杜恩斯法尔克辛,
40025,「クイックサンド」マスター：モモディ,"Quicksand Proprietress, Momodi Modi","Momodi Tatadi,[@CR]Besitzerin der Pension Treibsand",Momodi[@CR]Patronne de l'auberge “Les Sables mouvants”,,,,,,“流沙”老板：莫莫蒂,
40026,銅刃団オーキッド小隊：アーロット隊長,"Brass Blades, Aalot Corwyn of the Orchid","Aalot an'Corwyn,[@CR]Unteroffizier der Messingklingen","Sergent Aalot an'Corwyn[@CR]Les lames de cuivre, régiment de l'Orchidée",,,,,,铜刃团兰花小队：阿罗特队长,
40027,ラプトル運送：社長フランベルド,"The Jolly Raptor Owner, Flambert Sancroit III","Flanbert Sancroit III.,[@CR]Inhaber der Raptor-Eilboten",Franberdt Sancroit III[@CR]Propriétaire de la société de livraison “Raptors rapides”,,,,,,盗龙快运：弗兰贝尔特总经理,
40028,ラプトル運送：主御者ボードリー・ワイルダー,"The Jolly Raptor Accountant, Baudry Wilder","Baudry Wilder,[@CR]Buchhalter der Raptor-Eilboten",Baudry Wilder[@CR]Comptable de la société de livraison Raptors rapides,,,,,,盗龙快运：主车夫波德利·外鲁德,
40029,遊戯場組合：デデアン,"Coliseum Coincounter, Dedean Roroan","Dedean Roroan,[@CR]Buchhalter im Kollosseum",Dedean Roroan[@CR]Comptable du Colisée,,,,,,娱乐同盟：德德安,
40030,アマジナ鉱山社警備隊：警備主任ヘインレイン,"Amajina & Sons Mineral Concern Overseer, Heinlein Holdic","Heinlein Holdic,[@CR]Konzernsicherheit der Amajina Bergbau AG",Heinlein Holdic[@CR]Contremaître des Bons filons d'Amajina et Fils,,,,,,天品矿山公司：警卫队主任　海因莱因,
40031,アマジナ鉱山社警備隊：バルデマル隊長,"Amajina & Sons Mineral Concern Watchman Captain, Baldemar Royce","Baldemar Royce,[@CR]Sicherheitschef der Amajina Bergbau AG",Baldemar Royce[@CR]Gardien en chef des Bons filons d'Amajina et Fils,,,,,,天品矿山公司：警卫队　巴尔德马尔队长,
40032,採掘師ギルド：調査担当　ウリエン,"Amajina & Sons Mineral Concern Minemaster, Urien the Storm","Urien der Sturm,[@CR]Minenvorarbeiter der Amajina Bergbau AG",Urien “la tempête”[@CR]Intendant principal des Bons filons d'Amajina et Fils,,,,,,采矿工行会：调查负责人　尤里安,
40033,エシュテム：材料係　輝爪のプリシヌ,"Eshtaime's Aesthetics Gemkeep, Pricinne the Swiftshine","Pricinne Glitterfinger,[@CR]Schätzerin beim Juwelier[@16]ge[@16]schäft Eshtaime",Pricinne “doigts de fée”[@CR]Orfèvre des Lapidaires d'Eshtaime,,,,,,艾斯泰姆：材料主管　辉爪普莉西娜,
40034,園芸師ギルド：調査担当　ロイシャ・グリーンリーフ,"Botanists' Guild, Roysia Greenleaf","Roysia Grünlaub,[@CR]Gärtnergilde",Roysia Vertefeuille[@CR]Botaniste du Courtil,,,,,,园艺工行会：调查负责人　洛伊西娅,
40035,アマジナ鉱山社：鉱山技師　猫目のペリーヌ,"Amajina & Sons Mineral Concern Minekeep, Pelinne Catcaw","Pelinne Katzenpfote,[@CR]Minenvorarbeiterin der Amajina Bergbau AG",Pelinne “œil-de-chat”[@CR]Surveillante des mines des Bons filons d'Amajina et Fils,,,,,,艾玛吉娜矿山公司：矿山技师　猫眼佩里妮,
40036,漁師ギルド：調査担当　ヒノ・ジンジャル,"Fishermen's Guild Baitpuller, Hino Jinjhal","Hino Jinjhal,[@CR]Köderwerfer der Fischergilde",Hino Jinjhal[@CR]Responsable des appâts à la guilde des pêcheurs,,,,,,捕鱼人行会：调查负责人　西诺·基恩加尔,
40037,フロンデール薬学院：錬金術師　アデリド,"Frondale's Phrontistery Famulus, Adelid the Spider","Adelid die Spinne,[@CR]Famulus an Frondales Physiatrische Akademie",Adelid “l'araignée”[@CR]Domestique à l'Académie médicale de Frondale,,,,,,福隆戴尔药学院：炼金术士　阿德莉德,
40038,「カーラインカフェ」マスター：ミューヌ,"Carline Canopy Proprietress, Mother Miounne","Miounne,[@CR]Besitzerin des gleichnamigen Hexenstübchens",Miounne[@CR]Patronne de l'auberge “Aux Feuilles de carline”,,,,,,“魔女咖啡馆”老板：缪恩,
40039,神勇隊金牛師団：ムールショ副団長,"2nd Bow of the Quiver's Bulls, Mourechaux the Unbroken","Mourechaux Luchsauge,[@CR]Leutnant bei Nophicas Schar",Mulchaud “l'in[@16]éb[@16]ran[@16]la[@16]ble”[@CR]Archer des flèches divines,,,,,,神勇队金牛师团：穆勒绍副团长,
40040,碩老樹瞑想窟：堂守ギンカム,"Stillglade Fane, Brother Guincum Morningmist","Guincum Morgennebel,[@CR]Grotte der versunkenen Gedanken",Ginckam “brume du matin”[@CR]Elémentaliste du Temple de la sérénité,,,,,,硕老树冥想窟：古因卡姆大堂守卫,
40041,神勇隊金牛師団：アマリセ師団長,"1st Bow of the Quiver's Bulls, Amarissaix Longbranch","Amarissaix Zweigadler,[@CR]Hauptmann bei Nophicas Schar",Amarisset Longuebranche[@CR]Archer des flèches divines,,,,,,神勇队金牛师团：阿马里赛师团长,
40042,黒兎堂：営業部チャ・ビルネ,"Black Rabbit Traders Conscriptor, T'bilne Una","T'bilne,[@CR]Kontenführer beim Schwarzen Kaninchen",T'bilne Una[@CR]Vendeuse du Lièvre Noir,,,,,,黑兔堂：营销部茶·比鲁奈,
40043,ミミズク自警団：青年隊代表ラッカ・ヨラッカ,"Mimizuku's Swords Principal Shield, Rakka Yolakka","Rakka Yolakka,[@CR]Repräsentant von Mimizukus Bürgerwehr",Rakka Yolakka[@CR]Membre des Epées de Mimizuku,,,,,,雕鸮警备团：青年队代表拉卡·约拉卡,
40044,ミミズク自警団：団長オドアル,"Mimizuku's Swords Principal Blade, Audoile Rochedent","Audoile Rochedent,[@CR]Gruppenführer von Mimizukus Bürgerwehr",Audoile Rochedent[@CR]Leader des Epées de Mimizuku,,,,,,雕鸮警备团：奥杜瓦勒团长,
40045,採掘師ギルド：調査担当　シヴルロア,"Amajina & Sons Mineral Concern Assayer, Cibleroit Pondefout","Cibleroit Pondefout,[@CR]Geologe bei der Amajina Bergbau AG",Civreroix Pondefout[@CR]Analyste des Bons filons d'Amajina et Fils,,,,,,采矿工行会：调查负责人　西布勒鲁瓦,
40046,弓屋｢セントールアイ｣：矢師　白手のフロリヌ,"Centaur's Eye Arrowhand, Florine Whitepaw","Florine Whitepaw,[@CR]Pfeilschnitzer beim Zentaurenauge",Florine Blanchepatte[@CR]Spécialiste ès flèches de l'Œil du Centaure,,,,,,弓类专营店“半人马之眼：箭手　白手弗洛丽娜,
40047,園芸師ギルド：調査担当　アデルフル,"Botanists' Guild, Adelphel Vertonne","Adelphel Vertonne,[@CR]Gärtnergilde",Adelfour Vertonne[@CR]Botaniste du Courtil,,,,,,园艺工行会：调查负责人　阿德尔费尔,
40048,古樫の高堂：水車技術者　マレイ,"Oak Atrium Wheelwright, Mareillie Greenthumbs","Mareillie Grünfinger,[@CR]Wasserrad-Monteur im Atrium der immergrünen Eichen",Maleye “la main verte”[@CR]Charron du Pavillon de chêne,,,,,,古橡大堂：水车技术员　草舟马蕾伊,
40049,漁師ギルド：調査担当　マワヨ・リミワヨ,"Fishermen's Guild Floatpuller, Mawayo Limiwayo","Mawayo Limiwayo,[@CR]Floßschieber der Fischergilde",Mawayo Limiwayo[@CR]Préposé aux flotteurs à la guilde des pêcheurs,,,,,,捕鱼人行会：调查负责人　码瓦约·里密瓦约,
40050,旅館｢とまり木｣：館主　ボーイル,"Roost Innkeep, Boyle the Bold","Boyle, der Bolide,[@CR]Inhaber des Traumbaums",Boile “le chauve”[@CR]Gérant du Perchoir,,,,,,“栖木旅馆”：馆主　博伊尔,
40051,エイコンシェル監獄：監守フィムベルク,"Coral Tower Brig Warden, Pfymberk Oroboneye","Pfymberk Orobonauge,[@CR]Kerkerwache im Korallenturm",Pfymberk “œil d'orobon”[@CR]Gardien des cachots de la tour de Corail,,,,,,艾肯塞尔监狱：看守菲姆贝尔克,
40052,農園主：ウレール,Oeurelle of Bald Knoll,Oeurelle von Kahlschlag,Oeurelle[@CR]Exploitante agricole à la Butte chauve,,,,,,农园主：厄蕾勒,
40053,牧童組合：ブラウフィスト,"Shepherds' Guild, Blaufyst of the Nine Rams","Blöker Blaufyst,[@CR]Hirtengilde",Blaufyst “des neuf béliers”[@CR]Membre de la guilde des éleveurs,,,,,,牧童组织：布拉乌菲斯特,
40054,第一艦隊第二戦隊黄套：ファンティヨー陸尉,"1st Squadron 2nd Levy Infantry, Yellowjacket Major Faintillaud","Oberst Faintillaud,[@CR]1. Infanterieregiment der Gelbjacken",Colonel Faintillaud[@CR]1re escadre 2e division des casaques jaunes,,,,,,第一舰队第二战队：凡蒂约黄衫陆尉,
40055,ルディウス：店主ザギルスヴェルド,"Rudius Proprietor, Zagylswerd the Tall","Zagylswerd der Lange,[@CR]Besitzer des Rudius",Zagylswer “le grand”[@CR]Propriétaire de la boutique Rudius,,,,,,角斗士武器百货：店主扎吉尔斯维尔德,
40056,マラサジャ収容所：ジャゲッド・クロウ所長,"Marasaja Pit Claviger, Jagged Claw","Direktor Zackenkralle,[@CR]Marasaja Strafanstalt",Jagged Claw[@CR]Maître des clefs de la fosse de Marasaja,,,,,,码拉萨加收容所：贾盖德·克罗乌所长,
40057,銅刃団ロータス小隊：リュモモ隊長,"Brass Blades, Ryumomo Qimomo of the Lotus","Ryumomo Qimomo,[@CR]Lotos-Einheit der Messingklingen","Ryumomo Qimomo[@CR]Les lames de cuivre, régiment du Lotus",,,,,,铜刃团荷花小队：柳莫莫队长,
40058,フロンデール薬学院付属図書館：館長トップパトップ,"Frondale's Phrontistery Forbidden Tomes, Vaultkeeper Toppa Patotta","Toppa Patotta,[@CR]Verbotene Bibliothek der Physiatrischen Akademie",Toppa Patotta[@CR]Bibliothécaire de l'Académie médicale de Frondale,,,,,,福隆戴尔药学院附属图书馆：馆长托普·帕托普,
40059,銅刃団ヴァイオレット中隊：ジャジャサム隊長,"Brass Blades, Jajasamu Lalasamu of the Violet","Jajasamu Lalasamu,[@CR]Viola-Einheit der Messingklingen","Jajasamu Lalasamu[@CR]Les lames de cuivre, régiment de la Violette",,,,,,铜刃团紫罗兰中队：加加萨姆队长,
40060,神勇隊人馬師団：ロマラン副団長,"2nd Bow of the Quiver's Centaurs, Romaraint Rimebeard","Gruppenführer Romaraint Redmane,[@CR]Nophicas Schar",Lomarand Rimebeard[@CR]Archer des flèches divines,,,,,,神勇队人马师团：罗马兰副团长,
40061,ウォーレン牢獄：ポルガモルガ獄長,"Gridania Spirithold Warden, Polga Molga","Polga Molga,[@CR]Aufseherin im Geisterkerker",Polga Molga[@CR]Gardienne de la Cage des esprits,,,,,,沃连牢狱：破鲁加·莫鲁加狱长,
40062,碩老樹文庫：写本僧リジー,"Green Athenaeum Senior Scribe, Lisie Ryder","Lisie Ryder,[@CR]Skriptor im Athenäum der Grotte",Lisie Ryder[@CR]Scribe du Temple de la sérénité,,,,,,硕老树文库：莉西抄写员,
40063,白鷲商隊：フ・ロンゴ・バム隊長,"White Eagle Emptory Head Facilitator, F'rhongo Bamu","F'rhongo Bamu,[@CR]Anführer der Karawane „Weißer Adler“",F'rhongo Bamu[@CR]Meneuse de la caravane de l'Aigle blanc,,,,,,白鹫商队：芙·伦格·巴姆队长,
40064,神勇隊人馬師団：ガルフリッド師団長,"1st Bow of the Quiver's Centaurs, Galfrid Mossback","Hauptmann Galfrid Moosrücken,[@CR]Nophicas Schar",Galfrid Mossback[@CR]Archer des flèches divines,,,,,,神勇队人马师团：加尔弗里德师团长,
40065,黒渦団,The Maelstrom,Der Mahlstrom,Le Maelstrom,,,,,,黑涡团,
40066,双蛇党,The Order of the Twin Adder,Bruderschaft der Morgenviper,L'Ordre des deux vipères,,,,,,双蛇党,
40067,不滅隊,The Immortal Flames,Legion der Unsterblichen,Les Immortels,,,,,,恒辉队,
50001,では、これより討伐作戦を開始します。[@CR]報告のあった魔物の位置を地図で確認し、討伐にあたってください。,Let the operation begin.[@CR]The general location of the targets has been marked on your map. Hurry before the creatures escape.,Hiermit beginnt offiziell die Operation.[@CR]Auf der Karte ist der genaue Aufenthaltsort der Monster eingezeichnet. Mach dich auf einen harten Kampf gefasst!,Le moment de débuter l'opération est venu.[@CR]Les monstres que vous devez anéantir sont visibles sur votre carte. Bonne chance.,,,,,,那么现在开始讨伐作战。[@CR]在地图上确认报告中的怪物位置后，请开始讨伐。,
50002,よし、討伐作戦を始めるぜ！[@CR]地図で魔物の居所を確認したら、それぞれ倒しに行ってくれ。,Alright! Time to go![@CR]I've marked on your map the last place the vile beasts were seen. Hurry there before they have a chance to escape.,"Jetzt geht's los! Die Monster haben nicht mehr lange zu leben.[@CR]Sieh auf der Karte nach, wo genau sie sich befinden. Beeil dich, bevor sie uns entwischen!",En avant toute[@1D]![@CR]Aide-toi de ta carte et réduis-moi ces monstres en bouillie[@1D]!,,,,,,好，那就开始讨伐作战了！[@CR]在地图上确认怪物地点后，就各自去打倒吧。,
50003,では、これより討伐作戦を開始します。[@CR]報告のあった魔物の位置を地図で確認し、討伐にあたってください。,"Commence the operation![@CR]Your map has been marked with the general location of the beasts. Make haste, lest the creatures escape before you arrive.","Jetzt ist es soweit. Wir brechen auf![@CR]Schau doch mal auf deiner Karte nach. Da müsste stehen, wo die Monster zu finden sind. Mach dich schnell auf den Weg, bevor die Biester Reißaus nehmen.","Le moment de débuter l'opération est venu.[@CR]Il vous suffit de consulter votre carte pour savoir où se trouvent vos cibles. Soyez [@IF($E9(4),prudente,prudent)][@1D]!",,,,,,那么，现在开始讨伐作战。[@CR]在地图上确认报告中的怪物位置后，请开始讨伐。,
50004,さあ、討伐作戦を始めるわ！[@CR]さっそく倒しに向かってね。魔物の場所は地図で確認するといいわ。,It is time.[@CR]Look at your map. You'll find the targets there.,"Jetzt kann es losgehen! Auf deiner Karte steht, wohin du gehen musst. Ich wünsche dir viel Erfolg bei der Monsterhatz!","C'est parti[@1D]![@CR]Tu vois les points, sur ta carte[@1D]? C'est là que ça se passe[@1D]!",,,,,,开始讨伐作战了哦！[@CR]马上开始吧。怪物的位置可以在地图上察看。,
50005,作戦成功です！[@CR]ありがとうございます。これから最後の魔物を倒した場所に行きます。謝礼を持参しますので、声をかけてください。,Well done![@CR]My scouts report that the threat has been quelled. I shall rendezvous with you shortly at the location of the final battle to inspect the area and present you with your reward.,"Gute Arbeit! Der Streifzug war ein voller Erfolg.[@CR]Ich werde nun das Schlachtfeld inspizieren. Wir treffen uns an der Stelle, wo der letzte Kampf stattgefunden hat. Dort bekommst du deine Belohnung.","Fé[@16]li[@16]ci[@16]ta[@16]tions, nous voilà débarrassés de cette menace[@1D]![@CR]Je vais maintenant me rendre au point précis où le dernier monstre a été vaincu. J'ai une récompense pour vous, n'hésitez pas à venir la réclamer.",,,,,,作战成功了！[@CR]谢谢。我这就去你最后打倒怪物的地点。我会拿着谢礼去的，记得和我对话。,
50006,作戦成功だ！[@CR]ありがとう！　礼がしたいんで待っててくれ。最後にモンスターを倒した場所に急いで行くからよ。,Hah hah![@CR]We got every last one of them! The operation was a success! I'm en route to the location of the final battle to inspect the area. Speak with me there if you want your reward.,Der Einsatz war ein voller Erfolg! Es wurden alle Monster erledigt![@CR]Ich werde nun das Schlachtfeld inspizieren. Anschließend bekommst du deine Belohnung. Sprich mich einfach deswegen an.,"Bien joué, nous voilà tranquilles pour un moment, maintenant[@1D]![@CR]Tu as bien mérité ta récompense, viens vite la chercher. Je t'attendrai exactement là où le dernier monstre a été éliminé.",,,,,,作战成功了！[@CR]多些！　我要酬谢你，你就等着我吧。我会尽快赶到你最后打倒怪物的地点。,
50007,作戦成功です！[@CR]ありがとうございます。これから最後の魔物を倒した場所に行きます。謝礼を持参しますので、声をかけてください。,Congratulations. The operation was a success. I shall provide you with compensation for today's work at the location of the final battle. Please wait for me there.,"Meinen Glückwunsch! Der Einsatz war ein voller Erfolg. Sprich mich noch einmal an dem Ort an, wo der entscheidende Kampf stattgefunden hat, dann bekommst du für deine Mühen eine kleine Auf[@16]wands[@16]ent[@16]schädi[@16]gung.","C'est parfait, tous les monstres ont été éliminés.[@CR]Venez me voir à l'endroit exact où le dernier monstre a été terrassé, j'ai quelque chose pour vous récompenser.",,,,,,作战成功了！[@CR]谢谢。我这就去你最后打倒怪物的地点。我会拿着谢礼去的，记得和我对话。,
50008,作戦成功ね！[@CR]ありがとう！　魔物を最後に倒した場所にすぐ行くわ。お礼もあるし、必ず声をかけてね。,Hmph.[@CR]The operation was a success. Speak with me at the location of the final battle if you want your reward.,"Der Einsatz war ein voller Erfolg. Ehrlich gesagt, hatte ich von Abenteurern auch nichts anderes erwartet. Ich komme nun dorthin, wo der letzte Kampf stattgefunden hat. Warte auf mich und sprich mich wegen der Belohnung an.","Toutes les cibles ont été éliminées, l'opération est terminée[@1D]![@CR]Tu as bien travaillé, viens vite chercher ta récompense. Je suis pile poil là où le dernier monstre a été supprimé.",,,,,,作战成功了呢！[@CR]谢谢！　我马上去你最后打倒怪物的地点。有谢礼的，别忘了对话哦。,
50009,作戦失敗です……[@CR]時間がかかりすぎてしまいました。申し訳ありませんが、今回はこれにて自由解散とします。,"I regret to announce that we were unable to eliminate the creatures before they could make their escape. It would be pointless to continue the search, so I have made the decision to call off the operation. Thank you once again for your assistance.","Was für eine Blamage. Der Streifzug hat viel zu lange gedauert. Kein schöner Ausgang für ein Abenteuer, ich weiß ...","Les cibles n'ont pas été éliminées dans le temps imparti. Désolé, mais c'est un échec. Veuillez maintenant dissoudre l'équipe.",,,,,,作战失败了……[@CR]花的时间太久了。对不起，这次就此解散吧。,
50010,作戦失敗だ……[@CR]時間がかかりすぎたな。悪いが今回はこれで自由解散だ。,"Thal's balls! The remaining beasties escaped before we could slay them all. Though it pains me to say it, this operation is over. May the Spinner be kinder to us next time.",Was für ein Reinfall. Du hast dir mit der Monsterjagd viel zu viel Zeit gelassen. Das hätte viel schneller erledigt sein müssen. Beim nächsten Mal darfst du nicht so bummeln!,"Echec de l'opération[@1D]! C'était bien trop lent, l'équipe doit être dissoute.",,,,,,作战失败了……[@CR]花的时间太久了。对不起，这次就此解散吧。,
50011,作戦失敗です……[@CR]時間がかかりすぎてしまいました。申し訳ありませんが、今回はこれにて自由解散とします。,"The enemy escaped before our operation objectives could be completed, and I believe any further pursuit would be fruitless. There is little more we can do here.",Diesmal haben sich die Abenteurer wirklich nicht mit Ruhm bekleckert. Das Ganze hat viel zu lange gedauert. Eine erfolgreiche Monsterjagd sieht anders aus ...,"Vous n'avez pu éliminer tous les monstres dans le temps imparti, l'opération se solde par un échec. Vous pouvez maintenant dissoudre votre équipe.",,,,,,作战失败了……[@CR]花的时间太久了。对不起，这次就此解散吧。,
50012,作戦失敗よ……[@CR]時間がかかりすぎたみたい。ごめんね、今回はこれで自由解散だわ。,The enemy has escaped. The operation was a failure. You are dismissed.,Was war das denn? Was für eine Blamage! Unser guter Ruf ist dahin.,"C'est un échec, il fallait éliminer les monstres dans le temps imparti. Cette équipe peut désormais être dissoute.",,,,,,作战失败了……[@CR]花的时间太久了呢。对不起，这次就此解散吧。,
50013,申し訳ないが、そろそろ報告に戻らねば……失敬。,"Farewell, adventurer!","Ich muss zurück, um Bericht zu erstatten. Man sieht sich.","Je suis vraiment désolé, je dois rentrer faire mon rapport... C'est un échec.",,,,,,对不起，差不多该回去报告了……再会。,
50014,悪いがもう本部に帰る時間だ。あばよ。,I'll be off then. Farewell!,Ich muss schon wieder zurück. Lebe wohl.,Désolé mais j'ai fini mon service. A la prochaine[@1D]!,,,,,,不好意思该回总部了。再见了。,
50015,申し訳ありませんが、時間がなくなってしまいました。失礼します。,Until we meet again.,"Ich muss gleich los und Bericht erstatten. Ich hoffe, wir laufen uns irgendwann einmal wieder über den Weg.",J'ai le regret de vous annoncer que le temps imparti est écoulé. L'opération se solde par un échec.,,,,,,对不起，时间到了。我就此失礼了。,
50016,ごめんね、もう本部に戻らなきゃ。またね！,"Farewell, adventurer.",Meine Arbeit hier ist getan. Pass gut auf dich auf!,"Dommage, je dois y aller. Echec de l'opération[@1D]!",,,,,,对不起，该回总部了呢。再见了！,
70001,指定物製作,Create ,Herstellung:,Fabriquez[@1D]:,[アイテム名]×[数字],【en未翻訳】,【de未翻訳】,【fr未翻訳】,,制作指定物品,[道具名]×[数字]
70002,指定物納品,Deliver ,Lieferung:,Livrez[@1D]:,[アイテム名]×[数字],【en未翻訳】,【de未翻訳】,【fr未翻訳】,,交纳指定物品,[道具名]×[数字]
