 ,0,1,2,3,4,5,6,7,8,9,10,11,12,13,14,15,16,17,18,19,20,21,22,23,24,25
 ,str,str,str,str,s8,s8,s8,str,s8,str,s8,s8,str,str,s8,s8,str,str,str,str,str,str,str,str,str,str
1,ヒューラン,Hyuran,Hyur,Hyurs,0,1,0,Hyuran,0,x,0,0,Hyur,Hyurs,0,0,Hyuran,Hyur,Hyuran,Hyur,HYR,HYR,HYU,HYR,人类,人类
2,ヒューラン,Hyuran,Hyur,Hyurs,0,1,0,Hyuran,0,x,0,0,Hyure,Hyures,0,1,Hyuran,Hyur,Hyuran,Hyure,HYR,HYR,HYU,HYR,人类,人类
3,エレゼン,Elezene,Elezen,Elezen,1,0,0,Elezen,0,x,0,0,Elézen,Elézens,1,0,Elezen,Elezen,Elezen,Elézen,ELZ,ELZ,ELZ,ELZ,精灵,精灵
4,エレゼン,Elezene,Elezen,Elezen,1,0,0,Elezen,0,x,0,0,Elézenne,Elézennes,1,1,Elezen,Elezen,Elezen,Elézenne,ELZ,ELZ,ELZ,ELZ,精灵,精灵
5,ララフェル,Lalafellin,Lalafell,Lalafells,0,1,0,Lalafell,0,x,0,0,Lalafell,Lalafells,0,0,Lalafell,Lalafell,Lalafell,Lalafell,LFL,LFL,LFL,LFL,拉拉菲尔,拉拉
6,ララフェル,Lalafellin,Lalafell,Lalafells,0,1,0,Lalafell,0,x,0,0,Lalafelle,Lalafelles,0,1,Lalafell,Lalafell,Lalafell,Lalafelle,LFL,LFL,LFL,LFL,拉拉菲尔,拉拉
7,ルガディン,Roegadyn,Roegadyn,Roegadyn,0,0,0,Roegadyn,0,x,0,0,Roegadyn,Roegadyns,0,0,Roegadyn,Roegadyn,Roegadyn,Roegadyn,RGD,RGD,RGD,RGD,鲁加,鲁加
8,ルガディン,Roegadyn,Roegadyn,Roegadyn,0,0,0,Roegadyn,0,x,0,0,Roegadyne,Roegadynes,0,1,Roegadyn,Roegadyn,Roegadyn,Roegadyne,RGD,RGD,RGD,RGD,鲁加,鲁加
9,ミコッテ,Miqo'te,Miqo'te,Miqo'te,0,0,0,Miqo'te,0,x,0,0,Miqo'te,Miqo'tes,0,0,Miqo‘te,Miqo'te,Miqo'te,Miqo'te,MIQ,MIQ,MIQ,MIQ,猫魅,猫魅
10,ミコッテ,Miqo'te,Miqo'te,Miqo'te,0,0,0,Miqo'te,0,x,0,0,Miqo'te,Miqo'tes,0,1,Miqo‘te,Miqo'te,Miqo'te,Miqo'te,MIQ,MIQ,MIQ,MIQ,猫魅,猫魅
