 ,0,1,2,3,4
 ,str,str,str,str,str
1,リムサ・ロミンサ,Limsa Lominsa,Limsa Lominsa,Limsa Lominsa,利姆萨·罗敏萨
2,グリダニア,Gridania,Gridania,Gridania,格里达尼亚
3,ウルダハ,Ul'dah,Ul'dah,Ul'dah,乌尔达哈
4,イシュガルド,Ishgard,Ishgard,Ishgard,伊修加德
